﻿<?xml version="1.0" encoding="UTF-8"?>
<!DOCTYPE svg PUBLIC "-//W3C//DTD SVG 1.0//EN" "http://www.w3.org/TR/2001/REC-SVG-20010904/DTD/svg10.dtd"[
<!ENTITY ns_flows "http://ns.adobe.com/Flows/1.0/">
<!ENTITY ns_svg "http://www.w3.org/2000/svg">
<!ENTITY ns_xlink "http://www.w3.org/1999/xlink">
	<!ENTITY st0 "fill:none;stroke:#FB0F0C;stroke-width:5.1;stroke-linejoin:round;">
	<!ENTITY st1 "fill:none;stroke:#9A9999;stroke-width:5.1;stroke-linejoin:round;">
	<!ENTITY st2 "fill:none;stroke:#99280B;stroke-width:5.1;stroke-linejoin:round;">
		<!ENTITY st3 "fill:none;stroke:#000000;stroke-width:0.85;stroke-linecap:round;stroke-linejoin:round;stroke-dasharray:3 1.5;enable-background:new    ;">
	<!ENTITY st4 "fill:none;stroke:#000000;stroke-width:5.1;stroke-linejoin:round;">
	<!ENTITY st5 "fill:none;stroke:#000000;stroke-linecap:round;stroke-linejoin:round;">
	<!ENTITY st6 "stroke:#000000;stroke-width:0.28;stroke-linecap:round;stroke-linejoin:round;enable-background:new    ;">
	<!ENTITY st7 "enable-background:new    ;">
		<!ENTITY st8 "fill:none;stroke:#000000;stroke-width:1.42;stroke-linecap:round;stroke-linejoin:round;enable-background:new    ;">
	<!ENTITY st9 "fill:none;stroke:#EE67AA;stroke-width:5.1;stroke-linejoin:round;">
	<!ENTITY st10 "fill:none;stroke:#FFFFFF;stroke-width:4;">
	<!ENTITY st11 "fill:none;stroke:#199DBF;stroke-width:5.1;stroke-linejoin:round;">
	<!ENTITY st12 "opacity:0.5;fill:none;stroke:#34ACCE;stroke-linejoin:round;stroke-dasharray:6;">
	<!ENTITY st13 "fill:none;stroke:#FFFFFF;stroke-width:4.53;stroke-linejoin:round;">
		<!ENTITY st14 "fill:none;stroke:#000000;stroke-width:0.85;stroke-linecap:round;stroke-linejoin:round;enable-background:new    ;">
	<!ENTITY st15 "fill:none;stroke:#56107C;stroke-width:5.1;stroke-linejoin:round;">
	<!ENTITY st16 "font-size:6px;">
	<!ENTITY st17 "fill:none;stroke:#168638;stroke-width:5.1;stroke-linejoin:round;">
	<!ENTITY st18 "fill:none;stroke:#000000;stroke-width:1.13;stroke-linejoin:round;">
		<!ENTITY st19 "fill:none;stroke:#000000;stroke-width:1.13;stroke-linecap:round;stroke-linejoin:round;stroke-dasharray:3 1.5;enable-background:new    ;">
	<!ENTITY st20 "fill:#FFFFFF;stroke:#000000;stroke-width:1.41;stroke-linecap:round;stroke-linejoin:round;">
	<!ENTITY st21 "fill:none;stroke:#550E7B;stroke-width:5.1;stroke-linejoin:round;">
	<!ENTITY st22 "fill:none;stroke:#3E65AC;stroke-width:3;">
	<!ENTITY st23 "fill:#CCCCCC;stroke:#CCCCCC;stroke-width:0.1;stroke-linecap:round;stroke-linejoin:round;">
	<!ENTITY st24 "fill:none;stroke:#000000;stroke-width:5;">
	<!ENTITY st25 "fill:none;stroke:#000000;stroke-width:5.1;stroke-linejoin:round;enable-background:new    ;">
	<!ENTITY st26 "fill:none;stroke:#000000;stroke-width:1.42;stroke-linejoin:round;">
	<!ENTITY st27 "font-family:'Arial';">
	<!ENTITY st28 "opacity:0.5;fill:none;stroke:#34ACCE;stroke-linejoin:round;">
	<!ENTITY st29 "fill:none;stroke:#000000;stroke-width:1.42;stroke-linecap:round;stroke-linejoin:round;">
	<!ENTITY st30 "fill:#CFE6E7;stroke:#000000;stroke-width:1.133;stroke-linecap:round;stroke-linejoin:round;">
	<!ENTITY st31 "fill:none;stroke:#F7E416;stroke-width:5.1;stroke-linejoin:round;">
	<!ENTITY st32 "fill:none;stroke:#000000;stroke-width:0.85;stroke-linecap:round;stroke-linejoin:round;stroke-dasharray:3 1.5;">
	<!ENTITY st33 "fill:#CFE6E7;stroke:#000000;stroke-width:1.13;stroke-linejoin:round;">
	<!ENTITY st34 "fill:none;stroke:#000000;stroke-width:0.85;stroke-linecap:round;stroke-linejoin:round;">
	<!ENTITY st35 "fill:none;stroke:#7EC57E;stroke-width:5.1;stroke-linejoin:round;">
<!ATTLIST svg
xmlns:ewd CDATA #FIXED "http://shcl.co.jp/ewd"
xmlns:a CDATA #FIXED "http://ns.adobe.com/AdobeSVGViewerExtensions/3.0/"
ewd:ver CDATA #IMPLIED
>
<!ATTLIST a
ewd:lineID CDATA #IMPLIED
ewd:groupID CDATA #IMPLIED
ewd:figtype CDATA #IMPLIED
ewd:code CDATA #IMPLIED
ewd:figID CDATA #IMPLIED
ewd:pinNo CDATA #IMPLIED
ewd:comment CDATA #IMPLIED >
<!ATTLIST g
ewd:lineID CDATA #IMPLIED
ewd:groupID CDATA #IMPLIED
ewd:figtype CDATA #IMPLIED
ewd:code CDATA #IMPLIED
ewd:figID CDATA #IMPLIED
ewd:pinNo CDATA #IMPLIED
ewd:comment CDATA #IMPLIED >
<!ATTLIST text
ewd:textID CDATA #IMPLIED >
<!ATTLIST title
ewd:textID CDATA #IMPLIED >
]>
<svg 
viewBox='0 0 4150.28 729.44'
height='729.44'
width='4150.28'
xml:space="preserve"
xmlns="&ns_svg;"
xmlns:ewd="http://shcl.co.jp/ewd"
xmlns:xlink="&ns_xlink;" ewd:ver="L2.1">
<g ewd:code="GH1" ewd:figID="6062" ewd:figtype="w2w" ewd:pinNo="32">
<path style="&st8;" d="M149.34,387.21l-4.25-4.25l-4.25,4.25"/>
<path style="&st8;" d="M149.34,383.81l-4.25-4.25l-4.25,4.25"/>
<text transform="matrix(1 0 0 1 126.916 375.8667)" style="&st7;"><tspan x="0" y="0" style="&st27; &st16;">32</tspan></text>
</g>
<g ewd:code="GH1" ewd:figID="6002" ewd:figtype="w2w" ewd:pinNo="6">
<path style="&st8;" d="M34.03,229.38l-4.25-4.25l-4.25,4.25"/>
<path style="&st8;" d="M34.03,225.98l-4.25-4.25l-4.25,4.25"/>
<text transform="matrix(1 0 0 1 14.9463 218.0376)" style="&st7;"><tspan x="0" y="0" style="&st27; &st16;">6</tspan></text>
</g>
<g ewd:code="GA1" ewd:figID="6003" ewd:figtype="w2w" ewd:pinNo="9">
<text transform="matrix(1 0 0 1 14.9463 174.2773)" style="&st7;"><tspan x="0" y="0" style="&st27; &st16;">9</tspan></text>
</g>
<g ewd:code="GA2" ewd:figID="6001" ewd:figtype="w2w" ewd:pinNo="11">
<path style="&st8;" d="M25.54,150.5l4.24,4.25l4.25-4.25"/>
<path style="&st8;" d="M34.03,153.9l-4.25,4.25l-4.24-4.25"/>
<text transform="matrix(1 0 0 1 12.0547 165.7773)" style="&st7;"><tspan x="0" y="0" style="&st27; &st16;">11</tspan></text>
</g>
<g ewd:code="GH2" ewd:figID="6004" ewd:figtype="w2w" ewd:pinNo="7">
<path style="&st8;" d="M300.32,332.33l4.24,4.25l4.25-4.25"/>
<path style="&st8;" d="M308.81,335.73l-4.25,4.25l-4.24-4.25"/>
<text transform="matrix(1 0 0 1 289.7207 347.6089)" style="&st7;"><tspan x="0" y="0" style="&st27; &st16;">7</tspan></text>
</g>
<g ewd:code="GH2" ewd:figID="6005" ewd:figtype="w2w" ewd:pinNo="8">
<path style="&st8;" d="M351.34,332.33l4.24,4.25l4.25-4.25"/>
<path style="&st8;" d="M359.83,335.73l-4.25,4.25l-4.24-4.25"/>
<text transform="matrix(1 0 0 1 340.7383 347.6089)" style="&st7;"><tspan x="0" y="0" style="&st27; &st16;">8</tspan></text>
</g>
<g ewd:code="GH2" ewd:figID="6006" ewd:figtype="w2w" ewd:pinNo="9">
<path style="&st8;" d="M415.34,332.33l4.24,4.25l4.25-4.25"/>
<path style="&st8;" d="M423.83,335.73l-4.25,4.25l-4.24-4.25"/>
<text transform="matrix(1 0 0 1 404.7402 347.6089)" style="&st7;"><tspan x="0" y="0" style="&st27; &st16;">9</tspan></text>
</g>
<g ewd:code="GH2" ewd:figID="6007" ewd:figtype="w2w" ewd:pinNo="10">
<path style="&st8;" d="M466.36,332.33l4.24,4.25l4.25-4.25"/>
<path style="&st8;" d="M474.84,335.73l-4.25,4.25l-4.24-4.25"/>
<text transform="matrix(1 0 0 1 452.4199 347.6089)" style="&st7;"><tspan x="0" y="0" style="&st27; &st16;">10</tspan></text>
</g>
<g ewd:code="KG3" ewd:figID="6063" ewd:figtype="w2w" ewd:pinNo="1">
<path style="&st8;" d="M300.32,418.82l4.24,4.25l4.25-4.25"/>
<path style="&st8;" d="M308.81,422.22l-4.25,4.25l-4.24-4.25"/>
<text transform="matrix(1 0 0 1 289.7207 434.0991)" style="&st7;"><tspan x="0" y="0" style="&st27; &st16;">1</tspan></text>
</g>
<g ewd:code="KG3" ewd:figID="6064" ewd:figtype="w2w" ewd:pinNo="2">
<path style="&st8;" d="M351.34,418.82l4.24,4.25l4.25-4.25"/>
<path style="&st8;" d="M359.83,422.22l-4.25,4.25l-4.24-4.25"/>
<text transform="matrix(1 0 0 1 340.7383 434.0991)" style="&st7;"><tspan x="0" y="0" style="&st27; &st16;">2</tspan></text>
</g>
<g ewd:code="JG3" ewd:figID="6065" ewd:figtype="w2w" ewd:pinNo="2">
<path style="&st8;" d="M415.34,418.82l4.24,4.25l4.25-4.25"/>
<path style="&st8;" d="M423.83,422.22l-4.25,4.25l-4.24-4.25"/>
<text transform="matrix(1 0 0 1 404.7402 434.0991)" style="&st7;"><tspan x="0" y="0" style="&st27; &st16;">2</tspan></text>
</g>
<g ewd:code="JG3" ewd:figID="6066" ewd:figtype="w2w" ewd:pinNo="1">
<path style="&st8;" d="M466.36,418.82l4.24,4.25l4.25-4.25"/>
<path style="&st8;" d="M474.84,422.22l-4.25,4.25l-4.24-4.25"/>
<text transform="matrix(1 0 0 1 455.7568 434.0991)" style="&st7;"><tspan x="0" y="0" style="&st27; &st16;">1</tspan></text>
</g>
<g ewd:code="GH1" ewd:figID="6061" ewd:figtype="w2w" ewd:pinNo="33">
<path style="&st8;" d="M91.8,387.21l-4.25-4.25l-4.25,4.25"/>
<path style="&st8;" d="M91.8,383.81l-4.25-4.25l-4.25,4.25"/>
<text transform="matrix(1 0 0 1 69.3789 375.8667)" style="&st7;"><tspan x="0" y="0" style="&st27; &st16;">33</tspan></text>
</g>
<g ewd:code="FUSE100" ewd:figID="4001" ewd:figtype="rb">
<path style="&st5;" d="M17.03,39.55v42.49h25.49V39.55H17.03"/>
<path style="&st14;" d="M29.77,73.54v34.01"/>
<path style="&st8;" d="M31.9,107.55h-4.25"/>
<path style="&st6;" d="M29.77,102.65l-2.83-2.83v4.25l2.83,2.83l2.84-2.83v-4.25L29.77,102.65"/>
<path style="&st8;" d="M17.03,39.55v42.49h25.49V39.55H17.03"/>
<path style="&st8;" d="M29.77,50.88c-2.73,1.61-3.64,5.14-2.03,7.88"/>
<path style="&st8;" d="M27.74,58.76c0.52,0.88,1.15,1.52,2.03,2.04"/>
<path style="&st8;" d="M29.77,70.71c2.74-1.61,3.65-5.14,2.04-7.88"/>
<path style="&st8;" d="M31.81,62.83c-0.52-0.88-1.15-1.51-2.04-2.03"/>
<path style="&st14;" d="M31.19,49.46c0-0.78-0.63-1.41-1.42-1.41"/>
<path style="&st14;" d="M29.77,48.05c-0.78,0-1.41,0.63-1.41,1.41"/>
<path style="&st14;" d="M28.36,49.46c0,0.79,0.63,1.42,1.41,1.42"/>
<path style="&st14;" d="M29.77,50.88c0.79,0,1.42-0.63,1.42-1.42"/>
<path style="&st14;" d="M31.19,72.13c0-0.79-0.63-1.42-1.42-1.42"/>
<path style="&st14;" d="M29.77,70.71c-0.78,0-1.41,0.63-1.41,1.42"/>
<path style="&st14;" d="M28.36,72.13c0,0.78,0.63,1.41,1.41,1.41"/>
<path style="&st14;" d="M29.77,73.54c0.79,0,1.42-0.63,1.42-1.41"/>
<path style="&st8;" d="M27.65,107.55c-2.35,0-4.25,1.9-4.25,4.25"/>
<path style="&st8;" d="M23.4,111.8c0,2.35,1.9,4.25,4.25,4.25"/>
<path style="&st8;" d="M31.9,116.05c2.35,0,4.25-1.9,4.25-4.25"/>
<path style="&st8;" d="M36.15,111.8c0-2.35-1.9-4.25-4.25-4.25"/>
<path style="&st8;" d="M31.9,116.05h-4.25"/>
<text transform="matrix(1 0 0 1 47.0781 56.9365)" style="&st7;"><tspan x="0" y="0" style="&st27; &st16;">20A</tspan></text>
<text transform="matrix(1 0 0 1 47.0781 62.9365)" style="&st7;"><tspan x="0" y="0" style="&st27; &st16;">RAD </tspan><tspan x="0" y="7" style="&st27; &st16;">NO. 1</tspan></text>
<text transform="matrix(1 0 0 1 28.1875 113.7705)" style="&st7;"><tspan x="0" y="0" style="&st27; &st16;">1</tspan></text>
<text transform="matrix(1 0 0 1 22.7314 90.2363)" style="&st7;"><tspan x="0" y="0" style="&st27; &st16;">2</tspan></text>
<text transform="matrix(1 0 0 1 20.6582 35.8467)" style="&st7;"><tspan x="0" y="0" style="&st27; &st16;">(BAT)</tspan></text>
</g>
<g ewd:code="2" ewd:figID="3001" ewd:figtype="jb">
<path style="&st5;" d="M132.49,39.55v42.49h25.49V39.55H132.49"/>
<path style="&st8;" d="M132.49,39.55v42.49h25.49V39.55H132.49"/>
<path style="&st8;" d="M145.22,50.88c-2.73,1.61-3.64,5.14-2.03,7.88"/>
<path style="&st8;" d="M143.2,58.76c0.52,0.88,1.15,1.52,2.03,2.04"/>
<path style="&st8;" d="M145.22,70.71c2.74-1.61,3.65-5.14,2.04-7.88"/>
<path style="&st8;" d="M147.26,62.83c-0.52-0.88-1.15-1.51-2.04-2.03"/>
<path style="&st14;" d="M146.64,49.46c0-0.78-0.63-1.41-1.42-1.41"/>
<path style="&st14;" d="M145.22,48.05c-0.78,0-1.41,0.63-1.41,1.41"/>
<path style="&st14;" d="M143.82,49.46c0,0.79,0.63,1.42,1.41,1.42"/>
<path style="&st14;" d="M145.22,50.88c0.79,0,1.42-0.63,1.42-1.42"/>
<path style="&st14;" d="M146.64,72.13c0-0.79-0.63-1.42-1.42-1.42"/>
<path style="&st14;" d="M145.22,70.71c-0.78,0-1.41,0.63-1.41,1.42"/>
<path style="&st14;" d="M143.82,72.13c0,0.78,0.63,1.41,1.41,1.41"/>
<path style="&st14;" d="M145.22,73.54c0.79,0,1.42-0.63,1.42-1.41"/>
<path style="&st6;" d="M145.22,102.66l-2.83-2.83v4.25l2.83,2.83l2.83-2.83v-4.25L145.22,102.66"/>
<path style="&st14;" d="M145.22,107.56V73.54"/>
<path style="&st8;" d="M147.35,107.56h-4.25"/>
<path style="&st8;" d="M147.35,116.05h-4.25"/>
<path style="&st8;" d="M143.1,107.56c-2.35,0-4.25,1.9-4.25,4.24"/>
<path style="&st8;" d="M138.85,111.8c0,2.35,1.9,4.25,4.25,4.25"/>
<path style="&st8;" d="M147.35,116.05c2.34,0,4.25-1.9,4.25-4.25"/>
<path style="&st8;" d="M151.6,111.8c0-2.34-1.91-4.24-4.25-4.24"/>
<path style="&st5;" d="M74.81,39.55v42.49h25.49V39.55H74.81"/>
<path style="&st8;" d="M74.81,39.55v42.49h25.49V39.55H74.81"/>
<path style="&st8;" d="M87.55,50.88c-2.73,1.61-3.64,5.14-2.03,7.88"/>
<path style="&st8;" d="M85.52,58.76c0.52,0.88,1.15,1.52,2.03,2.04"/>
<path style="&st8;" d="M87.55,70.71c2.74-1.61,3.65-5.14,2.04-7.88"/>
<path style="&st8;" d="M89.59,62.83c-0.52-0.88-1.15-1.51-2.04-2.03"/>
<path style="&st14;" d="M88.97,49.46c0-0.78-0.63-1.41-1.42-1.41"/>
<path style="&st14;" d="M87.55,48.05c-0.78,0-1.41,0.63-1.41,1.41"/>
<path style="&st14;" d="M86.14,49.46c0,0.79,0.63,1.42,1.41,1.42"/>
<path style="&st14;" d="M87.55,50.88c0.79,0,1.42-0.63,1.42-1.42"/>
<path style="&st14;" d="M88.97,72.13c0-0.79-0.63-1.42-1.42-1.42"/>
<path style="&st14;" d="M87.55,70.71c-0.78,0-1.41,0.63-1.41,1.42"/>
<path style="&st14;" d="M86.14,72.13c0,0.78,0.63,1.41,1.41,1.41"/>
<path style="&st14;" d="M87.55,73.54c0.79,0,1.42-0.63,1.42-1.41"/>
<path style="&st6;" d="M87.55,102.66l-2.83-2.83v4.25l2.83,2.83l2.83-2.83v-4.25L87.55,102.66"/>
<path style="&st14;" d="M87.55,107.56V73.54"/>
<path style="&st8;" d="M89.68,107.56h-4.25"/>
<path style="&st8;" d="M89.68,116.05h-4.25"/>
<path style="&st8;" d="M85.43,107.56c-2.35,0-4.25,1.9-4.25,4.24"/>
<path style="&st8;" d="M81.18,111.8c0,2.35,1.9,4.25,4.25,4.25"/>
<path style="&st8;" d="M89.68,116.05c2.34,0,4.25-1.9,4.25-4.25"/>
<path style="&st8;" d="M93.93,111.8c0-2.34-1.91-4.24-4.25-4.24"/>
<text transform="matrix(1 0 0 1 162.5352 59.9365)" style="&st7;"><tspan x="0" y="0" style="&st27; &st16;">7.5A</tspan></text>
<text transform="matrix(1 0 0 1 162.5352 65.9365)" style="&st7;"><tspan x="0" y="0" style="&st27; &st16;">ACC</tspan></text>
<text transform="matrix(1 0 0 1 136.6152 35.8467)" style="&st7;"><tspan x="0" y="0" style="&st27; &st16;">(ACC)</tspan></text>
<text transform="matrix(1 0 0 1 141.165 113.7715)" style="&st7;"><tspan x="0" y="0" style="&st27; &st16;">2D</tspan></text>
<text transform="matrix(1 0 0 1 130.2412 113.7715)" style="&st7;"><tspan x="0" y="0" style="&st27; &st16;">17</tspan></text>
<text transform="matrix(1 0 0 1 104.8633 59.9365)" style="&st7;"><tspan x="0" y="0" style="&st27; &st16;">10A</tspan></text>
<text transform="matrix(1 0 0 1 104.8633 65.9365)" style="&st7;"><tspan x="0" y="0" style="&st27; &st16;">ECU-IG </tspan><tspan x="0" y="7" style="&st27; &st16;">NO.2</tspan></text>
<text transform="matrix(1 0 0 1 81.9434 35.8467)" style="&st7;"><tspan x="0" y="0" style="&st27; &st16;">(IG)</tspan></text>
<text transform="matrix(1 0 0 1 83.4932 113.7715)" style="&st7;"><tspan x="0" y="0" style="&st27; &st16;">2D</tspan></text>
<text transform="matrix(1 0 0 1 72.5693 113.7715)" style="&st7;"><tspan x="0" y="0" style="&st27; &st16;">39</tspan></text>
</g>
<g ewd:code="3JB" ewd:figID="3002" ewd:figtype="jb">
<path style="&st8;" d="M147.22,323.37h-4.25"/>
<path style="&st8;" d="M147.22,314.87h-4.25"/>
<path style="&st8;" d="M147.22,280.88h-4.25"/>
<path style="&st8;" d="M147.22,272.38h-4.25"/>
<path style="&st14;" d="M145.09,314.87v-33.99"/>
<path style="&st6;" d="M145.09,309.98l-2.83-2.84v4.25l2.83,2.84l2.83-2.84v-4.25L145.09,309.98"/>
<path style="&st6;" d="M145.09,285.77l2.83,2.83v-4.24l-2.83-2.84l-2.83,2.84v4.24L145.09,285.77"/>
<path style="&st8;" d="M142.97,272.38c-2.35,0-4.25,1.9-4.25,4.25"/>
<path style="&st8;" d="M138.72,276.63c0,2.34,1.9,4.25,4.25,4.25"/>
<path style="&st8;" d="M147.22,280.88c2.34,0,4.25-1.91,4.25-4.25"/>
<path style="&st8;" d="M151.47,276.63c0-2.35-1.91-4.25-4.25-4.25"/>
<path style="&st8;" d="M142.97,314.87c-2.35,0-4.25,1.9-4.25,4.25"/>
<path style="&st8;" d="M138.72,319.12c0,2.35,1.9,4.25,4.25,4.25"/>
<path style="&st8;" d="M147.22,323.37c2.34,0,4.25-1.9,4.25-4.25"/>
<path style="&st8;" d="M151.47,319.12c0-2.35-1.91-4.25-4.25-4.25"/>
<path style="&st8;" d="M89.68,323.37h-4.25"/>
<path style="&st8;" d="M89.68,314.87h-4.25"/>
<path style="&st8;" d="M89.68,280.88h-4.25"/>
<path style="&st8;" d="M89.68,272.38h-4.25"/>
<path style="&st14;" d="M87.55,314.87v-33.99"/>
<path style="&st6;" d="M87.55,309.98l-2.83-2.84v4.25l2.83,2.84l2.83-2.84v-4.25L87.55,309.98"/>
<path style="&st6;" d="M87.55,285.77l2.83,2.83v-4.24l-2.83-2.84l-2.83,2.84v4.24L87.55,285.77"/>
<path style="&st8;" d="M85.43,272.38c-2.35,0-4.25,1.9-4.25,4.25"/>
<path style="&st8;" d="M81.18,276.63c0,2.34,1.9,4.25,4.25,4.25"/>
<path style="&st8;" d="M89.68,280.88c2.34,0,4.25-1.91,4.25-4.25"/>
<path style="&st8;" d="M93.93,276.63c0-2.35-1.91-4.25-4.25-4.25"/>
<path style="&st8;" d="M85.43,314.87c-2.35,0-4.25,1.9-4.25,4.25"/>
<path style="&st8;" d="M81.18,319.12c0,2.35,1.9,4.25,4.25,4.25"/>
<path style="&st8;" d="M89.68,323.37c2.34,0,4.25-1.9,4.25-4.25"/>
<path style="&st8;" d="M93.93,319.12c0-2.35-1.91-4.25-4.25-4.25"/>
<text transform="matrix(1 0 0 1 140.6377 278.6025)" style="&st7;"><tspan x="0" y="0" style="&st27; &st16;">3B</tspan></text>
<text transform="matrix(1 0 0 1 140.7764 321.0928)" style="&st7;"><tspan x="0" y="0" style="&st27; &st16;">3A</tspan></text>
<text transform="matrix(1 0 0 1 128.46 278.6025)" style="&st7;"><tspan x="0" y="0" style="&st27; &st16;">32</tspan></text>
<text transform="matrix(1 0 0 1 128.46 321.0928)" style="&st7;"><tspan x="0" y="0" style="&st27; &st16;">17</tspan></text>
<text transform="matrix(1 0 0 1 83.1035 278.6025)" style="&st7;"><tspan x="0" y="0" style="&st27; &st16;">3B</tspan></text>
<text transform="matrix(1 0 0 1 83.2422 321.0928)" style="&st7;"><tspan x="0" y="0" style="&st27; &st16;">3A</tspan></text>
<text transform="matrix(1 0 0 1 70.9258 278.6025)" style="&st7;"><tspan x="0" y="0" style="&st27; &st16;">36</tspan></text>
<text transform="matrix(1 0 0 1 70.9258 321.0928)" style="&st7;"><tspan x="0" y="0" style="&st27; &st16;">19</tspan></text>
</g>
<g ewd:code="H24,H25" ewd:figID="17" ewd:figtype="conn">
<path style="&st8;" d="M149.62,436.45c0-2.5-2.02-4.53-4.53-4.53"/>
<path style="&st8;" d="M145.09,431.92c-2.5,0-4.53,2.03-4.53,4.53"/>
<path style="&st8;" d="M140.56,436.45c0,2.5,2.03,4.53,4.53,4.53"/>
<path style="&st8;" d="M145.09,440.98c2.51,0,4.53-2.03,4.53-4.53"/>
<path style="&st8;" d="M149.62,471.02c0-2.5-2.02-4.53-4.53-4.53"/>
<path style="&st8;" d="M145.09,466.49c-2.5,0-4.53,2.03-4.53,4.53"/>
<path style="&st8;" d="M140.56,471.02c0,2.5,2.03,4.53,4.53,4.53"/>
<path style="&st8;" d="M145.09,475.55c2.51,0,4.53-2.03,4.53-4.53"/>
<path style="&st8;" d="M79.06,440.98v25.51h74.54v-25.51H79.06"/>
<path style="&st32;" d="M79.06,449.48h74.54"/>
<path style="&st32;" d="M79.06,457.99h74.54"/>
<path style="&st34;" d="M145.09,440.98v25.51"/>
<path style="&st34;" d="M87.55,440.98v25.51"/>
<path style="&st8;" d="M92.08,436.45c0-2.5-2.02-4.53-4.53-4.53"/>
<path style="&st8;" d="M87.55,431.92c-2.5,0-4.53,2.03-4.53,4.53"/>
<path style="&st8;" d="M83.02,436.45c0,2.5,2.03,4.53,4.53,4.53"/>
<path style="&st8;" d="M87.55,440.98c2.51,0,4.53-2.03,4.53-4.53"/>
<path style="&st8;" d="M92.08,471.02c0-2.5-2.02-4.53-4.53-4.53"/>
<path style="&st8;" d="M87.55,466.49c-2.5,0-4.53,2.03-4.53,4.53"/>
<path style="&st8;" d="M83.02,471.02c0,2.5,2.03,4.53,4.53,4.53"/>
<path style="&st8;" d="M87.55,475.55c2.51,0,4.53-2.03,4.53-4.53"/>
<text transform="matrix(1 0 0 1 142.7598 438.4175)" style="&st7;"><tspan x="0" y="0" style="&st27; &st16;">A</tspan></text>
<text transform="matrix(1 0 0 1 131.375 438.4175)" style="&st7;"><tspan x="0" y="0" style="&st27; &st16;">13</tspan></text>
<text transform="matrix(1 0 0 1 142.7598 472.9858)" style="&st7;"><tspan x="0" y="0" style="&st27; &st16;">B</tspan></text>
<text transform="matrix(1 0 0 1 131.375 472.9858)" style="&st7;"><tspan x="0" y="0" style="&st27; &st16;">22</tspan></text>
<text ewd:textID='21' transform='matrix(0 -1 1 0 69.0586 466.4858)' style='&st7; &st27; &st16;'>Junction <tspan x='0' y='7' >Connector</tspan></text>
<text transform="matrix(0 -1 1 0 62.5215 466.4858)" style="&st7;"><tspan x="0" y="0" style="&st27; &st16;">H24(A),H25(B)</tspan></text>
<text transform="matrix(1 0 0 1 85.2227 438.4175)" style="&st7;"><tspan x="0" y="0" style="&st27; &st16;">A</tspan></text>
<text transform="matrix(1 0 0 1 74.2832 438.4175)" style="&st7;"><tspan x="0" y="0" style="&st27; &st16;">11</tspan></text>
<text transform="matrix(1 0 0 1 85.2227 472.9858)" style="&st7;"><tspan x="0" y="0" style="&st27; &st16;">B</tspan></text>
<text transform="matrix(1 0 0 1 77.1748 472.9858)" style="&st7;"><tspan x="0" y="0" style="&st27; &st16;">1</tspan></text>
</g>
<g ewd:code="J4" ewd:figID="19" ewd:figtype="conn">
<path style="&st8;" d="M436.57,509.07h17"/>
<path style="&st8;" d="M436.57,500.58v8.49l-4.25,8.5h25.5l-4.25-8.5v-8.49H436.57"/>
<text transform="matrix(1 0 0 1 456.3975 501.1382)" style="&st7;"><tspan x="0" y="0" style="&st27; &st16;">2</tspan></text>
<text transform="matrix(1 0 0 1 429.7783 501.1382)" style="&st7;"><tspan x="0" y="0" style="&st27; &st16;">1</tspan></text>
<text ewd:textID='20' transform='matrix(1 0 0 1 432.0479 532.2886)' style='&st7; &st27; &st16;'>Front No. 2 Speaker <tspan x='0' y='7' >Assembly RH</tspan></text>
<text transform="matrix(1 0 0 1 432.0479 525.1792)" style="&st7;"><tspan x="0" y="0" style="&st27; &st16;">J4</tspan></text>
</g>
<g ewd:code="K3" ewd:figID="18" ewd:figtype="conn">
<path style="&st8;" d="M321.55,509.07h17"/>
<path style="&st8;" d="M321.55,500.58v8.49l-4.25,8.5h25.5l-4.25-8.5v-8.49H321.55"/>
<text transform="matrix(1 0 0 1 341.3779 501.1382)" style="&st7;"><tspan x="0" y="0" style="&st27; &st16;">2</tspan></text>
<text transform="matrix(1 0 0 1 314.7588 501.1382)" style="&st7;"><tspan x="0" y="0" style="&st27; &st16;">1</tspan></text>
<text ewd:textID='19' transform='matrix(1 0 0 1 317.0283 532.2886)' style='&st7; &st27; &st16;'>Front No. 2 Speaker <tspan x='0' y='7' >Assembly LH</tspan></text>
<text transform="matrix(1 0 0 1 317.0283 525.1792)" style="&st7;"><tspan x="0" y="0" style="&st27; &st16;">K3</tspan></text>
</g>
<g ewd:code="H35" ewd:figID="3" ewd:figtype="conn">
<path style="&st8;" d="M287.56,222.31v42.51h84.98v-42.51H287.56"/>
<text transform="matrix(1 0 0 1 347.7588 273.0093)" style="&st7;"><tspan x="0" y="0" style="&st27; &st16;">2</tspan></text>
<text transform="matrix(1 0 0 1 353.5283 261.1187)" style="&st7;"><tspan x="0" y="0" style="&st27; &st16;">-</tspan></text>
<text transform="matrix(1 0 0 1 302.5381 261.1187)" style="&st7;"><tspan x="0" y="0" style="&st27; &st16;">+</tspan></text>
<text transform="matrix(1 0 0 1 296.7686 273.0093)" style="&st7;"><tspan x="0" y="0" style="&st27; &st16;">4</tspan></text>
<text transform="matrix(1 0 0 1 347.7471 218.6147)" style="&st7;"><tspan x="0" y="0" style="&st27; &st16;">1</tspan></text>
<text transform="matrix(1 0 0 1 345.5869 229.9448)" style="&st7;"><tspan x="0" y="0" style="&st27; &st16;">TWL-</tspan></text>
<text transform="matrix(1 0 0 1 294.5869 229.9448)" style="&st7;"><tspan x="0" y="0" style="&st27; &st16;">TWL+</tspan></text>
<text transform="matrix(1 0 0 1 297.5381 218.6147)" style="&st7;"><tspan x="0" y="0" style="&st27; &st16;">3</tspan></text>
<text ewd:textID='19' transform='matrix(0 -1 1 0 387.2588 267.3394)' style='&st7; &st27; &st16;'>Front No. 2 Speaker <tspan x='0' y='7' >Assembly LH</tspan></text>
<text transform="matrix(0 -1 1 0 380.1572 267.3394)" style="&st7;"><tspan x="0" y="0" style="&st27; &st16;">H35</tspan></text>
</g>
<g ewd:code="H34" ewd:figID="4" ewd:figtype="conn">
<path style="&st8;" d="M402.58,222.31v42.51h84.98v-42.51H402.58"/>
<text transform="matrix(1 0 0 1 462.7783 273.0093)" style="&st7;"><tspan x="0" y="0" style="&st27; &st16;">2</tspan></text>
<text transform="matrix(1 0 0 1 468.5479 261.1187)" style="&st7;"><tspan x="0" y="0" style="&st27; &st16;">-</tspan></text>
<text transform="matrix(1 0 0 1 417.5576 261.1187)" style="&st7;"><tspan x="0" y="0" style="&st27; &st16;">+</tspan></text>
<text transform="matrix(1 0 0 1 411.7881 273.0093)" style="&st7;"><tspan x="0" y="0" style="&st27; &st16;">4</tspan></text>
<text transform="matrix(1 0 0 1 462.7666 218.6147)" style="&st7;"><tspan x="0" y="0" style="&st27; &st16;">1</tspan></text>
<text transform="matrix(1 0 0 1 460.6064 229.9448)" style="&st7;"><tspan x="0" y="0" style="&st27; &st16;">TWR-</tspan></text>
<text transform="matrix(1 0 0 1 409.6064 229.9448)" style="&st7;"><tspan x="0" y="0" style="&st27; &st16;">TWR+</tspan></text>
<text transform="matrix(1 0 0 1 412.5576 218.6147)" style="&st7;"><tspan x="0" y="0" style="&st27; &st16;">3</tspan></text>
<text ewd:textID='20' transform='matrix(0 -1 1 0 502.2783 267.3394)' style='&st7; &st27; &st16;'>Front No. 2 Speaker <tspan x='0' y='7' >Assembly RH</tspan></text>
<text transform="matrix(0 -1 1 0 495.1768 267.3394)" style="&st7;"><tspan x="0" y="0" style="&st27; &st16;">H34</tspan></text>
</g>
<g ewd:code="G166,G167,G168,G169" ewd:figID="1" ewd:figtype="conn">
<path style="&st8;" d="M136.58,178.23v25.51h17.01v-25.51H136.58"/>
<path style="&st32;" d="M136.58,186.74h17.01"/>
<path style="&st32;" d="M136.58,195.24h17.01"/>
<path style="&st34;" d="M145.09,178.23v25.51"/>
<path style="&st8;" d="M149.62,164.63c0-2.5-2.02-4.53-4.53-4.53"/>
<path style="&st8;" d="M145.09,160.1c-2.5,0-4.53,2.03-4.53,4.53"/>
<path style="&st8;" d="M140.56,164.63c0,2.51,2.03,4.54,4.53,4.54"/>
<path style="&st8;" d="M145.09,169.17c2.51,0,4.53-2.03,4.53-4.54"/>
<path style="&st8;" d="M149.62,173.7c0-2.5-2.02-4.53-4.53-4.53"/>
<path style="&st8;" d="M145.09,169.17c-2.5,0-4.53,2.03-4.53,4.53"/>
<path style="&st8;" d="M140.56,173.7c0,2.5,2.03,4.53,4.53,4.53"/>
<path style="&st8;" d="M145.09,178.23c2.51,0,4.53-2.03,4.53-4.53"/>
<path style="&st8;" d="M149.62,208.27c0-2.5-2.02-4.53-4.53-4.53"/>
<path style="&st8;" d="M145.09,203.74c-2.5,0-4.53,2.03-4.53,4.53"/>
<path style="&st8;" d="M140.56,208.27c0,2.51,2.03,4.54,4.53,4.54"/>
<path style="&st8;" d="M145.09,212.81c2.51,0,4.53-2.03,4.53-4.54"/>
<path style="&st8;" d="M149.62,217.34c0-2.5-2.02-4.53-4.53-4.53"/>
<path style="&st8;" d="M145.09,212.81c-2.5,0-4.53,2.03-4.53,4.53"/>
<path style="&st8;" d="M140.56,217.34c0,2.5,2.03,4.53,4.53,4.53"/>
<path style="&st8;" d="M145.09,221.87c2.51,0,4.53-2.03,4.53-4.53"/>
<text ewd:textID='21' transform='matrix(0 -1 1 0 127.4185 204.4058)' style='&st7; &st27; &st16;'>Junction <tspan x='0' y='7' >Connector</tspan></text>
<text transform="matrix(0 -1 1 0 113.8071 204.4058)" style="&st7;"><tspan x="0" y="0" style="&st27; &st16;">G166(A),G167(B),</tspan><tspan x="0" y="7" style="&st27; &st16;">G168(C),G169(D)</tspan></text>
<text transform="matrix(1 0 0 1 142.7568 175.6729)" style="&st7;"><tspan x="0" y="0" style="&st27; &st16;">B</tspan></text>
<text transform="matrix(1 0 0 1 134.709 175.6729)" style="&st7;"><tspan x="0" y="0" style="&st27; &st16;">7</tspan></text>
<text transform="matrix(1 0 0 1 134.709 166.6025)" style="&st7;"><tspan x="0" y="0" style="&st27; &st16;">7</tspan></text>
<text transform="matrix(1 0 0 1 142.7568 166.6025)" style="&st7;"><tspan x="0" y="0" style="&st27; &st16;">A</tspan></text>
<text transform="matrix(1 0 0 1 142.7568 219.3096)" style="&st7;"><tspan x="0" y="0" style="&st27; &st16;">D</tspan></text>
<text transform="matrix(1 0 0 1 131.3721 219.3096)" style="&st7;"><tspan x="0" y="0" style="&st27; &st16;">12</tspan></text>
<text transform="matrix(1 0 0 1 131.3721 210.2393)" style="&st7;"><tspan x="0" y="0" style="&st27; &st16;">12</tspan></text>
<text transform="matrix(1 0 0 1 142.7568 210.2393)" style="&st7;"><tspan x="0" y="0" style="&st27; &st16;">C</tspan></text>
</g>
<g ewd:code="H50,H48,H49,H51,H69" ewd:figID="2" ewd:figtype="conn">
<path style="&st8;" d="M192.74,69v34.01H3275.6V69H192.74"/>
<path style="&st8;" d="M278.15,107.55c0-2.51-2.03-4.54-4.54-4.54"/>
<path style="&st8;" d="M273.61,103.01c-2.5,0-4.53,2.03-4.53,4.54"/>
<path style="&st8;" d="M269.08,107.55c0,2.5,2.03,4.53,4.53,4.53"/>
<path style="&st8;" d="M273.61,112.08c2.51,0,4.54-2.03,4.54-4.53"/>
<path style="&st8;" d="M245.62,107.55c0-2.51-2.03-4.54-4.54-4.54"/>
<path style="&st8;" d="M241.08,103.01c-2.5,0-4.53,2.03-4.53,4.54"/>
<path style="&st8;" d="M236.55,107.55c0,2.5,2.03,4.53,4.53,4.53"/>
<path style="&st8;" d="M241.08,112.08c2.51,0,4.54-2.03,4.54-4.53"/>
<path style="&st8;" d="M424.12,107.55c0-2.51-2.03-4.54-4.54-4.54"/>
<path style="&st8;" d="M419.58,103.01c-2.5,0-4.53,2.03-4.53,4.54"/>
<path style="&st8;" d="M415.05,107.55c0,2.5,2.03,4.53,4.53,4.53"/>
<path style="&st8;" d="M419.58,112.08c2.51,0,4.54-2.03,4.54-4.53"/>
<path style="&st8;" d="M475.13,107.55c0-2.51-2.03-4.54-4.54-4.54"/>
<path style="&st8;" d="M470.59,103.01c-2.5,0-4.53,2.03-4.53,4.54"/>
<path style="&st8;" d="M466.06,107.55c0,2.5,2.03,4.53,4.53,4.53"/>
<path style="&st8;" d="M470.59,112.08c2.51,0,4.54-2.03,4.54-4.53"/>
<path style="&st8;" d="M309.1,107.55c0-2.51-2.03-4.54-4.54-4.54"/>
<path style="&st8;" d="M304.56,103.01c-2.5,0-4.53,2.03-4.53,4.54"/>
<path style="&st8;" d="M300.03,107.55c0,2.5,2.03,4.53,4.53,4.53"/>
<path style="&st8;" d="M304.56,112.08c2.51,0,4.54-2.03,4.54-4.53"/>
<path style="&st8;" d="M360.11,107.55c0-2.51-2.03-4.54-4.54-4.54"/>
<path style="&st8;" d="M355.57,103.01c-2.5,0-4.53,2.03-4.53,4.54"/>
<path style="&st8;" d="M351.04,107.55c0,2.5,2.03,4.53,4.53,4.53"/>
<path style="&st8;" d="M355.57,112.08c2.51,0,4.54-2.03,4.54-4.53"/>
<path style="&st8;" d="M599.08,107.55c0-2.51-2.03-4.54-4.54-4.54"/>
<path style="&st8;" d="M594.54,103.01c-2.5,0-4.53,2.03-4.53,4.54"/>
<path style="&st8;" d="M590.01,107.55c0,2.5,2.03,4.53,4.53,4.53"/>
<path style="&st8;" d="M594.54,112.08c2.51,0,4.54-2.03,4.54-4.53"/>
<path style="&st8;" d="M650.09,107.55c0-2.51-2.03-4.54-4.54-4.54"/>
<path style="&st8;" d="M645.56,103.01c-2.5,0-4.53,2.03-4.53,4.54"/>
<path style="&st8;" d="M641.02,107.55c0,2.5,2.03,4.53,4.53,4.53"/>
<path style="&st8;" d="M645.56,112.08c2.51,0,4.54-2.03,4.54-4.53"/>
<path style="&st8;" d="M804.06,107.55c0-2.51-2.03-4.54-4.54-4.54"/>
<path style="&st8;" d="M799.52,103.01c-2.5,0-4.53,2.03-4.53,4.54"/>
<path style="&st8;" d="M794.99,107.55c0,2.5,2.03,4.53,4.53,4.53"/>
<path style="&st8;" d="M799.52,112.08c2.51,0,4.54-2.03,4.54-4.53"/>
<path style="&st8;" d="M855.07,107.55c0-2.51-2.03-4.54-4.54-4.54"/>
<path style="&st8;" d="M850.54,103.01c-2.5,0-4.53,2.03-4.53,4.54"/>
<path style="&st8;" d="M846,107.55c0,2.5,2.03,4.53,4.53,4.53"/>
<path style="&st8;" d="M850.54,112.08c2.51,0,4.54-2.03,4.54-4.53"/>
<path style="&st8;" d="M2024.31,107.55c0-2.51-2.03-4.54-4.54-4.54"/>
<path style="&st8;" d="M2019.77,103.01c-2.5,0-4.53,2.03-4.53,4.54"/>
<path style="&st8;" d="M2015.24,107.55c0,2.5,2.03,4.53,4.53,4.53"/>
<path style="&st8;" d="M2019.77,112.08c2.51,0,4.54-2.03,4.54-4.53"/>
<path style="&st8;" d="M218.08,107.55c0-2.51-2.03-4.54-4.54-4.54"/>
<path style="&st8;" d="M213.54,103.01c-2.5,0-4.53,2.03-4.53,4.54"/>
<path style="&st8;" d="M209.01,107.55c0,2.5,2.03,4.53,4.53,4.53"/>
<path style="&st8;" d="M213.54,112.08c2.51,0,4.54-2.03,4.54-4.53"/>
<path style="&st8;" d="M949.17,107.55c0-2.51-2.03-4.54-4.54-4.54"/>
<path style="&st8;" d="M944.63,103.01c-2.5,0-4.53,2.03-4.53,4.54"/>
<path style="&st8;" d="M940.1,107.55c0,2.5,2.03,4.53,4.53,4.53"/>
<path style="&st8;" d="M944.63,112.08c2.51,0,4.54-2.03,4.54-4.53"/>
<path style="&st8;" d="M1007.39,107.55c0-2.51-2.03-4.54-4.54-4.54"/>
<path style="&st8;" d="M1002.85,103.01c-2.5,0-4.53,2.03-4.53,4.54"/>
<path style="&st8;" d="M998.32,107.55c0,2.5,2.03,4.53,4.53,4.53"/>
<path style="&st8;" d="M1002.85,112.08c2.51,0,4.54-2.03,4.54-4.53"/>
<path style="&st8;" d="M2863.51,107.55c0-2.51-2.03-4.54-4.54-4.54"/>
<path style="&st8;" d="M2858.97,103.01c-2.5,0-4.53,2.03-4.53,4.54"/>
<path style="&st8;" d="M2854.44,107.55c0,2.5,2.03,4.53,4.53,4.53"/>
<path style="&st8;" d="M2858.97,112.08c2.51,0,4.54-2.03,4.54-4.53"/>
<path style="&st8;" d="M3231.67,107.55c0-2.51-2.03-4.54-4.54-4.54"/>
<path style="&st8;" d="M3227.13,103.01c-2.5,0-4.53,2.03-4.53,4.54"/>
<path style="&st8;" d="M3222.6,107.55c0,2.5,2.03,4.53,4.53,4.53"/>
<path style="&st8;" d="M3227.13,112.08c2.51,0,4.54-2.03,4.54-4.53"/>
<path style="&st8;" d="M3265.67,107.55c0-2.51-2.03-4.54-4.54-4.54"/>
<path style="&st8;" d="M3261.13,103.01c-2.5,0-4.53,2.03-4.53,4.54"/>
<path style="&st8;" d="M3256.6,107.55c0,2.5,2.03,4.53,4.53,4.53"/>
<path style="&st8;" d="M3261.13,112.08c2.51,0,4.54-2.03,4.54-4.53"/>
<path style="&st8;" d="M1646.76,107.55c0-2.51-2.03-4.54-4.54-4.54"/>
<path style="&st8;" d="M1642.22,103.01c-2.5,0-4.53,2.03-4.53,4.54"/>
<path style="&st8;" d="M1637.69,107.55c0,2.5,2.03,4.53,4.53,4.53"/>
<path style="&st8;" d="M1642.22,112.08c2.51,0,4.54-2.03,4.54-4.53"/>
<path style="&st8;" d="M1689.21,107.55c0-2.51-2.03-4.54-4.54-4.54"/>
<path style="&st8;" d="M1684.67,103.01c-2.5,0-4.53,2.03-4.53,4.54"/>
<path style="&st8;" d="M1680.14,107.55c0,2.5,2.03,4.53,4.53,4.53"/>
<path style="&st8;" d="M1684.67,112.08c2.51,0,4.54-2.03,4.54-4.53"/>
<path style="&st8;" d="M1731.76,107.55c0-2.51-2.03-4.54-4.54-4.54"/>
<path style="&st8;" d="M1727.22,103.01c-2.5,0-4.53,2.03-4.53,4.54"/>
<path style="&st8;" d="M1722.69,107.55c0,2.5,2.03,4.53,4.53,4.53"/>
<path style="&st8;" d="M1727.22,112.08c2.51,0,4.54-2.03,4.54-4.53"/>
<path style="&st8;" d="M1824.19,107.55c0-2.51-2.03-4.54-4.54-4.54"/>
<path style="&st8;" d="M1819.65,103.01c-2.5,0-4.53,2.03-4.53,4.54"/>
<path style="&st8;" d="M1815.12,107.55c0,2.5,2.03,4.53,4.53,4.53"/>
<path style="&st8;" d="M1819.65,112.08c2.51,0,4.54-2.03,4.54-4.53"/>
<path style="&st8;" d="M1888.28,107.55c0-2.51-2.03-4.54-4.54-4.54"/>
<path style="&st8;" d="M1883.74,103.01c-2.5,0-4.53,2.03-4.53,4.54"/>
<path style="&st8;" d="M1879.21,107.55c0,2.5,2.03,4.53,4.53,4.53"/>
<path style="&st8;" d="M1883.74,112.08c2.51,0,4.54-2.03,4.54-4.53"/>
<path style="&st8;" d="M1930.85,107.55c0-2.51-2.03-4.54-4.54-4.54"/>
<path style="&st8;" d="M1926.31,103.01c-2.5,0-4.53,2.03-4.53,4.54"/>
<path style="&st8;" d="M1921.78,107.55c0,2.5,2.03,4.53,4.53,4.53"/>
<path style="&st8;" d="M1926.31,112.08c2.51,0,4.54-2.03,4.54-4.53"/>
<path style="&st8;" d="M1603.14,107.55c0-2.51-2.03-4.54-4.54-4.54"/>
<path style="&st8;" d="M1598.6,103.01c-2.5,0-4.53,2.03-4.53,4.54"/>
<path style="&st8;" d="M1594.07,107.55c0,2.5,2.03,4.53,4.53,4.53"/>
<path style="&st8;" d="M1598.6,112.08c2.51,0,4.54-2.03,4.54-4.53"/>
<path style="&st8;" d="M1774.29,107.55c0-2.51-2.03-4.54-4.54-4.54"/>
<path style="&st8;" d="M1769.75,103.01c-2.5,0-4.53,2.03-4.53,4.54"/>
<path style="&st8;" d="M1765.22,107.55c0,2.5,2.03,4.53,4.53,4.53"/>
<path style="&st8;" d="M1769.75,112.08c2.51,0,4.54-2.03,4.54-4.53"/>
<path style="&st8;" d="M1973.3,107.55c0-2.51-2.03-4.54-4.54-4.54"/>
<path style="&st8;" d="M1968.76,103.01c-2.5,0-4.53,2.03-4.53,4.54"/>
<path style="&st8;" d="M1964.23,107.55c0,2.5,2.03,4.53,4.53,4.53"/>
<path style="&st8;" d="M1968.76,112.08c2.51,0,4.54-2.03,4.54-4.53"/>
<path style="&st8;" d="M2149.85,107.55c0-2.51-2.03-4.54-4.54-4.54"/>
<path style="&st8;" d="M2145.31,103.01c-2.5,0-4.53,2.03-4.53,4.54"/>
<path style="&st8;" d="M2140.78,107.55c0,2.5,2.03,4.53,4.53,4.53"/>
<path style="&st8;" d="M2145.31,112.08c2.51,0,4.54-2.03,4.54-4.53"/>
<path style="&st8;" d="M2192.36,107.55c0-2.51-2.03-4.54-4.54-4.54"/>
<path style="&st8;" d="M2187.82,103.01c-2.5,0-4.53,2.03-4.53,4.54"/>
<path style="&st8;" d="M2183.29,107.55c0,2.5,2.03,4.53,4.53,4.53"/>
<path style="&st8;" d="M2187.82,112.08c2.51,0,4.54-2.03,4.54-4.53"/>
<path style="&st8;" d="M2234.88,107.55c0-2.51-2.03-4.54-4.54-4.54"/>
<path style="&st8;" d="M2230.34,103.01c-2.5,0-4.53,2.03-4.53,4.54"/>
<path style="&st8;" d="M2225.81,107.55c0,2.5,2.03,4.53,4.53,4.53"/>
<path style="&st8;" d="M2230.34,112.08c2.51,0,4.54-2.03,4.54-4.53"/>
<path style="&st8;" d="M2277.39,107.55c0-2.51-2.03-4.54-4.54-4.54"/>
<path style="&st8;" d="M2272.85,103.01c-2.5,0-4.53,2.03-4.53,4.54"/>
<path style="&st8;" d="M2268.32,107.55c0,2.5,2.03,4.53,4.53,4.53"/>
<path style="&st8;" d="M2272.85,112.08c2.51,0,4.54-2.03,4.54-4.53"/>
<path style="&st8;" d="M1073.94,107.55c0-2.51-2.03-4.54-4.54-4.54"/>
<path style="&st8;" d="M1069.4,103.01c-2.5,0-4.53,2.03-4.53,4.54"/>
<path style="&st8;" d="M1064.87,107.55c0,2.5,2.03,4.53,4.53,4.53"/>
<path style="&st8;" d="M1069.4,112.08c2.51,0,4.54-2.03,4.54-4.53"/>
<path style="&st8;" d="M1116.44,107.55c0-2.51-2.03-4.54-4.54-4.54"/>
<path style="&st8;" d="M1111.9,103.01c-2.5,0-4.53,2.03-4.53,4.54"/>
<path style="&st8;" d="M1107.37,107.55c0,2.5,2.03,4.53,4.53,4.53"/>
<path style="&st8;" d="M1111.9,112.08c2.51,0,4.54-2.03,4.54-4.53"/>
<path style="&st8;" d="M1158.97,107.55c0-2.51-2.03-4.54-4.54-4.54"/>
<path style="&st8;" d="M1154.43,103.01c-2.5,0-4.53,2.03-4.53,4.54"/>
<path style="&st8;" d="M1149.9,107.55c0,2.5,2.03,4.53,4.53,4.53"/>
<path style="&st8;" d="M1154.43,112.08c2.51,0,4.54-2.03,4.54-4.53"/>
<path style="&st8;" d="M1201.49,107.55c0-2.51-2.03-4.54-4.54-4.54"/>
<path style="&st8;" d="M1196.95,103.01c-2.5,0-4.53,2.03-4.53,4.54"/>
<path style="&st8;" d="M1192.42,107.55c0,2.5,2.03,4.53,4.53,4.53"/>
<path style="&st8;" d="M1196.95,112.08c2.51,0,4.54-2.03,4.54-4.53"/>
<path style="&st8;" d="M1243.98,107.55c0-2.51-2.03-4.54-4.54-4.54"/>
<path style="&st8;" d="M1239.44,103.01c-2.5,0-4.53,2.03-4.53,4.54"/>
<path style="&st8;" d="M1234.91,107.55c0,2.5,2.03,4.53,4.53,4.53"/>
<path style="&st8;" d="M1239.44,112.08c2.51,0,4.54-2.03,4.54-4.53"/>
<path style="&st8;" d="M1286.45,103.01c-2.5,0-4.53,2.03-4.53,4.54"/>
<path style="&st8;" d="M1341.98,107.55c0-2.51-2.03-4.54-4.54-4.54"/>
<path style="&st8;" d="M1337.44,103.01c-2.5,0-4.53,2.03-4.53,4.54"/>
<path style="&st8;" d="M1332.91,107.55c0,2.5,2.03,4.53,4.53,4.53"/>
<path style="&st8;" d="M1337.44,112.08c2.51,0,4.54-2.03,4.54-4.53"/>
<path style="&st8;" d="M1392.97,107.55c0-2.51-2.03-4.54-4.53-4.54"/>
<path style="&st8;" d="M1388.44,103.01c-2.51,0-4.54,2.03-4.54,4.54"/>
<path style="&st8;" d="M1383.9,107.55c0,2.5,2.03,4.53,4.54,4.53"/>
<path style="&st8;" d="M1388.44,112.08c2.5,0,4.53-2.03,4.53-4.53"/>
<path style="&st8;" d="M1290.99,107.55c0-2.51-2.03-4.54-4.54-4.54"/>
<path style="&st8;" d="M1281.92,107.55c0,2.5,2.03,4.53,4.53,4.53"/>
<path style="&st8;" d="M1286.45,112.08c2.51,0,4.54-2.03,4.54-4.53"/>
<text transform="matrix(1 0 0 1 271.4922 109.5181)" style="&st7;"><tspan x="0" y="0" style="&st27; &st16;">D</tspan></text>
<text transform="matrix(1 0 0 1 262.8252 109.5181)" style="&st7;"><tspan x="0" y="0" style="&st27; &st16;">4</tspan></text>
<text transform="matrix(1 0 0 1 269.5449 99.2603)" style="&st7;"><tspan x="0" y="0" style="&st27; &st16;">+B1</tspan></text>
<text transform="matrix(1 0 0 1 238.958 109.5181)" style="&st7;"><tspan x="0" y="0" style="&st27; &st16;">E</tspan></text>
<text transform="matrix(1 0 0 1 230.291 109.5181)" style="&st7;"><tspan x="0" y="0" style="&st27; &st16;">1</tspan></text>
<text transform="matrix(1 0 0 1 237.0107 99.2603)" style="&st7;"><tspan x="0" y="0" style="&st27; &st16;">IG</tspan></text>
<text transform="matrix(1 0 0 1 417.4561 109.5181)" style="&st7;"><tspan x="0" y="0" style="&st27; &st16;">D</tspan></text>
<text transform="matrix(1 0 0 1 408.7891 109.5181)" style="&st7;"><tspan x="0" y="0" style="&st27; &st16;">1</tspan></text>
<text transform="matrix(1 0 0 1 413.9326 99.2603)" style="&st7;"><tspan x="0" y="0" style="&st27; &st16;">FR+</tspan></text>
<text transform="matrix(1 0 0 1 468.4717 109.5181)" style="&st7;"><tspan x="0" y="0" style="&st27; &st16;">D</tspan></text>
<text transform="matrix(1 0 0 1 459.8047 109.5181)" style="&st7;"><tspan x="0" y="0" style="&st27; &st16;">5</tspan></text>
<text transform="matrix(1 0 0 1 464.9482 99.2603)" style="&st7;"><tspan x="0" y="0" style="&st27; &st16;">FR-</tspan></text>
<text transform="matrix(1 0 0 1 302.4365 109.5181)" style="&st7;"><tspan x="0" y="0" style="&st27; &st16;">D</tspan></text>
<text transform="matrix(1 0 0 1 293.7695 109.5181)" style="&st7;"><tspan x="0" y="0" style="&st27; &st16;">2</tspan></text>
<text transform="matrix(1 0 0 1 298.9131 99.2603)" style="&st7;"><tspan x="0" y="0" style="&st27; &st16;">FL+</tspan></text>
<text transform="matrix(1 0 0 1 353.4521 109.5181)" style="&st7;"><tspan x="0" y="0" style="&st27; &st16;">D</tspan></text>
<text transform="matrix(1 0 0 1 344.7852 109.5181)" style="&st7;"><tspan x="0" y="0" style="&st27; &st16;">6</tspan></text>
<text transform="matrix(1 0 0 1 349.9287 99.2603)" style="&st7;"><tspan x="0" y="0" style="&st27; &st16;">FL-</tspan></text>
<text transform="matrix(1 0 0 1 592.417 109.5181)" style="&st7;"><tspan x="0" y="0" style="&st27; &st16;">C</tspan></text>
<text transform="matrix(1 0 0 1 583.75 109.5181)" style="&st7;"><tspan x="0" y="0" style="&st27; &st16;">2</tspan></text>
<text transform="matrix(1 0 0 1 588.8936 99.2603)" style="&st7;"><tspan x="0" y="0" style="&st27; &st16;">RL+</tspan></text>
<text transform="matrix(1 0 0 1 643.4346 109.5181)" style="&st7;"><tspan x="0" y="0" style="&st27; &st16;">C</tspan></text>
<text transform="matrix(1 0 0 1 634.7676 109.5181)" style="&st7;"><tspan x="0" y="0" style="&st27; &st16;">6</tspan></text>
<text transform="matrix(1 0 0 1 639.9111 99.2603)" style="&st7;"><tspan x="0" y="0" style="&st27; &st16;">RL-</tspan></text>
<text transform="matrix(1 0 0 1 797.3975 109.5181)" style="&st7;"><tspan x="0" y="0" style="&st27; &st16;">C</tspan></text>
<text transform="matrix(1 0 0 1 788.7305 109.5181)" style="&st7;"><tspan x="0" y="0" style="&st27; &st16;">1</tspan></text>
<text transform="matrix(1 0 0 1 793.874 99.2603)" style="&st7;"><tspan x="0" y="0" style="&st27; &st16;">RR+</tspan></text>
<text transform="matrix(1 0 0 1 848.4141 109.5181)" style="&st7;"><tspan x="0" y="0" style="&st27; &st16;">C</tspan></text>
<text transform="matrix(1 0 0 1 839.7471 109.5181)" style="&st7;"><tspan x="0" y="0" style="&st27; &st16;">3</tspan></text>
<text transform="matrix(1 0 0 1 844.8906 99.2603)" style="&st7;"><tspan x="0" y="0" style="&st27; &st16;">RR-</tspan></text>
<text transform="matrix(1 0 0 1 2017.6504 109.5181)" style="&st7;"><tspan x="0" y="0" style="&st27; &st16;">E</tspan></text>
<text transform="matrix(1 0 0 1 2005.6465 109.5181)" style="&st7;"><tspan x="0" y="0" style="&st27; &st16;">17</tspan></text>
<text transform="matrix(1 0 0 1 2013.627 99.2603)" style="&st7;"><tspan x="0" y="0" style="&st27; &st16;">SPD</tspan></text>
<text ewd:textID='32' transform='matrix(1 0 0 1 215.6523 65.0732)' style='&st7; &st27; &st16;'>Radio &amp; Display Receiver Assembly</text>
<text transform="matrix(1 0 0 1 215.6523 57.9629)" style="&st7;"><tspan x="0" y="0" style="&st27; &st16;">H50(A),H48(C),H49(D),H51(E),H69(F)</tspan></text>
<text ewd:textID='32' transform='matrix(1 0 0 1 717.6523 65.0732)' style='&st7; &st27; &st16;'>Radio &amp; Display Receiver Assembly</text>
<text transform="matrix(1 0 0 1 717.6523 57.9629)" style="&st7;"><tspan x="0" y="0" style="&st27; &st16;">H50(A),H48(C),H49(D),H51(E),H69(F)</tspan></text>
<text ewd:textID='32' transform='matrix(1 0 0 1 1244.147 65.0732)' style='&st7; &st27; &st16;'>Radio &amp; Display Receiver Assembly</text>
<text transform="matrix(1 0 0 1 1244.147 57.9629)" style="&st7;"><tspan x="0" y="0" style="&st27; &st16;">H50(A),H48(C),H49(D),H51(E),H69(F)</tspan></text>
<text ewd:textID='32' transform='matrix(1 0 0 1 1772.1211 65.0732)' style='&st7; &st27; &st16;'>Radio &amp; Display Receiver Assembly</text>
<text transform="matrix(1 0 0 1 1772.1211 57.9629)" style="&st7;"><tspan x="0" y="0" style="&st27; &st16;">H50(A),H48(C),H49(D),H51(E),H69(F)</tspan></text>
<text ewd:textID='32' transform='matrix(1 0 0 1 2274.5957 65.0732)' style='&st7; &st27; &st16;'>Radio &amp; Display Receiver Assembly</text>
<text transform="matrix(1 0 0 1 2274.5957 57.9629)" style="&st7;"><tspan x="0" y="0" style="&st27; &st16;">H50(A),H48(C),H49(D),H51(E),H69(F)</tspan></text>
<text transform="matrix(1 0 0 1 211.4238 109.5181)" style="&st7;"><tspan x="0" y="0" style="&st27; &st16;">D</tspan></text>
<text transform="matrix(1 0 0 1 202.7568 109.5181)" style="&st7;"><tspan x="0" y="0" style="&st27; &st16;">3</tspan></text>
<text transform="matrix(1 0 0 1 206.4004 99.2603)" style="&st7;"><tspan x="0" y="0" style="&st27; &st16;">ACC1</tspan></text>
<text transform="matrix(1 0 0 1 942.5137 109.5171)" style="&st7;"><tspan x="0" y="0" style="&st27; &st16;">D</tspan></text>
<text transform="matrix(1 0 0 1 933.8467 109.5171)" style="&st7;"><tspan x="0" y="0" style="&st27; &st16;">7</tspan></text>
<text transform="matrix(1 0 0 1 936.4902 99.2593)" style="&st7;"><tspan x="0" y="0" style="&st27; &st16;">GND1</tspan></text>
<text transform="matrix(1 0 0 1 1000.7324 109.5171)" style="&st7;"><tspan x="0" y="0" style="&st27; &st16;">E</tspan></text>
<text transform="matrix(1 0 0 1 988.7285 109.5171)" style="&st7;"><tspan x="0" y="0" style="&st27; &st16;">15</tspan></text>
<text transform="matrix(1 0 0 1 997.209 99.2593)" style="&st7;"><tspan x="0" y="0" style="&st27; &st16;">PKB</tspan></text>
<text transform="matrix(1 0 0 1 2856.8516 109.5176)" style="&st7;"><tspan x="0" y="0" style="&st27; &st16;">E</tspan></text>
<text transform="matrix(1 0 0 1 2848.1846 109.5176)" style="&st7;"><tspan x="0" y="0" style="&st27; &st16;">2</tspan></text>
<text transform="matrix(1 0 0 1 2852.3281 99.2598)" style="&st7;"><tspan x="0" y="0" style="&st27; &st16;">REV</tspan></text>
<text transform="matrix(1 0 0 1 3225.0098 109.5176)" style="&st7;"><tspan x="0" y="0" style="&st27; &st16;">E</tspan></text>
<text transform="matrix(1 0 0 1 3216.3428 109.5176)" style="&st7;"><tspan x="0" y="0" style="&st27; &st16;">9</tspan></text>
<text transform="matrix(1 0 0 1 3218.9863 99.2598)" style="&st7;"><tspan x="0" y="0" style="&st27; &st16;">CANH</tspan></text>
<text transform="matrix(1 0 0 1 3259.0098 109.5176)" style="&st7;"><tspan x="0" y="0" style="&st27; &st16;">E</tspan></text>
<text transform="matrix(1 0 0 1 3247.0059 109.5176)" style="&st7;"><tspan x="0" y="0" style="&st27; &st16;">10</tspan></text>
<text transform="matrix(1 0 0 1 3252.9863 99.2598)" style="&st7;"><tspan x="0" y="0" style="&st27; &st16;">CANL</tspan></text>
<text transform="matrix(1 0 0 1 1640.0957 109.5171)" style="&st7;"><tspan x="0" y="0" style="&st27; &st16;">E</tspan></text>
<text transform="matrix(1 0 0 1 1628.0918 109.5171)" style="&st7;"><tspan x="0" y="0" style="&st27; &st16;">28</tspan></text>
<text transform="matrix(1 0 0 1 1636.0723 99.2593)" style="&st7;"><tspan x="0" y="0" style="&st27; &st16;">VAL+</tspan></text>
<text transform="matrix(1 0 0 1 1682.5527 109.5171)" style="&st7;"><tspan x="0" y="0" style="&st27; &st16;">E</tspan></text>
<text transform="matrix(1 0 0 1 1670.5488 109.5171)" style="&st7;"><tspan x="0" y="0" style="&st27; &st16;">26</tspan></text>
<text transform="matrix(1 0 0 1 1677.0293 99.2593)" style="&st7;"><tspan x="0" y="0" style="&st27; &st16;">VAR+</tspan></text>
<text transform="matrix(1 0 0 1 1725.0996 109.5171)" style="&st7;"><tspan x="0" y="0" style="&st27; &st16;">E</tspan></text>
<text transform="matrix(1 0 0 1 1713.0957 109.5171)" style="&st7;"><tspan x="0" y="0" style="&st27; &st16;">27</tspan></text>
<text transform="matrix(1 0 0 1 1722.5762 99.2593)" style="&st7;"><tspan x="0" y="0" style="&st27; &st16;">VA-</tspan></text>
<text transform="matrix(1 0 0 1 1817.5254 109.5171)" style="&st7;"><tspan x="0" y="0" style="&st27; &st16;">E</tspan></text>
<text transform="matrix(1 0 0 1 1805.5215 109.5171)" style="&st7;"><tspan x="0" y="0" style="&st27; &st16;">25</tspan></text>
<text transform="matrix(1 0 0 1 1812.002 99.2593)" style="&st7;"><tspan x="0" y="0" style="&st27; &st16;">ADPG</tspan></text>
<text transform="matrix(1 0 0 1 1881.6211 109.5171)" style="&st7;"><tspan x="0" y="0" style="&st27; &st16;">E</tspan></text>
<text transform="matrix(1 0 0 1 1869.6172 109.5171)" style="&st7;"><tspan x="0" y="0" style="&st27; &st16;">13</tspan></text>
<text transform="matrix(1 0 0 1 1878.5977 99.2593)" style="&st7;"><tspan x="0" y="0" style="&st27; &st16;">VV+</tspan></text>
<text transform="matrix(1 0 0 1 1924.1934 109.5171)" style="&st7;"><tspan x="0" y="0" style="&st27; &st16;">E</tspan></text>
<text transform="matrix(1 0 0 1 1912.1895 109.5171)" style="&st7;"><tspan x="0" y="0" style="&st27; &st16;">14</tspan></text>
<text transform="matrix(1 0 0 1 1921.1699 99.2593)" style="&st7;"><tspan x="0" y="0" style="&st27; &st16;">VV-</tspan></text>
<text transform="matrix(1 0 0 1 1596.4824 109.5171)" style="&st7;"><tspan x="0" y="0" style="&st27; &st16;">F</tspan></text>
<text transform="matrix(1 0 0 1 1587.8154 109.5171)" style="&st7;"><tspan x="0" y="0" style="&st27; &st16;">1</tspan></text>
<text transform="matrix(1 0 0 1 1592.459 99.2593)" style="&st7;"><tspan x="0" y="0" style="&st27; &st16;">USV</tspan></text>
<text transform="matrix(1 0 0 1 1767.6289 109.5166)" style="&st7;"><tspan x="0" y="0" style="&st27; &st16;">E</tspan></text>
<text transform="matrix(1 0 0 1 1756.0703 109.5166)" style="&st7;"><tspan x="0" y="0" style="&st27; &st16;">11</tspan></text>
<text transform="matrix(1 0 0 1 1760.6055 99.2588)" style="&st7;"><tspan x="0" y="0" style="&st27; &st16;">AGND</tspan></text>
<text transform="matrix(1 0 0 1 1966.6406 109.5166)" style="&st7;"><tspan x="0" y="0" style="&st27; &st16;">E</tspan></text>
<text transform="matrix(1 0 0 1 1954.6367 109.5166)" style="&st7;"><tspan x="0" y="0" style="&st27; &st16;">12</tspan></text>
<text transform="matrix(1 0 0 1 1964.6172 99.2588)" style="&st7;"><tspan x="0" y="0" style="&st27; &st16;">SG</tspan></text>
<text transform="matrix(1 0 0 1 2143.1885 109.5171)" style="&st7;"><tspan x="0" y="0" style="&st27; &st16;">A</tspan></text>
<text transform="matrix(1 0 0 1 2131.6299 109.5171)" style="&st7;"><tspan x="0" y="0" style="&st27; &st16;">11</tspan></text>
<text transform="matrix(1 0 0 1 2138.665 99.2593)" style="&st7;"><tspan x="0" y="0" style="&st27; &st16;">CA+</tspan></text>
<text transform="matrix(1 0 0 1 2185.7031 109.5171)" style="&st7;"><tspan x="0" y="0" style="&st27; &st16;">A</tspan></text>
<text transform="matrix(1 0 0 1 2173.6992 109.5171)" style="&st7;"><tspan x="0" y="0" style="&st27; &st16;">24</tspan></text>
<text transform="matrix(1 0 0 1 2184.6797 99.2593)" style="&st7;"><tspan x="0" y="0" style="&st27; &st16;">V-</tspan></text>
<text transform="matrix(1 0 0 1 2228.2178 109.5171)" style="&st7;"><tspan x="0" y="0" style="&st27; &st16;">A</tspan></text>
<text transform="matrix(1 0 0 1 2216.2139 109.5171)" style="&st7;"><tspan x="0" y="0" style="&st27; &st16;">12</tspan></text>
<text transform="matrix(1 0 0 1 2227.1943 99.2593)" style="&st7;"><tspan x="0" y="0" style="&st27; &st16;">V+</tspan></text>
<text transform="matrix(1 0 0 1 2270.7324 109.5171)" style="&st7;"><tspan x="0" y="0" style="&st27; &st16;">A</tspan></text>
<text transform="matrix(1 0 0 1 2258.7285 109.5171)" style="&st7;"><tspan x="0" y="0" style="&st27; &st16;">23</tspan></text>
<text transform="matrix(1 0 0 1 2263.709 99.2593)" style="&st7;"><tspan x="0" y="0" style="&st27; &st16;">CGND</tspan></text>
<text ewd:textID='32' transform='matrix(1 0 0 1 2791.9883 63.9111)' style='&st7; &st27; &st16;'>Radio &amp; Display Receiver Assembly</text>
<text transform="matrix(1 0 0 1 2791.9883 56.8008)" style="&st7;"><tspan x="0" y="0" style="&st27; &st16;">H50(A),H48(C),H49(D),H51(E),H69(F)</tspan></text>
<text ewd:textID='32' transform='matrix(1 0 0 1 3130.0664 63.9111)' style='&st7; &st27; &st16;'>Radio &amp; Display Receiver Assembly</text>
<text transform="matrix(1 0 0 1 3130.0664 56.8008)" style="&st7;"><tspan x="0" y="0" style="&st27; &st16;">H50(A),H48(C),H49(D),H51(E),H69(F)</tspan></text>
<text transform="matrix(1 0 0 1 1067.2832 109.5171)" style="&st7;"><tspan x="0" y="0" style="&st27; &st16;">E</tspan></text>
<text transform="matrix(1 0 0 1 1058.6162 109.5171)" style="&st7;"><tspan x="0" y="0" style="&st27; &st16;">6</tspan></text>
<text transform="matrix(1 0 0 1 1061.2598 99.2593)" style="&st7;"><tspan x="0" y="0" style="&st27; &st16;">SNS2</tspan></text>
<text transform="matrix(1 0 0 1 1109.7773 109.5171)" style="&st7;"><tspan x="0" y="0" style="&st27; &st16;">E</tspan></text>
<text transform="matrix(1 0 0 1 1101.1104 109.5171)" style="&st7;"><tspan x="0" y="0" style="&st27; &st16;">4</tspan></text>
<text transform="matrix(1 0 0 1 1103.2539 99.2593)" style="&st7;"><tspan x="0" y="0" style="&st27; &st16;">MACC</tspan></text>
<text transform="matrix(1 0 0 1 1152.3115 109.5171)" style="&st7;"><tspan x="0" y="0" style="&st27; &st16;">E</tspan></text>
<text transform="matrix(1 0 0 1 1143.6445 109.5171)" style="&st7;"><tspan x="0" y="0" style="&st27; &st16;">5</tspan></text>
<text transform="matrix(1 0 0 1 1147.7881 99.2593)" style="&st7;"><tspan x="0" y="0" style="&st27; &st16;">MIN+</tspan></text>
<text transform="matrix(1 0 0 1 1194.8262 109.5171)" style="&st7;"><tspan x="0" y="0" style="&st27; &st16;">E</tspan></text>
<text transform="matrix(1 0 0 1 1182.8223 109.5171)" style="&st7;"><tspan x="0" y="0" style="&st27; &st16;">19</tspan></text>
<text transform="matrix(1 0 0 1 1190.8027 99.2593)" style="&st7;"><tspan x="0" y="0" style="&st27; &st16;">MIN-</tspan></text>
<text transform="matrix(1 0 0 1 1237.3213 109.5171)" style="&st7;"><tspan x="0" y="0" style="&st27; &st16;">E</tspan></text>
<text transform="matrix(1 0 0 1 1225.3174 109.5171)" style="&st7;"><tspan x="0" y="0" style="&st27; &st16;">18</tspan></text>
<text transform="matrix(1 0 0 1 1230.2979 99.2593)" style="&st7;"><tspan x="0" y="0" style="&st27; &st16;">SGND</tspan></text>
<text transform="matrix(1 0 0 1 1272.3271 109.5161)" style="&st7;"><tspan x="0" y="0" style="&st27; &st16;">21</tspan></text>
<text transform="matrix(1 0 0 1 1374.3174 109.5171)" style="&st7;"><tspan x="0" y="0" style="&st27; &st16;">22</tspan></text>
<text transform="matrix(1 0 0 1 1323.3174 109.5161)" style="&st7;"><tspan x="0" y="0" style="&st27; &st16;">23</tspan></text>
<text transform="matrix(1 0 0 1 1284.1221 109.5073)" style="&st7;"><tspan x="0" y="0" style="&st27; &st16;">E</tspan></text>
<text transform="matrix(1 0 0 1 1279.1826 99.3179)" style="&st7;"><tspan x="0" y="0" style="&st27; &st16;">SW1</tspan></text>
<text transform="matrix(1 0 0 1 1329.001 99.3179)" style="&st7;"><tspan x="0" y="0" style="&st27; &st16;">SWG</tspan></text>
<text transform="matrix(1 0 0 1 1380.7725 99.3179)" style="&st7;"><tspan x="0" y="0" style="&st27; &st16;">SW2</tspan></text>
<text transform="matrix(1 0 0 1 1335.1123 109.5073)" style="&st7;"><tspan x="0" y="0" style="&st27; &st16;">E</tspan></text>
<text transform="matrix(1 0 0 1 1386.1025 109.5073)" style="&st7;"><tspan x="0" y="0" style="&st27; &st16;">E</tspan></text>
</g>
<text transform="matrix(0 -1 1 0 269.9121 153.9717)" style="&st7;"><tspan x="0" y="0" style="&st27; &st16;">R</tspan></text>
<text transform="matrix(0 -1 1 0 466.8682 152.6792)" style="&st7;"><tspan x="0" y="0" style="&st27; &st16;">L</tspan></text>
<text transform="matrix(0 -1 1 0 415.8779 155.0127)" style="&st7;"><tspan x="0" y="0" style="&st27; &st16;">LG</tspan></text>
<text transform="matrix(0 -1 1 0 415.8779 478.771)" style="&st7;"><tspan x="0" y="0" style="&st27; &st16;">LG</tspan></text>
<text transform="matrix(0 -1 1 0 466.8682 476.438)" style="&st7;"><tspan x="0" y="0" style="&st27; &st16;">L</tspan></text>
<text transform="matrix(0 -1 1 0 351.8486 153.0117)" style="&st7;"><tspan x="0" y="0" style="&st27; &st16;">V</tspan></text>
<text transform="matrix(0 -1 1 0 300.8584 153.0117)" style="&st7;"><tspan x="0" y="0" style="&st27; &st16;">P</tspan></text>
<text transform="matrix(0 -1 1 0 300.8584 476.771)" style="&st7;"><tspan x="0" y="0" style="&st27; &st16;">P</tspan></text>
<text transform="matrix(0 -1 1 0 351.8486 476.771)" style="&st7;"><tspan x="0" y="0" style="&st27; &st16;">V</tspan></text>
<text transform="matrix(0 -1 1 0 26.082 136.7158)" style="&st7;"><tspan x="0" y="0" style="&st27; &st16;">R</tspan></text>
<text transform="matrix(0 -1 1 0 26.082 197.2207)" style="&st7;"><tspan x="0" y="0" style="&st27; &st16;">R</tspan></text>
<text transform="matrix(0 -1 1 0 26.082 244.5537)" style="&st7;"><tspan x="0" y="0" style="&st27; &st16;">R</tspan></text>
<text transform="matrix(0 -1 1 0 141.3838 348.3452)" style="&st7;"><tspan x="0" y="0" style="&st27; &st16;">P</tspan></text>
<text transform="matrix(0 -1 1 0 141.3838 415.3579)" style="&st7;"><tspan x="0" y="0" style="&st27; &st16;">GR</tspan></text>
<text transform="matrix(0 -1 1 0 141.3838 503.7749)" style="&st7;"><tspan x="0" y="0" style="&st27; &st16;">GR</tspan></text>
<text transform="matrix(0 -1 1 0 141.0771 138.8975)" style="&st7;"><tspan x="0" y="0" style="&st27; &st16;">P</tspan></text>
<text transform="matrix(0 -1 1 0 141.3838 248.9395)" style="&st7;"><tspan x="0" y="0" style="&st27; &st16;">P</tspan></text>
<text transform="matrix(0 -1 1 0 209.8457 155.6401)" style="&st7;"><tspan x="0" y="0" style="&st27; &st16;">GR</tspan></text>
<text transform="matrix(1 0 0 1 39.6934 165.7773)" style="&st7;"><tspan x="0" y="0" style="&st27; &st16;">(LHD)</tspan></text>
<text transform="matrix(1 0 0 1 39.6934 174.2773)" style="&st7;"><tspan x="0" y="0" style="&st27; &st16;">(RHD)</tspan></text>
<text transform="matrix(1 0 0 1 151.0664 175.6729)" style="&st7;"><tspan x="0" y="0" style="&st27; &st16;">(RHD)</tspan></text>
<text transform="matrix(1 0 0 1 151.0664 166.6025)" style="&st7;"><tspan x="0" y="0" style="&st27; &st16;">(LHD)</tspan></text>
<text transform="matrix(1 0 0 1 151.0664 219.3096)" style="&st7;"><tspan x="0" y="0" style="&st27; &st16;">(RHD)</tspan></text>
<text transform="matrix(1 0 0 1 151.0664 210.2393)" style="&st7;"><tspan x="0" y="0" style="&st27; &st16;">(LHD)</tspan></text>
<text transform="matrix(0 -1 1 0 466.8682 302.5796)" style="&st7;"><tspan x="0" y="0" style="&st27; &st16;">L</tspan></text>
<text transform="matrix(0 -1 1 0 415.8779 304.9131)" style="&st7;"><tspan x="0" y="0" style="&st27; &st16;">LG</tspan></text>
<text transform="matrix(0 -1 1 0 351.8486 302.9121)" style="&st7;"><tspan x="0" y="0" style="&st27; &st16;">V</tspan></text>
<text transform="matrix(0 -1 1 0 300.8584 302.9121)" style="&st7;"><tspan x="0" y="0" style="&st27; &st16;">P</tspan></text>
<text transform="matrix(0 -1 1 0 466.8682 389.0708)" style="&st7;"><tspan x="0" y="0" style="&st27; &st16;">L</tspan></text>
<text transform="matrix(0 -1 1 0 415.8779 391.4038)" style="&st7;"><tspan x="0" y="0" style="&st27; &st16;">LG</tspan></text>
<text transform="matrix(0 -1 1 0 351.8486 389.4038)" style="&st7;"><tspan x="0" y="0" style="&st27; &st16;">V</tspan></text>
<text transform="matrix(0 -1 1 0 300.8584 389.4038)" style="&st7;"><tspan x="0" y="0" style="&st27; &st16;">P</tspan></text>
<text transform="matrix(0 -1 1 0 83.8516 139.063)" style="&st7;"><tspan x="0" y="0" style="&st27; &st16;">L</tspan></text>
<text transform="matrix(0 -1 1 0 83.8516 348.0127)" style="&st7;"><tspan x="0" y="0" style="&st27; &st16;">L</tspan></text>
<text transform="matrix(0 -1 1 0 237.3799 152.8086)" style="&st7;"><tspan x="0" y="0" style="&st27; &st16;">L</tspan></text>
<text transform="matrix(0 -1 1 0 83.8467 412.5259)" style="&st7;"><tspan x="0" y="0" style="&st27; &st16;">L</tspan></text>
<text transform="matrix(0 -1 1 0 83.8467 500.9438)" style="&st7;"><tspan x="0" y="0" style="&st27; &st16;">L</tspan></text>
</svg>
