﻿<?xml version="1.0" encoding="UTF-8"?>
<!DOCTYPE svg PUBLIC "-//W3C//DTD SVG 1.0//EN" "http://www.w3.org/TR/2001/REC-SVG-20010904/DTD/svg10.dtd"[
<!ENTITY ns_flows "http://ns.adobe.com/Flows/1.0/">
<!ENTITY ns_svg "http://www.w3.org/2000/svg">
<!ENTITY ns_xlink "http://www.w3.org/1999/xlink">
	<!ENTITY st0 "fill:none;stroke:#F8E616;stroke-width:5.1;stroke-linejoin:round;">
	<!ENTITY st1 "fill:none;stroke:#FB0F0C;stroke-width:5.1;stroke-linejoin:round;">
	<!ENTITY st2 "fill:none;stroke:#9A9999;stroke-width:5.1;stroke-linejoin:round;">
	<!ENTITY st3 "fill:none;stroke:#99280B;stroke-width:5.1;stroke-linejoin:round;">
		<!ENTITY st4 "fill:none;stroke:#000000;stroke-width:0.85;stroke-linecap:round;stroke-linejoin:round;stroke-dasharray:3 1.5;enable-background:new    ;">
	<!ENTITY st5 "fill:none;stroke:#000000;stroke-width:5.1;stroke-linejoin:round;">
	<!ENTITY st6 "fill:none;stroke:#000000;stroke-linecap:round;stroke-linejoin:round;">
	<!ENTITY st7 "stroke:#000000;stroke-width:0.28;stroke-linecap:round;stroke-linejoin:round;enable-background:new    ;">
	<!ENTITY st8 "enable-background:new    ;">
		<!ENTITY st9 "fill:none;stroke:#000000;stroke-width:1.42;stroke-linecap:round;stroke-linejoin:round;enable-background:new    ;">
	<!ENTITY st10 "fill:none;stroke:#EE67AA;stroke-width:5.1;stroke-linejoin:round;">
	<!ENTITY st11 "fill:none;stroke:#FFFFFF;stroke-width:4;">
	<!ENTITY st12 "fill:none;stroke:#199DBF;stroke-width:5.1;stroke-linejoin:round;">
	<!ENTITY st13 "opacity:0.5;fill:none;stroke:#34ACCE;stroke-linejoin:round;stroke-dasharray:6;">
	<!ENTITY st14 "fill:none;stroke:#FFFFFF;stroke-width:4.53;stroke-linejoin:round;">
		<!ENTITY st15 "fill:none;stroke:#000000;stroke-width:0.85;stroke-linecap:round;stroke-linejoin:round;enable-background:new    ;">
	<!ENTITY st16 "fill:none;stroke:#56107C;stroke-width:5.1;stroke-linejoin:round;">
	<!ENTITY st17 "font-size:6px;">
	<!ENTITY st18 "fill:none;stroke:#168638;stroke-width:5.1;stroke-linejoin:round;">
	<!ENTITY st19 "fill:none;stroke:#000000;stroke-width:1.13;stroke-linejoin:round;">
		<!ENTITY st20 "fill:none;stroke:#000000;stroke-width:1.13;stroke-linecap:round;stroke-linejoin:round;stroke-dasharray:3 1.5;enable-background:new    ;">
	<!ENTITY st21 "fill:#FFFFFF;stroke:#000000;stroke-width:1.41;stroke-linecap:round;stroke-linejoin:round;">
	<!ENTITY st22 "fill:none;stroke:#550E7B;stroke-width:5.1;stroke-linejoin:round;">
	<!ENTITY st23 "fill:none;stroke:#000000;stroke-width:1.133;stroke-linecap:round;stroke-linejoin:round;">
	<!ENTITY st24 "fill:none;stroke:#3E65AC;stroke-width:3;">
	<!ENTITY st25 "fill:#CCCCCC;stroke:#CCCCCC;stroke-width:0.1;stroke-linecap:round;stroke-linejoin:round;">
	<!ENTITY st26 "fill:none;stroke:#000000;stroke-width:5;">
	<!ENTITY st27 "fill:none;stroke:#000000;stroke-width:5.1;stroke-linejoin:round;enable-background:new    ;">
	<!ENTITY st28 "fill:none;stroke:#000000;stroke-width:1.42;stroke-linejoin:round;">
	<!ENTITY st29 "font-family:'Arial';">
	<!ENTITY st30 "opacity:0.5;fill:none;stroke:#34ACCE;stroke-linejoin:round;">
	<!ENTITY st31 "fill:none;stroke:#000000;stroke-width:1.42;stroke-linecap:round;stroke-linejoin:round;">
	<!ENTITY st32 "fill:#CFE6E7;stroke:#000000;stroke-width:1.133;stroke-linecap:round;stroke-linejoin:round;">
	<!ENTITY st33 "fill:none;stroke:#F7E416;stroke-width:5.1;stroke-linejoin:round;">
	<!ENTITY st34 "fill:none;stroke:#99D5E0;stroke-width:5.1;stroke-linejoin:round;">
	<!ENTITY st35 "fill:none;stroke:#000000;stroke-width:0.85;stroke-linecap:round;stroke-linejoin:round;stroke-dasharray:3 1.5;">
	<!ENTITY st36 "fill:#CFE6E7;stroke:#000000;stroke-width:1.13;stroke-linejoin:round;">
	<!ENTITY st37 "fill:none;stroke:#000000;stroke-width:0.85;stroke-linecap:round;stroke-linejoin:round;">
	<!ENTITY st38 "fill:none;stroke:#7EC57E;stroke-width:5.1;stroke-linejoin:round;">
<!ATTLIST svg
xmlns:ewd CDATA #FIXED "http://shcl.co.jp/ewd"
xmlns:a CDATA #FIXED "http://ns.adobe.com/AdobeSVGViewerExtensions/3.0/"
ewd:ver CDATA #IMPLIED
>
<!ATTLIST a
ewd:lineID CDATA #IMPLIED
ewd:groupID CDATA #IMPLIED
ewd:figtype CDATA #IMPLIED
ewd:code CDATA #IMPLIED
ewd:figID CDATA #IMPLIED
ewd:pinNo CDATA #IMPLIED
ewd:comment CDATA #IMPLIED >
<!ATTLIST g
ewd:lineID CDATA #IMPLIED
ewd:groupID CDATA #IMPLIED
ewd:figtype CDATA #IMPLIED
ewd:code CDATA #IMPLIED
ewd:figID CDATA #IMPLIED
ewd:pinNo CDATA #IMPLIED
ewd:comment CDATA #IMPLIED >
<!ATTLIST text
ewd:textID CDATA #IMPLIED >
<!ATTLIST title
ewd:textID CDATA #IMPLIED >
]>
<svg 
viewBox='0 0 7779.15 729.44'
height='729.44'
width='7779.15'
xml:space="preserve"
xmlns="&ns_svg;"
xmlns:ewd="http://shcl.co.jp/ewd"
xmlns:xlink="&ns_xlink;" ewd:ver="L2.1">
<g ewd:code="GH1" ewd:figID="6046" ewd:figtype="w2w" ewd:pinNo="33">
<path style="&st9;" d="M2741.59,132.47l-4.25-4.25l-4.25,4.25"/>
<path style="&st9;" d="M2741.59,129.07l-4.25-4.25l-4.25,4.25"/>
<text transform="matrix(1 0 0 1 2719.167 121.1284)" style="&st8;"><tspan x="0" y="0" style="&st29; &st17;">33</tspan></text>
</g>
<g ewd:code="GA2" ewd:figID="6047" ewd:figtype="w2w" ewd:pinNo="11">
<path style="&st9;" d="M2793,144.1l4.24,4.25l4.25-4.25"/>
<path style="&st9;" d="M2801.49,147.5l-4.25,4.25l-4.24-4.25"/>
<text transform="matrix(1 0 0 1 2779.5127 159.3843)" style="&st8;"><tspan x="0" y="0" style="&st29; &st17;">11</tspan></text>
</g>
<g ewd:code="GA1" ewd:figID="6048" ewd:figtype="w2w" ewd:pinNo="9">
<text transform="matrix(1 0 0 1 2782.4043 167.8843)" style="&st8;"><tspan x="0" y="0" style="&st29; &st17;">9</tspan></text>
</g>
<g ewd:code="GH1" ewd:figID="6049" ewd:figtype="w2w" ewd:pinNo="6">
<path style="&st9;" d="M2801.49,222.56l-4.25-4.25l-4.25,4.25"/>
<path style="&st9;" d="M2801.49,219.16l-4.25-4.25l-4.25,4.25"/>
<text transform="matrix(1 0 0 1 2782.4043 211.2236)" style="&st8;"><tspan x="0" y="0" style="&st29; &st17;">6</tspan></text>
</g>
<g ewd:code="FUSE100" ewd:figID="4004" ewd:figtype="rb">
<path style="&st6;" d="M2784.95,39.13v42.49h25.49V39.13H2784.95"/>
<path style="&st9;" d="M2784.95,39.13v42.49h25.49V39.13H2784.95"/>
<path style="&st9;" d="M2797.69,50.46c-2.73,1.61-3.64,5.14-2.03,7.88"/>
<path style="&st9;" d="M2795.66,58.34c0.52,0.88,1.15,1.52,2.03,2.04"/>
<path style="&st9;" d="M2797.69,70.29c2.74-1.61,3.65-5.14,2.04-7.88"/>
<path style="&st9;" d="M2799.73,62.41c-0.52-0.88-1.15-1.51-2.04-2.03"/>
<path style="&st15;" d="M2799.11,49.04c0-0.78-0.63-1.41-1.42-1.41"/>
<path style="&st15;" d="M2797.69,47.63c-0.78,0-1.41,0.63-1.41,1.41"/>
<path style="&st15;" d="M2796.28,49.04c0,0.79,0.63,1.42,1.41,1.42"/>
<path style="&st15;" d="M2797.69,50.46c0.79,0,1.42-0.63,1.42-1.42"/>
<path style="&st15;" d="M2799.11,71.71c0-0.79-0.63-1.42-1.42-1.42"/>
<path style="&st15;" d="M2797.69,70.29c-0.78,0-1.41,0.63-1.41,1.42"/>
<path style="&st15;" d="M2796.28,71.71c0,0.78,0.63,1.41,1.41,1.41"/>
<path style="&st15;" d="M2797.69,73.12c0.79,0,1.42-0.63,1.42-1.41"/>
<path style="&st7;" d="M2797.69,102.24l-2.83-2.83v4.25l2.83,2.83l2.83-2.83v-4.25L2797.69,102.24"/>
<path style="&st15;" d="M2797.69,107.14V73.12"/>
<path style="&st9;" d="M2799.82,107.14h-4.25"/>
<path style="&st9;" d="M2799.82,115.63h-4.25"/>
<path style="&st9;" d="M2795.57,107.14c-2.35,0-4.25,1.9-4.25,4.24"/>
<path style="&st9;" d="M2791.32,111.38c0,2.35,1.9,4.25,4.25,4.25"/>
<path style="&st9;" d="M2799.82,115.63c2.34,0,4.25-1.9,4.25-4.25"/>
<path style="&st9;" d="M2804.07,111.38c0-2.34-1.91-4.24-4.25-4.24"/>
<text transform="matrix(1 0 0 1 2789.0762 35.4253)" style="&st8;"><tspan x="0" y="0" style="&st29; &st17;">(BAT)</tspan></text>
<text transform="matrix(1 0 0 1 2795.626 113.3501)" style="&st8;"><tspan x="0" y="0" style="&st29; &st17;">1</tspan></text>
<text transform="matrix(1 0 0 1 2814.9961 57.0151)" style="&st8;"><tspan x="0" y="0" style="&st29; &st17;">20A</tspan></text>
<text transform="matrix(1 0 0 1 2814.9961 63.0151)" style="&st8;"><tspan x="0" y="0" style="&st29; &st17;">RAD </tspan><tspan x="0" y="7" style="&st29; &st17;">NO.1</tspan></text>
<text transform="matrix(1 0 0 1 2790.6484 89.8149)" style="&st8;"><tspan x="0" y="0" style="&st29; &st17;">2</tspan></text>
</g>
<g ewd:code="2" ewd:figID="3006" ewd:figtype="jb">
<path style="&st6;" d="M2626.33,39.26v42.49h25.49V39.26H2626.33"/>
<path style="&st9;" d="M2626.33,39.26v42.49h25.49V39.26H2626.33"/>
<path style="&st9;" d="M2639.07,50.59c-2.73,1.61-3.64,5.14-2.03,7.88"/>
<path style="&st9;" d="M2637.04,58.47c0.52,0.88,1.15,1.52,2.03,2.04"/>
<path style="&st9;" d="M2639.07,70.42c2.74-1.61,3.65-5.14,2.04-7.88"/>
<path style="&st9;" d="M2641.11,62.54c-0.52-0.88-1.15-1.51-2.04-2.03"/>
<path style="&st15;" d="M2640.49,49.17c0-0.78-0.63-1.41-1.42-1.41"/>
<path style="&st15;" d="M2639.07,47.76c-0.78,0-1.41,0.63-1.41,1.41"/>
<path style="&st15;" d="M2637.66,49.17c0,0.79,0.63,1.42,1.41,1.42"/>
<path style="&st15;" d="M2639.07,50.59c0.79,0,1.42-0.63,1.42-1.42"/>
<path style="&st15;" d="M2640.49,71.84c0-0.79-0.63-1.42-1.42-1.42"/>
<path style="&st15;" d="M2639.07,70.42c-0.78,0-1.41,0.63-1.41,1.42"/>
<path style="&st15;" d="M2637.66,71.84c0,0.78,0.63,1.41,1.41,1.41"/>
<path style="&st15;" d="M2639.07,73.25c0.79,0,1.42-0.63,1.42-1.41"/>
<path style="&st7;" d="M2639.07,102.37l-2.83-2.83v4.25l2.83,2.83l2.83-2.83v-4.25L2639.07,102.37"/>
<path style="&st15;" d="M2639.07,107.27V73.25"/>
<path style="&st9;" d="M2641.2,107.27h-4.25"/>
<path style="&st9;" d="M2641.2,115.76h-4.25"/>
<path style="&st9;" d="M2636.95,107.27c-2.35,0-4.25,1.9-4.25,4.24"/>
<path style="&st9;" d="M2632.7,111.51c0,2.35,1.9,4.25,4.25,4.25"/>
<path style="&st9;" d="M2641.2,115.76c2.34,0,4.25-1.9,4.25-4.25"/>
<path style="&st9;" d="M2645.45,111.51c0-2.34-1.91-4.24-4.25-4.24"/>
<text transform="matrix(1 0 0 1 2634.4609 35.5562)" style="&st8;"><tspan x="0" y="0" style="&st29; &st17;">(IG)</tspan></text>
<text transform="matrix(1 0 0 1 2635.0107 113.481)" style="&st8;"><tspan x="0" y="0" style="&st29; &st17;">2D</tspan></text>
<text transform="matrix(1 0 0 1 2624.0869 113.481)" style="&st8;"><tspan x="0" y="0" style="&st29; &st17;">39</tspan></text>
<text transform="matrix(1 0 0 1 2656.3809 59.646)" style="&st8;"><tspan x="0" y="0" style="&st29; &st17;">10A</tspan></text>
<text transform="matrix(1 0 0 1 2656.3809 65.646)" style="&st8;"><tspan x="0" y="0" style="&st29; &st17;">ECU-IG </tspan><tspan x="0" y="7" style="&st29; &st17;">NO.2</tspan></text>
</g>
<g ewd:code="3JB" ewd:figID="3005" ewd:figtype="jb">
<path style="&st9;" d="M2640.76,205.83h-4.25"/>
<path style="&st9;" d="M2640.76,197.33h-4.25"/>
<path style="&st9;" d="M2640.76,163.34h-4.25"/>
<path style="&st9;" d="M2640.76,154.84h-4.25"/>
<path style="&st15;" d="M2638.63,197.33v-33.99"/>
<path style="&st7;" d="M2638.63,192.44l-2.83-2.84v4.25l2.83,2.84l2.83-2.84v-4.25L2638.63,192.44"/>
<path style="&st7;" d="M2638.63,168.23l2.83,2.83v-4.24l-2.83-2.84l-2.83,2.84v4.24L2638.63,168.23"/>
<path style="&st9;" d="M2636.51,154.84c-2.35,0-4.25,1.9-4.25,4.25"/>
<path style="&st9;" d="M2632.26,159.09c0,2.34,1.9,4.25,4.25,4.25"/>
<path style="&st9;" d="M2640.76,163.34c2.34,0,4.25-1.91,4.25-4.25"/>
<path style="&st9;" d="M2645.01,159.09c0-2.35-1.91-4.25-4.25-4.25"/>
<path style="&st9;" d="M2636.51,197.33c-2.35,0-4.25,1.9-4.25,4.25"/>
<path style="&st9;" d="M2632.26,201.58c0,2.35,1.9,4.25,4.25,4.25"/>
<path style="&st9;" d="M2640.76,205.83c2.34,0,4.25-1.9,4.25-4.25"/>
<path style="&st9;" d="M2645.01,201.58c0-2.35-1.91-4.25-4.25-4.25"/>
<text transform="matrix(1 0 0 1 2634.1768 161.0562)" style="&st8;"><tspan x="0" y="0" style="&st29; &st17;">3B</tspan></text>
<text transform="matrix(1 0 0 1 2634.3154 203.5464)" style="&st8;"><tspan x="0" y="0" style="&st29; &st17;">3A</tspan></text>
<text transform="matrix(1 0 0 1 2621.999 161.0562)" style="&st8;"><tspan x="0" y="0" style="&st29; &st17;">36</tspan></text>
<text transform="matrix(1 0 0 1 2621.999 203.5464)" style="&st8;"><tspan x="0" y="0" style="&st29; &st17;">19</tspan></text>
</g>
<g ewd:code="H24" ewd:figID="5" ewd:figtype="conn">
<path style="&st9;" d="M2517.27,148.64h21.75v21.4h-21.75V148.64"/>
<path style="&st15;" d="M2528.15,148.64v21.4"/>
<path style="&st9;" d="M2532.68,144.11c0-2.5-2.02-4.53-4.53-4.53"/>
<path style="&st9;" d="M2528.15,139.58c-2.5,0-4.53,2.03-4.53,4.53"/>
<path style="&st9;" d="M2523.62,144.11c0,2.5,2.03,4.53,4.53,4.53"/>
<path style="&st9;" d="M2528.15,148.64c2.51,0,4.53-2.03,4.53-4.53"/>
<path style="&st9;" d="M2532.68,174.57c0-2.5-2.02-4.53-4.53-4.53"/>
<path style="&st9;" d="M2528.15,170.04c-2.5,0-4.53,2.03-4.53,4.53"/>
<path style="&st9;" d="M2523.62,174.57c0,2.5,2.03,4.53,4.53,4.53"/>
<path style="&st9;" d="M2528.15,179.1c2.51,0,4.53-2.03,4.53-4.53"/>
<text transform="matrix(0 -1 1 0 2546.6338 172.5684)" style="&st8;"><tspan x="0" y="0" style="&st29; &st17;">H24(A)</tspan></text>
<text ewd:textID='32' transform='matrix(0 -1 1 0 2553.7432 172.5684)' style='&st8; &st29; &st17;'>Junction Connector</text>
<text transform="matrix(1 0 0 1 2525.8193 146.0781)" style="&st8;"><tspan x="0" y="0" style="&st29; &st17;">A</tspan></text>
<text transform="matrix(1 0 0 1 2517.7715 146.0781)" style="&st8;"><tspan x="0" y="0" style="&st29; &st17;">9</tspan></text>
<text transform="matrix(1 0 0 1 2525.8193 176.5371)" style="&st8;"><tspan x="0" y="0" style="&st29; &st17;">A</tspan></text>
<text transform="matrix(1 0 0 1 2517.7715 176.5371)" style="&st8;"><tspan x="0" y="0" style="&st29; &st17;">8</tspan></text>
</g>
<g ewd:code="H24,H25" ewd:figID="6" ewd:figtype="conn">
<path style="&st9;" d="M2726.47,178.92v25.51h21.75v-25.51H2726.47"/>
<path style="&st35;" d="M2726.47,187.43h21.75"/>
<path style="&st35;" d="M2726.47,195.93h21.75"/>
<path style="&st37;" d="M2737.34,178.92v25.51"/>
<path style="&st9;" d="M2741.87,174.4c0-2.5-2.02-4.53-4.53-4.53"/>
<path style="&st9;" d="M2737.34,169.86c-2.5,0-4.53,2.03-4.53,4.53"/>
<path style="&st9;" d="M2732.81,174.4c0,2.5,2.03,4.53,4.53,4.53"/>
<path style="&st9;" d="M2737.34,178.92c2.51,0,4.53-2.03,4.53-4.53"/>
<path style="&st9;" d="M2741.87,208.96c0-2.5-2.02-4.53-4.53-4.53"/>
<path style="&st9;" d="M2737.34,204.43c-2.5,0-4.53,2.03-4.53,4.53"/>
<path style="&st9;" d="M2732.81,208.96c0,2.51,2.03,4.54,4.53,4.54"/>
<path style="&st9;" d="M2737.34,213.5c2.51,0,4.53-2.03,4.53-4.54"/>
<text transform="matrix(1 0 0 1 2735.0107 176.3647)" style="&st8;"><tspan x="0" y="0" style="&st29; &st17;">A</tspan></text>
<text transform="matrix(1 0 0 1 2724.0713 176.3647)" style="&st8;"><tspan x="0" y="0" style="&st29; &st17;">11</tspan></text>
<text transform="matrix(1 0 0 1 2726.9629 210.9321)" style="&st8;"><tspan x="0" y="0" style="&st29; &st17;">1</tspan></text>
<text transform="matrix(1 0 0 1 2735.0107 210.9321)" style="&st8;"><tspan x="0" y="0" style="&st29; &st17;">B</tspan></text>
<text transform="matrix(0 -1 1 0 2755.8252 206.9634)" style="&st8;"><tspan x="0" y="0" style="&st29; &st17;">H24(A),H25(B)</tspan></text>
<text ewd:textID='32' transform='matrix(0 -1 1 0 2762.9346 206.9634)' style='&st8; &st29; &st17;'>Junction Connector</text>
</g>
<g ewd:code="H55,H57,H53,H54,H56,H58" ewd:figID="7" ewd:figtype="conn">
<path style="&st9;" d="M2850.68,69v34.01h4045.64V69H2850.68"/>
<path style="&st9;" d="M2875.85,107.55c0-2.51-2.03-4.54-4.54-4.54"/>
<path style="&st9;" d="M2871.31,103.01c-2.5,0-4.53,2.03-4.53,4.54"/>
<path style="&st9;" d="M2866.78,107.55c0,2.5,2.03,4.53,4.53,4.53"/>
<path style="&st9;" d="M2871.31,112.08c2.51,0,4.54-2.03,4.54-4.53"/>
<path style="&st9;" d="M2908.72,107.55c0-2.51-2.03-4.54-4.54-4.54"/>
<path style="&st9;" d="M2904.18,103.01c-2.5,0-4.53,2.03-4.53,4.54"/>
<path style="&st9;" d="M2899.65,107.55c0,2.5,2.03,4.53,4.53,4.53"/>
<path style="&st9;" d="M2904.18,112.08c2.51,0,4.54-2.03,4.54-4.53"/>
<path style="&st9;" d="M2941.62,107.55c0-2.51-2.03-4.54-4.54-4.54"/>
<path style="&st9;" d="M2937.08,103.01c-2.5,0-4.53,2.03-4.53,4.54"/>
<path style="&st9;" d="M2932.54,107.55c0,2.5,2.03,4.53,4.53,4.53"/>
<path style="&st9;" d="M2937.08,112.08c2.51,0,4.54-2.03,4.54-4.53"/>
<path style="&st9;" d="M2974.49,107.55c0-2.51-2.03-4.54-4.54-4.54"/>
<path style="&st9;" d="M2969.96,103.01c-2.5,0-4.53,2.03-4.53,4.54"/>
<path style="&st9;" d="M2965.42,107.55c0,2.5,2.03,4.53,4.53,4.53"/>
<path style="&st9;" d="M2969.96,112.08c2.51,0,4.54-2.03,4.54-4.53"/>
<path style="&st9;" d="M3007.35,107.55c0-2.51-2.03-4.54-4.54-4.54"/>
<path style="&st9;" d="M3002.82,103.01c-2.5,0-4.53,2.03-4.53,4.54"/>
<path style="&st9;" d="M2998.28,107.55c0,2.5,2.03,4.53,4.53,4.53"/>
<path style="&st9;" d="M3002.82,112.08c2.51,0,4.54-2.03,4.54-4.53"/>
<path style="&st9;" d="M3037.36,107.55c0-2.51-2.03-4.54-4.54-4.54"/>
<path style="&st9;" d="M3032.83,103.01c-2.5,0-4.53,2.03-4.53,4.54"/>
<path style="&st9;" d="M3028.29,107.55c0,2.5,2.03,4.53,4.53,4.53"/>
<path style="&st9;" d="M3032.83,112.08c2.51,0,4.54-2.03,4.54-4.53"/>
<path style="&st9;" d="M3070.23,107.55c0-2.51-2.03-4.54-4.54-4.54"/>
<path style="&st9;" d="M3065.7,103.01c-2.5,0-4.53,2.03-4.53,4.54"/>
<path style="&st9;" d="M3061.16,107.55c0,2.5,2.03,4.53,4.53,4.53"/>
<path style="&st9;" d="M3065.7,112.08c2.51,0,4.54-2.03,4.54-4.53"/>
<path style="&st9;" d="M3181.57,107.55c0-2.51-2.03-4.54-4.54-4.54"/>
<path style="&st9;" d="M3177.03,103.01c-2.5,0-4.53,2.03-4.53,4.54"/>
<path style="&st9;" d="M3172.5,107.55c0,2.5,2.03,4.53,4.53,4.53"/>
<path style="&st9;" d="M3177.03,112.08c2.51,0,4.54-2.03,4.54-4.53"/>
<path style="&st9;" d="M3211.58,107.55c0-2.51-2.03-4.54-4.54-4.54"/>
<path style="&st9;" d="M3207.04,103.01c-2.5,0-4.53,2.03-4.53,4.54"/>
<path style="&st9;" d="M3202.51,107.55c0,2.5,2.03,4.53,4.53,4.53"/>
<path style="&st9;" d="M3207.04,112.08c2.51,0,4.54-2.03,4.54-4.53"/>
<path style="&st9;" d="M3244.46,107.55c0-2.51-2.03-4.54-4.54-4.54"/>
<path style="&st9;" d="M3239.92,103.01c-2.5,0-4.53,2.03-4.53,4.54"/>
<path style="&st9;" d="M3235.39,107.55c0,2.5,2.03,4.53,4.53,4.53"/>
<path style="&st9;" d="M3239.92,112.08c2.51,0,4.54-2.03,4.54-4.53"/>
<path style="&st9;" d="M3277.34,107.55c0-2.51-2.03-4.54-4.54-4.54"/>
<path style="&st9;" d="M3272.8,103.01c-2.5,0-4.53,2.03-4.53,4.54"/>
<path style="&st9;" d="M3268.27,107.55c0,2.5,2.03,4.53,4.53,4.53"/>
<path style="&st9;" d="M3272.8,112.08c2.51,0,4.54-2.03,4.54-4.53"/>
<path style="&st9;" d="M3310.22,107.55c0-2.51-2.03-4.54-4.54-4.54"/>
<path style="&st9;" d="M3305.68,103.01c-2.5,0-4.53,2.03-4.53,4.54"/>
<path style="&st9;" d="M3301.15,107.55c0,2.5,2.03,4.53,4.53,4.53"/>
<path style="&st9;" d="M3305.68,112.08c2.51,0,4.54-2.03,4.54-4.53"/>
<path style="&st9;" d="M4601.77,107.55c0-2.51-2.03-4.54-4.54-4.54"/>
<path style="&st9;" d="M4597.23,103.01c-2.5,0-4.53,2.03-4.53,4.54"/>
<path style="&st9;" d="M4592.7,107.55c0,2.5,2.03,4.53,4.53,4.53"/>
<path style="&st9;" d="M4597.23,112.08c2.51,0,4.54-2.03,4.54-4.53"/>
<path style="&st9;" d="M6497.03,107.55c0-2.51-2.03-4.54-4.54-4.54"/>
<path style="&st9;" d="M6492.49,103.01c-2.5,0-4.53,2.03-4.53,4.54"/>
<path style="&st9;" d="M6487.96,107.55c0,2.5,2.03,4.53,4.53,4.53"/>
<path style="&st9;" d="M6492.49,112.08c2.51,0,4.54-2.03,4.54-4.53"/>
<path style="&st9;" d="M4846.81,107.55c0-2.51-2.03-4.54-4.54-4.54"/>
<path style="&st9;" d="M4842.27,103.01c-2.5,0-4.53,2.03-4.53,4.54"/>
<path style="&st9;" d="M4837.74,107.55c0,2.5,2.03,4.53,4.53,4.53"/>
<path style="&st9;" d="M4842.27,112.08c2.51,0,4.54-2.03,4.54-4.53"/>
<path style="&st9;" d="M4786.81,107.55c0-2.51-2.03-4.54-4.54-4.54"/>
<path style="&st9;" d="M4782.27,103.01c-2.5,0-4.53,2.03-4.53,4.54"/>
<path style="&st9;" d="M4777.74,107.55c0,2.5,2.03,4.53,4.53,4.53"/>
<path style="&st9;" d="M4782.27,112.08c2.51,0,4.54-2.03,4.54-4.53"/>
<path style="&st9;" d="M6845.86,107.55c0-2.51-2.03-4.54-4.54-4.54"/>
<path style="&st9;" d="M6841.32,103.01c-2.5,0-4.53,2.03-4.53,4.54"/>
<path style="&st9;" d="M6836.79,107.55c0,2.5,2.03,4.53,4.53,4.53"/>
<path style="&st9;" d="M6841.32,112.08c2.51,0,4.54-2.03,4.54-4.53"/>
<path style="&st9;" d="M6885.86,107.55c0-2.51-2.03-4.54-4.54-4.54"/>
<path style="&st9;" d="M6881.32,103.01c-2.5,0-4.53,2.03-4.53,4.54"/>
<path style="&st9;" d="M6876.79,107.55c0,2.5,2.03,4.53,4.53,4.53"/>
<path style="&st9;" d="M6881.32,112.08c2.51,0,4.54-2.03,4.54-4.53"/>
<path style="&st9;" d="M3390.22,107.55c0-2.51-2.03-4.54-4.54-4.54"/>
<path style="&st9;" d="M3385.68,103.01c-2.5,0-4.53,2.03-4.53,4.54"/>
<path style="&st9;" d="M3381.15,107.55c0,2.5,2.03,4.53,4.53,4.53"/>
<path style="&st9;" d="M3385.68,112.08c2.51,0,4.54-2.03,4.54-4.53"/>
<path style="&st9;" d="M3432.71,107.55c0-2.51-2.03-4.54-4.54-4.54"/>
<path style="&st9;" d="M3428.17,103.01c-2.5,0-4.53,2.03-4.53,4.54"/>
<path style="&st9;" d="M3423.64,107.55c0,2.5,2.03,4.53,4.53,4.53"/>
<path style="&st9;" d="M3428.17,112.08c2.51,0,4.54-2.03,4.54-4.53"/>
<path style="&st9;" d="M3475.24,107.55c0-2.51-2.03-4.54-4.54-4.54"/>
<path style="&st9;" d="M3470.71,103.01c-2.5,0-4.53,2.03-4.53,4.54"/>
<path style="&st9;" d="M3466.17,107.55c0,2.5,2.03,4.53,4.53,4.53"/>
<path style="&st9;" d="M3470.71,112.08c2.51,0,4.54-2.03,4.54-4.53"/>
<path style="&st9;" d="M3517.76,107.55c0-2.51-2.03-4.54-4.54-4.54"/>
<path style="&st9;" d="M3513.22,103.01c-2.5,0-4.53,2.03-4.53,4.54"/>
<path style="&st9;" d="M3508.69,107.55c0,2.5,2.03,4.53,4.53,4.53"/>
<path style="&st9;" d="M3513.22,112.08c2.51,0,4.54-2.03,4.54-4.53"/>
<path style="&st9;" d="M3560.25,107.55c0-2.51-2.03-4.54-4.54-4.54"/>
<path style="&st9;" d="M3555.71,103.01c-2.5,0-4.53,2.03-4.53,4.54"/>
<path style="&st9;" d="M3551.18,107.55c0,2.5,2.03,4.53,4.53,4.53"/>
<path style="&st9;" d="M3555.71,112.08c2.51,0,4.54-2.03,4.54-4.53"/>
<path style="&st9;" d="M3687.06,107.55c0-2.51-2.03-4.54-4.54-4.54"/>
<path style="&st9;" d="M3682.52,103.01c-2.5,0-4.53,2.03-4.53,4.54"/>
<path style="&st9;" d="M3677.99,107.55c0,2.5,2.03,4.53,4.53,4.53"/>
<path style="&st9;" d="M3682.52,112.08c2.51,0,4.54-2.03,4.54-4.53"/>
<path style="&st9;" d="M3728.21,107.55c0-2.51-2.03-4.54-4.54-4.54"/>
<path style="&st9;" d="M3723.67,103.01c-2.5,0-4.53,2.03-4.53,4.54"/>
<path style="&st9;" d="M3719.13,107.55c0,2.5,2.03,4.53,4.53,4.53"/>
<path style="&st9;" d="M3723.67,112.08c2.51,0,4.54-2.03,4.54-4.53"/>
<path style="&st9;" d="M3799.23,107.55c0-2.51-2.03-4.54-4.54-4.54"/>
<path style="&st9;" d="M3794.69,103.01c-2.5,0-4.53,2.03-4.53,4.54"/>
<path style="&st9;" d="M3790.16,107.55c0,2.5,2.03,4.53,4.53,4.53"/>
<path style="&st9;" d="M3794.69,112.08c2.51,0,4.54-2.03,4.54-4.53"/>
<path style="&st9;" d="M3841.78,107.55c0-2.51-2.03-4.54-4.54-4.54"/>
<path style="&st9;" d="M3837.24,103.01c-2.5,0-4.53,2.03-4.53,4.54"/>
<path style="&st9;" d="M3832.71,107.55c0,2.5,2.03,4.53,4.53,4.53"/>
<path style="&st9;" d="M3837.24,112.08c2.51,0,4.54-2.03,4.54-4.53"/>
<path style="&st9;" d="M4009.76,107.55c0-2.51-2.03-4.54-4.54-4.54"/>
<path style="&st9;" d="M4005.22,103.01c-2.5,0-4.53,2.03-4.53,4.54"/>
<path style="&st9;" d="M4000.69,107.55c0,2.5,2.03,4.53,4.53,4.53"/>
<path style="&st9;" d="M4005.22,112.08c2.51,0,4.54-2.03,4.54-4.53"/>
<path style="&st9;" d="M4052.24,107.55c0-2.51-2.03-4.54-4.54-4.54"/>
<path style="&st9;" d="M4047.7,103.01c-2.5,0-4.53,2.03-4.53,4.54"/>
<path style="&st9;" d="M4043.17,107.55c0,2.5,2.03,4.53,4.53,4.53"/>
<path style="&st9;" d="M4047.7,112.08c2.51,0,4.54-2.03,4.54-4.53"/>
<path style="&st9;" d="M4095,107.55c0-2.51-2.03-4.54-4.54-4.54"/>
<path style="&st9;" d="M4090.46,103.01c-2.5,0-4.53,2.03-4.53,4.54"/>
<path style="&st9;" d="M4085.92,107.55c0,2.5,2.03,4.53,4.53,4.53"/>
<path style="&st9;" d="M4090.46,112.08c2.51,0,4.54-2.03,4.54-4.53"/>
<path style="&st9;" d="M5278.83,107.55c0-2.51-2.03-4.54-4.54-4.54"/>
<path style="&st9;" d="M5274.29,103.01c-2.5,0-4.53,2.03-4.53,4.54"/>
<path style="&st9;" d="M5269.76,107.55c0,2.5,2.03,4.53,4.53,4.53"/>
<path style="&st9;" d="M5274.29,112.08c2.51,0,4.54-2.03,4.54-4.53"/>
<path style="&st9;" d="M5321.29,107.55c0-2.51-2.03-4.54-4.54-4.54"/>
<path style="&st9;" d="M5316.75,103.01c-2.5,0-4.53,2.03-4.53,4.54"/>
<path style="&st9;" d="M5312.22,107.55c0,2.5,2.03,4.53,4.53,4.53"/>
<path style="&st9;" d="M5316.75,112.08c2.51,0,4.54-2.03,4.54-4.53"/>
<path style="&st9;" d="M5363.84,107.55c0-2.51-2.03-4.54-4.54-4.54"/>
<path style="&st9;" d="M5359.3,103.01c-2.5,0-4.53,2.03-4.53,4.54"/>
<path style="&st9;" d="M5354.77,107.55c0,2.5,2.03,4.53,4.53,4.53"/>
<path style="&st9;" d="M5359.3,112.08c2.51,0,4.54-2.03,4.54-4.53"/>
<path style="&st9;" d="M5456.26,107.55c0-2.51-2.03-4.54-4.54-4.54"/>
<path style="&st9;" d="M5451.72,103.01c-2.5,0-4.53,2.03-4.53,4.54"/>
<path style="&st9;" d="M5447.19,107.55c0,2.5,2.03,4.53,4.53,4.53"/>
<path style="&st9;" d="M5451.72,112.08c2.51,0,4.54-2.03,4.54-4.53"/>
<path style="&st9;" d="M5520.36,107.55c0-2.51-2.03-4.54-4.54-4.54"/>
<path style="&st9;" d="M5515.82,103.01c-2.5,0-4.53,2.03-4.53,4.54"/>
<path style="&st9;" d="M5511.29,107.55c0,2.5,2.03,4.53,4.53,4.53"/>
<path style="&st9;" d="M5515.82,112.08c2.51,0,4.54-2.03,4.54-4.53"/>
<path style="&st9;" d="M5562.93,107.55c0-2.51-2.03-4.54-4.54-4.54"/>
<path style="&st9;" d="M5558.39,103.01c-2.5,0-4.53,2.03-4.53,4.54"/>
<path style="&st9;" d="M5553.86,107.55c0,2.5,2.03,4.53,4.53,4.53"/>
<path style="&st9;" d="M5558.39,112.08c2.51,0,4.54-2.03,4.54-4.53"/>
<path style="&st9;" d="M5235.22,107.55c0-2.51-2.03-4.54-4.54-4.54"/>
<path style="&st9;" d="M5230.68,103.01c-2.5,0-4.53,2.03-4.53,4.54"/>
<path style="&st9;" d="M5226.15,107.55c0,2.5,2.03,4.53,4.53,4.53"/>
<path style="&st9;" d="M5230.68,112.08c2.51,0,4.54-2.03,4.54-4.53"/>
<path style="&st9;" d="M5406.37,107.55c0-2.51-2.03-4.54-4.54-4.54"/>
<path style="&st9;" d="M5401.83,103.01c-2.5,0-4.53,2.03-4.53,4.54"/>
<path style="&st9;" d="M5397.29,107.55c0,2.5,2.03,4.53,4.53,4.53"/>
<path style="&st9;" d="M5401.83,112.08c2.51,0,4.54-2.03,4.54-4.53"/>
<path style="&st9;" d="M5605.38,107.55c0-2.51-2.03-4.54-4.54-4.54"/>
<path style="&st9;" d="M5600.84,103.01c-2.5,0-4.53,2.03-4.53,4.54"/>
<path style="&st9;" d="M5596.31,107.55c0,2.5,2.03,4.53,4.53,4.53"/>
<path style="&st9;" d="M5600.84,112.08c2.51,0,4.54-2.03,4.54-4.53"/>
<path style="&st9;" d="M4907.76,103.01c-2.5,0-4.53,2.03-4.53,4.54"/>
<path style="&st9;" d="M4963.29,107.55c0-2.51-2.03-4.54-4.54-4.54"/>
<path style="&st9;" d="M4958.75,103.01c-2.5,0-4.53,2.03-4.53,4.54"/>
<path style="&st9;" d="M4954.22,107.55c0,2.5,2.03,4.53,4.53,4.53"/>
<path style="&st9;" d="M4958.75,112.08c2.51,0,4.54-2.03,4.54-4.53"/>
<path style="&st9;" d="M5014.28,107.55c0-2.51-2.03-4.54-4.53-4.54"/>
<path style="&st9;" d="M5009.75,103.01c-2.51,0-4.54,2.03-4.54,4.54"/>
<path style="&st9;" d="M5005.21,107.55c0,2.5,2.03,4.53,4.54,4.53"/>
<path style="&st9;" d="M5009.75,112.08c2.5,0,4.53-2.03,4.53-4.53"/>
<path style="&st9;" d="M4912.3,107.55c0-2.51-2.03-4.54-4.54-4.54"/>
<path style="&st9;" d="M4903.23,107.55c0,2.5,2.03,4.53,4.53,4.53"/>
<path style="&st9;" d="M4907.76,112.08c2.51,0,4.54-2.03,4.54-4.53"/>
<path style="&st9;" d="M5773.63,107.55c0-2.51-2.03-4.54-4.54-4.54"/>
<path style="&st9;" d="M5769.09,103.01c-2.5,0-4.53,2.03-4.53,4.54"/>
<path style="&st9;" d="M5764.56,107.55c0,2.5,2.03,4.53,4.53,4.53"/>
<path style="&st9;" d="M5769.09,112.08c2.51,0,4.54-2.03,4.54-4.53"/>
<path style="&st9;" d="M5816.14,107.55c0-2.51-2.03-4.54-4.54-4.54"/>
<path style="&st9;" d="M5811.6,103.01c-2.5,0-4.53,2.03-4.53,4.54"/>
<path style="&st9;" d="M5807.07,107.55c0,2.5,2.03,4.53,4.53,4.53"/>
<path style="&st9;" d="M5811.6,112.08c2.51,0,4.54-2.03,4.54-4.53"/>
<path style="&st9;" d="M5858.66,107.55c0-2.51-2.03-4.54-4.54-4.54"/>
<path style="&st9;" d="M5854.12,103.01c-2.5,0-4.53,2.03-4.53,4.54"/>
<path style="&st9;" d="M5849.59,107.55c0,2.5,2.03,4.53,4.53,4.53"/>
<path style="&st9;" d="M5854.12,112.08c2.51,0,4.54-2.03,4.54-4.53"/>
<path style="&st9;" d="M5901.17,107.55c0-2.51-2.03-4.54-4.54-4.54"/>
<path style="&st9;" d="M5896.63,103.01c-2.5,0-4.53,2.03-4.53,4.54"/>
<path style="&st9;" d="M5892.1,107.55c0,2.5,2.03,4.53,4.53,4.53"/>
<path style="&st9;" d="M5896.63,112.08c2.51,0,4.54-2.03,4.54-4.53"/>
<text transform="matrix(1 0 0 1 2869.1855 109.5176)" style="&st8;"><tspan x="0" y="0" style="&st29; &st17;">D</tspan></text>
<text transform="matrix(1 0 0 1 2860.5186 109.5176)" style="&st8;"><tspan x="0" y="0" style="&st29; &st17;">4</tspan></text>
<text transform="matrix(1 0 0 1 2865.1621 99.2598)" style="&st8;"><tspan x="0" y="0" style="&st29; &st17;">+B1</tspan></text>
<text transform="matrix(1 0 0 1 2902.0557 109.5176)" style="&st8;"><tspan x="0" y="0" style="&st29; &st17;">E</tspan></text>
<text transform="matrix(1 0 0 1 2893.3887 109.5176)" style="&st8;"><tspan x="0" y="0" style="&st29; &st17;">1</tspan></text>
<text transform="matrix(1 0 0 1 2901.0322 99.2598)" style="&st8;"><tspan x="0" y="0" style="&st29; &st17;">IG</tspan></text>
<text transform="matrix(1 0 0 1 2934.9551 109.5176)" style="&st8;"><tspan x="0" y="0" style="&st29; &st17;">D</tspan></text>
<text transform="matrix(1 0 0 1 2926.2881 109.5176)" style="&st8;"><tspan x="0" y="0" style="&st29; &st17;">3</tspan></text>
<text transform="matrix(1 0 0 1 2928.9316 99.2598)" style="&st8;"><tspan x="0" y="0" style="&st29; &st17;">ACC1</tspan></text>
<text transform="matrix(1 0 0 1 2967.834 109.5176)" style="&st8;"><tspan x="0" y="0" style="&st29; &st17;">E</tspan></text>
<text transform="matrix(1 0 0 1 2959.167 109.5176)" style="&st8;"><tspan x="0" y="0" style="&st29; &st17;">8</tspan></text>
<text transform="matrix(1 0 0 1 2963.8105 99.2598)" style="&st8;"><tspan x="0" y="0" style="&st29; &st17;">TX1-</tspan></text>
<text transform="matrix(1 0 0 1 3000.6943 109.5176)" style="&st8;"><tspan x="0" y="0" style="&st29; &st17;">E</tspan></text>
<text transform="matrix(1 0 0 1 2992.0273 109.5176)" style="&st8;"><tspan x="0" y="0" style="&st29; &st17;">7</tspan></text>
<text transform="matrix(1 0 0 1 2995.6709 99.2598)" style="&st8;"><tspan x="0" y="0" style="&st29; &st17;">TX1+</tspan></text>
<text transform="matrix(1 0 0 1 3030.7041 109.5176)" style="&st8;"><tspan x="0" y="0" style="&st29; &st17;">E</tspan></text>
<text transform="matrix(1 0 0 1 3018.7002 109.5176)" style="&st8;"><tspan x="0" y="0" style="&st29; &st17;">16</tspan></text>
<text transform="matrix(1 0 0 1 3024.1807 99.2598)" style="&st8;"><tspan x="0" y="0" style="&st29; &st17;">MUT1</tspan></text>
<text transform="matrix(1 0 0 1 3063.5742 109.5176)" style="&st8;"><tspan x="0" y="0" style="&st29; &st17;">D</tspan></text>
<text transform="matrix(1 0 0 1 3054.9072 109.5176)" style="&st8;"><tspan x="0" y="0" style="&st29; &st17;">5</tspan></text>
<text transform="matrix(1 0 0 1 3060.5508 99.2598)" style="&st8;"><tspan x="0" y="0" style="&st29; &st17;">FR-</tspan></text>
<text transform="matrix(1 0 0 1 3174.9082 109.5176)" style="&st8;"><tspan x="0" y="0" style="&st29; &st17;">D</tspan></text>
<text transform="matrix(1 0 0 1 3166.2412 109.5176)" style="&st8;"><tspan x="0" y="0" style="&st29; &st17;">1</tspan></text>
<text transform="matrix(1 0 0 1 3171.8848 99.2598)" style="&st8;"><tspan x="0" y="0" style="&st29; &st17;">FR+</tspan></text>
<text transform="matrix(1 0 0 1 3204.918 109.5176)" style="&st8;"><tspan x="0" y="0" style="&st29; &st17;">D</tspan></text>
<text transform="matrix(1 0 0 1 3196.251 109.5176)" style="&st8;"><tspan x="0" y="0" style="&st29; &st17;">6</tspan></text>
<text transform="matrix(1 0 0 1 3202.8945 99.2598)" style="&st8;"><tspan x="0" y="0" style="&st29; &st17;">FL-</tspan></text>
<text transform="matrix(1 0 0 1 3237.7979 109.5176)" style="&st8;"><tspan x="0" y="0" style="&st29; &st17;">D</tspan></text>
<text transform="matrix(1 0 0 1 3229.1309 109.5176)" style="&st8;"><tspan x="0" y="0" style="&st29; &st17;">2</tspan></text>
<text transform="matrix(1 0 0 1 3235.7744 99.2598)" style="&st8;"><tspan x="0" y="0" style="&st29; &st17;">FL+</tspan></text>
<text transform="matrix(1 0 0 1 3270.6777 109.5176)" style="&st8;"><tspan x="0" y="0" style="&st29; &st17;">C</tspan></text>
<text transform="matrix(1 0 0 1 3262.0107 109.5176)" style="&st8;"><tspan x="0" y="0" style="&st29; &st17;">6</tspan></text>
<text transform="matrix(1 0 0 1 3268.1543 99.2598)" style="&st8;"><tspan x="0" y="0" style="&st29; &st17;">RL-</tspan></text>
<text transform="matrix(1 0 0 1 3303.5557 109.5176)" style="&st8;"><tspan x="0" y="0" style="&st29; &st17;">C</tspan></text>
<text transform="matrix(1 0 0 1 3294.8887 109.5176)" style="&st8;"><tspan x="0" y="0" style="&st29; &st17;">2</tspan></text>
<text transform="matrix(1 0 0 1 3300.0322 99.2598)" style="&st8;"><tspan x="0" y="0" style="&st29; &st17;">RL+</tspan></text>
<text transform="matrix(1 0 0 1 4595.1064 109.5176)" style="&st8;"><tspan x="0" y="0" style="&st29; &st17;">D</tspan></text>
<text transform="matrix(1 0 0 1 4586.4395 109.5176)" style="&st8;"><tspan x="0" y="0" style="&st29; &st17;">7</tspan></text>
<text transform="matrix(1 0 0 1 4589.083 99.2598)" style="&st8;"><tspan x="0" y="0" style="&st29; &st17;">GND1</tspan></text>
<text transform="matrix(1 0 0 1 6490.3652 109.5176)" style="&st8;"><tspan x="0" y="0" style="&st29; &st17;">E</tspan></text>
<text transform="matrix(1 0 0 1 6481.6982 109.5176)" style="&st8;"><tspan x="0" y="0" style="&st29; &st17;">2</tspan></text>
<text transform="matrix(1 0 0 1 6485.8418 99.2598)" style="&st8;"><tspan x="0" y="0" style="&st29; &st17;">REV</tspan></text>
<text transform="matrix(1 0 0 1 4840.1484 109.5176)" style="&st8;"><tspan x="0" y="0" style="&st29; &st17;">E</tspan></text>
<text transform="matrix(1 0 0 1 4828.1445 109.5176)" style="&st8;"><tspan x="0" y="0" style="&st29; &st17;">15</tspan></text>
<text transform="matrix(1 0 0 1 4836.625 99.2598)" style="&st8;"><tspan x="0" y="0" style="&st29; &st17;">PKB</tspan></text>
<text transform="matrix(1 0 0 1 4780.1484 109.5176)" style="&st8;"><tspan x="0" y="0" style="&st29; &st17;">E</tspan></text>
<text transform="matrix(1 0 0 1 4768.1445 109.5176)" style="&st8;"><tspan x="0" y="0" style="&st29; &st17;">17</tspan></text>
<text transform="matrix(1 0 0 1 4776.625 99.2598)" style="&st8;"><tspan x="0" y="0" style="&st29; &st17;">SPD</tspan></text>
<text transform="matrix(1 0 0 1 6839.1992 109.5176)" style="&st8;"><tspan x="0" y="0" style="&st29; &st17;">E</tspan></text>
<text transform="matrix(1 0 0 1 6830.5322 109.5176)" style="&st8;"><tspan x="0" y="0" style="&st29; &st17;">9</tspan></text>
<text transform="matrix(1 0 0 1 6833.1758 99.2598)" style="&st8;"><tspan x="0" y="0" style="&st29; &st17;">CANH</tspan></text>
<text transform="matrix(1 0 0 1 6879.1992 109.5176)" style="&st8;"><tspan x="0" y="0" style="&st29; &st17;">E</tspan></text>
<text transform="matrix(1 0 0 1 6867.1953 109.5176)" style="&st8;"><tspan x="0" y="0" style="&st29; &st17;">10</tspan></text>
<text transform="matrix(1 0 0 1 6873.1758 99.2598)" style="&st8;"><tspan x="0" y="0" style="&st29; &st17;">CANL</tspan></text>
<text transform="matrix(1 0 0 1 3383.5557 109.5176)" style="&st8;"><tspan x="0" y="0" style="&st29; &st17;">E</tspan></text>
<text transform="matrix(1 0 0 1 3374.8887 109.5176)" style="&st8;"><tspan x="0" y="0" style="&st29; &st17;">6</tspan></text>
<text transform="matrix(1 0 0 1 3377.5322 99.2598)" style="&st8;"><tspan x="0" y="0" style="&st29; &st17;">SNS2</tspan></text>
<text transform="matrix(1 0 0 1 3426.0498 109.5176)" style="&st8;"><tspan x="0" y="0" style="&st29; &st17;">E</tspan></text>
<text transform="matrix(1 0 0 1 3417.3828 109.5176)" style="&st8;"><tspan x="0" y="0" style="&st29; &st17;">4</tspan></text>
<text transform="matrix(1 0 0 1 3419.5264 99.2598)" style="&st8;"><tspan x="0" y="0" style="&st29; &st17;">MACC</tspan></text>
<text transform="matrix(1 0 0 1 3468.584 109.5176)" style="&st8;"><tspan x="0" y="0" style="&st29; &st17;">E</tspan></text>
<text transform="matrix(1 0 0 1 3459.917 109.5176)" style="&st8;"><tspan x="0" y="0" style="&st29; &st17;">5</tspan></text>
<text transform="matrix(1 0 0 1 3464.0605 99.2598)" style="&st8;"><tspan x="0" y="0" style="&st29; &st17;">MIN+</tspan></text>
<text transform="matrix(1 0 0 1 3511.0986 109.5176)" style="&st8;"><tspan x="0" y="0" style="&st29; &st17;">E</tspan></text>
<text transform="matrix(1 0 0 1 3499.0947 109.5176)" style="&st8;"><tspan x="0" y="0" style="&st29; &st17;">19</tspan></text>
<text transform="matrix(1 0 0 1 3507.0752 99.2598)" style="&st8;"><tspan x="0" y="0" style="&st29; &st17;">MIN-</tspan></text>
<text transform="matrix(1 0 0 1 3553.5938 109.5176)" style="&st8;"><tspan x="0" y="0" style="&st29; &st17;">E</tspan></text>
<text transform="matrix(1 0 0 1 3541.5898 109.5176)" style="&st8;"><tspan x="0" y="0" style="&st29; &st17;">18</tspan></text>
<text transform="matrix(1 0 0 1 3546.5703 99.2598)" style="&st8;"><tspan x="0" y="0" style="&st29; &st17;">SGND</tspan></text>
<text transform="matrix(1 0 0 1 3680.4023 109.5176)" style="&st8;"><tspan x="0" y="0" style="&st29; &st17;">B</tspan></text>
<text transform="matrix(1 0 0 1 3671.7354 109.5176)" style="&st8;"><tspan x="0" y="0" style="&st29; &st17;">4</tspan></text>
<text transform="matrix(1 0 0 1 3676.3789 99.2598)" style="&st8;"><tspan x="0" y="0" style="&st29; &st17;">CDL+</tspan></text>
<text transform="matrix(1 0 0 1 3721.5449 109.5176)" style="&st8;"><tspan x="0" y="0" style="&st29; &st17;">B</tspan></text>
<text transform="matrix(1 0 0 1 3712.8779 109.5176)" style="&st8;"><tspan x="0" y="0" style="&st29; &st17;">5</tspan></text>
<text transform="matrix(1 0 0 1 3717.5215 99.2598)" style="&st8;"><tspan x="0" y="0" style="&st29; &st17;">CDL-</tspan></text>
<text transform="matrix(1 0 0 1 3792.5684 109.5176)" style="&st8;"><tspan x="0" y="0" style="&st29; &st17;">B</tspan></text>
<text transform="matrix(1 0 0 1 3783.9014 109.5176)" style="&st8;"><tspan x="0" y="0" style="&st29; &st17;">2</tspan></text>
<text transform="matrix(1 0 0 1 3788.5449 99.2598)" style="&st8;"><tspan x="0" y="0" style="&st29; &st17;">CDR+</tspan></text>
<text transform="matrix(1 0 0 1 3835.1221 109.5176)" style="&st8;"><tspan x="0" y="0" style="&st29; &st17;">B</tspan></text>
<text transform="matrix(1 0 0 1 3826.4551 109.5176)" style="&st8;"><tspan x="0" y="0" style="&st29; &st17;">3</tspan></text>
<text transform="matrix(1 0 0 1 3831.0986 99.2598)" style="&st8;"><tspan x="0" y="0" style="&st29; &st17;">CDR-</tspan></text>
<text transform="matrix(1 0 0 1 4003.1006 109.5176)" style="&st8;"><tspan x="0" y="0" style="&st29; &st17;">B</tspan></text>
<text transform="matrix(1 0 0 1 3994.4336 109.5176)" style="&st8;"><tspan x="0" y="0" style="&st29; &st17;">8</tspan></text>
<text transform="matrix(1 0 0 1 3996.5771 99.2598)" style="&st8;"><tspan x="0" y="0" style="&st29; &st17;">MUTE</tspan></text>
<text transform="matrix(1 0 0 1 4045.5771 109.5195)" style="&st8;"><tspan x="0" y="0" style="&st29; &st17;">B</tspan></text>
<text transform="matrix(1 0 0 1 4036.9102 109.5195)" style="&st8;"><tspan x="0" y="0" style="&st29; &st17;">9</tspan></text>
<text transform="matrix(1 0 0 1 4041.5537 99.2617)" style="&st8;"><tspan x="0" y="0" style="&st29; &st17;">TX+</tspan></text>
<text transform="matrix(1 0 0 1 4088.335 109.5195)" style="&st8;"><tspan x="0" y="0" style="&st29; &st17;">B</tspan></text>
<text transform="matrix(1 0 0 1 4076.3311 109.5195)" style="&st8;"><tspan x="0" y="0" style="&st29; &st17;">10</tspan></text>
<text transform="matrix(1 0 0 1 4084.3115 99.2617)" style="&st8;"><tspan x="0" y="0" style="&st29; &st17;">TX-</tspan></text>
<text transform="matrix(1 0 0 1 5272.1719 109.5176)" style="&st8;"><tspan x="0" y="0" style="&st29; &st17;">E</tspan></text>
<text transform="matrix(1 0 0 1 5260.168 109.5176)" style="&st8;"><tspan x="0" y="0" style="&st29; &st17;">28</tspan></text>
<text transform="matrix(1 0 0 1 5268.1484 99.2598)" style="&st8;"><tspan x="0" y="0" style="&st29; &st17;">VAL+</tspan></text>
<text transform="matrix(1 0 0 1 5314.6289 109.5176)" style="&st8;"><tspan x="0" y="0" style="&st29; &st17;">E</tspan></text>
<text transform="matrix(1 0 0 1 5302.625 109.5176)" style="&st8;"><tspan x="0" y="0" style="&st29; &st17;">26</tspan></text>
<text transform="matrix(1 0 0 1 5309.1055 99.2598)" style="&st8;"><tspan x="0" y="0" style="&st29; &st17;">VAR+</tspan></text>
<text transform="matrix(1 0 0 1 5357.1758 109.5176)" style="&st8;"><tspan x="0" y="0" style="&st29; &st17;">E</tspan></text>
<text transform="matrix(1 0 0 1 5345.1719 109.5176)" style="&st8;"><tspan x="0" y="0" style="&st29; &st17;">27</tspan></text>
<text transform="matrix(1 0 0 1 5354.6523 99.2598)" style="&st8;"><tspan x="0" y="0" style="&st29; &st17;">VA-</tspan></text>
<text transform="matrix(1 0 0 1 5449.6016 109.5176)" style="&st8;"><tspan x="0" y="0" style="&st29; &st17;">E</tspan></text>
<text transform="matrix(1 0 0 1 5437.5977 109.5176)" style="&st8;"><tspan x="0" y="0" style="&st29; &st17;">25</tspan></text>
<text transform="matrix(1 0 0 1 5444.0781 99.2598)" style="&st8;"><tspan x="0" y="0" style="&st29; &st17;">ADPG</tspan></text>
<text transform="matrix(1 0 0 1 5513.6973 109.5176)" style="&st8;"><tspan x="0" y="0" style="&st29; &st17;">E</tspan></text>
<text transform="matrix(1 0 0 1 5501.6934 109.5176)" style="&st8;"><tspan x="0" y="0" style="&st29; &st17;">13</tspan></text>
<text transform="matrix(1 0 0 1 5510.6738 99.2598)" style="&st8;"><tspan x="0" y="0" style="&st29; &st17;">VV+</tspan></text>
<text transform="matrix(1 0 0 1 5556.2695 109.5176)" style="&st8;"><tspan x="0" y="0" style="&st29; &st17;">E</tspan></text>
<text transform="matrix(1 0 0 1 5544.2656 109.5176)" style="&st8;"><tspan x="0" y="0" style="&st29; &st17;">14</tspan></text>
<text transform="matrix(1 0 0 1 5553.2461 99.2598)" style="&st8;"><tspan x="0" y="0" style="&st29; &st17;">VV-</tspan></text>
<text transform="matrix(1 0 0 1 5228.5586 109.5176)" style="&st8;"><tspan x="0" y="0" style="&st29; &st17;">F</tspan></text>
<text transform="matrix(1 0 0 1 5219.8916 109.5176)" style="&st8;"><tspan x="0" y="0" style="&st29; &st17;">1</tspan></text>
<text transform="matrix(1 0 0 1 5224.5352 99.2598)" style="&st8;"><tspan x="0" y="0" style="&st29; &st17;">USV</tspan></text>
<text transform="matrix(1 0 0 1 5399.7051 109.5171)" style="&st8;"><tspan x="0" y="0" style="&st29; &st17;">E</tspan></text>
<text transform="matrix(1 0 0 1 5388.1465 109.5171)" style="&st8;"><tspan x="0" y="0" style="&st29; &st17;">11</tspan></text>
<text transform="matrix(1 0 0 1 5392.6816 99.2593)" style="&st8;"><tspan x="0" y="0" style="&st29; &st17;">AGND</tspan></text>
<text transform="matrix(1 0 0 1 5598.7168 109.5171)" style="&st8;"><tspan x="0" y="0" style="&st29; &st17;">E</tspan></text>
<text transform="matrix(1 0 0 1 5586.7129 109.5171)" style="&st8;"><tspan x="0" y="0" style="&st29; &st17;">12</tspan></text>
<text transform="matrix(1 0 0 1 4893.6348 109.5171)" style="&st8;"><tspan x="0" y="0" style="&st29; &st17;">21</tspan></text>
<text transform="matrix(1 0 0 1 4995.625 109.5186)" style="&st8;"><tspan x="0" y="0" style="&st29; &st17;">22</tspan></text>
<text transform="matrix(1 0 0 1 4944.625 109.5171)" style="&st8;"><tspan x="0" y="0" style="&st29; &st17;">23</tspan></text>
<text transform="matrix(1 0 0 1 5596.6934 99.2593)" style="&st8;"><tspan x="0" y="0" style="&st29; &st17;">SG</tspan></text>
<text transform="matrix(1 0 0 1 4905.4297 109.5088)" style="&st8;"><tspan x="0" y="0" style="&st29; &st17;">E</tspan></text>
<text transform="matrix(1 0 0 1 4900.4902 99.3188)" style="&st8;"><tspan x="0" y="0" style="&st29; &st17;">SW1</tspan></text>
<text transform="matrix(1 0 0 1 4950.3086 99.3188)" style="&st8;"><tspan x="0" y="0" style="&st29; &st17;">SWG</tspan></text>
<text transform="matrix(1 0 0 1 5002.0801 99.3188)" style="&st8;"><tspan x="0" y="0" style="&st29; &st17;">SW2</tspan></text>
<text transform="matrix(1 0 0 1 4956.4199 109.5088)" style="&st8;"><tspan x="0" y="0" style="&st29; &st17;">E</tspan></text>
<text transform="matrix(1 0 0 1 5007.4102 109.5088)" style="&st8;"><tspan x="0" y="0" style="&st29; &st17;">E</tspan></text>
<text transform="matrix(1 0 0 1 5766.9688 109.5176)" style="&st8;"><tspan x="0" y="0" style="&st29; &st17;">A</tspan></text>
<text transform="matrix(1 0 0 1 5755.4102 109.5176)" style="&st8;"><tspan x="0" y="0" style="&st29; &st17;">11</tspan></text>
<text transform="matrix(1 0 0 1 5762.4453 99.2598)" style="&st8;"><tspan x="0" y="0" style="&st29; &st17;">CA+</tspan></text>
<text transform="matrix(1 0 0 1 5809.4834 109.5176)" style="&st8;"><tspan x="0" y="0" style="&st29; &st17;">A</tspan></text>
<text transform="matrix(1 0 0 1 5797.4795 109.5176)" style="&st8;"><tspan x="0" y="0" style="&st29; &st17;">24</tspan></text>
<text transform="matrix(1 0 0 1 5808.46 99.2598)" style="&st8;"><tspan x="0" y="0" style="&st29; &st17;">V-</tspan></text>
<text transform="matrix(1 0 0 1 5851.998 109.5176)" style="&st8;"><tspan x="0" y="0" style="&st29; &st17;">A</tspan></text>
<text transform="matrix(1 0 0 1 5839.9941 109.5176)" style="&st8;"><tspan x="0" y="0" style="&st29; &st17;">12</tspan></text>
<text transform="matrix(1 0 0 1 5850.9746 99.2598)" style="&st8;"><tspan x="0" y="0" style="&st29; &st17;">V+</tspan></text>
<text transform="matrix(1 0 0 1 5894.5127 109.5176)" style="&st8;"><tspan x="0" y="0" style="&st29; &st17;">A</tspan></text>
<text transform="matrix(1 0 0 1 5882.5088 109.5176)" style="&st8;"><tspan x="0" y="0" style="&st29; &st17;">23</tspan></text>
<text transform="matrix(1 0 0 1 5887.4893 99.2598)" style="&st8;"><tspan x="0" y="0" style="&st29; &st17;">CGND</tspan></text>
<text ewd:textID='37' transform='matrix(1 0 0 1 3822.5098 63.9116)' style='&st8; &st29; &st17;'>Navigation Receiver Assembly</text>
<text transform="matrix(1 0 0 1 3822.5098 56.8013)" style="&st8;"><tspan x="0" y="0" style="&st29; &st17;">H55(A),H57(B),H53(C),H54(D),H56(E) H58(F)</tspan></text>
<text ewd:textID='37' transform='matrix(1 0 0 1 3296.7979 63.9116)' style='&st8; &st29; &st17;'>Navigation Receiver Assembly</text>
<text transform="matrix(1 0 0 1 3296.7979 56.8013)" style="&st8;"><tspan x="0" y="0" style="&st29; &st17;">H55(A),H57(B),H53(C),H54(D),H56(E) H58(F)</tspan></text>
<text ewd:textID='37' transform='matrix(1 0 0 1 2917.7979 63.9116)' style='&st8; &st29; &st17;'>Navigation Receiver Assembly</text>
<text transform="matrix(1 0 0 1 2917.7979 56.8013)" style="&st8;"><tspan x="0" y="0" style="&st29; &st17;">H55(A),H57(B),H53(C),H54(D),H56(E) H58(F)</tspan></text>
<text ewd:textID='37' transform='matrix(1 0 0 1 4331.2734 63.9116)' style='&st8; &st29; &st17;'>Navigation Receiver Assembly</text>
<text transform="matrix(1 0 0 1 4331.2734 56.8013)" style="&st8;"><tspan x="0" y="0" style="&st29; &st17;">H55(A),H57(B),H53(C),H54(D),H56(E) H58(F)</tspan></text>
<text ewd:textID='37' transform='matrix(1 0 0 1 4886.2471 63.9116)' style='&st8; &st29; &st17;'>Navigation Receiver Assembly</text>
<text transform="matrix(1 0 0 1 4886.2471 56.8013)" style="&st8;"><tspan x="0" y="0" style="&st29; &st17;">H55(A),H57(B),H53(C),H54(D),H56(E) H58(F)</tspan></text>
<text ewd:textID='37' transform='matrix(1 0 0 1 5388.7217 63.9116)' style='&st8; &st29; &st17;'>Navigation Receiver Assembly</text>
<text transform="matrix(1 0 0 1 5388.7217 56.8013)" style="&st8;"><tspan x="0" y="0" style="&st29; &st17;">H55(A),H57(B),H53(C),H54(D),H56(E) H58(F)</tspan></text>
<text ewd:textID='37' transform='matrix(1 0 0 1 5898.1943 63.9116)' style='&st8; &st29; &st17;'>Navigation Receiver Assembly</text>
<text transform="matrix(1 0 0 1 5898.1943 56.8013)" style="&st8;"><tspan x="0" y="0" style="&st29; &st17;">H55(A),H57(B),H53(C),H54(D),H56(E) H58(F)</tspan></text>
<text ewd:textID='37' transform='matrix(1 0 0 1 6378.6729 63.9116)' style='&st8; &st29; &st17;'>Navigation Receiver Assembly</text>
<text transform="matrix(1 0 0 1 6378.6729 56.8013)" style="&st8;"><tspan x="0" y="0" style="&st29; &st17;">H55(A),H57(B),H53(C),H54(D),H56(E) H58(F)</tspan></text>
<text ewd:textID='37' transform='matrix(1 0 0 1 6750.2559 63.9116)' style='&st8; &st29; &st17;'>Navigation Receiver Assembly</text>
<text transform="matrix(1 0 0 1 6750.2559 56.8013)" style="&st8;"><tspan x="0" y="0" style="&st29; &st17;">H55(A),H57(B),H53(C),H54(D),H56(E) H58(F)</tspan></text>
</g>
<text transform="matrix(0 -1 1 0 2733.6377 150.7891)" style="&st8;"><tspan x="0" y="0" style="&st29; &st17;">L</tspan></text>
<text transform="matrix(0 -1 1 0 2733.6377 251.0723)" style="&st8;"><tspan x="0" y="0" style="&st29; &st17;">L</tspan></text>
<text transform="matrix(0 -1 1 0 2733.6377 102.4561)" style="&st8;"><tspan x="0" y="0" style="&st29; &st17;">L</tspan></text>
<text transform="matrix(1 0 0 1 2558.3428 532.7505)" style="&st8;"><tspan x="0" y="0" style="&st29; &st17;">B</tspan></text>
<text transform="matrix(1 0 0 1 2557.5127 508.9458)" style="&st8;"><tspan x="0" y="0" style="&st29; &st17;">W</tspan></text>
<text transform="matrix(1 0 0 1 2558.3428 485.0532)" style="&st8;"><tspan x="0" y="0" style="&st29; &st17;">B</tspan></text>
<text transform="matrix(1 0 0 1 2557.5127 461.2505)" style="&st8;"><tspan x="0" y="0" style="&st29; &st17;">W</tspan></text>
<text transform="matrix(1 0 0 1 2558.0107 437.3765)" style="&st8;"><tspan x="0" y="0" style="&st29; &st17;">G</tspan></text>
<text transform="matrix(1 0 0 1 2558.1777 413.563)" style="&st8;"><tspan x="0" y="0" style="&st29; &st17;">R</tspan></text>
<text transform="matrix(1 0 0 1 2555.8438 389.6978)" style="&st8;"><tspan x="0" y="0" style="&st29; &st17;">GR</tspan></text>
<text transform="matrix(1 0 0 1 2558.3428 365.8579)" style="&st8;"><tspan x="0" y="0" style="&st29; &st17;">B</tspan></text>
<text transform="matrix(1 0 0 1 2557.5127 342.0181)" style="&st8;"><tspan x="0" y="0" style="&st29; &st17;">W</tspan></text>
<text transform="matrix(1 0 0 1 2555.8438 318.1782)" style="&st8;"><tspan x="0" y="0" style="&st29; &st17;">GR</tspan></text>
<text transform="matrix(0 -1 1 0 2793.5381 133.0918)" style="&st8;"><tspan x="0" y="0" style="&st29; &st17;">R</tspan></text>
<text transform="matrix(0 -1 1 0 2793.5381 189.5918)" style="&st8;"><tspan x="0" y="0" style="&st29; &st17;">R</tspan></text>
<text transform="matrix(0 -1 1 0 2793.5381 249.4917)" style="&st8;"><tspan x="0" y="0" style="&st29; &st17;">R</tspan></text>
<text transform="matrix(1 0 0 1 2556.3418 556.7495)" style="&st8;"><tspan x="0" y="0" style="&st29; &st17;">SB</tspan></text>
<text transform="matrix(1 0 0 1 2555.5098 568.0796)" style="&st8;"><tspan x="0" y="0" style="&st29; &st17;">(*7)</tspan></text>
<text transform="matrix(1 0 0 1 2555.8438 580.7495)" style="&st8;"><tspan x="0" y="0" style="&st29; &st17;">GR</tspan></text>
<text transform="matrix(1 0 0 1 2555.5098 592.0796)" style="&st8;"><tspan x="0" y="0" style="&st29; &st17;">(*7)</tspan></text>
<text transform="matrix(1 0 0 1 2612.3428 532.7505)" style="&st8;"><tspan x="0" y="0" style="&st29; &st17;">B</tspan></text>
<text transform="matrix(1 0 0 1 2611.5127 508.9458)" style="&st8;"><tspan x="0" y="0" style="&st29; &st17;">W</tspan></text>
<text transform="matrix(1 0 0 1 2612.3428 485.0532)" style="&st8;"><tspan x="0" y="0" style="&st29; &st17;">B</tspan></text>
<text transform="matrix(1 0 0 1 2611.5127 461.2505)" style="&st8;"><tspan x="0" y="0" style="&st29; &st17;">W</tspan></text>
<text transform="matrix(1 0 0 1 2612.0107 437.3765)" style="&st8;"><tspan x="0" y="0" style="&st29; &st17;">G</tspan></text>
<text transform="matrix(1 0 0 1 2612.1777 413.563)" style="&st8;"><tspan x="0" y="0" style="&st29; &st17;">R</tspan></text>
<text transform="matrix(1 0 0 1 2558.3428 638.9448)" style="&st8;"><tspan x="0" y="0" style="&st29; &st17;">R</tspan></text>
<text transform="matrix(1 0 0 1 2612.3428 638.9448)" style="&st8;"><tspan x="0" y="0" style="&st29; &st17;">R</tspan></text>
<text transform="matrix(1 0 0 1 2609.8438 389.6978)" style="&st8;"><tspan x="0" y="0" style="&st29; &st17;">GR</tspan></text>
<text transform="matrix(1 0 0 1 2612.3428 365.8579)" style="&st8;"><tspan x="0" y="0" style="&st29; &st17;">B</tspan></text>
<text transform="matrix(1 0 0 1 2611.5127 342.0181)" style="&st8;"><tspan x="0" y="0" style="&st29; &st17;">W</tspan></text>
<text transform="matrix(1 0 0 1 2609.8438 318.1782)" style="&st8;"><tspan x="0" y="0" style="&st29; &st17;">GR</tspan></text>
<text transform="matrix(1 0 0 1 2610.3418 556.7495)" style="&st8;"><tspan x="0" y="0" style="&st29; &st17;">SB</tspan></text>
<text transform="matrix(1 0 0 1 2609.5098 568.0796)" style="&st8;"><tspan x="0" y="0" style="&st29; &st17;">(*7)</tspan></text>
<text transform="matrix(1 0 0 1 2609.8438 580.7495)" style="&st8;"><tspan x="0" y="0" style="&st29; &st17;">GR</tspan></text>
<text transform="matrix(1 0 0 1 2609.5098 592.0796)" style="&st8;"><tspan x="0" y="0" style="&st29; &st17;">(*7)</tspan></text>
<text transform="matrix(1 0 0 1 2776.2393 295.1587)" style="&st8;"><tspan x="0" y="0" style="&st29; &st17;">L</tspan></text>
<text transform="matrix(0 -1 1 0 2867.5654 232.9121)" style="&st8;"><tspan x="0" y="0" style="&st29; &st17;">R</tspan></text>
<text transform="matrix(1 0 0 1 2831.4883 269.2227)" style="&st8;"><tspan x="0" y="0" style="&st29; &st17;">R</tspan></text>
<text transform="matrix(0 -1 1 0 2900.4453 232.4141)" style="&st8;"><tspan x="0" y="0" style="&st29; &st17;">L</tspan></text>
<text transform="matrix(0 -1 1 0 2933.3252 235.2456)" style="&st8;"><tspan x="0" y="0" style="&st29; &st17;">GR</tspan></text>
<text transform="matrix(0 -1 1 0 2966.2041 233.5771)" style="&st8;"><tspan x="0" y="0" style="&st29; &st17;">W</tspan></text>
<text transform="matrix(0 -1 1 0 2999.084 232.7466)" style="&st8;"><tspan x="0" y="0" style="&st29; &st17;">B</tspan></text>
<text transform="matrix(0 -1 1 0 2634.9229 138.2227)" style="&st8;"><tspan x="0" y="0" style="&st29; &st17;">L</tspan></text>
<text transform="matrix(0 -1 1 0 2524.4463 129.8477)" style="&st8;"><tspan x="0" y="0" style="&st29; &st17;">SB</tspan></text>
<text transform="matrix(0 -1 1 0 2524.4492 241.0767)" style="&st8;"><tspan x="0" y="0" style="&st29; &st17;">SB</tspan></text>
<text transform="matrix(0 -1 1 0 2535.7793 241.9087)" style="&st8;"><tspan x="0" y="0" style="&st29; &st17;">(*7)</tspan></text>
<text transform="matrix(0 -1 1 0 2634.9229 228.4272)" style="&st8;"><tspan x="0" y="0" style="&st29; &st17;">L</tspan></text>
<text transform="matrix(1 0 0 1 2807.1514 159.3843)" style="&st8;"><tspan x="0" y="0" style="&st29; &st17;">(LHD)</tspan></text>
<text transform="matrix(1 0 0 1 2807.1514 167.8843)" style="&st8;"><tspan x="0" y="0" style="&st29; &st17;">(RHD)</tspan></text>
</svg>
