<?xml version="1.0" encoding="UTF-8"?>
<!DOCTYPE svg PUBLIC "-//W3C//DTD SVG 1.0//EN" "http://www.w3.org/TR/2001/REC-SVG-20010904/DTD/svg10.dtd"[
<!ENTITY ns_flows "http://ns.adobe.com/Flows/1.0/">
<!ENTITY ns_svg "http://www.w3.org/2000/svg">
<!ENTITY ns_xlink "http://www.w3.org/1999/xlink">
		<!ENTITY st0 "fill:none;stroke:#000000;stroke-width:0.85;stroke-linecap:round;stroke-linejoin:round;stroke-dasharray:3 1.5;enable-background:new    ;">
	<!ENTITY st1 "fill:none;stroke:#000000;stroke-width:5.1;stroke-linejoin:round;">
	<!ENTITY st2 "fill:none;stroke:#199DBF;stroke-width:1.13;stroke-linejoin:round;">
	<!ENTITY st3 "fill:none;stroke:#000000;stroke-linecap:round;stroke-linejoin:round;">
	<!ENTITY st4 "stroke:#000000;stroke-width:0.28;stroke-linecap:round;stroke-linejoin:round;enable-background:new    ;">
	<!ENTITY st5 "enable-background:new    ;">
		<!ENTITY st6 "fill:none;stroke:#000000;stroke-width:1.42;stroke-linecap:round;stroke-linejoin:round;enable-background:new    ;">
	<!ENTITY st7 "fill:none;stroke:#199DBF;stroke-width:5.1;stroke-linejoin:round;">
	<!ENTITY st8 "opacity:0.5;fill:none;stroke:#34ACCE;stroke-linejoin:round;stroke-dasharray:6;">
	<!ENTITY st9 "fill:none;stroke:#FFFFFF;stroke-width:4.53;stroke-linejoin:round;">
		<!ENTITY st10 "fill:#CFE6E7;stroke:#000000;stroke-width:1.133;stroke-linecap:round;stroke-linejoin:round;enable-background:new    ;">
		<!ENTITY st11 "fill:none;stroke:#000000;stroke-width:0.85;stroke-linecap:round;stroke-linejoin:round;enable-background:new    ;">
	<!ENTITY st12 "font-size:6px;">
	<!ENTITY st13 "fill:none;stroke:#FFFFFF;stroke-width:2.27;stroke-linejoin:round;">
	<!ENTITY st14 "fill:none;stroke:#FB0F0C;stroke-width:1.13;stroke-linejoin:round;">
	<!ENTITY st15 "fill:none;stroke:#168638;stroke-width:5.1;stroke-linejoin:round;">
	<!ENTITY st16 "fill:none;stroke:#000000;stroke-width:1.13;stroke-linejoin:round;">
		<!ENTITY st17 "fill:none;stroke:#000000;stroke-width:1.13;stroke-linecap:round;stroke-linejoin:round;stroke-dasharray:3 1.5;enable-background:new    ;">
	<!ENTITY st18 "fill:#FFFFFF;stroke:#000000;stroke-width:1.41;stroke-linecap:round;stroke-linejoin:round;">
	<!ENTITY st19 "fill:none;stroke:#3E65AC;stroke-width:3;">
	<!ENTITY st20 "fill:#CCCCCC;stroke:#CCCCCC;stroke-width:0.1;stroke-linecap:round;stroke-linejoin:round;">
	<!ENTITY st21 "font-family:'Arial';">
	<!ENTITY st22 "opacity:0.5;fill:none;stroke:#34ACCE;stroke-linejoin:round;">
	<!ENTITY st23 "fill:#CFE6E7;stroke:#000000;stroke-width:1.133;stroke-linecap:round;stroke-linejoin:round;">
	<!ENTITY st24 "fill:none;stroke:#99D5E0;stroke-width:5.1;stroke-linejoin:round;">
<!ATTLIST svg
xmlns:ewd CDATA #FIXED "http://shcl.co.jp/ewd"
xmlns:a CDATA #FIXED "http://ns.adobe.com/AdobeSVGViewerExtensions/3.0/"
ewd:ver CDATA #IMPLIED
>
<!ATTLIST a
ewd:lineID CDATA #IMPLIED
ewd:groupID CDATA #IMPLIED
ewd:figtype CDATA #IMPLIED
ewd:code CDATA #IMPLIED
ewd:figID CDATA #IMPLIED
ewd:pinNo CDATA #IMPLIED
ewd:comment CDATA #IMPLIED >
<!ATTLIST g
ewd:lineID CDATA #IMPLIED
ewd:groupID CDATA #IMPLIED
ewd:figtype CDATA #IMPLIED
ewd:code CDATA #IMPLIED
ewd:figID CDATA #IMPLIED
ewd:pinNo CDATA #IMPLIED
ewd:comment CDATA #IMPLIED >
<!ATTLIST text
ewd:textID CDATA #IMPLIED >
<!ATTLIST title
ewd:textID CDATA #IMPLIED >
]>
<svg 
viewBox='0 0 1039.82 729.44'
height='729.44'
width='1039.82'
xml:space="preserve"
xmlns="&ns_svg;"
xmlns:ewd="http://shcl.co.jp/ewd"
xmlns:xlink="&ns_xlink;" ewd:ver="L2.1">
<g ewd:code="AC3" ewd:figID="610" ewd:figtype="w2w" ewd:pinNo="10">
<path style="&st6;" d="M206.9,487.21h-8.5"/>
<path style="&st6;" d="M202.65,496.28l-4.25-4.25l-4.25,4.25"/>
<path style="&st6;" d="M202.65,492.88l-4.25-4.25l-4.25,4.25"/>
<text transform="matrix(1 0 0 1 180.2236 484.9321)" style="&st5;"><tspan x="0" y="0" style="&st21; &st12;">10</tspan></text>
</g>
<g ewd:code="AC2" ewd:figID="611" ewd:figtype="w2w" ewd:pinNo="6">
<path style="&st6;" d="M249.39,487.21h-8.5"/>
<path style="&st6;" d="M245.14,496.28l-4.25-4.25l-4.25,4.25"/>
<path style="&st6;" d="M245.14,492.88l-4.25-4.25l-4.25,4.25"/>
<text transform="matrix(1 0 0 1 226.0503 484.9321)" style="&st5;"><tspan x="0" y="0" style="&st21; &st12;">6</tspan></text>
</g>
<g ewd:code="CA1" ewd:figID="612" ewd:figtype="w2w" ewd:pinNo="6">
<path style="&st6;" d="M274.88,487.21h8.5"/>
<path style="&st6;" d="M279.13,478.15l4.25,4.25l4.25-4.25"/>
<path style="&st6;" d="M287.63,481.55l-4.25,4.25l-4.25-4.25"/>
<text transform="matrix(1 0 0 1 268.5405 493.4321)" style="&st5;"><tspan x="0" y="0" style="&st21; &st12;">6</tspan></text>
</g>
<g ewd:code="DA1" ewd:figID="613" ewd:figtype="w2w" ewd:pinNo="3">
<path style="&st6;" d="M317.38,487.21h8.5"/>
<path style="&st6;" d="M321.63,478.15l4.25,4.25l4.25-4.25"/>
<path style="&st6;" d="M330.13,481.55l-4.25,4.25l-4.25-4.25"/>
<text transform="matrix(1 0 0 1 311.0405 493.4321)" style="&st5;"><tspan x="0" y="0" style="&st21; &st12;">3</tspan></text>
</g>
<g ewd:code="GA4" ewd:figID="603" ewd:figtype="w2w" ewd:pinNo="1">
<path style="&st6;" d="M342.87,257.75h-8.5"/>
<path style="&st6;" d="M338.62,263.42l-4.25-4.25l-4.24,4.25"/>
<path style="&st6;" d="M338.62,266.61l-4.25-4.25l-4.24,4.25"/>
<path style="&st6;" d="M338.62,266.82l-4.25-4.25l-4.24,4.25"/>
<text transform="matrix(1 0 0 1 319.5405 255.4717)" style="&st5;"><tspan x="0" y="0" style="&st21; &st12;">1</tspan></text>
</g>
<g ewd:code="GA4" ewd:figID="601" ewd:figtype="w2w" ewd:pinNo="2">
<text transform="matrix(1 0 0 1 39.0806 161.9917)" style="&st5;"><tspan x="0" y="0" style="&st21; &st12;">2</tspan></text>
</g>
<g ewd:code="GA3" ewd:figID="602" ewd:figtype="w2w" ewd:pinNo="2">
<path style="&st6;" d="M45.42,147.27h8.5"/>
<path style="&st6;" d="M58.17,141.61l-4.25,4.24l-4.25-4.24"/>
<path style="&st6;" d="M49.67,138.21l4.25,4.25l4.25-4.25"/>
<text transform="matrix(1 0 0 1 39.0806 153.4917)" style="&st5;"><tspan x="0" y="0" style="&st21; &st12;">2</tspan></text>
</g>
<g ewd:code="1" ewd:figID="402" ewd:figtype="rb">
<path style="&st6;" d="M334.37,369.65l-5.66-22.66"/>
<path style="&st11;" d="M334.37,376.73v-4.25"/>
<path style="&st11;" d="M334.37,346.99v-4.25"/>
<path style="&st11;" d="M359.87,342.74v8.5"/>
<path style="&st11;" d="M359.87,368.23v8.5"/>
<path style="&st6;" d="M336.5,300.25h-4.25"/>
<path style="&st6;" d="M336.5,308.74h-4.25"/>
<path style="&st6;" d="M362,300.25h-4.25"/>
<path style="&st6;" d="M362,308.74h-4.25"/>
<path style="&st6;" d="M285.51,410.73h-4.25"/>
<path style="&st6;" d="M285.51,419.23h-4.25"/>
<path style="&st6;" d="M362,410.73h-4.25"/>
<path style="&st6;" d="M362,419.23h-4.25"/>
<path style="&st6;" d="M368.37,342.74h-42.49v33.99h42.49V342.74"/>
<path style="&st4;" d="M334.37,313.64l2.84,2.83v-4.25l-2.84-2.83l-2.83,2.83v4.25L334.37,313.64"/>
<path style="&st4;" d="M359.87,313.64l2.83,2.83v-4.25l-2.83-2.83l-2.83,2.83v4.25L359.87,313.64"/>
<path style="&st4;" d="M283.38,405.83l-2.83-2.83v4.25l2.83,2.83l2.84-2.83V403L283.38,405.83"/>
<path style="&st4;" d="M359.87,405.83l-2.83-2.83v4.25l2.83,2.83l2.83-2.83V403L359.87,405.83"/>
<path style="&st11;" d="M334.37,308.74v34"/>
<path style="&st11;" d="M359.87,308.74v34"/>
<path style="&st11;" d="M334.37,376.73v17h-50.99v17"/>
<path style="&st11;" d="M359.87,376.73v34"/>
<path style="&st11;" d="M335.79,371.07c0-0.79-0.63-1.42-1.42-1.42"/>
<path style="&st11;" d="M334.37,369.65c-0.78,0-1.41,0.63-1.41,1.42"/>
<path style="&st11;" d="M332.96,371.07c0,0.78,0.63,1.41,1.41,1.41"/>
<path style="&st11;" d="M334.37,372.48c0.79,0,1.42-0.63,1.42-1.41"/>
<path style="&st11;" d="M335.79,348.4c0-0.78-0.63-1.41-1.42-1.41"/>
<path style="&st11;" d="M334.37,346.99c-0.78,0-1.41,0.63-1.41,1.41"/>
<path style="&st11;" d="M332.96,348.4c0,0.79,0.63,1.42,1.41,1.42"/>
<path style="&st11;" d="M334.37,349.82c0.79,0,1.42-0.63,1.42-1.42"/>
<path style="&st11;" d="M357.34,357.26c1.37,1.39,3.61,1.42,5.01,0.05"/>
<path style="&st11;" d="M362.35,357.31c1.4-1.37,1.42-3.61,0.05-5.01"/>
<path style="&st11;" d="M362.4,352.3c-0.69-0.71-1.54-1.06-2.53-1.06"/>
<path style="&st11;" d="M357.34,362.21c1.37,1.4,3.61,1.42,5.01,0.06"/>
<path style="&st11;" d="M362.35,362.27c1.4-1.37,1.42-3.62,0.05-5.01"/>
<path style="&st11;" d="M362.4,357.26c-1.37-1.4-3.61-1.42-5.01-0.05"/>
<path style="&st11;" d="M357.39,357.21c-0.02,0.01-0.03,0.03-0.05,0.05"/>
<path style="&st11;" d="M359.87,368.23c1.96,0,3.54-1.58,3.54-3.54"/>
<path style="&st11;" d="M363.41,364.69c0-1.95-1.58-3.54-3.54-3.54"/>
<path style="&st11;" d="M359.87,361.15c-0.99,0-1.84,0.36-2.53,1.06"/>
<path style="&st6;" d="M332.25,300.25c-2.35,0-4.25,1.9-4.25,4.24"/>
<path style="&st6;" d="M328,304.49c0,2.35,1.9,4.25,4.25,4.25"/>
<path style="&st6;" d="M336.5,308.74c2.35,0,4.25-1.9,4.25-4.25"/>
<path style="&st6;" d="M340.75,304.49c0-2.34-1.9-4.24-4.25-4.24"/>
<path style="&st6;" d="M357.75,300.25c-2.35,0-4.25,1.9-4.25,4.24"/>
<path style="&st6;" d="M353.5,304.49c0,2.35,1.9,4.25,4.25,4.25"/>
<path style="&st6;" d="M362,308.74c2.34,0,4.24-1.9,4.24-4.25"/>
<path style="&st6;" d="M366.24,304.49c0-2.34-1.9-4.24-4.24-4.24"/>
<path style="&st6;" d="M281.26,410.73c-2.35,0-4.25,1.9-4.25,4.25"/>
<path style="&st6;" d="M277.01,414.98c0,2.34,1.9,4.25,4.25,4.25"/>
<path style="&st6;" d="M285.51,419.23c2.34,0,4.25-1.91,4.25-4.25"/>
<path style="&st6;" d="M289.76,414.98c0-2.35-1.91-4.25-4.25-4.25"/>
<path style="&st6;" d="M357.75,410.73c-2.35,0-4.25,1.9-4.25,4.25"/>
<path style="&st6;" d="M353.5,414.98c0,2.34,1.9,4.25,4.25,4.25"/>
<path style="&st6;" d="M362,419.23c2.34,0,4.24-1.91,4.24-4.25"/>
<path style="&st6;" d="M366.24,414.98c0-2.35-1.9-4.25-4.24-4.25"/>
<text ewd:textID="14" transform="matrix(1 0 0 1 371.5073 358.8818)" style="&st5; &st21; &st12;">ST <tspan x="0" y="7">Relay</tspan></text>
<text transform="matrix(1 0 0 1 327.5874 384.9321)" style="&st5;"><tspan x="0" y="0" style="&st21; &st12;">3</tspan></text>
<text transform="matrix(1 0 0 1 327.5776 339.0518)" style="&st5;"><tspan x="0" y="0" style="&st21; &st12;">5</tspan></text>
<text transform="matrix(1 0 0 1 332.7876 306.4619)" style="&st5;"><tspan x="0" y="0" style="&st21; &st12;">1</tspan></text>
<text transform="matrix(1 0 0 1 358.2769 306.4619)" style="&st5;"><tspan x="0" y="0" style="&st21; &st12;">1</tspan></text>
<text transform="matrix(1 0 0 1 281.7871 416.9517)" style="&st5;"><tspan x="0" y="0" style="&st21; &st12;">1</tspan></text>
<text transform="matrix(1 0 0 1 358.2769 416.9517)" style="&st5;"><tspan x="0" y="0" style="&st21; &st12;">1</tspan></text>
<text transform="matrix(1 0 0 1 353.8472 339.0518)" style="&st5;"><tspan x="0" y="0" style="&st21; &st12;">1</tspan></text>
<text transform="matrix(1 0 0 1 353.8472 329.9922)" style="&st5;"><tspan x="0" y="0" style="&st21; &st12;">2</tspan></text>
<text transform="matrix(1 0 0 1 353.0771 384.9312)" style="&st5;"><tspan x="0" y="0" style="&st21; &st12;">2</tspan></text>
<text transform="matrix(1 0 0 1 353.0771 393.9917)" style="&st5;"><tspan x="0" y="0" style="&st21; &st12;">1</tspan></text>
</g>
<g ewd:code="FUSE50,FUSE55" ewd:figID="401" ewd:figtype="rb">
<path style="&st3;" d="M41.17,36.79v42.49h25.5V36.79H41.17"/>
<path style="&st6;" d="M56.05,96.28H51.8"/>
<path style="&st6;" d="M56.05,104.78H51.8"/>
<path style="&st11;" d="M53.92,70.78v25.5"/>
<path style="&st4;" d="M53.92,91.38l-2.83-2.83v4.25l2.83,2.83l2.83-2.83v-4.25L53.92,91.38"/>
<path style="&st6;" d="M41.17,36.79v42.49h25.5V36.79H41.17"/>
<path style="&st6;" d="M51.8,96.28c-2.35,0-4.25,1.9-4.25,4.25"/>
<path style="&st6;" d="M47.55,100.53c0,2.35,1.9,4.25,4.25,4.25"/>
<path style="&st6;" d="M56.05,104.78c2.34,0,4.25-1.9,4.25-4.25"/>
<path style="&st6;" d="M60.3,100.53c0-2.35-1.91-4.25-4.25-4.25"/>
<path style="&st11;" d="M55.34,69.37c0-0.79-0.64-1.42-1.42-1.42"/>
<path style="&st11;" d="M53.92,67.95c-0.78,0-1.41,0.63-1.41,1.42"/>
<path style="&st11;" d="M52.51,69.37c0,0.78,0.63,1.41,1.41,1.41"/>
<path style="&st11;" d="M53.92,70.78c0.78,0,1.42-0.63,1.42-1.41"/>
<path style="&st6;" d="M53.92,48.12c-0.85,2.92-0.19,5.81,1.84,8.07"/>
<path style="&st6;" d="M53.92,48.12c-2.17,3.02-2.17,6.89,0,9.92"/>
<path style="&st6;" d="M53.92,48.12c-3.72,2.77-4.53,7.99-1.84,11.76"/>
<path style="&st6;" d="M53.92,67.95c3.72-2.77,4.54-7.98,1.84-11.75"/>
<path style="&st6;" d="M53.92,67.95c2.17-3.02,2.17-6.89,0-9.91"/>
<path style="&st6;" d="M53.92,67.95c0.86-2.92,0.19-5.81-1.84-8.07"/>
<path style="&st11;" d="M55.34,46.7c0-0.78-0.64-1.41-1.42-1.41"/>
<path style="&st11;" d="M53.92,45.29c-0.78,0-1.41,0.63-1.41,1.41"/>
<path style="&st11;" d="M52.51,46.7c0,0.79,0.63,1.42,1.41,1.42"/>
<path style="&st11;" d="M53.92,48.12c0.78,0,1.42-0.63,1.42-1.42"/>
<text transform="matrix(1 0 0 1 71.2271 51.5317)" style="&st5;"><tspan x="0" y="0" style="&st21; &st12;">40A</tspan></text>
<text transform="matrix(1 0 0 1 71.2271 57.5317)" style="&st5;"><tspan x="0" y="0" style="&st21; &st12;">ST (*1,*10 *6)</tspan></text>
<text transform="matrix(1 0 0 1 71.2271 63.5317)" style="&st5;"><tspan x="0" y="0" style="&st21; &st12;">30A</tspan></text>
<text transform="matrix(1 0 0 1 71.2271 69.5317)" style="&st5;"><tspan x="0" y="0" style="&st21; &st12;">ST (*2,*10 *5)</tspan></text>
<text transform="matrix(1 0 0 1 52.3271 102.502)" style="&st5;"><tspan x="0" y="0" style="&st21; &st12;">1</tspan></text>
<text transform="matrix(1 0 0 1 47.1274 87.4814)" style="&st5;"><tspan x="0" y="0" style="&st21; &st12;">2</tspan></text>
<text transform="matrix(1 0 0 1 44.8071 33.0918)" style="&st5;"><tspan x="0" y="0" style="&st21; &st12;">(BAT)</tspan></text>
</g>
<g ewd:code="2" ewd:figID="301" ewd:figtype="jb">
<path style="&st3;" d="M143.16,36.79v42.49h25.49V36.79H143.16"/>
<path style="&st11;" d="M155.9,70.78v25.5"/>
<path style="&st6;" d="M158.03,96.28h-4.25"/>
<path style="&st6;" d="M158.03,104.78h-4.25"/>
<path style="&st4;" d="M155.9,91.38l-2.83-2.83v4.25l2.83,2.83l2.84-2.83v-4.25L155.9,91.38"/>
<path style="&st6;" d="M143.16,36.79v42.49h25.49V36.79H143.16"/>
<path style="&st6;" d="M155.9,48.12c-2.73,1.61-3.65,5.14-2.03,7.88"/>
<path style="&st6;" d="M153.87,56c0.52,0.88,1.15,1.52,2.03,2.04"/>
<path style="&st6;" d="M155.9,67.95c2.74-1.61,3.65-5.14,2.04-7.88"/>
<path style="&st6;" d="M157.94,60.07c-0.52-0.88-1.15-1.51-2.04-2.03"/>
<path style="&st11;" d="M157.32,46.7c0-0.78-0.63-1.41-1.42-1.41"/>
<path style="&st11;" d="M155.9,45.29c-0.78,0-1.41,0.63-1.41,1.41"/>
<path style="&st11;" d="M154.49,46.7c0,0.79,0.63,1.42,1.41,1.42"/>
<path style="&st11;" d="M155.9,48.12c0.79,0,1.42-0.63,1.42-1.42"/>
<path style="&st11;" d="M157.32,69.37c0-0.79-0.63-1.42-1.42-1.42"/>
<path style="&st11;" d="M155.9,67.95c-0.78,0-1.41,0.63-1.41,1.42"/>
<path style="&st11;" d="M154.49,69.37c0,0.78,0.63,1.41,1.41,1.41"/>
<path style="&st11;" d="M155.9,70.78c0.79,0,1.42-0.63,1.42-1.41"/>
<path style="&st6;" d="M153.78,96.28c-2.35,0-4.25,1.9-4.25,4.25"/>
<path style="&st6;" d="M149.53,100.53c0,2.35,1.9,4.25,4.25,4.25"/>
<path style="&st6;" d="M158.03,104.78c2.35,0,4.25-1.9,4.25-4.25"/>
<path style="&st6;" d="M162.28,100.53c0-2.35-1.9-4.25-4.25-4.25"/>
<text transform="matrix(1 0 0 1 173.207 57.1816)" style="&st5;"><tspan x="0" y="0" style="&st21; &st12;">7.5A</tspan></text>
<text transform="matrix(1 0 0 1 173.207 63.1816)" style="&st5;"><tspan x="0" y="0" style="&st21; &st12;">AM1</tspan></text>
<text transform="matrix(1 0 0 1 151.5972 102.502)" style="&st5;"><tspan x="0" y="0" style="&st21; &st12;">2A</tspan></text>
<text transform="matrix(1 0 0 1 139.2573 102.502)" style="&st5;"><tspan x="0" y="0" style="&st21; &st12;">35</tspan></text>
<text transform="matrix(1 0 0 1 146.7871 33.0918)" style="&st5;"><tspan x="0" y="0" style="&st21; &st12;">(BAT)</tspan></text>
</g>
<g ewd:code="A1" ewd:figID="201" ewd:figtype="gp">
<path style="&st11;" d="M359.87,698.26v4.25"/>
<path style="&st11;" d="M351.37,702.51h17"/>
<path style="&st11;" d="M355.62,705.34h8.5"/>
<path style="&st11;" d="M357.04,708.18h5.66"/>
<path style="&st11;" d="M358.45,711.01h2.84"/>
</g>
<g ewd:code="G2" ewd:figID="1" ewd:figtype="conn">
<path style="&st11;" d="M222.48,189.76H206.9"/>
<path style="&st11;" d="M206.9,138.77h15.58"/>
<path style="&st11;" d="M266.39,138.77h-12.75"/>
<path style="&st11;" d="M266.39,189.76h-12.75"/>
<path style="&st11;" d="M233.47,133.75v5.66"/>
<path style="&st11;" d="M233.47,142.25v5.66"/>
<path style="&st11;" d="M233.47,150.74v5.67"/>
<path style="&st11;" d="M233.47,159.24v5.67"/>
<path style="&st11;" d="M266.39,121.78h-17v7.08"/>
<path style="&st11;" d="M249.39,148.69v7.08h17"/>
<path style="&st11;" d="M249.39,199.68v7.08h17"/>
<path style="&st6;" d="M206.9,223.76h59.49V104.78H206.9V223.76"/>
<path style="&st6;" d="M234.96,116.25l-9.84,21.81l16.7-17.13"/>
<path style="&st6;" d="M234.96,167.24l-9.84,21.82l16.7-17.14"/>
<path style="&st11;" d="M225.31,189.76c0-0.78-0.63-1.41-1.42-1.41"/>
<path style="&st11;" d="M223.89,188.35c-0.78,0-1.41,0.63-1.41,1.41"/>
<path style="&st11;" d="M222.48,189.76c0,0.79,0.63,1.42,1.41,1.42"/>
<path style="&st11;" d="M223.89,191.18c0.79,0,1.42-0.63,1.42-1.42"/>
<path style="&st11;" d="M225.31,138.77c0-0.78-0.63-1.41-1.42-1.41"/>
<path style="&st11;" d="M223.89,137.36c-0.78,0-1.41,0.63-1.41,1.41"/>
<path style="&st11;" d="M222.48,138.77c0,0.78,0.63,1.42,1.41,1.42"/>
<path style="&st11;" d="M223.89,140.19c0.79,0,1.42-0.64,1.42-1.42"/>
<path style="&st11;" d="M250.81,130.27c0-0.78-0.64-1.41-1.42-1.41"/>
<path style="&st11;" d="M249.39,128.86c-0.78,0-1.42,0.63-1.42,1.41"/>
<path style="&st11;" d="M247.97,130.27c0,0.79,0.64,1.42,1.42,1.42"/>
<path style="&st11;" d="M249.39,131.69c0.78,0,1.42-0.63,1.42-1.42"/>
<path style="&st11;" d="M253.64,189.76c0-0.78-0.64-1.41-1.42-1.41"/>
<path style="&st11;" d="M252.22,188.35c-0.78,0-1.41,0.63-1.41,1.41"/>
<path style="&st11;" d="M250.81,189.76c0,0.79,0.63,1.42,1.41,1.42"/>
<path style="&st11;" d="M252.22,191.18c0.78,0,1.42-0.63,1.42-1.42"/>
<path style="&st11;" d="M250.81,198.26c0-0.78-0.64-1.41-1.42-1.41"/>
<path style="&st11;" d="M249.39,196.85c-0.78,0-1.42,0.63-1.42,1.41"/>
<path style="&st11;" d="M247.97,198.26c0,0.78,0.64,1.42,1.42,1.42"/>
<path style="&st11;" d="M249.39,199.68c0.78,0,1.42-0.64,1.42-1.42"/>
<path style="&st11;" d="M250.81,147.27c0-0.78-0.64-1.42-1.42-1.42"/>
<path style="&st11;" d="M249.39,145.85c-0.78,0-1.42,0.64-1.42,1.42"/>
<path style="&st11;" d="M247.97,147.27c0,0.78,0.64,1.42,1.42,1.42"/>
<path style="&st11;" d="M249.39,148.69c0.78,0,1.42-0.64,1.42-1.42"/>
<path style="&st11;" d="M253.64,138.77c0-0.78-0.64-1.41-1.42-1.41"/>
<path style="&st11;" d="M252.22,137.36c-0.78,0-1.41,0.63-1.41,1.41"/>
<path style="&st11;" d="M250.81,138.77c0,0.78,0.63,1.42,1.41,1.42"/>
<path style="&st11;" d="M252.22,140.19c0.78,0,1.42-0.64,1.42-1.42"/>
<path style="&st6;" d="M241.83,171.92c-0.99-2.98-3.74-4.86-6.87-4.68"/>
<path style="&st6;" d="M241.83,120.93c-0.99-2.98-3.74-4.86-6.87-4.68"/>
<text transform="matrix(1 0 0 1 200.1074 135.0815)" style="&st5;"><tspan x="0" y="0" style="&st21; &st12;">2</tspan></text>
<text transform="matrix(1 0 0 1 200.1074 186.0718)" style="&st5;"><tspan x="0" y="0" style="&st21; &st12;">7</tspan></text>
<text transform="matrix(1 0 0 1 269.2173 152.0815)" style="&st5;"><tspan x="0" y="0" style="&st21; &st12;">1</tspan></text>
<text transform="matrix(1 0 0 1 269.2173 203.0718)" style="&st5;"><tspan x="0" y="0" style="&st21; &st12;">8</tspan></text>
<text transform="matrix(1 0 0 1 209.0171 186.0718)" style="&st5;"><tspan x="0" y="0" style="&st21; &st12;">AM2</tspan></text>
<text transform="matrix(1 0 0 1 209.0171 135.0815)" style="&st5;"><tspan x="0" y="0" style="&st21; &st12;">AM1</tspan></text>
<text transform="matrix(1 0 0 1 250.4175 118.0918)" style="&st5;"><tspan x="0" y="0" style="&st21; &st12;">ACC</tspan></text>
<text transform="matrix(1 0 0 1 254.2974 135.0815)" style="&st5;"><tspan x="0" y="0" style="&st21; &st12;">IG1</tspan></text>
<text transform="matrix(1 0 0 1 252.8872 152.0815)" style="&st5;"><tspan x="0" y="0" style="&st21; &st12;">ST1</tspan></text>
<text transform="matrix(1 0 0 1 253.5273 186.0718)" style="&st5;"><tspan x="0" y="0" style="&st21; &st12;">IG2</tspan></text>
<text transform="matrix(1 0 0 1 252.1074 203.0718)" style="&st5;"><tspan x="0" y="0" style="&st21; &st12;">ST2</tspan></text>
<text ewd:textID="11" transform="matrix(1 0 0 1 212.8672 238.4814)" style="&st5; &st21; &st12;">Ignition or <tspan x="0" y="7">Starter Switch </tspan><tspan x="0" y="14">Assembly</tspan></text>
<text transform="matrix(1 0 0 1 212.8672 231.3716)" style="&st5;"><tspan x="0" y="0" style="&st21; &st12;">G2</tspan></text>
</g>
<g ewd:code="A65" ewd:figID="2" ewd:figtype="conn">
<path style="&st6;" d="M419.36,240.76v16.99h17v-16.99H419.36"/>
<path style="&st11;" d="M426.67,248.25l-0.28,0.47l-0.09,0.53l0.09,0.54l0.28,0.47l0.41,0.34l0.51,0.19h0.54l0.51-0.19l0.41-0.34l0.27-0.47l0.1-0.54l-0.1-0.53l-0.27-0.47l-0.41-0.34l-0.51-0.19h-0.54l-0.51,0.19L426.67,248.25l0.39,0.71v0.59l0.37,0.44l0.58,0.1l0.5-0.29l0.2-0.55l-0.2-0.54l-0.5-0.29l-0.58,0.1l0.43,0.73"/>
<path style="&st11;" d="M419.36,249.25h17"/>
<path style="&st11;" d="M427.86,249.25v8.5"/>
<text transform="matrix(1 0 0 1 416.8374 229.9517)" style="&st5;"><tspan x="0" y="0" style="&st21; &st12;">A65</tspan></text>
<text ewd:textID="12" transform="matrix(1 0 0 1 416.8374 237.0615)" style="&st5; &st21; &st12;">Junction Connector</text>
<text transform="matrix(1 0 0 1 412.5669 245.5615)" style="&st5;"><tspan x="0" y="0" style="&st21; &st12;">3</tspan></text>
<text transform="matrix(1 0 0 1 421.0669 265.9517)" style="&st5;"><tspan x="0" y="0" style="&st21; &st12;">2</tspan></text>
<text transform="matrix(1 0 0 1 439.187 245.5615)" style="&st5;"><tspan x="0" y="0" style="&st21; &st12;">1</tspan></text>
</g>
<g ewd:code="C66,C95,D1,D2,D4,D5,D6" ewd:figID="4" ewd:figtype="conn">
<path style="&st6;" d="M155.9,590.61l-4.24,17"/>
<path style="&st11;" d="M240.89,606.19V580.7"/>
<path style="&st11;" d="M252.22,623.19h14.17"/>
<path style="&st11;" d="M157.32,606.19h62.32"/>
<path style="&st11;" d="M236.64,606.19h8.5"/>
<path style="&st11;" d="M155.9,580.7v7.08"/>
<path style="&st11;" d="M257.89,648.69h16.99"/>
<path style="&st11;" d="M262.14,651.52h8.5"/>
<path style="&st11;" d="M263.55,654.35h5.67"/>
<path style="&st11;" d="M264.97,657.19h2.83"/>
<path style="&st11;" d="M262.14,606.19h4.25v42.5"/>
<path style="&st11;" d="M215.39,606.19v17h14.17"/>
<path style="&st6;" d="M274.88,640.19H138.91V580.7h135.97V640.19"/>
<path style="&st6;" d="M233.52,618.94h-3.96v8.5h3.96"/>
<path style="&st6;" d="M248.26,618.94h3.96v8.5h-3.96"/>
<path style="&st11;" d="M239.7,605.19l-0.27,0.47l-0.1,0.53l0.1,0.54l0.27,0.47l0.41,0.34l0.51,0.19h0.54l0.51-0.19l0.41-0.34l0.27-0.47l0.1-0.54l-0.1-0.53l-0.27-0.47l-0.41-0.34l-0.51-0.19h-0.54l-0.51,0.19L239.7,605.19l0.39,0.71v0.59l0.38,0.44l0.57,0.1l0.5-0.29l0.2-0.55l-0.2-0.54l-0.5-0.29l-0.57,0.1l0.42,0.73"/>
<path style="&st11;" d="M214.2,605.19l-0.27,0.47l-0.09,0.53l0.09,0.54l0.27,0.47l0.42,0.34l0.5,0.19h0.55l0.5-0.19l0.42-0.34l0.27-0.47l0.09-0.54l-0.09-0.53l-0.27-0.47l-0.42-0.34l-0.5-0.19h-0.55l-0.5,0.19L214.2,605.19l0.4,0.71v0.59l0.37,0.44l0.57,0.1l0.51-0.29l0.19-0.55l-0.19-0.54l-0.51-0.29l-0.57,0.1l0.42,0.73"/>
<path style="&st11;" d="M265.19,622.19l-0.27,0.47l-0.09,0.53l0.09,0.53l0.27,0.47l0.42,0.35l0.5,0.19h0.55l0.5-0.19l0.42-0.35l0.27-0.47l0.09-0.53l-0.09-0.53l-0.27-0.47l-0.42-0.35l-0.5-0.18h-0.55l-0.5,0.18L265.19,622.19l0.4,0.71v0.58l0.37,0.45l0.57,0.1l0.51-0.29l0.2-0.55l-0.2-0.55l-0.51-0.28l-0.57,0.09l0.43,0.74"/>
<path style="&st11;" d="M157.32,589.2c0-0.79-0.63-1.42-1.42-1.42"/>
<path style="&st11;" d="M155.9,587.78c-0.78,0-1.41,0.63-1.41,1.42"/>
<path style="&st11;" d="M154.49,589.2c0,0.78,0.63,1.41,1.41,1.41"/>
<path style="&st11;" d="M155.9,590.61c0.79,0,1.42-0.63,1.42-1.41"/>
<path style="&st11;" d="M157.32,606.19c0-0.78-0.63-1.41-1.42-1.41"/>
<path style="&st11;" d="M155.9,604.78c-0.78,0-1.41,0.63-1.41,1.41"/>
<path style="&st11;" d="M154.49,606.19c0,0.79,0.63,1.42,1.41,1.42"/>
<path style="&st11;" d="M155.9,607.61c0.79,0,1.42-0.63,1.42-1.42"/>
<path style="&st6;" d="M249.39,623.19c0-4.69-3.81-8.5-8.5-8.5"/>
<path style="&st6;" d="M240.89,614.69c-4.69,0-8.5,3.81-8.5,8.5"/>
<path style="&st6;" d="M232.39,623.19c0,4.69,3.81,8.5,8.5,8.5"/>
<path style="&st6;" d="M240.89,631.69c4.69,0,8.5-3.81,8.5-8.5"/>
<path style="&st11;" d="M225.66,608.72c1.4-1.37,1.42-3.61,0.05-5"/>
<path style="&st11;" d="M225.71,603.72c-1.36-1.4-3.61-1.42-5-0.06"/>
<path style="&st11;" d="M220.71,603.66c-0.71,0.7-1.07,1.54-1.07,2.53"/>
<path style="&st11;" d="M230.62,608.72c1.4-1.37,1.42-3.61,0.05-5"/>
<path style="&st11;" d="M230.67,603.72c-1.37-1.4-3.61-1.42-5.01-0.06"/>
<path style="&st11;" d="M225.66,603.66c-1.39,1.37-1.42,3.62-0.05,5.01"/>
<path style="&st11;" d="M225.61,608.67c0.02,0.02,0.04,0.04,0.05,0.05"/>
<path style="&st11;" d="M236.64,606.19c0-1.95-1.58-3.54-3.54-3.54"/>
<path style="&st11;" d="M233.1,602.65c-1.96,0-3.54,1.59-3.54,3.54"/>
<path style="&st11;" d="M229.56,606.19c0,0.99,0.35,1.84,1.06,2.53"/>
<path style="&st11;" d="M251.16,608.72c1.4-1.37,1.42-3.61,0.05-5"/>
<path style="&st11;" d="M251.21,603.72c-1.37-1.4-3.61-1.42-5.01-0.06"/>
<path style="&st11;" d="M246.2,603.66c-0.71,0.7-1.06,1.54-1.06,2.53"/>
<path style="&st11;" d="M256.12,608.72c1.39-1.37,1.42-3.61,0.05-5"/>
<path style="&st11;" d="M256.17,603.72c-1.37-1.4-3.61-1.42-5.01-0.06"/>
<path style="&st11;" d="M251.16,603.66c-1.4,1.37-1.42,3.62-0.05,5.01"/>
<path style="&st11;" d="M251.11,608.67c0.02,0.02,0.03,0.04,0.05,0.05"/>
<path style="&st11;" d="M262.14,606.19c0-1.95-1.59-3.54-3.54-3.54"/>
<path style="&st11;" d="M258.6,602.65c-1.96,0-3.55,1.59-3.55,3.54"/>
<path style="&st11;" d="M255.05,606.19c0,0.99,0.36,1.84,1.07,2.53"/>
<path style="&st6;" d="M245.42,576.17c0-2.51-2.03-4.54-4.53-4.54"/>
<path style="&st6;" d="M240.89,571.63c-2.5,0-4.53,2.03-4.53,4.54"/>
<path style="&st6;" d="M236.36,576.17c0,2.5,2.03,4.53,4.53,4.53"/>
<path style="&st6;" d="M240.89,580.7c2.5,0,4.53-2.03,4.53-4.53"/>
<path style="&st6;" d="M245.42,567.1c0-2.5-2.03-4.53-4.53-4.53"/>
<path style="&st6;" d="M240.89,562.57c-2.5,0-4.53,2.03-4.53,4.53"/>
<path style="&st6;" d="M236.36,567.1c0,2.5,2.03,4.53,4.53,4.53"/>
<path style="&st6;" d="M240.89,571.63c2.5,0,4.53-2.03,4.53-4.53"/>
<path style="&st6;" d="M160.44,576.17c0-2.51-2.03-4.54-4.54-4.54"/>
<path style="&st6;" d="M155.9,571.63c-2.5,0-4.53,2.03-4.53,4.54"/>
<path style="&st6;" d="M151.37,576.17c0,2.5,2.03,4.53,4.53,4.53"/>
<path style="&st6;" d="M155.9,580.7c2.51,0,4.54-2.03,4.54-4.53"/>
<path style="&st6;" d="M160.44,567.1c0-2.5-2.03-4.53-4.54-4.53"/>
<path style="&st6;" d="M155.9,562.57c-2.5,0-4.53,2.03-4.53,4.53"/>
<path style="&st6;" d="M151.37,567.1c0,2.5,2.03,4.53,4.53,4.53"/>
<path style="&st6;" d="M155.9,571.63c2.51,0,4.54-2.03,4.54-4.53"/>
<path style="&st6;" d="M160.44,558.04c0-2.51-2.03-4.54-4.54-4.54"/>
<path style="&st6;" d="M155.9,553.5c-2.5,0-4.53,2.03-4.53,4.54"/>
<path style="&st6;" d="M151.37,558.04c0,2.5,2.03,4.53,4.53,4.53"/>
<path style="&st6;" d="M155.9,562.57c2.51,0,4.54-2.03,4.54-4.53"/>
<path style="&st6;" d="M245.42,558.04c0-2.51-2.03-4.54-4.53-4.54"/>
<path style="&st6;" d="M240.89,553.5c-2.5,0-4.53,2.03-4.53,4.54"/>
<path style="&st6;" d="M236.36,558.04c0,2.5,2.03,4.53,4.53,4.53"/>
<path style="&st6;" d="M240.89,562.57c2.5,0,4.53-2.03,4.53-4.53"/>
<path style="&st6;" d="M160.44,548.97c0-2.5-2.03-4.53-4.54-4.53"/>
<path style="&st6;" d="M155.9,544.44c-2.5,0-4.53,2.03-4.53,4.53"/>
<path style="&st6;" d="M151.37,548.97c0,2.5,2.03,4.53,4.53,4.53"/>
<path style="&st6;" d="M155.9,553.5c2.51,0,4.54-2.03,4.54-4.53"/>
<text transform="matrix(1 0 0 1 145.7974 550.9419)" style="&st5;"><tspan x="0" y="0" style="&st21; &st12;">1</tspan></text>
<text transform="matrix(1 0 0 1 153.1475 550.9419)" style="&st5;"><tspan x="0" y="0" style="&st21; &st12;">G</tspan></text>
<text transform="matrix(1 0 0 1 237.9873 625.1626)" style="&st5;"><tspan x="0" y="0" style="&st21; &st12;">M</tspan></text>
<text transform="matrix(1 0 0 1 230.7871 578.1411)" style="&st5;"><tspan x="0" y="0" style="&st21; &st12;">1</tspan></text>
<text transform="matrix(1 0 0 1 238.5571 578.1411)" style="&st5;"><tspan x="0" y="0" style="&st21; &st12;">A</tspan></text>
<text transform="matrix(1 0 0 1 230.7871 569.0708)" style="&st5;"><tspan x="0" y="0" style="&st21; &st12;">1</tspan></text>
<text transform="matrix(1 0 0 1 238.5571 569.0708)" style="&st5;"><tspan x="0" y="0" style="&st21; &st12;">B</tspan></text>
<text transform="matrix(1 0 0 1 145.7974 578.1411)" style="&st5;"><tspan x="0" y="0" style="&st21; &st12;">1</tspan></text>
<text transform="matrix(1 0 0 1 153.5674 578.1411)" style="&st5;"><tspan x="0" y="0" style="&st21; &st12;">E</tspan></text>
<text transform="matrix(1 0 0 1 145.7974 569.0708)" style="&st5;"><tspan x="0" y="0" style="&st21; &st12;">1</tspan></text>
<text transform="matrix(1 0 0 1 153.7871 569.0708)" style="&st5;"><tspan x="0" y="0" style="&st21; &st12;">F</tspan></text>
<text transform="matrix(0 -1 1 0 282.4971 642.7114)" style="&st5;"><tspan x="0" y="0" style="&st21; &st12;">C66(A),C95(B),D1(C),</tspan></text>
<text transform="matrix(0 -1 1 0 288.4971 642.7114)" style="&st5;"><tspan x="0" y="0" style="&st21; &st12;">D2(D),D4(E),D5(F),D6(G)</tspan></text>
<text ewd:textID="15" transform="matrix(0 -1 1 0 295.5474 642.7114)" style="&st5; &st21; &st12;">Starter Assembly</text>
<text transform="matrix(1 0 0 1 145.7974 560.0024)" style="&st5;"><tspan x="0" y="0" style="&st21; &st12;">1</tspan></text>
<text transform="matrix(1 0 0 1 153.4272 560.0024)" style="&st5;"><tspan x="0" y="0" style="&st21; &st12;">C</tspan></text>
<text transform="matrix(1 0 0 1 230.7871 560.0024)" style="&st5;"><tspan x="0" y="0" style="&st21; &st12;">1</tspan></text>
<text transform="matrix(1 0 0 1 238.4175 560.0024)" style="&st5;"><tspan x="0" y="0" style="&st21; &st12;">D</tspan></text>
</g>
<g ewd:code="A70" ewd:figID="5" ewd:figtype="conn">
<path style="&st6;" d="M351.37,529.71h17v16.99h-17V529.71"/>
<path style="&st11;" d="M359.87,529.71v16.99"/>
<text transform="matrix(1 0 0 1 353.0776 554.9009)" style="&st5;"><tspan x="0" y="0" style="&st21; &st12;">6</tspan></text>
<text transform="matrix(1 0 0 1 353.0776 526.022)" style="&st5;"><tspan x="0" y="0" style="&st21; &st12;">7</tspan></text>
<text transform="matrix(0 -1 1 0 375.9771 549.231)" style="&st5;"><tspan x="0" y="0" style="&st21; &st12;">A70</tspan></text>
<text ewd:textID="12" transform="matrix(0 -1 1 0 383.0874 549.231)" style="&st5; &st21; &st12;">Junction Connector</text>
</g>
<text transform="matrix(1 0 0 1 161.8774 550.9419)" style="&st5;"><tspan x="0" y="0" style="&st21; &st12;">(*11 *6)</tspan></text>
<text transform="matrix(1 0 0 1 246.8574 578.1411)" style="&st5;"><tspan x="0" y="0" style="&st21; &st12;">(*2)</tspan></text>
<text transform="matrix(0 -1 1 0 424.1675 354.0518)" style="&st5;"><tspan x="0" y="0" style="&st21; &st12;">W(LHD M/T)</tspan></text>
<text transform="matrix(1 0 0 1 246.8574 569.0708)" style="&st5;"><tspan x="0" y="0" style="&st21; &st12;">(*1,*6)</tspan></text>
<text transform="matrix(0 -1 1 0 407.1675 354.5518)" style="&st5;"><tspan x="0" y="0" style="&st21; &st12;">W(RHD M/T)</tspan></text>
<text ewd:textID="9" transform="matrix(1 0 0 1 65.5571 578.4224)" style="&st5; &st21; &st12;">Battery</text>
<text transform="matrix(0 -1 1 0 50.2271 123.752)" style="&st5;"><tspan x="0" y="0" style="&st21; &st12;">L</tspan></text>
<text transform="matrix(1 0 0 1 128.4272 186.0718)" style="&st5;"><tspan x="0" y="0" style="&st21; &st12;">L</tspan></text>
<text transform="matrix(1 0 0 1 178.6475 135.0815)" style="&st5;"><tspan x="0" y="0" style="&st21; &st12;">G</tspan></text>
<text transform="matrix(1 0 0 1 382.0073 245.5615)" style="&st5;"><tspan x="0" y="0" style="&st21; &st12;">W</tspan></text>
<text transform="matrix(0 -1 1 0 330.6772 234.2314)" style="&st5;"><tspan x="0" y="0" style="&st21; &st12;">L</tspan></text>
<text transform="matrix(0 -1 1 0 330.6772 285.2314)" style="&st5;"><tspan x="0" y="0" style="&st21; &st12;">L</tspan></text>
<text transform="matrix(0 -1 1 0 356.1772 477.9224)" style="&st5;"><tspan x="0" y="0" style="&st21; &st12;">W-B</tspan></text>
<text transform="matrix(0 -1 1 0 356.1772 622.3911)" style="&st5;"><tspan x="0" y="0" style="&st21; &st12;">W-B</tspan></text>
<text transform="matrix(1 0 0 1 86.5073 449.522)" style="&st5;"><tspan x="0" y="0" style="&st21; &st12;">B(*2 *4,*5)</tspan></text>
<text transform="matrix(1 0 0 1 87.4272 432.5317)" style="&st5;"><tspan x="0" y="0" style="&st21; &st12;">B-R(*1,*6)</tspan></text>
<text transform="matrix(1 0 0 1 492.4873 245.5615)" style="&st5;"><tspan x="0" y="0" style="&st21; &st12;">W</tspan></text>
<text transform="matrix(1 0 0 1 491.1865 152.0718)" style="&st5;"><tspan x="0" y="0" style="&st21; &st12;">SB</tspan></text>
<text transform="matrix(1 0 0 1 476.0264 594.0024)" style="&st5;"><tspan x="0" y="0" style="&st21; &st12;">W(LHD M/T)</tspan></text>
<text transform="matrix(1 0 0 1 475.5381 611.0024)" style="&st5;"><tspan x="0" y="0" style="&st21; &st12;">W(RHD M/T)</tspan></text>
<text transform="matrix(1 0 0 1 488.0381 256.8916)" style="&st5;"><tspan x="0" y="0" style="&st21; &st12;">(A/T)</tspan></text>
<text transform="matrix(1 0 0 1 87.3872 415.5317)" style="&st5;"><tspan x="0" y="0" style="&st21; &st12;">B-L(*2 *3)</tspan></text>
<text transform="matrix(1 0 0 1 63.8271 161.9917)" style="&st5;"><tspan x="0" y="0" style="&st21; &st12;">(*10)</tspan></text>
<text transform="matrix(1 0 0 1 63.8271 153.4917)" style="&st5;"><tspan x="0" y="0" style="&st21; &st12;">(*9)</tspan></text>
<text transform="matrix(1 0 0 1 246.8574 560.0024)" style="&st5;"><tspan x="0" y="0" style="&st21; &st12;">(*5)</tspan></text>
<text transform="matrix(1 0 0 1 161.8774 569.0708)" style="&st5;"><tspan x="0" y="0" style="&st21; &st12;">(*1,*12 *6)</tspan></text>
<text transform="matrix(0 -1 1 0 322.1772 464.0513)" style="&st5;"><tspan x="0" y="0" style="&st21; &st12;">B</tspan></text>
<text transform="matrix(0 -1 1 0 333.5073 467.9009)" style="&st5;"><tspan x="0" y="0" style="&st21; &st12;">(*5)</tspan></text>
<text transform="matrix(0 -1 1 0 194.6973 464.0513)" style="&st5;"><tspan x="0" y="0" style="&st21; &st12;">B</tspan></text>
<text transform="matrix(0 -1 1 0 206.0273 472.9224)" style="&st5;"><tspan x="0" y="0" style="&st21; &st12;">(*6 *7)</tspan></text>
<text transform="matrix(0 -1 1 0 237.187 464.0513)" style="&st5;"><tspan x="0" y="0" style="&st21; &st12;">B</tspan></text>
<text transform="matrix(0 -1 1 0 248.5273 477.4009)" style="&st5;"><tspan x="0" y="0" style="&st21; &st12;">(*1,*6 *8)</tspan></text>
<text transform="matrix(0 -1 1 0 279.687 464.0513)" style="&st5;"><tspan x="0" y="0" style="&st21; &st12;">B</tspan></text>
<text transform="matrix(0 -1 1 0 291.0171 467.9009)" style="&st5;"><tspan x="0" y="0" style="&st21; &st12;">(*2)</tspan></text>
<text transform="matrix(0 -1 1 0 322.1772 515.0415)" style="&st5;"><tspan x="0" y="0" style="&st21; &st12;">B</tspan></text>
<text transform="matrix(0 -1 1 0 333.5073 518.8911)" style="&st5;"><tspan x="0" y="0" style="&st21; &st12;">(*5)</tspan></text>
<text transform="matrix(0 -1 1 0 279.687 515.0415)" style="&st5;"><tspan x="0" y="0" style="&st21; &st12;">B</tspan></text>
<text transform="matrix(0 -1 1 0 291.0171 518.8911)" style="&st5;"><tspan x="0" y="0" style="&st21; &st12;">(*2)</tspan></text>
<text transform="matrix(0 -1 1 0 237.187 515.0415)" style="&st5;"><tspan x="0" y="0" style="&st21; &st12;">B</tspan></text>
<text transform="matrix(0 -1 1 0 248.5273 528.3911)" style="&st5;"><tspan x="0" y="0" style="&st21; &st12;">(*1,*6 *8)</tspan></text>
<text transform="matrix(0 -1 1 0 194.6973 515.0415)" style="&st5;"><tspan x="0" y="0" style="&st21; &st12;">B</tspan></text>
<text transform="matrix(0 -1 1 0 206.0273 523.9126)" style="&st5;"><tspan x="0" y="0" style="&st21; &st12;">(*6 *7)</tspan></text>
<text transform="matrix(1 0 0 1 363.8472 339.0518)" style="&st5;"><tspan x="0" y="0" style="&st21; &st12;">(*2,*5)</tspan></text>
<text transform="matrix(1 0 0 1 363.8472 329.9922)" style="&st5;"><tspan x="0" y="0" style="&st21; &st12;">(*1,*6)</tspan></text>
<text transform="matrix(1 0 0 1 363.0771 393.9917)" style="&st5;"><tspan x="0" y="0" style="&st21; &st12;">(*1,*6)</tspan></text>
<text transform="matrix(1 0 0 1 363.0771 384.9312)" style="&st5;"><tspan x="0" y="0" style="&st21; &st12;">(*2,*5)</tspan></text>
</svg>
