﻿<?xml version="1.0" encoding="UTF-8"?>
<!DOCTYPE svg PUBLIC "-//W3C//DTD SVG 1.0//EN" "http://www.w3.org/TR/2001/REC-SVG-20010904/DTD/svg10.dtd"[
<!ENTITY ns_flows "http://ns.adobe.com/Flows/1.0/">
<!ENTITY ns_svg "http://www.w3.org/2000/svg">
<!ENTITY ns_xlink "http://www.w3.org/1999/xlink">
	<!ENTITY st0 "fill:none;stroke:#FB0F0C;stroke-width:5.1;stroke-linejoin:round;">
	<!ENTITY st1 "fill:none;stroke:#9A9999;stroke-width:5.1;stroke-linejoin:round;">
	<!ENTITY st2 "fill:none;stroke:#99280B;stroke-width:5.1;stroke-linejoin:round;">
		<!ENTITY st3 "fill:none;stroke:#000000;stroke-width:0.85;stroke-linecap:round;stroke-linejoin:round;stroke-dasharray:3 1.5;enable-background:new    ;">
	<!ENTITY st4 "fill:none;stroke:#000000;stroke-width:5.1;stroke-linejoin:round;">
	<!ENTITY st5 "fill:none;stroke:#000000;stroke-linecap:round;stroke-linejoin:round;">
	<!ENTITY st6 "stroke:#000000;stroke-width:0.28;stroke-linecap:round;stroke-linejoin:round;enable-background:new    ;">
	<!ENTITY st7 "enable-background:new    ;">
		<!ENTITY st8 "fill:none;stroke:#000000;stroke-width:1.42;stroke-linecap:round;stroke-linejoin:round;enable-background:new    ;">
	<!ENTITY st9 "fill:none;stroke:#EE67AA;stroke-width:5.1;stroke-linejoin:round;">
	<!ENTITY st10 "fill:none;stroke:#199DBF;stroke-width:5.1;stroke-linejoin:round;">
	<!ENTITY st11 "opacity:0.5;fill:none;stroke:#34ACCE;stroke-linejoin:round;stroke-dasharray:6;">
	<!ENTITY st12 "fill:none;stroke:#FFFFFF;stroke-width:4.53;stroke-linejoin:round;">
		<!ENTITY st13 "fill:none;stroke:#000000;stroke-width:0.85;stroke-linecap:round;stroke-linejoin:round;enable-background:new    ;">
	<!ENTITY st14 "fill:none;stroke:#56107C;stroke-width:5.1;stroke-linejoin:round;">
	<!ENTITY st15 "font-size:6px;">
	<!ENTITY st16 "fill:none;stroke:#168638;stroke-width:5.1;stroke-linejoin:round;">
	<!ENTITY st17 "fill:none;stroke:#000000;stroke-width:1.13;stroke-linejoin:round;">
		<!ENTITY st18 "fill:none;stroke:#000000;stroke-width:1.13;stroke-linecap:round;stroke-linejoin:round;stroke-dasharray:3 1.5;enable-background:new    ;">
	<!ENTITY st19 "fill:#FFFFFF;stroke:#000000;stroke-width:1.41;stroke-linecap:round;stroke-linejoin:round;">
	<!ENTITY st20 "fill:none;stroke:#3E65AC;stroke-width:3;">
	<!ENTITY st21 "fill:#CCCCCC;stroke:#CCCCCC;stroke-width:0.1;stroke-linecap:round;stroke-linejoin:round;">
	<!ENTITY st22 "font-family:'Arial';">
	<!ENTITY st23 "opacity:0.5;fill:none;stroke:#34ACCE;stroke-linejoin:round;">
	<!ENTITY st24 "fill:#CFE6E7;stroke:#000000;stroke-width:1.133;stroke-linecap:round;stroke-linejoin:round;">
	<!ENTITY st25 "fill:none;stroke:#99D5E0;stroke-width:5.1;stroke-linejoin:round;">
	<!ENTITY st26 "fill:none;stroke:#000000;stroke-width:0.85;stroke-linecap:round;stroke-linejoin:round;">
<!ATTLIST svg
xmlns:ewd CDATA #FIXED "http://shcl.co.jp/ewd"
xmlns:a CDATA #FIXED "http://ns.adobe.com/AdobeSVGViewerExtensions/3.0/"
ewd:ver CDATA #IMPLIED
>
<!ATTLIST a
ewd:lineID CDATA #IMPLIED
ewd:groupID CDATA #IMPLIED
ewd:figtype CDATA #IMPLIED
ewd:code CDATA #IMPLIED
ewd:figID CDATA #IMPLIED
ewd:pinNo CDATA #IMPLIED
ewd:comment CDATA #IMPLIED >
<!ATTLIST g
ewd:lineID CDATA #IMPLIED
ewd:groupID CDATA #IMPLIED
ewd:figtype CDATA #IMPLIED
ewd:code CDATA #IMPLIED
ewd:figID CDATA #IMPLIED
ewd:pinNo CDATA #IMPLIED
ewd:comment CDATA #IMPLIED >
<!ATTLIST text
ewd:textID CDATA #IMPLIED >
<!ATTLIST title
ewd:textID CDATA #IMPLIED >
]>
<svg 
viewBox='0 0 2595.05 729.44'
height='729.44'
width='2595.05'
xml:space="preserve"
xmlns="&ns_svg;"
xmlns:ewd="http://shcl.co.jp/ewd"
xmlns:xlink="&ns_xlink;" ewd:ver="L2.1">
<g ewd:code="FUSE10" ewd:figID="401" ewd:figtype="rb">
<path style="&st5;" d="M1070.57,39.55v42.49h25.5V39.55H1070.57"/>
<path style="&st8;" d="M1085.44,107.54h-4.24"/>
<path style="&st8;" d="M1085.44,99.04h-4.24"/>
<path style="&st13;" d="M1083.32,73.54v25.5"/>
<path style="&st8;" d="M1070.57,39.55v42.49h25.5V39.55H1070.57"/>
<path style="&st6;" d="M1083.32,94.14l-2.83-2.83v4.25l2.83,2.83l2.83-2.83v-4.25L1083.32,94.14"/>
<path style="&st8;" d="M1089.69,103.29c0-2.35-1.9-4.25-4.25-4.25"/>
<path style="&st8;" d="M1085.44,107.54c2.35,0,4.25-1.9,4.25-4.25"/>
<path style="&st8;" d="M1076.95,103.29c0,2.35,1.9,4.25,4.25,4.25"/>
<path style="&st8;" d="M1081.2,99.04c-2.35,0-4.25,1.9-4.25,4.25"/>
<path style="&st13;" d="M1084.74,72.13c0-0.79-0.64-1.42-1.42-1.42"/>
<path style="&st13;" d="M1083.32,70.71c-0.78,0-1.42,0.63-1.42,1.42"/>
<path style="&st13;" d="M1081.9,72.13c0,0.78,0.64,1.41,1.42,1.41"/>
<path style="&st13;" d="M1083.32,73.54c0.78,0,1.42-0.63,1.42-1.41"/>
<path style="&st13;" d="M1084.74,49.46c0-0.78-0.64-1.41-1.42-1.41"/>
<path style="&st13;" d="M1083.32,48.05c-0.78,0-1.42,0.63-1.42,1.41"/>
<path style="&st13;" d="M1081.9,49.46c0,0.79,0.64,1.42,1.42,1.42"/>
<path style="&st13;" d="M1083.32,50.88c0.78,0,1.42-0.63,1.42-1.42"/>
<path style="&st8;" d="M1083.32,70.71c2.74-1.61,3.65-5.14,2.04-7.88"/>
<path style="&st8;" d="M1085.36,62.83c-0.52-0.88-1.16-1.51-2.04-2.03"/>
<path style="&st8;" d="M1083.32,50.88c-2.74,1.61-3.65,5.14-2.04,7.88"/>
<path style="&st8;" d="M1081.28,58.76c0.52,0.88,1.16,1.52,2.04,2.04"/>
<text transform="matrix(1 0 0 1 1100.6196 59.9365)" style="&st7;"><tspan x="0" y="0" style="&st22; &st15;">10A</tspan></text>
<text transform="matrix(1 0 0 1 1100.6196 65.9365)" style="&st7;"><tspan x="0" y="0" style="&st22; &st15;">ECU-B</tspan></text>
<text transform="matrix(1 0 0 1 1081.731 105.2568)" style="&st7;"><tspan x="0" y="0" style="&st22; &st15;">1</tspan></text>
<text transform="matrix(1 0 0 1 1076.5298 90.2363)" style="&st7;"><tspan x="0" y="0" style="&st22; &st15;">2</tspan></text>
<text transform="matrix(1 0 0 1 1074.2095 35.8467)" style="&st7;"><tspan x="0" y="0" style="&st22; &st15;">(BAT)</tspan></text>
</g>
<g ewd:code="2" ewd:figID="307" ewd:figtype="jb">
<path style="&st5;" d="M1257.54,39.55v42.49h25.5V39.55H1257.54"/>
<path style="&st5;" d="M1138.56,39.55v42.49h25.5V39.55H1138.56"/>
<path style="&st5;" d="M1198.05,39.55v42.49h25.5V39.55H1198.05"/>
<path style="&st8;" d="M1442.38,158.53h-4.24"/>
<path style="&st8;" d="M1442.38,150.03h-4.24"/>
<path style="&st13;" d="M1440.26,150.03V82.04"/>
<path style="&st6;" d="M1440.26,145.14l-2.83-2.84v4.25l2.83,2.84l2.83-2.84v-4.25L1440.26,145.14"/>
<path style="&st8;" d="M1257.54,39.55v42.49h25.5V39.55H1257.54"/>
<path style="&st13;" d="M1270.29,73.54v25.5h67.99v-17"/>
<path style="&st8;" d="M1198.05,39.55v42.49h25.5V39.55H1198.05"/>
<path style="&st13;" d="M1210.8,73.54v42.5h161.47v-34"/>
<path style="&st8;" d="M1138.56,39.55v42.49h25.5V39.55H1138.56"/>
<path style="&st13;" d="M1151.31,73.54v59.49h254.96V82.04"/>
<path style="&st8;" d="M1446.63,154.28c0-2.35-1.9-4.25-4.25-4.25"/>
<path style="&st8;" d="M1442.38,158.53c2.35,0,4.25-1.9,4.25-4.25"/>
<path style="&st8;" d="M1433.89,154.28c0,2.35,1.9,4.25,4.25,4.25"/>
<path style="&st8;" d="M1438.14,150.03c-2.35,0-4.25,1.9-4.25,4.25"/>
<path style="&st13;" d="M1271.7,72.13c0-0.79-0.63-1.42-1.41-1.42"/>
<path style="&st13;" d="M1270.29,70.71c-0.78,0-1.42,0.63-1.42,1.42"/>
<path style="&st13;" d="M1268.87,72.13c0,0.78,0.64,1.41,1.42,1.41"/>
<path style="&st13;" d="M1270.29,73.54c0.78,0,1.41-0.63,1.41-1.41"/>
<path style="&st13;" d="M1271.7,49.46c0-0.78-0.63-1.41-1.41-1.41"/>
<path style="&st13;" d="M1270.29,48.05c-0.78,0-1.42,0.63-1.42,1.41"/>
<path style="&st13;" d="M1268.87,49.46c0,0.79,0.64,1.42,1.42,1.42"/>
<path style="&st13;" d="M1270.29,50.88c0.78,0,1.41-0.63,1.41-1.42"/>
<path style="&st8;" d="M1270.29,70.71c2.74-1.61,3.65-5.14,2.04-7.88"/>
<path style="&st8;" d="M1272.33,62.83c-0.52-0.88-1.16-1.51-2.04-2.03"/>
<path style="&st8;" d="M1270.29,50.88c-2.74,1.61-3.65,5.14-2.04,7.88"/>
<path style="&st8;" d="M1268.25,58.76c0.52,0.88,1.16,1.52,2.04,2.04"/>
<path style="&st13;" d="M1152.72,72.13c0-0.79-0.63-1.42-1.41-1.42"/>
<path style="&st13;" d="M1151.31,70.71c-0.78,0-1.42,0.63-1.42,1.42"/>
<path style="&st13;" d="M1149.89,72.13c0,0.78,0.64,1.41,1.42,1.41"/>
<path style="&st13;" d="M1151.31,73.54c0.78,0,1.41-0.63,1.41-1.41"/>
<path style="&st13;" d="M1152.72,49.46c0-0.78-0.63-1.41-1.41-1.41"/>
<path style="&st13;" d="M1151.31,48.05c-0.78,0-1.42,0.63-1.42,1.41"/>
<path style="&st13;" d="M1149.89,49.46c0,0.79,0.64,1.42,1.42,1.42"/>
<path style="&st13;" d="M1151.31,50.88c0.78,0,1.41-0.63,1.41-1.42"/>
<path style="&st8;" d="M1151.31,70.71c2.74-1.61,3.65-5.14,2.04-7.88"/>
<path style="&st8;" d="M1153.35,62.83c-0.52-0.88-1.16-1.51-2.04-2.03"/>
<path style="&st8;" d="M1151.31,50.88c-2.74,1.61-3.65,5.14-2.04,7.88"/>
<path style="&st8;" d="M1149.27,58.76c0.52,0.88,1.16,1.52,2.04,2.04"/>
<path style="&st13;" d="M1212.21,72.13c0-0.79-0.63-1.42-1.41-1.42"/>
<path style="&st13;" d="M1210.8,70.71c-0.78,0-1.42,0.63-1.42,1.42"/>
<path style="&st13;" d="M1209.38,72.13c0,0.78,0.64,1.41,1.42,1.41"/>
<path style="&st13;" d="M1210.8,73.54c0.78,0,1.41-0.63,1.41-1.41"/>
<path style="&st13;" d="M1212.21,49.46c0-0.78-0.63-1.41-1.41-1.41"/>
<path style="&st13;" d="M1210.8,48.05c-0.78,0-1.42,0.63-1.42,1.41"/>
<path style="&st13;" d="M1209.38,49.46c0,0.79,0.64,1.42,1.42,1.42"/>
<path style="&st13;" d="M1210.8,50.88c0.78,0,1.41-0.63,1.41-1.42"/>
<path style="&st8;" d="M1210.8,70.71c2.74-1.61,3.65-5.14,2.04-7.88"/>
<path style="&st8;" d="M1212.84,62.83c-0.52-0.88-1.16-1.51-2.04-2.03"/>
<path style="&st8;" d="M1210.8,50.88c-2.74,1.61-3.65,5.14-2.04,7.88"/>
<path style="&st8;" d="M1208.76,58.76c0.52,0.88,1.16,1.52,2.04,2.04"/>
<text transform="matrix(1 0 0 1 1287.5903 57.1064)" style="&st7;"><tspan x="0" y="0" style="&st22; &st15;">10A</tspan></text>
<text transform="matrix(1 0 0 1 1287.5903 63.1064)" style="&st7;"><tspan x="0" y="0" style="&st22; &st15;">ECU-IG</tspan></text>
<text transform="matrix(1 0 0 1 1287.5903 69.1064)" style="&st7;"><tspan x="0" y="0" style="&st22; &st15;">NO.2</tspan></text>
<text transform="matrix(1 0 0 1 1264.2095 35.8467)" style="&st7;"><tspan x="0" y="0" style="&st22; &st15;">(IG)</tspan></text>
<text transform="matrix(1 0 0 1 1436.1606 156.2466)" style="&st7;"><tspan x="0" y="0" style="&st22; &st15;">2F</tspan></text>
<text transform="matrix(1 0 0 1 1423.6099 156.2466)" style="&st7;"><tspan x="0" y="0" style="&st22; &st15;">39</tspan></text>
<text transform="matrix(1 0 0 1 1228.1001 59.9365)" style="&st7;"><tspan x="0" y="0" style="&st22; &st15;">7.5A</tspan></text>
<text transform="matrix(1 0 0 1 1228.1001 65.9365)" style="&st7;"><tspan x="0" y="0" style="&st22; &st15;">ACC</tspan></text>
<text transform="matrix(1 0 0 1 1201.1899 35.8467)" style="&st7;"><tspan x="0" y="0" style="&st22; &st15;">(ACC)</tspan></text>
<text transform="matrix(1 0 0 1 1168.6099 57.1064)" style="&st7;"><tspan x="0" y="0" style="&st22; &st15;">25A</tspan></text>
<text transform="matrix(1 0 0 1 1168.6099 63.1064)" style="&st7;"><tspan x="0" y="0" style="&st22; &st15;">D/L</tspan></text>
<text transform="matrix(1 0 0 1 1168.6099 69.1064)" style="&st7;"><tspan x="0" y="0" style="&st22; &st15;">NO.2</tspan></text>
<text transform="matrix(1 0 0 1 1142.1997 35.8467)" style="&st7;"><tspan x="0" y="0" style="&st22; &st15;">(BAT)</tspan></text>
</g>
<g ewd:code="G63-A,G64-B" ewd:figID="6" ewd:figtype="conn">
<path style="&st8;" d="M1321.28,39.55v42.49h679.89V39.55H1321.28"/>
<path style="&st8;" d="M1920.71,86.57c0-2.5-2.03-4.53-4.53-4.53"/>
<path style="&st8;" d="M1916.18,82.04c-2.5,0-4.53,2.03-4.53,4.53"/>
<path style="&st8;" d="M1911.65,86.57c0,2.51,2.03,4.54,4.53,4.54"/>
<path style="&st8;" d="M1916.18,91.11c2.5,0,4.53-2.03,4.53-4.54"/>
<path style="&st8;" d="M1988.7,86.57c0-2.5-2.03-4.53-4.53-4.53"/>
<path style="&st8;" d="M1984.17,82.04c-2.5,0-4.53,2.03-4.53,4.53"/>
<path style="&st8;" d="M1979.64,86.57c0,2.51,2.03,4.54,4.53,4.54"/>
<path style="&st8;" d="M1984.17,91.11c2.5,0,4.53-2.03,4.53-4.54"/>
<path style="&st8;" d="M1954.71,86.57c0-2.5-2.03-4.53-4.54-4.53"/>
<path style="&st8;" d="M1950.17,82.04c-2.5,0-4.53,2.03-4.53,4.53"/>
<path style="&st8;" d="M1945.64,86.57c0,2.51,2.03,4.54,4.53,4.54"/>
<path style="&st8;" d="M1950.17,91.11c2.51,0,4.54-2.03,4.54-4.54"/>
<path style="&st8;" d="M1504.28,86.57c0-2.5-2.03-4.53-4.53-4.53"/>
<path style="&st8;" d="M1499.75,82.04c-2.5,0-4.53,2.03-4.53,4.53"/>
<path style="&st8;" d="M1495.22,86.57c0,2.51,2.03,4.54,4.53,4.54"/>
<path style="&st8;" d="M1499.75,91.11c2.5,0,4.53-2.03,4.53-4.54"/>
<path style="&st8;" d="M1640.26,86.57c0-2.5-2.03-4.53-4.53-4.53"/>
<path style="&st8;" d="M1635.73,82.04c-2.51,0-4.54,2.03-4.54,4.53"/>
<path style="&st8;" d="M1631.19,86.57c0,2.51,2.03,4.54,4.54,4.54"/>
<path style="&st8;" d="M1635.73,91.11c2.5,0,4.53-2.03,4.53-4.54"/>
<text transform="matrix(1 0 0 1 1947.8403 88.5366)" style="&st7;"><tspan x="0" y="0" style="&st22; &st15;">B</tspan></text>
<text transform="matrix(1 0 0 1 1935.3403 88.5366)" style="&st7;"><tspan x="0" y="0" style="&st22; &st15;">30</tspan></text>
<text transform="matrix(1 0 0 1 1981.8403 88.5366)" style="&st7;"><tspan x="0" y="0" style="&st22; &st15;">B</tspan></text>
<text transform="matrix(1 0 0 1 1969.3403 88.5366)" style="&st7;"><tspan x="0" y="0" style="&st22; &st15;">29</tspan></text>
<text transform="matrix(1 0 0 1 1974.561 78.3467)" style="&st7;"><tspan x="0" y="0" style="&st22; &st15;">HEAD</tspan></text>
<text transform="matrix(1 0 0 1 1942.7603 78.3467)" style="&st7;"><tspan x="0" y="0" style="&st22; &st15;">TAIL</tspan></text>
<text transform="matrix(1 0 0 1 1913.8501 88.5366)" style="&st7;"><tspan x="0" y="0" style="&st22; &st15;">B</tspan></text>
<text transform="matrix(1 0 0 1 1901.3501 88.5366)" style="&st7;"><tspan x="0" y="0" style="&st22; &st15;">28</tspan></text>
<text transform="matrix(1 0 0 1 1913.8501 78.3467)" style="&st7;"><tspan x="0" y="0" style="&st22; &st15;">A</tspan></text>
<text ewd:textID='20' transform='matrix(1 0 0 1 1395.2407 65.5967)' style='&st7; &st22; &st15;'>Main Body ECU</text>
<text transform="matrix(1 0 0 1 1395.2407 58.4863)" style="&st7;"><tspan x="0" y="0" style="&st22; &st15;">G63(A),G64(B)</tspan></text>
<text transform="matrix(1 0 0 1 1497.4204 88.5366)" style="&st7;"><tspan x="0" y="0" style="&st22; &st15;">A</tspan></text>
<text transform="matrix(1 0 0 1 1484.9204 88.5366)" style="&st7;"><tspan x="0" y="0" style="&st22; &st15;">22</tspan></text>
<text transform="matrix(1 0 0 1 1490.1392 78.3467)" style="&st7;"><tspan x="0" y="0" style="&st22; &st15;">ACAN</tspan></text>
<text transform="matrix(1 0 0 1 1327.5298 90.2363)" style="&st7;"><tspan x="0" y="0" style="&st22; &st15;">32</tspan></text>
<text transform="matrix(1 0 0 1 1334.5298 78.3467)" style="&st7;"><tspan x="0" y="0" style="&st22; &st15;">IG</tspan></text>
<text transform="matrix(1 0 0 1 1429.5103 90.2363)" style="&st7;"><tspan x="0" y="0" style="&st22; &st15;">30</tspan></text>
<text transform="matrix(1 0 0 1 1430.6509 78.3467)" style="&st7;"><tspan x="0" y="0" style="&st22; &st15;">BECU</tspan></text>
<text transform="matrix(1 0 0 1 1361.5298 90.2363)" style="&st7;"><tspan x="0" y="0" style="&st22; &st15;">29</tspan></text>
<text transform="matrix(1 0 0 1 1365.0005 78.3467)" style="&st7;"><tspan x="0" y="0" style="&st22; &st15;">ACC</tspan></text>
<text transform="matrix(1 0 0 1 1397.5103 78.3467)" style="&st7;"><tspan x="0" y="0" style="&st22; &st15;">ALTB</tspan></text>
<text transform="matrix(1 0 0 1 1396.2993 90.2363)" style="&st7;"><tspan x="0" y="0" style="&st22; &st15;">31</tspan></text>
<text ewd:textID='20' transform='matrix(1 0 0 1 1769.1802 65.5967)' style='&st7; &st22; &st15;'>Main Body ECU</text>
<text transform="matrix(1 0 0 1 1769.1802 58.4863)" style="&st7;"><tspan x="0" y="0" style="&st22; &st15;">G63(A),G64(B)</tspan></text>
<text transform="matrix(1 0 0 1 1624.8501 88.5366)" style="&st7;"><tspan x="0" y="0" style="&st22; &st15;">3</tspan></text>
<text transform="matrix(1 0 0 1 1633.4009 88.5366)" style="&st7;"><tspan x="0" y="0" style="&st22; &st15;">A</tspan></text>
<text transform="matrix(1 0 0 1 1626.0493 78.3467)" style="&st7;"><tspan x="0" y="0" style="&st22; &st15;">GND2</tspan></text>
<text transform="matrix(1 0 0 1 1694.5298 90.2363)" style="&st7;"><tspan x="0" y="0" style="&st22; &st15;">11</tspan></text>
<text transform="matrix(1 0 0 1 1694.4302 78.3467)" style="&st7;"><tspan x="0" y="0" style="&st22; &st15;">GND1</tspan></text>
</g>
<path style="&st8;" d="M2205.13,578.45l-5.06-11.36"/>
<path style="&st8;" d="M2205.13,578.45l5.06-11.36"/>
<path style="&st8;" d="M2256.12,578.45l-5.06-11.36"/>
<path style="&st8;" d="M2256.12,578.45l5.06-11.36"/>
<path style="&st8;" d="M2307.12,578.45l-5.06-11.36"/>
<path style="&st8;" d="M2307.12,578.45l5.05-11.36"/>
<path style="&st8;" d="M2358.11,578.45l-5.06-11.36"/>
<path style="&st8;" d="M2358.11,578.45l5.06-11.36"/>
<path style="&st8;" d="M2179.64,558.96l5.06,11.37"/>
<path style="&st8;" d="M2179.64,558.96l-5.06,11.37"/>
<path style="&st8;" d="M2230.63,558.96l5.06,11.37"/>
<path style="&st8;" d="M2230.63,558.96l-5.06,11.37"/>
<path style="&st8;" d="M2281.62,558.96l5.06,11.37"/>
<path style="&st8;" d="M2281.62,558.96l-5.06,11.37"/>
<path style="&st8;" d="M2332.61,558.96l5.06,11.37"/>
<path style="&st8;" d="M2332.61,558.96l-5.06,11.37"/>
<path style="&st3;" d="M241.96,465.58h21.25"/>
<path style="&st3;" d="M241.96,456.52h21.25"/>
<path style="&st3;" d="M241.96,421.96h17"/>
<path style="&st3;" d="M241.96,412.89h17"/>
<path style="&st13;" d="M2362.35,581.21l-4.24,4.25H2271l-2.13,4.25l-2.12-4.25h-87.11l-4.25-4.25"/>
<text transform="matrix(0 -1 1 0 1079.6196 132.1733)" style="&st7;"><tspan x="0" y="0" style="&st22; &st15;">L</tspan></text>
<text transform="matrix(1 0 0 1 1055.3501 634.2476)" style="&st7;"><tspan x="0" y="0" style="&st22; &st15;">R</tspan></text>
<text transform="matrix(1 0 0 1 1004.3599 634.2476)" style="&st7;"><tspan x="0" y="0" style="&st22; &st15;">R</tspan></text>
<text transform="matrix(1 0 0 1 1004.5005 600.2573)" style="&st7;"><tspan x="0" y="0" style="&st22; &st15;">V</tspan></text>
<text transform="matrix(1 0 0 1 1055.4907 600.2573)" style="&st7;"><tspan x="0" y="0" style="&st22; &st15;">V</tspan></text>
<text transform="matrix(1 0 0 1 1051.6411 611.5874)" style="&st7;"><tspan x="0" y="0" style="&st22; &st15;">(*7)</tspan></text>
<text transform="matrix(1 0 0 1 1000.6509 611.5874)" style="&st7;"><tspan x="0" y="0" style="&st22; &st15;">(*7)</tspan></text>
<text transform="matrix(1 0 0 1 1004.5005 566.2671)" style="&st7;"><tspan x="0" y="0" style="&st22; &st15;">V</tspan></text>
<text transform="matrix(1 0 0 1 1055.4907 566.2671)" style="&st7;"><tspan x="0" y="0" style="&st22; &st15;">V</tspan></text>
<text transform="matrix(1 0 0 1 1051.6411 577.5972)" style="&st7;"><tspan x="0" y="0" style="&st22; &st15;">(*8)</tspan></text>
<text transform="matrix(1 0 0 1 1000.6509 577.5972)" style="&st7;"><tspan x="0" y="0" style="&st22; &st15;">(*8)</tspan></text>
<text transform="matrix(0 -1 1 0 1463.5591 146.9072)" style="&st7;"><tspan x="0" y="0" style="&st22; &st15;">V</tspan></text>
<text transform="matrix(0 -1 1 0 1474.8989 150.3271)" style="&st7;"><tspan x="0" y="0" style="&st22; &st15;">(*8)</tspan></text>
<text transform="matrix(0 -1 1 0 1496.0493 146.9072)" style="&st7;"><tspan x="0" y="0" style="&st22; &st15;">V</tspan></text>
</svg>
