﻿<?xml version="1.0" encoding="UTF-8"?>
<!DOCTYPE svg PUBLIC "-//W3C//DTD SVG 1.0//EN" "http://www.w3.org/TR/2001/REC-SVG-20010904/DTD/svg10.dtd"[
<!ENTITY ns_flows "http://ns.adobe.com/Flows/1.0/">
<!ENTITY ns_svg "http://www.w3.org/2000/svg">
<!ENTITY ns_xlink "http://www.w3.org/1999/xlink">
	<!ENTITY st0 "fill:none;stroke:#FB0F0C;stroke-width:5.1;stroke-linejoin:round;">
	<!ENTITY st1 "fill:none;stroke:#9A9999;stroke-width:5.1;stroke-linejoin:round;">
	<!ENTITY st2 "fill:none;stroke:#99280B;stroke-width:5.1;stroke-linejoin:round;">
		<!ENTITY st3 "fill:none;stroke:#000000;stroke-width:0.85;stroke-linecap:round;stroke-linejoin:round;stroke-dasharray:3 1.5;enable-background:new    ;">
	<!ENTITY st4 "fill:none;stroke:#000000;stroke-width:5.1;stroke-linejoin:round;">
	<!ENTITY st5 "fill:none;stroke:#000000;stroke-linecap:round;stroke-linejoin:round;">
	<!ENTITY st6 "stroke:#000000;stroke-width:0.28;stroke-linecap:round;stroke-linejoin:round;enable-background:new    ;">
	<!ENTITY st7 "enable-background:new    ;">
		<!ENTITY st8 "fill:none;stroke:#000000;stroke-width:1.42;stroke-linecap:round;stroke-linejoin:round;enable-background:new    ;">
	<!ENTITY st9 "fill:none;stroke:#EE67AA;stroke-width:5.1;stroke-linejoin:round;">
	<!ENTITY st10 "fill:none;stroke:#199DBF;stroke-width:5.1;stroke-linejoin:round;">
	<!ENTITY st11 "opacity:0.5;fill:none;stroke:#34ACCE;stroke-linejoin:round;stroke-dasharray:6;">
	<!ENTITY st12 "fill:none;stroke:#FFFFFF;stroke-width:4.53;stroke-linejoin:round;">
		<!ENTITY st13 "fill:none;stroke:#000000;stroke-width:0.85;stroke-linecap:round;stroke-linejoin:round;enable-background:new    ;">
	<!ENTITY st14 "fill:none;stroke:#56107C;stroke-width:5.1;stroke-linejoin:round;">
	<!ENTITY st15 "font-size:6px;">
	<!ENTITY st16 "fill:none;stroke:#168638;stroke-width:5.1;stroke-linejoin:round;">
	<!ENTITY st17 "fill:none;stroke:#000000;stroke-width:1.13;stroke-linejoin:round;">
		<!ENTITY st18 "fill:none;stroke:#000000;stroke-width:1.13;stroke-linecap:round;stroke-linejoin:round;stroke-dasharray:3 1.5;enable-background:new    ;">
	<!ENTITY st19 "fill:#FFFFFF;stroke:#000000;stroke-width:1.41;stroke-linecap:round;stroke-linejoin:round;">
	<!ENTITY st20 "fill:none;stroke:#3E65AC;stroke-width:3;">
	<!ENTITY st21 "fill:#CCCCCC;stroke:#CCCCCC;stroke-width:0.1;stroke-linecap:round;stroke-linejoin:round;">
	<!ENTITY st22 "font-family:'Arial';">
	<!ENTITY st23 "opacity:0.5;fill:none;stroke:#34ACCE;stroke-linejoin:round;">
	<!ENTITY st24 "fill:#CFE6E7;stroke:#000000;stroke-width:1.133;stroke-linecap:round;stroke-linejoin:round;">
	<!ENTITY st25 "fill:none;stroke:#99D5E0;stroke-width:5.1;stroke-linejoin:round;">
	<!ENTITY st26 "fill:none;stroke:#000000;stroke-width:0.85;stroke-linecap:round;stroke-linejoin:round;">
<!ATTLIST svg
xmlns:ewd CDATA #FIXED "http://shcl.co.jp/ewd"
xmlns:a CDATA #FIXED "http://ns.adobe.com/AdobeSVGViewerExtensions/3.0/"
ewd:ver CDATA #IMPLIED
>
<!ATTLIST a
ewd:lineID CDATA #IMPLIED
ewd:groupID CDATA #IMPLIED
ewd:figtype CDATA #IMPLIED
ewd:code CDATA #IMPLIED
ewd:figID CDATA #IMPLIED
ewd:pinNo CDATA #IMPLIED
ewd:comment CDATA #IMPLIED >
<!ATTLIST g
ewd:lineID CDATA #IMPLIED
ewd:groupID CDATA #IMPLIED
ewd:figtype CDATA #IMPLIED
ewd:code CDATA #IMPLIED
ewd:figID CDATA #IMPLIED
ewd:pinNo CDATA #IMPLIED
ewd:comment CDATA #IMPLIED >
<!ATTLIST text
ewd:textID CDATA #IMPLIED >
<!ATTLIST title
ewd:textID CDATA #IMPLIED >
]>
<svg 
viewBox='0 0 2595.05 729.44'
height='729.44'
width='2595.05'
xml:space="preserve"
xmlns="&ns_svg;"
xmlns:ewd="http://shcl.co.jp/ewd"
xmlns:xlink="&ns_xlink;" ewd:ver="L2.1">
<g ewd:code="GA1" ewd:figID="603" ewd:figtype="w2w" ewd:pinNo="13">
<path style="&st8;" d="M190.97,385.5h-8.5"/>
<path style="&st8;" d="M186.72,394.56l-4.25-4.25l-4.25,4.25"/>
<path style="&st8;" d="M186.72,391.16l-4.25-4.25l-4.25,4.25"/>
<text transform="matrix(1 0 0 1 164.2969 383.2163)" style="&st7;"><tspan x="0" y="0" style="&st22; &st15;">13</tspan></text>
</g>
<g ewd:code="GA1" ewd:figID="602" ewd:figtype="w2w" ewd:pinNo="12">
<path style="&st8;" d="M148.48,385.5h-8.5"/>
<path style="&st8;" d="M144.23,394.56l-4.25-4.25l-4.25,4.25"/>
<path style="&st8;" d="M144.23,391.16l-4.25-4.25l-4.25,4.25"/>
<text transform="matrix(1 0 0 1 121.8066 383.2163)" style="&st7;"><tspan x="0" y="0" style="&st22; &st15;">12</tspan></text>
</g>
<g ewd:code="GA1" ewd:figID="601" ewd:figtype="w2w" ewd:pinNo="11">
<path style="&st8;" d="M88.99,385.5h-8.5"/>
<path style="&st8;" d="M84.74,394.56l-4.25-4.25l-4.25,4.25"/>
<path style="&st8;" d="M84.74,391.16l-4.25-4.25l-4.25,4.25"/>
<text transform="matrix(1 0 0 1 62.7617 383.2163)" style="&st7;"><tspan x="0" y="0" style="&st22; &st15;">11</tspan></text>
</g>
<g ewd:code="3JB" ewd:figID="303" ewd:figtype="jb">
<path style="&st8;" d="M431.05,426.49h-4.25"/>
<path style="&st8;" d="M431.05,434.98h-4.25"/>
<path style="&st8;" d="M431.05,468.98h-4.25"/>
<path style="&st8;" d="M431.05,477.48h-4.25"/>
<path style="&st8;" d="M371.56,426.49h-4.25"/>
<path style="&st8;" d="M371.56,434.98h-4.25"/>
<path style="&st8;" d="M371.56,468.98h-4.25"/>
<path style="&st8;" d="M371.56,477.48h-4.25"/>
<path style="&st6;" d="M428.93,439.88l2.83,2.83v-4.25l-2.83-2.83l-2.83,2.83v4.25L428.93,439.88"/>
<path style="&st6;" d="M428.93,464.08l-2.83-2.83v4.25l2.83,2.83l2.83-2.83v-4.25L428.93,464.08"/>
<path style="&st13;" d="M428.93,468.98v-34"/>
<path style="&st6;" d="M369.44,439.88l2.83,2.83v-4.25l-2.83-2.83l-2.83,2.83v4.25L369.44,439.88"/>
<path style="&st6;" d="M369.44,464.08l-2.83-2.83v4.25l2.83,2.83l2.83-2.83v-4.25L369.44,464.08"/>
<path style="&st13;" d="M369.44,468.98v-34"/>
<path style="&st8;" d="M426.8,426.49c-2.34,0-4.24,1.9-4.24,4.24"/>
<path style="&st8;" d="M422.56,430.73c0,2.35,1.9,4.25,4.24,4.25"/>
<path style="&st8;" d="M431.05,434.98c2.35,0,4.25-1.9,4.25-4.25"/>
<path style="&st8;" d="M435.3,430.73c0-2.34-1.9-4.24-4.25-4.24"/>
<path style="&st8;" d="M426.8,468.98c-2.34,0-4.24,1.9-4.24,4.25"/>
<path style="&st8;" d="M422.56,473.23c0,2.34,1.9,4.25,4.24,4.25"/>
<path style="&st8;" d="M431.05,477.48c2.35,0,4.25-1.91,4.25-4.25"/>
<path style="&st8;" d="M435.3,473.23c0-2.35-1.9-4.25-4.25-4.25"/>
<path style="&st8;" d="M367.31,426.49c-2.34,0-4.24,1.9-4.24,4.24"/>
<path style="&st8;" d="M363.07,430.73c0,2.35,1.9,4.25,4.24,4.25"/>
<path style="&st8;" d="M371.56,434.98c2.35,0,4.25-1.9,4.25-4.25"/>
<path style="&st8;" d="M375.81,430.73c0-2.34-1.9-4.24-4.25-4.24"/>
<path style="&st8;" d="M367.31,468.98c-2.34,0-4.24,1.9-4.24,4.25"/>
<path style="&st8;" d="M363.07,473.23c0,2.34,1.9,4.25,4.24,4.25"/>
<path style="&st8;" d="M371.56,477.48c2.35,0,4.25-1.91,4.25-4.25"/>
<path style="&st8;" d="M375.81,473.23c0-2.35-1.9-4.25-4.25-4.25"/>
<text transform="matrix(1 0 0 1 424.4805 432.6968)" style="&st7;"><tspan x="0" y="0" style="&st22; &st15;">3C</tspan></text>
<text transform="matrix(1 0 0 1 413.0596 432.6968)" style="&st7;"><tspan x="0" y="0" style="&st22; &st15;">15</tspan></text>
<text transform="matrix(1 0 0 1 424.6201 475.1968)" style="&st7;"><tspan x="0" y="0" style="&st22; &st15;">3B</tspan></text>
<text transform="matrix(1 0 0 1 412.2803 475.1968)" style="&st7;"><tspan x="0" y="0" style="&st22; &st15;">50</tspan></text>
<text transform="matrix(1 0 0 1 364.9902 432.6968)" style="&st7;"><tspan x="0" y="0" style="&st22; &st15;">3C</tspan></text>
<text transform="matrix(1 0 0 1 352.79 432.6968)" style="&st7;"><tspan x="0" y="0" style="&st22; &st15;">24</tspan></text>
<text transform="matrix(1 0 0 1 365.1299 475.1968)" style="&st7;"><tspan x="0" y="0" style="&st22; &st15;">3A</tspan></text>
<text transform="matrix(1 0 0 1 352.79 475.1968)" style="&st7;"><tspan x="0" y="0" style="&st22; &st15;">59</tspan></text>
</g>
<g ewd:code="3JB" ewd:figID="302" ewd:figtype="jb">
<path style="&st8;" d="M142.1,195.53h-4.25"/>
<path style="&st8;" d="M142.1,204.03h-4.25"/>
<path style="&st8;" d="M142.1,238.02h-4.25"/>
<path style="&st8;" d="M142.1,246.52h-4.25"/>
<path style="&st6;" d="M139.98,208.92l2.83,2.83v-4.25l-2.83-2.83l-2.84,2.83v4.25L139.98,208.92"/>
<path style="&st6;" d="M139.98,233.12l-2.84-2.83v4.25l2.84,2.83l2.83-2.83v-4.25L139.98,233.12"/>
<path style="&st13;" d="M139.98,238.02v-33.99"/>
<path style="&st8;" d="M137.85,195.53c-2.34,0-4.25,1.9-4.25,4.25"/>
<path style="&st8;" d="M133.6,199.78c0,2.34,1.91,4.25,4.25,4.25"/>
<path style="&st8;" d="M142.1,204.03c2.35,0,4.25-1.91,4.25-4.25"/>
<path style="&st8;" d="M146.35,199.78c0-2.35-1.9-4.25-4.25-4.25"/>
<path style="&st8;" d="M137.85,238.02c-2.34,0-4.25,1.9-4.25,4.25"/>
<path style="&st8;" d="M133.6,242.27c0,2.35,1.91,4.25,4.25,4.25"/>
<path style="&st8;" d="M142.1,246.52c2.35,0,4.25-1.9,4.25-4.25"/>
<path style="&st8;" d="M146.35,242.27c0-2.35-1.9-4.25-4.25-4.25"/>
<text transform="matrix(1 0 0 1 124.1104 244.2368)" style="&st7;"><tspan x="0" y="0" style="&st22; &st15;">14</tspan></text>
<text transform="matrix(1 0 0 1 135.5303 244.2368)" style="&st7;"><tspan x="0" y="0" style="&st22; &st15;">3C</tspan></text>
<text transform="matrix(1 0 0 1 123.3301 201.7471)" style="&st7;"><tspan x="0" y="0" style="&st22; &st15;">76</tspan></text>
<text transform="matrix(1 0 0 1 135.6699 201.7471)" style="&st7;"><tspan x="0" y="0" style="&st22; &st15;">3A</tspan></text>
</g>
<g ewd:code="2" ewd:figID="301" ewd:figtype="jb">
<path style="&st5;" d="M152.73,82.04V39.55h-25.5v42.49H152.73"/>
<path style="&st5;" d="M67.74,39.55v42.49h25.5V39.55H67.74"/>
<path style="&st13;" d="M80.49,73.54v42.5"/>
<path style="&st8;" d="M82.61,116.04h-4.25"/>
<path style="&st8;" d="M82.61,124.54h-4.25"/>
<path style="&st13;" d="M139.98,73.54v8.5"/>
<path style="&st8;" d="M142.1,124.54h-4.25"/>
<path style="&st8;" d="M142.1,116.04h-4.25"/>
<path style="&st8;" d="M48.62,116.04h-4.25"/>
<path style="&st8;" d="M48.62,124.54h-4.25"/>
<path style="&st6;" d="M80.49,111.14l-2.84-2.83v4.25l2.84,2.83l2.83-2.83v-4.25L80.49,111.14"/>
<path style="&st8;" d="M67.74,39.55v42.49h25.5V39.55H67.74"/>
<path style="&st8;" d="M152.73,82.04V39.55h-25.5v42.49H152.73"/>
<path style="&st13;" d="M139.98,116.04v-34"/>
<path style="&st6;" d="M139.98,111.14l-2.84-2.83v4.25l2.84,2.83l2.83-2.83v-4.25L139.98,111.14"/>
<path style="&st13;" d="M46.49,116.04v-17h34"/>
<path style="&st6;" d="M46.49,111.14l-2.83-2.83v4.25l2.83,2.83l2.84-2.83v-4.25L46.49,111.14"/>
<path style="&st13;" d="M79.29,98.04l-0.27,0.47l-0.09,0.53l0.09,0.53l0.27,0.47l0.42,0.35l0.51,0.19h0.54l0.51-0.19l0.41-0.35l0.27-0.47l0.1-0.53l-0.1-0.53l-0.27-0.47l-0.41-0.35l-0.51-0.19h-0.54l-0.51,0.19L79.29,98.04l0.4,0.71v0.58l0.37,0.45l0.57,0.1l0.51-0.29l0.2-0.55l-0.2-0.55l-0.51-0.29l-0.57,0.1l0.43,0.74"/>
<path style="&st8;" d="M80.49,50.88c-2.74,1.61-3.65,5.14-2.04,7.88"/>
<path style="&st8;" d="M78.45,58.76c0.52,0.88,1.16,1.52,2.04,2.04"/>
<path style="&st8;" d="M80.49,70.71c2.74-1.61,3.65-5.14,2.03-7.88"/>
<path style="&st8;" d="M82.52,62.83c-0.52-0.88-1.15-1.51-2.03-2.03"/>
<path style="&st13;" d="M81.9,49.46c0-0.78-0.63-1.41-1.41-1.41"/>
<path style="&st13;" d="M80.49,48.05c-0.79,0-1.42,0.63-1.42,1.41"/>
<path style="&st13;" d="M79.07,49.46c0,0.79,0.63,1.42,1.42,1.42"/>
<path style="&st13;" d="M80.49,50.88c0.78,0,1.41-0.63,1.41-1.42"/>
<path style="&st13;" d="M81.9,72.13c0-0.79-0.63-1.42-1.41-1.42"/>
<path style="&st13;" d="M80.49,70.71c-0.79,0-1.42,0.63-1.42,1.42"/>
<path style="&st13;" d="M79.07,72.13c0,0.78,0.63,1.41,1.42,1.41"/>
<path style="&st13;" d="M80.49,73.54c0.78,0,1.41-0.63,1.41-1.41"/>
<path style="&st8;" d="M78.36,116.04c-2.34,0-4.25,1.9-4.25,4.25"/>
<path style="&st8;" d="M74.11,120.29c0,2.34,1.91,4.25,4.25,4.25"/>
<path style="&st8;" d="M82.61,124.54c2.35,0,4.25-1.91,4.25-4.25"/>
<path style="&st8;" d="M86.86,120.29c0-2.35-1.9-4.25-4.25-4.25"/>
<path style="&st8;" d="M139.98,70.71c2.74-1.61,3.65-5.14,2.03-7.88"/>
<path style="&st8;" d="M142.01,62.83c-0.52-0.88-1.15-1.51-2.03-2.03"/>
<path style="&st13;" d="M141.39,72.13c0-0.79-0.63-1.42-1.41-1.42"/>
<path style="&st13;" d="M139.98,70.71c-0.78,0-1.42,0.63-1.42,1.42"/>
<path style="&st13;" d="M138.56,72.13c0,0.78,0.64,1.41,1.42,1.41"/>
<path style="&st13;" d="M139.98,73.54c0.78,0,1.41-0.63,1.41-1.41"/>
<path style="&st13;" d="M141.39,49.46c0-0.78-0.63-1.41-1.41-1.41"/>
<path style="&st13;" d="M139.98,48.05c-0.78,0-1.42,0.63-1.42,1.41"/>
<path style="&st13;" d="M138.56,49.46c0,0.79,0.64,1.42,1.42,1.42"/>
<path style="&st13;" d="M139.98,50.88c0.78,0,1.41-0.63,1.41-1.42"/>
<path style="&st8;" d="M139.98,50.88c-2.74,1.61-3.65,5.14-2.04,7.88"/>
<path style="&st8;" d="M137.94,58.76c0.52,0.88,1.16,1.52,2.04,2.04"/>
<path style="&st8;" d="M146.35,120.29c0-2.35-1.9-4.25-4.25-4.25"/>
<path style="&st8;" d="M142.1,124.54c2.35,0,4.25-1.91,4.25-4.25"/>
<path style="&st8;" d="M133.6,120.29c0,2.34,1.91,4.25,4.25,4.25"/>
<path style="&st8;" d="M137.85,116.04c-2.34,0-4.25,1.9-4.25,4.25"/>
<path style="&st8;" d="M44.37,116.04c-2.35,0-4.25,1.9-4.25,4.25"/>
<path style="&st8;" d="M40.12,120.29c0,2.34,1.9,4.25,4.25,4.25"/>
<path style="&st8;" d="M48.62,124.54c2.34,0,4.25-1.91,4.25-4.25"/>
<path style="&st8;" d="M52.87,120.29c0-2.35-1.91-4.25-4.25-4.25"/>
<text transform="matrix(1 0 0 1 97.79 59.9365)" style="&st7;"><tspan x="0" y="0" style="&st22; &st15;">30A</tspan></text>
<text transform="matrix(1 0 0 1 97.79 65.9365)" style="&st7;"><tspan x="0" y="0" style="&st22; &st15;">WIP</tspan></text>
<text transform="matrix(1 0 0 1 76.1807 122.2568)" style="&st7;"><tspan x="0" y="0" style="&st22; &st15;">2A</tspan></text>
<text transform="matrix(1 0 0 1 64.6201 122.2568)" style="&st7;"><tspan x="0" y="0" style="&st22; &st15;">13</tspan></text>
<text transform="matrix(1 0 0 1 74.4102 35.8467)" style="&st7;"><tspan x="0" y="0" style="&st22; &st15;">(IG)</tspan></text>
<text transform="matrix(1 0 0 1 135.6699 122.2568)" style="&st7;"><tspan x="0" y="0" style="&st22; &st15;">2A</tspan></text>
<text transform="matrix(1 0 0 1 124.1104 122.2568)" style="&st7;"><tspan x="0" y="0" style="&st22; &st15;">31</tspan></text>
<text transform="matrix(1 0 0 1 133.9004 35.8467)" style="&st7;"><tspan x="0" y="0" style="&st22; &st15;">(IG)</tspan></text>
<text transform="matrix(1 0 0 1 157.2803 57.1064)" style="&st7;"><tspan x="0" y="0" style="&st22; &st15;">10A</tspan></text>
<text transform="matrix(1 0 0 1 157.2803 63.1064)" style="&st7;"><tspan x="0" y="0" style="&st22; &st15;">ECU-IG</tspan></text>
<text transform="matrix(1 0 0 1 157.2803 69.1064)" style="&st7;"><tspan x="0" y="0" style="&st22; &st15;">NO.1</tspan></text>
<text transform="matrix(1 0 0 1 42.4004 122.2568)" style="&st7;"><tspan x="0" y="0" style="&st22; &st15;">2F</tspan></text>
<text transform="matrix(1 0 0 1 33.7998 122.2568)" style="&st7;"><tspan x="0" y="0" style="&st22; &st15;">4</tspan></text>
</g>
<g ewd:code="A2" ewd:figID="201" ewd:figtype="gp">
<path style="&st13;" d="M42.24,708.1h8.5"/>
<path style="&st13;" d="M46.49,701.02v4.25"/>
<path style="&st13;" d="M37.99,705.27h17"/>
<path style="&st13;" d="M45.08,713.77h2.83"/>
<path style="&st13;" d="M43.66,710.94h5.67"/>
</g>
<g ewd:code="G3" ewd:figID="202" ewd:figtype="gp">
<path style="&st13;" d="M207.97,701.02v4.25"/>
<path style="&st13;" d="M199.47,705.27h16.99"/>
<path style="&st13;" d="M203.72,708.1h8.5"/>
<path style="&st13;" d="M205.13,710.94h5.67"/>
<path style="&st13;" d="M206.55,713.77h2.83"/>
</g>
<g ewd:code="G79,G80,G140,G141" ewd:figID="14" ewd:figtype="conn">
<path style="&st13;" d="M233.46,426.49v25.49"/>
<path style="&st8;" d="M224.96,426.49v25.49h59.49v-25.49H224.96"/>
<path style="&st13;" d="M275.95,426.49v25.49"/>
<path style="&st18;" d="M224.96,434.99h59.49"/>
<path style="&st18;" d="M224.96,443.49h59.49"/>
<path style="&st8;" d="M280.49,421.96c0-2.51-2.03-4.54-4.54-4.54"/>
<path style="&st8;" d="M275.95,417.42c-2.5,0-4.53,2.03-4.53,4.54"/>
<path style="&st8;" d="M271.42,421.96c0,2.5,2.03,4.53,4.53,4.53"/>
<path style="&st8;" d="M275.95,426.49c2.51,0,4.54-2.03,4.54-4.53"/>
<path style="&st8;" d="M280.49,412.89c0-2.5-2.03-4.53-4.54-4.53"/>
<path style="&st8;" d="M275.95,408.36c-2.5,0-4.53,2.03-4.53,4.53"/>
<path style="&st8;" d="M271.42,412.89c0,2.5,2.03,4.53,4.53,4.53"/>
<path style="&st8;" d="M275.95,417.42c2.51,0,4.54-2.03,4.54-4.53"/>
<path style="&st8;" d="M237.99,421.96c0-2.51-2.03-4.54-4.53-4.54"/>
<path style="&st8;" d="M233.46,417.42c-2.5,0-4.53,2.03-4.53,4.54"/>
<path style="&st8;" d="M228.93,421.96c0,2.5,2.03,4.53,4.53,4.53"/>
<path style="&st8;" d="M233.46,426.49c2.5,0,4.53-2.03,4.53-4.53"/>
<path style="&st8;" d="M237.99,412.89c0-2.5-2.03-4.53-4.53-4.53"/>
<path style="&st8;" d="M233.46,408.36c-2.5,0-4.53,2.03-4.53,4.53"/>
<path style="&st8;" d="M228.93,412.89c0,2.5,2.03,4.53,4.53,4.53"/>
<path style="&st8;" d="M233.46,417.42c2.5,0,4.53-2.03,4.53-4.53"/>
<path style="&st8;" d="M280.49,465.58c0-2.5-2.03-4.53-4.54-4.53"/>
<path style="&st8;" d="M275.95,461.05c-2.5,0-4.53,2.03-4.53,4.53"/>
<path style="&st8;" d="M271.42,465.58c0,2.5,2.03,4.53,4.53,4.53"/>
<path style="&st8;" d="M275.95,470.11c2.51,0,4.54-2.03,4.54-4.53"/>
<path style="&st8;" d="M280.49,456.52c0-2.51-2.03-4.54-4.54-4.54"/>
<path style="&st8;" d="M275.95,451.98c-2.5,0-4.53,2.03-4.53,4.54"/>
<path style="&st8;" d="M271.42,456.52c0,2.5,2.03,4.53,4.53,4.53"/>
<path style="&st8;" d="M275.95,461.05c2.51,0,4.54-2.03,4.54-4.53"/>
<path style="&st8;" d="M237.99,465.58c0-2.5-2.03-4.53-4.53-4.53"/>
<path style="&st8;" d="M233.46,461.05c-2.5,0-4.53,2.03-4.53,4.53"/>
<path style="&st8;" d="M228.93,465.58c0,2.5,2.03,4.53,4.53,4.53"/>
<path style="&st8;" d="M233.46,470.11c2.5,0,4.53-2.03,4.53-4.53"/>
<path style="&st8;" d="M237.99,456.52c0-2.51-2.03-4.54-4.53-4.54"/>
<path style="&st8;" d="M233.46,451.98c-2.5,0-4.53,2.03-4.53,4.54"/>
<path style="&st8;" d="M228.93,456.52c0,2.5,2.03,4.53,4.53,4.53"/>
<path style="&st8;" d="M233.46,461.05c2.5,0,4.53-2.03,4.53-4.53"/>
<text transform="matrix(1 0 0 1 273.4805 423.9165)" style="&st7;"><tspan x="0" y="0" style="&st22; &st15;">C</tspan></text>
<text transform="matrix(1 0 0 1 261.9004 423.9165)" style="&st7;"><tspan x="0" y="0" style="&st22; &st15;">12</tspan></text>
<text transform="matrix(1 0 0 1 273.6201 414.8569)" style="&st7;"><tspan x="0" y="0" style="&st22; &st15;">A</tspan></text>
<text transform="matrix(1 0 0 1 261.9004 414.8569)" style="&st7;"><tspan x="0" y="0" style="&st22; &st15;">12</tspan></text>
<text transform="matrix(1 0 0 1 230.9902 423.9165)" style="&st7;"><tspan x="0" y="0" style="&st22; &st15;">C</tspan></text>
<text transform="matrix(1 0 0 1 222.5898 423.9165)" style="&st7;"><tspan x="0" y="0" style="&st22; &st15;">7</tspan></text>
<text transform="matrix(1 0 0 1 231.1299 414.8569)" style="&st7;"><tspan x="0" y="0" style="&st22; &st15;">A</tspan></text>
<text transform="matrix(1 0 0 1 222.5898 414.8569)" style="&st7;"><tspan x="0" y="0" style="&st22; &st15;">7</tspan></text>
<text transform="matrix(1 0 0 1 273.4805 467.5464)" style="&st7;"><tspan x="0" y="0" style="&st22; &st15;">D</tspan></text>
<text transform="matrix(1 0 0 1 265.0801 467.5464)" style="&st7;"><tspan x="0" y="0" style="&st22; &st15;">9</tspan></text>
<text transform="matrix(1 0 0 1 273.6201 458.4858)" style="&st7;"><tspan x="0" y="0" style="&st22; &st15;">B</tspan></text>
<text transform="matrix(1 0 0 1 265.0801 458.4858)" style="&st7;"><tspan x="0" y="0" style="&st22; &st15;">9</tspan></text>
<text transform="matrix(1 0 0 1 230.9902 467.5464)" style="&st7;"><tspan x="0" y="0" style="&st22; &st15;">D</tspan></text>
<text transform="matrix(1 0 0 1 219.4102 467.5464)" style="&st7;"><tspan x="0" y="0" style="&st22; &st15;">10</tspan></text>
<text transform="matrix(1 0 0 1 231.1299 458.4858)" style="&st7;"><tspan x="0" y="0" style="&st22; &st15;">B</tspan></text>
<text transform="matrix(1 0 0 1 219.4102 458.4858)" style="&st7;"><tspan x="0" y="0" style="&st22; &st15;">10</tspan></text>
<text ewd:textID='17' transform='matrix(1 0 0 1 287.5898 444.0366)' style='&st7; &st22; &st15;'>Junction <tspan x='0' y='7' >Connector</tspan></text>
<text transform="matrix(1 0 0 1 287.5898 430.9761)" style="&st7;"><tspan x="0" y="0" style="&st22; &st15;">G79(A),G80(B),</tspan></text>
<text transform="matrix(1 0 0 1 287.5898 436.9761)" style="&st7;"><tspan x="0" y="0" style="&st22; &st15;">G140(C),G141(D)</tspan></text>
</g>
<g ewd:code="A22" ewd:figID="11" ewd:figtype="conn">
<path style="&st8;" d="M101.73,500.85h-8.49"/>
<path style="&st13;" d="M97.48,496.6v-61.61"/>
<path style="&st8;" d="M101.73,496.6h-8.49"/>
<path style="&st13;" d="M97.48,536.97v-36.12"/>
<path style="&st8;" d="M129.35,532.72v8.5"/>
<path style="&st13;" d="M139.98,497.31v14.17"/>
<path style="&st8;" d="M125.1,532.72v8.5"/>
<path style="&st13;" d="M125.1,536.97H46.49"/>
<path style="&st13;" d="M139.98,536.97h-10.63"/>
<path style="&st8;" d="M43.66,511.19l18.41-8.21"/>
<path style="&st13;" d="M139.98,528.47v25.5"/>
<path style="&st13;" d="M139.98,460.48v8.5"/>
<path style="&st13;" d="M139.98,434.99v8.5"/>
<path style="&st8;" d="M29.5,426.49v127.48h127.47V426.49H29.5"/>
<path style="&st8;" d="M144.23,478.61v-3.96h-8.5v3.96"/>
<path style="&st8;" d="M144.23,493.35v3.96h-8.5v-3.96"/>
<path style="&st8;" d="M132.61,481.73h-3.96v8.5h3.96"/>
<path style="&st13;" d="M97.48,434.99h42.5"/>
<path style="&st13;" d="M46.49,553.97v-41.08"/>
<path style="&st13;" d="M114.48,536.97v-8.57"/>
<path style="&st13;" d="M128.65,485.98h-14.17v17"/>
<path style="&st13;" d="M46.49,536.97l-0.42-0.74l0.57-0.09l0.5,0.28l0.2,0.55l-0.2,0.55l-0.5,0.29l-0.57-0.1l-0.38-0.45v-0.58l-0.39-0.71l0.41-0.35l0.51-0.18h0.54l0.51,0.18l0.42,0.35l0.27,0.47l0.09,0.53l-0.09,0.53l-0.27,0.47l-0.42,0.35l-0.51,0.19h-0.54l-0.51-0.19l-0.41-0.35l-0.27-0.47l-0.1-0.53l0.1-0.53l0.27-0.47"/>
<path style="&st13;" d="M97.48,536.97l-0.42-0.74l0.57-0.09l0.51,0.28l0.19,0.55l-0.19,0.55l-0.51,0.29l-0.57-0.1l-0.37-0.45v-0.58l-0.4-0.71l0.42-0.35l0.5-0.18h0.55l0.5,0.18l0.42,0.35l0.27,0.47l0.09,0.53l-0.09,0.53l-0.27,0.47l-0.42,0.35l-0.5,0.19h-0.55l-0.5-0.19l-0.42-0.35l-0.27-0.47l-0.09-0.53l0.09-0.53l0.27-0.47"/>
<path style="&st13;" d="M114.48,536.97l-0.42-0.74l0.57-0.09l0.5,0.28l0.2,0.55l-0.2,0.55l-0.5,0.29l-0.57-0.1l-0.38-0.45v-0.58l-0.39-0.71l0.41-0.35l0.51-0.18h0.54l0.51,0.18l0.41,0.35l0.28,0.47l0.09,0.53l-0.09,0.53l-0.28,0.47l-0.41,0.35l-0.51,0.19h-0.54l-0.51-0.19l-0.41-0.35l-0.27-0.47l-0.1-0.53l0.1-0.53l0.27-0.47"/>
<path style="&st13;" d="M139.98,536.97l-0.43-0.74l0.57-0.09l0.51,0.28l0.2,0.55l-0.2,0.55l-0.51,0.29l-0.57-0.1l-0.37-0.45v-0.58l-0.4-0.71l0.42-0.35l0.51-0.18h0.54l0.51,0.18l0.41,0.35l0.27,0.47l0.1,0.53l-0.1,0.53l-0.27,0.47l-0.41,0.35l-0.51,0.19h-0.54l-0.51-0.19l-0.42-0.35l-0.27-0.47l-0.09-0.53l0.09-0.53l0.27-0.47"/>
<path style="&st13;" d="M139.98,434.99l-0.43-0.74l0.57-0.1l0.51,0.29l0.2,0.55l-0.2,0.55l-0.51,0.28l-0.57-0.1l-0.37-0.44v-0.58l-0.4-0.71l0.42-0.35l0.51-0.19h0.54l0.51,0.19l0.41,0.35l0.27,0.47l0.1,0.53l-0.1,0.53l-0.27,0.47l-0.41,0.35l-0.51,0.18h-0.54l-0.51-0.18l-0.42-0.35l-0.27-0.47l-0.09-0.53l0.09-0.53l0.27-0.47"/>
<path style="&st13;" d="M80.49,426.49v76.49H64.91"/>
<path style="&st13;" d="M46.49,426.49v66.57"/>
<path style="&st13;" d="M139.98,474.65v-5.67"/>
<path style="&st13;" d="M139.98,426.49v8.5"/>
<path style="&st13;" d="M115.9,526.99c0-0.78-0.64-1.42-1.42-1.42"/>
<path style="&st13;" d="M114.48,525.57c-0.78,0-1.41,0.64-1.41,1.42"/>
<path style="&st13;" d="M113.07,526.99c0,0.78,0.63,1.41,1.41,1.41"/>
<path style="&st13;" d="M114.48,528.4c0.78,0,1.42-0.63,1.42-1.41"/>
<path style="&st13;" d="M56.67,499.94c0-0.39-0.31-0.71-0.7-0.71"/>
<path style="&st13;" d="M55.97,499.23c-0.4,0-0.71,0.32-0.71,0.71"/>
<path style="&st13;" d="M55.26,499.94c0,0.39,0.31,0.71,0.71,0.71"/>
<path style="&st13;" d="M55.97,500.65c0.39,0,0.7-0.32,0.7-0.71"/>
<path style="&st13;" d="M58.25,497.29c-0.54-1.12-1.89-1.58-3-1.04"/>
<path style="&st13;" d="M55.25,496.25c-0.25,0.12-0.44,0.26-0.64,0.46"/>
<path style="&st13;" d="M54.99,506.09c3.29-1.58,4.73-5.46,3.26-8.8"/>
<path style="&st13;" d="M106.98,529.44c7.63-1.72,12.42-9.3,10.7-16.93"/>
<path style="&st13;" d="M117.68,512.51c-1.22-5.38-5.08-9.32-10.43-10.64"/>
<path style="&st13;" d="M106.98,529.44c7.67-5.61,9.34-16.37,3.73-24.04"/>
<path style="&st13;" d="M110.71,505.4c-1.03-1.41-2.07-2.47-3.46-3.53"/>
<path style="&st13;" d="M54.61,496.71c-2.42,2.73-2.26,6.86,0.38,9.38"/>
<path style="&st13;" d="M64.91,502.98c0-0.79-0.64-1.42-1.42-1.42"/>
<path style="&st13;" d="M63.49,501.56c-0.78,0-1.42,0.63-1.42,1.42"/>
<path style="&st13;" d="M62.07,502.98c0,0.78,0.64,1.41,1.42,1.41"/>
<path style="&st13;" d="M63.49,504.39c0.78,0,1.42-0.63,1.42-1.41"/>
<path style="&st13;" d="M47.91,494.48c0-0.78-0.63-1.42-1.42-1.42"/>
<path style="&st13;" d="M46.49,493.06c-0.78,0-1.41,0.64-1.41,1.42"/>
<path style="&st13;" d="M45.08,494.48c0,0.78,0.63,1.41,1.41,1.41"/>
<path style="&st13;" d="M46.49,495.89c0.79,0,1.42-0.63,1.42-1.41"/>
<path style="&st13;" d="M47.91,511.48c0-0.79-0.63-1.42-1.42-1.42"/>
<path style="&st13;" d="M46.49,510.06c-0.78,0-1.41,0.63-1.41,1.42"/>
<path style="&st13;" d="M45.08,511.48c0,0.78,0.63,1.41,1.41,1.41"/>
<path style="&st13;" d="M46.49,512.89c0.79,0,1.42-0.63,1.42-1.41"/>
<path style="&st13;" d="M139.98,528.47c1.95,0,3.54-1.58,3.54-3.54"/>
<path style="&st13;" d="M143.52,524.93c0-1.95-1.59-3.54-3.54-3.54"/>
<path style="&st13;" d="M139.98,521.39c-0.99,0-1.84,0.36-2.53,1.06"/>
<path style="&st13;" d="M137.45,522.45c1.37,1.4,3.61,1.42,5.01,0.05"/>
<path style="&st13;" d="M142.46,522.5c1.39-1.37,1.42-3.61,0.05-5"/>
<path style="&st13;" d="M142.51,517.5c-1.37-1.4-3.61-1.42-5.01-0.06"/>
<path style="&st13;" d="M137.5,517.44c-0.02,0.02-0.03,0.04-0.05,0.06"/>
<path style="&st13;" d="M137.45,517.5c1.37,1.39,3.61,1.42,5.01,0.05"/>
<path style="&st13;" d="M142.46,517.55c1.39-1.37,1.42-3.62,0.05-5.01"/>
<path style="&st13;" d="M142.51,512.54c-0.7-0.71-1.54-1.07-2.53-1.07"/>
<path style="&st13;" d="M115.94,504.39c0-0.78-0.63-1.41-1.41-1.41"/>
<path style="&st13;" d="M114.53,502.98c-0.79,0-1.42,0.63-1.42,1.41"/>
<path style="&st13;" d="M113.11,504.39c0,0.79,0.63,1.42,1.42,1.42"/>
<path style="&st13;" d="M114.53,505.81c0.78,0,1.41-0.63,1.41-1.42"/>
<path style="&st8;" d="M148.48,485.98c0-4.69-3.81-8.5-8.5-8.5"/>
<path style="&st8;" d="M139.98,477.48c-4.7,0-8.5,3.81-8.5,8.5"/>
<path style="&st8;" d="M131.48,485.98c0,4.69,3.8,8.5,8.5,8.5"/>
<path style="&st8;" d="M139.98,494.48c4.69,0,8.5-3.81,8.5-8.5"/>
<path style="&st13;" d="M137.45,449.51c1.37,1.39,3.61,1.42,5.01,0.05"/>
<path style="&st13;" d="M142.46,449.56c1.39-1.37,1.42-3.61,0.05-5.01"/>
<path style="&st13;" d="M142.51,444.55c-0.7-0.71-1.54-1.06-2.53-1.06"/>
<path style="&st13;" d="M137.45,454.46c1.37,1.4,3.61,1.42,5.01,0.06"/>
<path style="&st13;" d="M142.46,454.52c1.39-1.37,1.42-3.62,0.05-5.01"/>
<path style="&st13;" d="M142.51,449.51c-1.37-1.4-3.61-1.42-5.01-0.05"/>
<path style="&st13;" d="M137.5,449.46c-0.02,0.01-0.03,0.03-0.05,0.05"/>
<path style="&st13;" d="M139.98,460.48c1.95,0,3.54-1.58,3.54-3.54"/>
<path style="&st13;" d="M143.52,456.94c0-1.95-1.59-3.54-3.54-3.54"/>
<path style="&st13;" d="M139.98,453.4c-0.99,0-1.84,0.36-2.53,1.06"/>
<text transform="matrix(1 0 0 1 137.0801 487.9468)" style="&st7;"><tspan x="0" y="0" style="&st22; &st15;">M</tspan></text>
<text transform="matrix(1 0 0 1 39.7002 422.7964)" style="&st7;"><tspan x="0" y="0" style="&st22; &st15;">2</tspan></text>
<text transform="matrix(1 0 0 1 73.7002 422.7964)" style="&st7;"><tspan x="0" y="0" style="&st22; &st15;">3</tspan></text>
<text transform="matrix(1 0 0 1 133.9707 422.7964)" style="&st7;"><tspan x="0" y="0" style="&st22; &st15;">1</tspan></text>
<text transform="matrix(1 0 0 1 39.7002 562.1558)" style="&st7;"><tspan x="0" y="0" style="&st22; &st15;">5</tspan></text>
<text transform="matrix(1 0 0 1 49.3301 550.2769)" style="&st7;"><tspan x="0" y="0" style="&st22; &st15;">E</tspan></text>
<text transform="matrix(1 0 0 1 49.3301 434.6772)" style="&st7;"><tspan x="0" y="0" style="&st22; &st15;">B</tspan></text>
<text transform="matrix(1 0 0 1 83.3203 434.6772)" style="&st7;"><tspan x="0" y="0" style="&st22; &st15;">+S</tspan></text>
<text transform="matrix(1 0 0 1 142.8105 434.6772)" style="&st7;"><tspan x="0" y="0" style="&st22; &st15;">+1</tspan></text>
<text transform="matrix(1 0 0 1 133.1904 562.1558)" style="&st7;"><tspan x="0" y="0" style="&st22; &st15;">4</tspan></text>
<text transform="matrix(1 0 0 1 142.8105 550.2769)" style="&st7;"><tspan x="0" y="0" style="&st22; &st15;">+2</tspan></text>
<text ewd:textID='31' transform='matrix(0 -1 1 0 25.7998 556.4858)' style='&st7; &st22; &st15;'>Windshield Wiper Motor Assembly</text>
<text transform="matrix(0 -1 1 0 18.6904 556.4858)" style="&st7;"><tspan x="0" y="0" style="&st22; &st15;">A22</tspan></text>
</g>
<g ewd:code="A68" ewd:figID="12" ewd:figtype="conn">
<path style="&st8;" d="M37.99,611.96v17h17v-17H37.99"/>
<path style="&st13;" d="M46.49,611.96v17"/>
<text ewd:textID='17' transform='matrix(1 0 0 1 58.1299 622.4272)' style='&st7; &st22; &st15;'>Junction Connector</text>
<text transform="matrix(1 0 0 1 58.1299 615.3159)" style="&st7;"><tspan x="0" y="0" style="&st22; &st15;">A68</tspan></text>
<text transform="matrix(1 0 0 1 39.7002 608.2671)" style="&st7;"><tspan x="0" y="0" style="&st22; &st15;">7</tspan></text>
<text transform="matrix(1 0 0 1 39.7002 637.146)" style="&st7;"><tspan x="0" y="0" style="&st22; &st15;">4</tspan></text>
</g>
<g ewd:code="G104" ewd:figID="13" ewd:figtype="conn">
<path style="&st8;" d="M199.47,659.95h16.99v16.99h-16.99V659.95"/>
<path style="&st13;" d="M207.97,659.95v25.49"/>
<text transform="matrix(1 0 0 1 201.1807 656.2573)" style="&st7;"><tspan x="0" y="0" style="&st22; &st15;">4</tspan></text>
<text ewd:textID='17' transform='matrix(1 0 0 1 219.6104 668.9976)' style='&st7; &st22; &st15;'>Junction <tspan x='0' y='7' >Connector</tspan></text>
<text transform="matrix(1 0 0 1 219.6104 661.8862)" style="&st7;"><tspan x="0" y="0" style="&st22; &st15;">G104</tspan></text>
</g>
<g ewd:code="G87,G88-B,G166,G168" ewd:figID="2" ewd:figtype="conn">
<path style="&st8;" d="M193.97,177.03v25.49h17v-25.49H193.97"/>
<path style="&st18;" d="M193.97,185.53h17"/>
<path style="&st18;" d="M193.97,194.03h17"/>
<path style="&st13;" d="M202.47,177.03v25.49"/>
<path style="&st8;" d="M207,172.5c0-2.51-2.03-4.54-4.53-4.54"/>
<path style="&st8;" d="M202.47,167.96c-2.5,0-4.53,2.03-4.53,4.54"/>
<path style="&st8;" d="M197.94,172.5c0,2.5,2.03,4.53,4.53,4.53"/>
<path style="&st8;" d="M202.47,177.03c2.5,0,4.53-2.03,4.53-4.53"/>
<path style="&st8;" d="M207,207.06c0-2.51-2.03-4.54-4.53-4.54"/>
<path style="&st8;" d="M202.47,202.52c-2.5,0-4.53,2.03-4.53,4.54"/>
<path style="&st8;" d="M197.94,207.06c0,2.5,2.03,4.53,4.53,4.53"/>
<path style="&st8;" d="M202.47,211.59c2.5,0,4.53-2.03,4.53-4.53"/>
<path style="&st8;" d="M207,163.43c0-2.51-2.03-4.54-4.53-4.54"/>
<path style="&st8;" d="M202.47,158.89c-2.5,0-4.53,2.03-4.53,4.54"/>
<path style="&st8;" d="M197.94,163.43c0,2.5,2.03,4.53,4.53,4.53"/>
<path style="&st8;" d="M202.47,167.96c2.5,0,4.53-2.03,4.53-4.53"/>
<path style="&st8;" d="M207,216.13c0-2.51-2.03-4.54-4.53-4.54"/>
<path style="&st8;" d="M202.47,211.59c-2.5,0-4.53,2.03-4.53,4.54"/>
<path style="&st8;" d="M197.94,216.13c0,2.5,2.03,4.53,4.53,4.53"/>
<path style="&st8;" d="M202.47,220.66c2.5,0,4.53-2.03,4.53-4.53"/>
<text transform="matrix(1 0 0 1 200.1406 174.457)" style="&st7;"><tspan x="0" y="0" style="&st22; &st15;">A</tspan></text>
<text transform="matrix(1 0 0 1 191.5898 174.457)" style="&st7;"><tspan x="0" y="0" style="&st22; &st15;">9</tspan></text>
<text transform="matrix(1 0 0 1 200.1406 165.3872)" style="&st7;"><tspan x="0" y="0" style="&st22; &st15;">C</tspan></text>
<text transform="matrix(1 0 0 1 191.5898 165.3872)" style="&st7;"><tspan x="0" y="0" style="&st22; &st15;">9</tspan></text>
<text transform="matrix(1 0 0 1 200.1406 209.0269)" style="&st7;"><tspan x="0" y="0" style="&st22; &st15;">B</tspan></text>
<text transform="matrix(1 0 0 1 188.4102 209.0269)" style="&st7;"><tspan x="0" y="0" style="&st22; &st15;">10</tspan></text>
<text transform="matrix(1 0 0 1 200.1406 218.0967)" style="&st7;"><tspan x="0" y="0" style="&st22; &st15;">D</tspan></text>
<text transform="matrix(1 0 0 1 188.4102 218.0967)" style="&st7;"><tspan x="0" y="0" style="&st22; &st15;">10</tspan></text>
<text transform="matrix(0 -1 1 0 170.7051 202.9224)" style="&st7;"><tspan x="0" y="0" style="&st22; &st15;">G87(A),G88(B)</tspan></text>
<text ewd:textID='17' transform='matrix(0 -1 1 0 184.9258 202.9224)' style='&st7; &st22; &st15;'>Junction <tspan x='0' y='7' >Connector</tspan></text>
<text transform="matrix(0 -1 1 0 177.8154 202.9224)" style="&st7;"><tspan x="0" y="0" style="&st22; &st15;">G166(C),G168(D)</tspan></text>
</g>
<g ewd:code="G120" ewd:figID="1" ewd:figtype="conn">
<path style="&st13;" d="M617.31,248.02h31.17"/>
<path style="&st13;" d="M649.89,290.51v-33.99"/>
<path style="&st13;" d="M615.9,290.51v-33.99"/>
<path style="&st13;" d="M632.89,205.53v50.99"/>
<path style="&st13;" d="M598.9,205.53v50.99"/>
<path style="&st13;" d="M564.91,222.52h101.98"/>
<path style="&st13;" d="M564.91,239.52h101.98"/>
<path style="&st8;" d="M564.91,256.52v-50.99h101.98v50.99H564.91"/>
<path style="&st13;" d="M302.87,248.02h133.14"/>
<path style="&st13;" d="M302.87,231.02h99.15"/>
<path style="&st13;" d="M302.87,214.03h65.15"/>
<path style="&st13;" d="M302.87,197.03h31.16"/>
<path style="&st13;" d="M302.87,180.03h167.14"/>
<path style="&st13;" d="M471.42,256.52v33.99"/>
<path style="&st13;" d="M437.43,256.52v33.99"/>
<path style="&st13;" d="M335.44,256.52v33.99"/>
<path style="&st13;" d="M301.45,256.52v33.99"/>
<path style="&st13;" d="M369.44,256.52v33.99"/>
<path style="&st13;" d="M403.43,256.52v33.99"/>
<path style="&st13;" d="M318.45,154.54v101.98"/>
<path style="&st13;" d="M352.44,154.54v101.98"/>
<path style="&st13;" d="M386.44,154.54v101.98"/>
<path style="&st13;" d="M420.43,154.54v101.98"/>
<path style="&st13;" d="M454.42,154.54v101.98"/>
<path style="&st13;" d="M284.45,154.54v101.98"/>
<path style="&st13;" d="M241.96,171.53h246.46"/>
<path style="&st13;" d="M241.96,188.53h246.46"/>
<path style="&st13;" d="M241.96,205.53h246.46"/>
<path style="&st13;" d="M241.96,222.52h246.46"/>
<path style="&st13;" d="M241.96,239.52h246.46"/>
<path style="&st8;" d="M241.96,154.54v101.98h246.46V154.54H241.96"/>
<path style="&st8;" d="M683.89,290.51H226.46"/>
<path style="&st8;" d="M63.49,324.51h620.4V129.04H226.46v161.47H63.49V324.51"/>
<path style="&st13;" d="M651.31,248.02c0-0.78-0.64-1.42-1.42-1.42"/>
<path style="&st13;" d="M649.89,246.6c-0.78,0-1.41,0.64-1.41,1.42"/>
<path style="&st13;" d="M648.48,248.02c0,0.78,0.63,1.42,1.41,1.42"/>
<path style="&st13;" d="M649.89,249.44c0.78,0,1.42-0.64,1.42-1.42"/>
<path style="&st13;" d="M617.31,248.02c0-0.78-0.63-1.42-1.41-1.42"/>
<path style="&st13;" d="M615.9,246.6c-0.78,0-1.42,0.64-1.42,1.42"/>
<path style="&st13;" d="M614.48,248.02c0,0.78,0.64,1.42,1.42,1.42"/>
<path style="&st13;" d="M615.9,249.44c0.78,0,1.41-0.64,1.41-1.42"/>
<path style="&st13;" d="M438.84,248.02c0-0.78-0.63-1.42-1.41-1.42"/>
<path style="&st13;" d="M437.43,246.6c-0.78,0-1.42,0.64-1.42,1.42"/>
<path style="&st13;" d="M436.01,248.02c0,0.78,0.64,1.42,1.42,1.42"/>
<path style="&st13;" d="M437.43,249.44c0.78,0,1.41-0.64,1.41-1.42"/>
<path style="&st13;" d="M302.87,248.02c0-0.78-0.64-1.42-1.42-1.42"/>
<path style="&st13;" d="M301.45,246.6c-0.78,0-1.42,0.64-1.42,1.42"/>
<path style="&st13;" d="M300.03,248.02c0,0.78,0.64,1.42,1.42,1.42"/>
<path style="&st13;" d="M301.45,249.44c0.78,0,1.42-0.64,1.42-1.42"/>
<path style="&st13;" d="M404.85,231.02c0-0.78-0.63-1.41-1.42-1.41"/>
<path style="&st13;" d="M403.43,229.61c-0.78,0-1.41,0.63-1.41,1.41"/>
<path style="&st13;" d="M402.02,231.02c0,0.78,0.63,1.42,1.41,1.42"/>
<path style="&st13;" d="M403.43,232.44c0.79,0,1.42-0.64,1.42-1.42"/>
<path style="&st13;" d="M302.87,231.02c0-0.78-0.64-1.41-1.42-1.41"/>
<path style="&st13;" d="M301.45,229.61c-0.78,0-1.42,0.63-1.42,1.41"/>
<path style="&st13;" d="M300.03,231.02c0,0.78,0.64,1.42,1.42,1.42"/>
<path style="&st13;" d="M301.45,232.44c0.78,0,1.42-0.64,1.42-1.42"/>
<path style="&st13;" d="M370.86,214.03c0-0.79-0.64-1.42-1.42-1.42"/>
<path style="&st13;" d="M369.44,212.61c-0.78,0-1.42,0.63-1.42,1.42"/>
<path style="&st13;" d="M368.02,214.03c0,0.78,0.64,1.41,1.42,1.41"/>
<path style="&st13;" d="M369.44,215.44c0.78,0,1.42-0.63,1.42-1.41"/>
<path style="&st13;" d="M302.87,214.03c0-0.79-0.64-1.42-1.42-1.42"/>
<path style="&st13;" d="M301.45,212.61c-0.78,0-1.42,0.63-1.42,1.42"/>
<path style="&st13;" d="M300.03,214.03c0,0.78,0.64,1.41,1.42,1.41"/>
<path style="&st13;" d="M301.45,215.44c0.78,0,1.42-0.63,1.42-1.41"/>
<path style="&st13;" d="M336.86,197.03c0-0.78-0.63-1.42-1.42-1.42"/>
<path style="&st13;" d="M335.44,195.61c-0.78,0-1.41,0.64-1.41,1.42"/>
<path style="&st13;" d="M334.03,197.03c0,0.78,0.63,1.41,1.41,1.41"/>
<path style="&st13;" d="M335.44,198.44c0.79,0,1.42-0.63,1.42-1.41"/>
<path style="&st13;" d="M302.87,197.03c0-0.78-0.64-1.42-1.42-1.42"/>
<path style="&st13;" d="M301.45,195.61c-0.78,0-1.42,0.64-1.42,1.42"/>
<path style="&st13;" d="M300.03,197.03c0,0.78,0.64,1.41,1.42,1.41"/>
<path style="&st13;" d="M301.45,198.44c0.78,0,1.42-0.63,1.42-1.41"/>
<path style="&st13;" d="M472.84,180.03c0-0.78-0.64-1.42-1.42-1.42"/>
<path style="&st13;" d="M471.42,178.61c-0.78,0-1.41,0.64-1.41,1.42"/>
<path style="&st13;" d="M470.01,180.03c0,0.78,0.63,1.42,1.41,1.42"/>
<path style="&st13;" d="M471.42,181.45c0.78,0,1.42-0.64,1.42-1.42"/>
<path style="&st13;" d="M302.87,180.03c0-0.78-0.64-1.42-1.42-1.42"/>
<path style="&st13;" d="M301.45,178.61c-0.78,0-1.42,0.64-1.42,1.42"/>
<path style="&st13;" d="M300.03,180.03c0,0.78,0.64,1.42,1.42,1.42"/>
<path style="&st13;" d="M301.45,181.45c0.78,0,1.42-0.64,1.42-1.42"/>
<text transform="matrix(1 0 0 1 70.5205 332.6973)" style="&st7;"><tspan x="0" y="0" style="&st22; &st15;">18</tspan></text>
<text transform="matrix(1 0 0 1 660.1001 332.6973)" style="&st7;"><tspan x="0" y="0" style="&st22; &st15;">2</tspan></text>
<text transform="matrix(1 0 0 1 575.1099 332.6973)" style="&st7;"><tspan x="0" y="0" style="&st22; &st15;">5</tspan></text>
<text transform="matrix(1 0 0 1 132.8799 298.147)" style="&st7;"><tspan x="0" y="0" style="&st22; &st15;">WIG</tspan></text>
<text transform="matrix(1 0 0 1 76.1406 320.8071)" style="&st7;"><tspan x="0" y="0" style="&st22; &st15;">+S</tspan></text>
<text ewd:textID='19' transform='matrix(1 0 0 1 256.71 232.9868)' style='&st7; &st22; &st15;'>Low</text>
<text ewd:textID='16' transform='matrix(1 0 0 1 256.04 249.9868)' style='&st7; &st22; &st15;'>High</text>
<text ewd:textID='23' transform='matrix(1 0 0 1 256.8105 181.9971)' style='&st7; &st22; &st15;'>Mist</text>
<text ewd:textID='24' transform='matrix(1 0 0 1 258.4707 198.9971)' style='&st7; &st22; &st15;'>Off</text>
<text transform="matrix(1 0 0 1 253.5303 215.9868)" style="&st7;"><tspan x="0" y="0" style="&st22; &st15;">AUTO</tspan></text>
<text transform="matrix(1 0 0 1 295.7598 164.9971)" style="&st7;"><tspan x="0" y="0" style="&st22; &st15;">EW</tspan></text>
<text transform="matrix(1 0 0 1 328.4502 164.9971)" style="&st7;"><tspan x="0" y="0" style="&st22; &st15;">OFF</tspan></text>
<text transform="matrix(1 0 0 1 359.7598 164.9971)" style="&st7;"><tspan x="0" y="0" style="&st22; &st15;">AUTO</tspan></text>
<text transform="matrix(1 0 0 1 398.7002 164.9971)" style="&st7;"><tspan x="0" y="0" style="&st22; &st15;">LO</tspan></text>
<text transform="matrix(1 0 0 1 433.9697 164.9971)" style="&st7;"><tspan x="0" y="0" style="&st22; &st15;">HI</tspan></text>
<text transform="matrix(1 0 0 1 463.0903 164.9971)" style="&st7;"><tspan x="0" y="0" style="&st22; &st15;">MIST</tspan></text>
<text transform="matrix(1 0 0 1 577.1704 249.9868)" style="&st7;"><tspan x="0" y="0" style="&st22; &st15;">On</tspan></text>
<text ewd:textID='24' transform='matrix(1 0 0 1 577.1704 232.9868)' style='&st7; &st22; &st15;'>Off</text>
<text transform="matrix(1 0 0 1 610.4204 215.9868)" style="&st7;"><tspan x="0" y="0" style="&st22; &st15;">WF</tspan></text>
<text transform="matrix(1 0 0 1 644.2095 215.9868)" style="&st7;"><tspan x="0" y="0" style="&st22; &st15;">EW</tspan></text>
<text ewd:textID='12' transform='matrix(1 0 0 1 582.6606 198.9971)' style='&st7; &st22; &st15;'>Front Washer Switch</text>
<text ewd:textID='13' transform='matrix(1 0 0 1 364.7002 148.0073)' style='&st7; &st22; &st15;'>Front Wiper Switch</text>
<text ewd:textID='32' transform='matrix(1 0 0 1 290.4307 125.3369)' style='&st7; &st22; &st15;'>Windshield Wiper Switch Assembly</text>
<text transform="matrix(1 0 0 1 290.4307 118.2368)" style="&st7;"><tspan x="0" y="0" style="&st22; &st15;">G120</tspan></text>
<text transform="matrix(1 0 0 1 76.1406 298.147)" style="&st7;"><tspan x="0" y="0" style="&st22; &st15;">+B</tspan></text>
<text transform="matrix(1 0 0 1 136.3701 320.8071)" style="&st7;"><tspan x="0" y="0" style="&st22; &st15;">+1</tspan></text>
<text transform="matrix(1 0 0 1 178.4805 320.8071)" style="&st7;"><tspan x="0" y="0" style="&st22; &st15;">+2</tspan></text>
<text transform="matrix(1 0 0 1 270.2705 320.8071)" style="&st7;"><tspan x="0" y="0" style="&st22; &st15;">EW</tspan></text>
<text transform="matrix(1 0 0 1 661.4106 320.8071)" style="&st7;"><tspan x="0" y="0" style="&st22; &st15;">WF</tspan></text>
<text transform="matrix(1 0 0 1 572.7505 320.8071)" style="&st7;"><tspan x="0" y="0" style="&st22; &st15;">MPX1</tspan></text>
<text transform="matrix(1 0 0 1 421.5098 320.8071)" style="&st7;"><tspan x="0" y="0" style="&st22; &st15;">TAIL</tspan></text>
<text transform="matrix(1 0 0 1 362.2998 320.8071)" style="&st7;"><tspan x="0" y="0" style="&st22; &st15;">SPD</tspan></text>
<text transform="matrix(1 0 0 1 422.1396 332.6973)" style="&st7;"><tspan x="0" y="0" style="&st22; &st15;">7</tspan></text>
<text transform="matrix(1 0 0 1 175.6807 332.6973)" style="&st7;"><tspan x="0" y="0" style="&st22; &st15;">9</tspan></text>
<text transform="matrix(1 0 0 1 133.1904 332.6973)" style="&st7;"><tspan x="0" y="0" style="&st22; &st15;">8</tspan></text>
<text transform="matrix(1 0 0 1 362.6504 332.6973)" style="&st7;"><tspan x="0" y="0" style="&st22; &st15;">6</tspan></text>
<text transform="matrix(1 0 0 1 269.9404 332.6973)" style="&st7;"><tspan x="0" y="0" style="&st22; &st15;">1</tspan></text>
<text transform="matrix(1 0 0 1 70.5205 286.8169)" style="&st7;"><tspan x="0" y="0" style="&st22; &st15;">17</tspan></text>
<text transform="matrix(1 0 0 1 133.1904 286.8169)" style="&st7;"><tspan x="0" y="0" style="&st22; &st15;">3</tspan></text>
<text ewd:textID='32' transform='matrix(1 0 0 1 545.3794 125.3369)' style='&st7; &st22; &st15;'>Windshield Wiper Switch Assembly</text>
<text transform="matrix(1 0 0 1 545.3794 118.2368)" style="&st7;"><tspan x="0" y="0" style="&st22; &st15;">G120</tspan></text>
</g>
<text transform="matrix(0 -1 1 0 42.7998 584.8521)" style="&st7;"><tspan x="0" y="0" style="&st22; &st15;">W-B</tspan></text>
<text transform="matrix(0 -1 1 0 136.2803 161.5112)" style="&st7;"><tspan x="0" y="0" style="&st22; &st15;">G</tspan></text>
<text transform="matrix(0 -1 1 0 136.2803 270.0166)" style="&st7;"><tspan x="0" y="0" style="&st22; &st15;">G</tspan></text>
<text transform="matrix(0 -1 1 0 76.79 161.5112)" style="&st7;"><tspan x="0" y="0" style="&st22; &st15;">G</tspan></text>
<text transform="matrix(0 -1 1 0 42.7998 161.5112)" style="&st7;"><tspan x="0" y="0" style="&st22; &st15;">G</tspan></text>
<text transform="matrix(0 -1 1 0 76.79 359.3125)" style="&st7;"><tspan x="0" y="0" style="&st22; &st15;">W</tspan></text>
<text transform="matrix(0 -1 1 0 76.79 410.2085)" style="&st7;"><tspan x="0" y="0" style="&st22; &st15;">W</tspan></text>
<text transform="matrix(0 -1 1 0 136.2803 358.4819)" style="&st7;"><tspan x="0" y="0" style="&st22; &st15;">B</tspan></text>
<text transform="matrix(0 -1 1 0 136.2803 409.3774)" style="&st7;"><tspan x="0" y="0" style="&st22; &st15;">B</tspan></text>
<text transform="matrix(0 -1 1 0 178.7705 358.6475)" style="&st7;"><tspan x="0" y="0" style="&st22; &st15;">R</tspan></text>
<text transform="matrix(0 -1 1 0 178.7705 409.5435)" style="&st7;"><tspan x="0" y="0" style="&st22; &st15;">R</tspan></text>
<text transform="matrix(0 -1 1 0 272.2598 362.2583)" style="&st7;"><tspan x="0" y="0" style="&st22; &st15;">W-B</tspan></text>
<text transform="matrix(0 -1 1 0 204.2705 557.1558)" style="&st7;"><tspan x="0" y="0" style="&st22; &st15;">W-B</tspan></text>
<text transform="matrix(0 -1 1 0 425.2305 513.7964)" style="&st7;"><tspan x="0" y="0" style="&st22; &st15;">V</tspan></text>
<text transform="matrix(0 -1 1 0 42.7998 662.146)" style="&st7;"><tspan x="0" y="0" style="&st22; &st15;">W-B</tspan></text>
<text transform="matrix(0 -1 1 0 136.2803 581.2407)" style="&st7;"><tspan x="0" y="0" style="&st22; &st15;">R</tspan></text>
<text transform="matrix(0 -1 1 0 365.7402 513.937)" style="&st7;"><tspan x="0" y="0" style="&st22; &st15;">R</tspan></text>
<text transform="matrix(1 0 0 1 251.2598 482.2769)" style="&st7;"><tspan x="0" y="0" style="&st22; &st15;">W-B</tspan></text>
<text transform="matrix(1 0 0 1 281.9307 423.9165)" style="&st7;"><tspan x="0" y="0" style="&st22; &st15;">(*4)</tspan></text>
<text transform="matrix(1 0 0 1 281.9307 414.8569)" style="&st7;"><tspan x="0" y="0" style="&st22; &st15;">(*3)</tspan></text>
<text transform="matrix(1 0 0 1 281.9307 467.5464)" style="&st7;"><tspan x="0" y="0" style="&st22; &st15;">(*4)</tspan></text>
<text transform="matrix(1 0 0 1 281.9307 458.4858)" style="&st7;"><tspan x="0" y="0" style="&st22; &st15;">(*3)</tspan></text>
<text ewd:textID='4' transform='matrix(1 0 0 1 290.4307 670.4058)' style='&st7; &st22; &st15;'>* 4 :From Oct. 2010 Production</text>
<text ewd:textID='3' transform='matrix(1 0 0 1 290.4307 661.9058)' style='&st7; &st22; &st15;'>* 3 :Before Oct. 2010 Production</text>
<text transform="matrix(0 -1 1 0 198.7705 153.5259)" style="&st7;"><tspan x="0" y="0" style="&st22; &st15;">G</tspan></text>
<text transform="matrix(0 -1 1 0 210.1104 155.9458)" style="&st7;"><tspan x="0" y="0" style="&st22; &st15;">(*6)</tspan></text>
<text transform="matrix(0 -1 1 0 198.7705 230.2769)" style="&st7;"><tspan x="0" y="0" style="&st22; &st15;">G</tspan></text>
<text transform="matrix(0 -1 1 0 210.1104 233.6973)" style="&st7;"><tspan x="0" y="0" style="&st22; &st15;">(*6)</tspan></text>
<text transform="matrix(0 -1 1 0 147.6104 164.0122)" style="&st7;"><tspan x="0" y="0" style="&st22; &st15;">(*5)</tspan></text>
<text ewd:textID='6' transform='matrix(1 0 0 1 290.4307 687.4058)' style='&st7; &st22; &st15;'>* 6 :For production from approximately Jan. 2011</text>
<text ewd:textID='5' transform='matrix(1 0 0 1 290.4307 678.9058)' style='&st7; &st22; &st15;'>* 5 :For production through approximately Jan. 2011</text>
<text transform="matrix(1 0 0 1 208.4404 174.4575)" style="&st7;"><tspan x="0" y="0" style="&st22; &st15;">(*7)</tspan></text>
<text transform="matrix(1 0 0 1 208.4404 165.3979)" style="&st7;"><tspan x="0" y="0" style="&st22; &st15;">(*8)</tspan></text>
<text transform="matrix(1 0 0 1 208.4404 218.0874)" style="&st7;"><tspan x="0" y="0" style="&st22; &st15;">(*8)</tspan></text>
<text transform="matrix(1 0 0 1 208.4404 209.0278)" style="&st7;"><tspan x="0" y="0" style="&st22; &st15;">(*7)</tspan></text>
<text ewd:textID='8' transform='matrix(1 0 0 1 290.4307 704.4048)' style='&st7; &st22; &st15;'>* 8 :From Aug. 2013 Production</text>
<text ewd:textID='7' transform='matrix(1 0 0 1 290.4307 695.9048)' style='&st7; &st22; &st15;'>* 7 :Before Aug. 2013 Production</text>
<text transform="matrix(0 -1 1 0 365.7705 369.4668)" style="&st7;"><tspan x="0" y="0" style="&st22; &st15;">R</tspan></text>
<text transform="matrix(0 -1 1 0 425.2305 369.4668)" style="&st7;"><tspan x="0" y="0" style="&st22; &st15;">V</tspan></text>
<text transform="matrix(1 0 0 1 485.9497 634.5229)" style="&st7;"><tspan x="0" y="0" style="&st22; &st15;">R</tspan></text>
<text transform="matrix(1 0 0 1 486.0903 600.5327)" style="&st7;"><tspan x="0" y="0" style="&st22; &st15;">V</tspan></text>
<text transform="matrix(0 -1 1 0 436.5703 372.8862)" style="&st7;"><tspan x="0" y="0" style="&st22; &st15;">(*7)</tspan></text>
<text transform="matrix(0 -1 1 0 457.7212 369.4668)" style="&st7;"><tspan x="0" y="0" style="&st22; &st15;">V</tspan></text>
<text transform="matrix(0 -1 1 0 469.061 372.8862)" style="&st7;"><tspan x="0" y="0" style="&st22; &st15;">(*8)</tspan></text>
<text transform="matrix(0 -1 1 0 436.5703 517.2163)" style="&st7;"><tspan x="0" y="0" style="&st22; &st15;">(*7)</tspan></text>
<text transform="matrix(1 0 0 1 482.2407 611.8628)" style="&st7;"><tspan x="0" y="0" style="&st22; &st15;">(*7)</tspan></text>
<text transform="matrix(1 0 0 1 486.0903 566.5425)" style="&st7;"><tspan x="0" y="0" style="&st22; &st15;">V</tspan></text>
<text transform="matrix(1 0 0 1 482.2407 577.8726)" style="&st7;"><tspan x="0" y="0" style="&st22; &st15;">(*8)</tspan></text>
</svg>
