﻿<?xml version="1.0" encoding="UTF-8"?>
<!DOCTYPE svg PUBLIC "-//W3C//DTD SVG 1.0//EN" "http://www.w3.org/TR/2001/REC-SVG-20010904/DTD/svg10.dtd"[
<!ENTITY ns_flows "http://ns.adobe.com/Flows/1.0/">
<!ENTITY ns_svg "http://www.w3.org/2000/svg">
<!ENTITY ns_xlink "http://www.w3.org/1999/xlink">
		<!ENTITY st0 "fill:none;stroke:#000000;stroke-width:0.85;stroke-linecap:round;stroke-linejoin:round;stroke-dasharray:3 1.5;enable-background:new    ;">
	<!ENTITY st1 "fill:none;stroke:#000000;stroke-width:5.1;stroke-linejoin:round;">
	<!ENTITY st2 "fill:none;stroke:#000000;stroke-linecap:round;stroke-linejoin:round;">
	<!ENTITY st3 "stroke:#000000;stroke-width:0.28;stroke-linecap:round;stroke-linejoin:round;enable-background:new    ;">
	<!ENTITY st4 "enable-background:new    ;">
		<!ENTITY st5 "fill:none;stroke:#000000;stroke-width:1.42;stroke-linecap:round;stroke-linejoin:round;enable-background:new    ;">
	<!ENTITY st6 "fill:none;stroke:#199DBF;stroke-width:5.1;stroke-linejoin:round;">
	<!ENTITY st7 "opacity:0.5;fill:none;stroke:#34ACCE;stroke-linejoin:round;stroke-dasharray:6;">
	<!ENTITY st8 "fill:none;stroke:#FFFFFF;stroke-width:4.53;stroke-linejoin:round;">
		<!ENTITY st9 "fill:none;stroke:#000000;stroke-width:0.85;stroke-linecap:round;stroke-linejoin:round;enable-background:new    ;">
	<!ENTITY st10 "fill:none;stroke:#56107C;stroke-width:5.1;stroke-linejoin:round;">
	<!ENTITY st11 "font-size:6px;">
	<!ENTITY st12 "fill:none;stroke:#168638;stroke-width:5.1;stroke-linejoin:round;">
	<!ENTITY st13 "fill:none;stroke:#000000;stroke-width:1.13;stroke-linejoin:round;">
		<!ENTITY st14 "fill:none;stroke:#000000;stroke-width:1.13;stroke-linecap:round;stroke-linejoin:round;stroke-dasharray:3 1.5;enable-background:new    ;">
	<!ENTITY st15 "fill:#FFFFFF;stroke:#000000;stroke-width:1.41;stroke-linecap:round;stroke-linejoin:round;">
	<!ENTITY st16 "fill:none;stroke:#3E65AC;stroke-width:3;">
	<!ENTITY st17 "fill:#CCCCCC;stroke:#CCCCCC;stroke-width:0.1;stroke-linecap:round;stroke-linejoin:round;">
	<!ENTITY st18 "font-family:'Arial';">
	<!ENTITY st19 "opacity:0.5;fill:none;stroke:#34ACCE;stroke-linejoin:round;">
	<!ENTITY st20 "fill:#CFE6E7;stroke:#000000;stroke-width:1.133;stroke-linecap:round;stroke-linejoin:round;">
	<!ENTITY st21 "fill:none;stroke:#99D5E0;stroke-width:5.1;stroke-linejoin:round;">
<!ATTLIST svg
xmlns:ewd CDATA #FIXED "http://shcl.co.jp/ewd"
xmlns:a CDATA #FIXED "http://ns.adobe.com/AdobeSVGViewerExtensions/3.0/"
ewd:ver CDATA #IMPLIED
>
<!ATTLIST a
ewd:lineID CDATA #IMPLIED
ewd:groupID CDATA #IMPLIED
ewd:figtype CDATA #IMPLIED
ewd:code CDATA #IMPLIED
ewd:figID CDATA #IMPLIED
ewd:pinNo CDATA #IMPLIED
ewd:comment CDATA #IMPLIED >
<!ATTLIST g
ewd:lineID CDATA #IMPLIED
ewd:groupID CDATA #IMPLIED
ewd:figtype CDATA #IMPLIED
ewd:code CDATA #IMPLIED
ewd:figID CDATA #IMPLIED
ewd:pinNo CDATA #IMPLIED
ewd:comment CDATA #IMPLIED >
<!ATTLIST text
ewd:textID CDATA #IMPLIED >
<!ATTLIST title
ewd:textID CDATA #IMPLIED >
]>
<svg onload="call_execInitLoadProc_svg('system')"
style='overflow:visible;enable-background:new 0 0 2076.64 729.44'
viewBox='0 0 2076.64 729.44'
height='729.44'
width='2076.64'
xml:space="preserve"
xmlns="&ns_svg;"
xmlns:ewd="http://shcl.co.jp/ewd"
xmlns:a="http://ns.adobe.com/AdobeSVGViewerExtensions/3.0/"
xmlns:xlink="&ns_xlink;" ewd:ver="L2.1">
<style type="text/css">
</style>
<script type="text/javascript" xlink:href="../../../../../system/js/ewd/fig/svgfig.js"/>
<defs>
<font horiz-adv-x="1229">
<font-face font-family="Svg Symbol" units-per-em="2048" panose-1="5 5 1 2 1 7 6 2 5 7" ascent="2059" descent="450" alphabetic="0"/>
<missing-glyph d="M 103,0 l 0,1280 1024,0 0,-1280 -1024,0 z m 32,32 l 960,0 0,1216 -960,0 0,-1216 z"/>
<glyph unicode="&#xF057;" horiz-adv-x="1573" d="M 1517,0 l -567,0 24,279 q 141,59 207.5,168 66.5,109 66.5,306    0,272 -132.5,417.5 -132.5,145.5 -333.5,145.5 -194,0 -328,-147.5 -134,-147.5 -134,-401.5 0,-200 68.5,-319 68.5,-119     206.5,-169 l 25,-279 -564,0 0,279 35,0 q 3,-61 32,-83 45,-35 137,-35 l 270,0 0,70 q -210,61 -324.5,209 -114.5,148     -114.5,349 0,252 186.5,425 186.5,173 504.5,173 195,0 358.5,-73.5 163.5,-73.5 252,-214.5 88.5,-141 88.5,-310 0,-207     -121.5,-360.5 -121.5,-153.5 -317.5,-197.5 l -8,-70 275,0 q 92,0 128,28 36,28 42,90 l 38,0 0,-279 z"/>
</font>
</defs>
<g id="ewd_top">
<a ewd:lineID="5" style="cursor:pointer;">
<path style="&st1;" d="M 709.38 , 320 L 709.38 , 574.96 L 207.97 , 574.96 L 207.97 , 326.23"/>
</a>
<a ewd:lineID="3" style="cursor:pointer;">
<path style="&st1;" d="M 105.98 , 261.65 L 105.98 , 269.01 L 114.48 , 277.51 L 156.97 , 277.51 L 156.97 , 463.35"/>
<path style="&st8;" d="M 105.98 , 261.65 L 105.98 , 269.01 L 114.48 , 277.51 L 156.97 , 277.51 L 156.97 , 463.35"/>
<path style="&st13;" d="M 105.98 , 261.65 L 105.98 , 269.01 L 114.48 , 277.51 L 156.97 , 277.51 L 156.97 , 463.35"/>
</a>
<a ewd:lineID="2" style="cursor:pointer;">
<path style="&st1;" d="M 105.98 , 261.65 L 105.98 , 344.93"/>
<path style="&st8;" d="M 105.98 , 261.65 L 105.98 , 344.93"/>
<path style="&st13;" d="M 105.98 , 261.65 L 105.98 , 344.93"/>
</a>
<a ewd:lineID="4" style="cursor:pointer;">
<path style="&st1;" d="M 207.97 , 261.65 L 207.97 , 311.5"/>
</a>
<a ewd:lineID="33" style="cursor:pointer;">
<path style="&st1;" d="M 105.98 , 380.06 L 105.98 , 396.49 L 63.49 , 396.49 L 63.49 , 380.06"/>
<path style="&st8;" d="M 105.98 , 380.06 L 105.98 , 396.49 L 63.49 , 396.49 L 63.49 , 380.06"/>
<path style="&st13;" d="M 105.98 , 380.06 L 105.98 , 396.49 L 63.49 , 396.49 L 63.49 , 380.06"/>
</a>
<a ewd:lineID="32" style="cursor:pointer;">
<path style="&st1;" d="M 122.98 , 463.34 L 122.98 , 421.98 L 63.49 , 421.98 L 63.49 , 642.94 L 37.99 , 642.94 L 29.5 , 651.44 L 29.5 , 659.94"/>
<path style="&st8;" d="M 122.98 , 463.34 L 122.98 , 421.98 L 63.49 , 421.98 L 63.49 , 642.94 L 37.99 , 642.94 L 29.5 , 651.44 L 29.5 , 659.94"/>
<path style="&st13;" d="M 122.98 , 463.34 L 122.98 , 421.98 L 63.49 , 421.98 L 63.49 , 642.94 L 37.99 , 642.94 L 29.5 , 651.44 L 29.5 , 659.94"/>
</a>
<a ewd:lineID="35" style="cursor:pointer;">
<path style="&st1;" d="M 377.94 , 463.34 L 377.94 , 421.98 L 318.45 , 421.98 L 318.45 , 642.94 L 275.95 , 642.94 L 267.46 , 651.44 L 267.46 , 659.94"/>
<path style="&st8;" d="M 377.94 , 463.34 L 377.94 , 421.98 L 318.45 , 421.98 L 318.45 , 642.94 L 275.95 , 642.94 L 267.46 , 651.44 L 267.46 , 659.94"/>
<path style="&st13;" d="M 377.94 , 463.34 L 377.94 , 421.98 L 318.45 , 421.98 L 318.45 , 642.94 L 275.95 , 642.94 L 267.46 , 651.44 L 267.46 , 659.94"/>
</a>
<a ewd:lineID="7" style="cursor:pointer;">
<path style="&st1;" d="M 360.94 , 261.65 L 360.94 , 269.01 L 369.44 , 277.51 L 411.93 , 277.51 L 411.93 , 463.35"/>
<path style="&st8;" d="M 360.94 , 261.65 L 360.94 , 269.01 L 369.44 , 277.51 L 411.93 , 277.51 L 411.93 , 463.35"/>
<path style="&st13;" d="M 360.94 , 261.65 L 360.94 , 269.01 L 369.44 , 277.51 L 411.93 , 277.51 L 411.93 , 463.35"/>
</a>
<a ewd:lineID="36" style="cursor:pointer;">
<path style="&st1;" d="M 360.94 , 380.06 L 360.94 , 396.49 L 309.95 , 396.49 L 309.95 , 380.06"/>
<path style="&st8;" d="M 360.94 , 380.06 L 360.94 , 396.49 L 309.95 , 396.49 L 309.95 , 380.06"/>
<path style="&st13;" d="M 360.94 , 380.06 L 360.94 , 396.49 L 309.95 , 396.49 L 309.95 , 380.06"/>
</a>
<a ewd:lineID="8" style="cursor:pointer;">
<path style="&st1;" d="M 360.94 , 261.65 L 360.94 , 344.93"/>
<path style="&st8;" d="M 360.94 , 261.65 L 360.94 , 344.93"/>
<path style="&st13;" d="M 360.94 , 261.65 L 360.94 , 344.93"/>
</a>
<a ewd:lineID="10" style="cursor:pointer;">
<path style="&st1;" d="M 709.38 , 320 L 709.38 , 328.5 L 700.88 , 337 L 675.39 , 337 L 675.39 , 438.98 L 462.92 , 438.98 L 462.92 , 309.23"/>
</a>
<a ewd:lineID="9" style="cursor:pointer;">
<path style="&st1;" d="M 462.92 , 261.65 L 462.92 , 294.51"/>
</a>
<a ewd:lineID="37" style="cursor:pointer;">
<path style="&st1;" d="M 377.94 , 525.09 L 377.94 , 540.96 L 411.93 , 540.96 L 411.93 , 525.09"/>
<path style="&st8;" d="M 377.94 , 525.09 L 377.94 , 540.96 L 411.93 , 540.96 L 411.93 , 525.09"/>
<path style="&st13;" d="M 377.94 , 525.09 L 377.94 , 540.96 L 411.93 , 540.96 L 411.93 , 525.09"/>
</a>
<a ewd:lineID="14" style="cursor:pointer;">
<path style="&st10;" d="M 822.87 , 387.99 L 822.87 , 566.46 L 1525.25 , 566.46 L 1525.25 , 91.1"/>
</a>
<a ewd:lineID="19" style="cursor:pointer;">
<path style="&st10;" d="M 873.86 , 107.54 L 873.86 , 172.69"/>
</a>
<a ewd:lineID="11" style="cursor:pointer;">
<path style="&st6;" d="M 709.38 , 107.54 L 709.38 , 175.53"/>
</a>
<a ewd:lineID="12" style="cursor:pointer;">
<path style="&st6;" d="M 709.38 , 192.52 L 709.38 , 277.51"/>
</a>
<a ewd:lineID="17" style="cursor:pointer;">
<path style="&st1;" d="M 873.86 , 195.35 L 873.86 , 277.5"/>
<path style="&st8;" d="M 873.86 , 195.35 L 873.86 , 277.5"/>
</a>
<a ewd:lineID="16" style="cursor:pointer;">
<path style="&st12;" d="M 873.86 , 364.76 L 873.86 , 320"/>
</a>
<a ewd:lineID="15" style="cursor:pointer;">
<path style="&st10;" d="M 822.87 , 320 L 822.87 , 364.76"/>
</a>
<a ewd:lineID="38" style="cursor:pointer;">
<path style="&st12;" d="M 873.86 , 430.48 L 873.86 , 387.99"/>
</a>
<a ewd:lineID="18" style="cursor:pointer;">
<path style="&st1;" d="M 873.86 , 464.48 L 873.86 , 549.46 L 1482.75 , 549.46 L 1482.75 , 158.52"/>
<path style="&st8;" d="M 873.86 , 464.48 L 873.86 , 549.46 L 1482.75 , 549.46 L 1482.75 , 158.52"/>
</a>
<a ewd:lineID="20" style="cursor:pointer;">
<path style="&st6;" d="M 1440.26 , 158.52 L 1440.26 , 184.02 L 1083.32 , 184.02 L 1083.32 , 107.53"/>
</a>
<a ewd:lineID="22" style="cursor:pointer;">
<path style="&st1;" d="M 1652.72 , 480.34 L 1652.72 , 107.54 L 1610.23 , 107.54 L 1601.73 , 99.04 L 1601.73 , 91.1"/>
<path style="&st8;" d="M 1652.72 , 480.34 L 1652.72 , 107.54 L 1610.23 , 107.54 L 1601.73 , 99.04 L 1601.73 , 91.1"/>
<path style="&st13;" d="M 1652.72 , 480.34 L 1652.72 , 107.54 L 1610.23 , 107.54 L 1601.73 , 99.04 L 1601.73 , 91.1"/>
</a>
<a ewd:lineID="25" style="cursor:pointer;">
<path style="&st1;" d="M 1729.21 , 251.45 L 1729.21 , 175.53 L 1771.7 , 175.53 L 1780.2 , 167.03 L 1780.2 , 158.53"/>
<path style="&st8;" d="M 1729.21 , 251.45 L 1729.21 , 175.53 L 1771.7 , 175.53 L 1780.2 , 167.03 L 1780.2 , 158.53"/>
<path style="&st13;" d="M 1729.21 , 251.45 L 1729.21 , 175.53 L 1771.7 , 175.53 L 1780.2 , 167.03 L 1780.2 , 158.53"/>
</a>
<a ewd:lineID="26" style="cursor:pointer;">
<path style="&st1;" d="M 1780.2 , 242.38 L 1780.2 , 158.53"/>
<path style="&st8;" d="M 1780.2 , 242.38 L 1780.2 , 158.53"/>
<path style="&st13;" d="M 1780.2 , 242.38 L 1780.2 , 158.53"/>
</a>
<a ewd:lineID="24" style="cursor:pointer;">
<path style="&st1;" d="M 1780.2 , 659.94 L 1780.2 , 651.44 L 1771.7 , 642.94 L 1729.21 , 642.94 L 1729.21 , 286.56"/>
<path style="&st8;" d="M 1780.2 , 659.94 L 1780.2 , 651.44 L 1771.7 , 642.94 L 1729.21 , 642.94 L 1729.21 , 286.56"/>
<path style="&st13;" d="M 1780.2 , 659.94 L 1780.2 , 651.44 L 1771.7 , 642.94 L 1729.21 , 642.94 L 1729.21 , 286.56"/>
</a>
<a ewd:lineID="39" style="cursor:pointer;">
<path style="&st1;" d="M 1601.73 , 533.02 L 1601.73 , 642.94 L 1644.23 , 642.94 L 1652.72 , 651.44 L 1652.72 , 659.94"/>
<path style="&st8;" d="M 1601.73 , 533.02 L 1601.73 , 642.94 L 1644.23 , 642.94 L 1652.72 , 651.44 L 1652.72 , 659.94"/>
<path style="&st13;" d="M 1601.73 , 533.02 L 1601.73 , 642.94 L 1644.23 , 642.94 L 1652.72 , 651.44 L 1652.72 , 659.94"/>
</a>
<a ewd:lineID="42" style="cursor:pointer;">
<path style="&st1;" d="M 1924.68 , 583.46 L 1924.68 , 659.95"/>
<path style="&st8;" d="M 1924.68 , 583.46 L 1924.68 , 659.95"/>
<path style="&st13;" d="M 1924.68 , 583.46 L 1924.68 , 659.95"/>
</a>
<a ewd:lineID="41" style="cursor:pointer;">
<path style="&st1;" d="M 1924.68 , 465.6 L 1924.68 , 515.46"/>
<path style="&st8;" d="M 1924.68 , 465.6 L 1924.68 , 515.46"/>
<path style="&st13;" d="M 1924.68 , 465.6 L 1924.68 , 515.46"/>
</a>
<a ewd:lineID="30" style="cursor:pointer;">
<path style="&st21;" d="M 2026.66 , 301.87 L 2026.66 , 218.02"/>
</a>
<a ewd:lineID="28" style="cursor:pointer;">
<path style="&st1;" d="M 1958.67 , 218.02 L 1958.67 , 301.87"/>
<path style="&st8;" d="M 1958.67 , 218.02 L 1958.67 , 301.87"/>
</a>
<a ewd:lineID="31" style="cursor:pointer;">
<path style="&st21;" d="M 2026.66 , 167.02 L 2026.66 , 91.1"/>
</a>
<a ewd:lineID="29" style="cursor:pointer;">
<path style="&st1;" d="M 1958.67 , 91.1 L 1958.67 , 167.02"/>
<path style="&st8;" d="M 1958.67 , 91.1 L 1958.67 , 167.02"/>
</a>
<a ewd:lineID="34" style="cursor:pointer;">
<path style="&st1;" d="M 122.98 , 525.09 L 122.98 , 540.96 L 156.97 , 540.96 L 156.97 , 525.09"/>
<path style="&st8;" d="M 122.98 , 525.09 L 122.98 , 540.96 L 156.97 , 540.96 L 156.97 , 525.09"/>
<path style="&st13;" d="M 122.98 , 525.09 L 122.98 , 540.96 L 156.97 , 540.96 L 156.97 , 525.09"/>
</a>
<a ewd:lineID="43" style="cursor:pointer;">
<path style="&st1;" d="M 751.88 , 320 L 751.88 , 327.36 L 760.38 , 335.86 L 792.87 , 335.86 L 792.87 , 685.44"/>
<path style="&st8;" d="M 751.88 , 320 L 751.88 , 327.36 L 760.38 , 335.86 L 792.87 , 335.86 L 792.87 , 685.44"/>
<path style="&st13;" d="M 751.88 , 320 L 751.88 , 327.36 L 760.38 , 335.86 L 792.87 , 335.86 L 792.87 , 685.44"/>
</a>
<a ewd:lineID="13" style="cursor:pointer;">
<path style="&st1;" d="M 751.88 , 320 L 751.88 , 685.44"/>
<path style="&st8;" d="M 751.88 , 320 L 751.88 , 685.44"/>
<path style="&st13;" d="M 751.88 , 320 L 751.88 , 685.44"/>
</a>
<a ewd:lineID="6" style="cursor:pointer;">
<path style="&st1;" d="M 267.46 , 659.94 L 267.46 , 320 L 309.95 , 320 L 309.95 , 344.93"/>
<path style="&st8;" d="M 267.46 , 659.94 L 267.46 , 320 L 309.95 , 320 L 309.95 , 344.93"/>
<path style="&st13;" d="M 267.46 , 659.94 L 267.46 , 320 L 309.95 , 320 L 309.95 , 344.93"/>
</a>
<a ewd:lineID="1" style="cursor:pointer;">
<path style="&st1;" d="M 29.5 , 659.94 L 29.5 , 320 L 63.49 , 320 L 63.49 , 344.93"/>
<path style="&st8;" d="M 29.5 , 659.94 L 29.5 , 320 L 63.49 , 320 L 63.49 , 344.93"/>
<path style="&st13;" d="M 29.5 , 659.94 L 29.5 , 320 L 63.49 , 320 L 63.49 , 344.93"/>
</a>
<a ewd:lineID="40" style="cursor:pointer;">
<path style="&st1;" d="M 1652.72 , 542.08 L 1652.72 , 659.94"/>
<path style="&st8;" d="M 1652.72 , 542.08 L 1652.72 , 659.94"/>
<path style="&st13;" d="M 1652.72 , 542.08 L 1652.72 , 659.94"/>
</a>
<a ewd:lineID="27" style="cursor:pointer;">
<path style="&st1;" d="M 1780.2 , 659.94 L 1780.2 , 304.14"/>
<path style="&st8;" d="M 1780.2 , 659.94 L 1780.2 , 304.14"/>
<path style="&st13;" d="M 1780.2 , 659.94 L 1780.2 , 304.14"/>
</a>
<a ewd:lineID="21" style="cursor:pointer;">
<path style="&st1;" d="M 1601.73 , 91.1 L 1601.73 , 489.4"/>
<path style="&st8;" d="M 1601.73 , 91.1 L 1601.73 , 489.4"/>
<path style="&st13;" d="M 1601.73 , 91.1 L 1601.73 , 489.4"/>
</a>
<a ewd:code="GA2" ewd:figtype="w2w" style="cursor:pointer;" ewd:figID="604">
<path style="&st15;" d="M882.36,370.99h-17v8.5h17V370.99"/>
<text transform="matrix(1 0 0 1 867.8574 377.7354)" style="&st4;"><tspan x="0" y="0" style="&st18; &st11;">GA2</tspan></text>
</a>
<a ewd:code="GA2" ewd:figtype="w2w" style="cursor:pointer;" ewd:figID="606">
<path style="&st15;" d="M882.36,379.49h-17v8.5h17V379.49"/>
<text transform="matrix(1 0 0 1 867.8574 386.2354)" style="&st4;"><tspan x="0" y="0" style="&st18; &st11;">GA2</tspan></text>
</a>
<a ewd:code="GA1" ewd:figtype="w2w" style="cursor:pointer;" ewd:figID="603">
<path style="&st15;" d="M831.37,370.99h-17v8.5h17V370.99"/>
<text transform="matrix(1 0 0 1 816.8672 377.7354)" style="&st4;"><tspan x="0" y="0" style="&st18; &st11;">GA1</tspan></text>
</a>
<a ewd:code="GA6" ewd:figtype="w2w" style="cursor:pointer;" ewd:figID="605">
<path style="&st15;" d="M831.37,379.49h-17v8.5h17V379.49"/>
<text transform="matrix(1 0 0 1 816.8672 386.2354)" style="&st4;"><tspan x="0" y="0" style="&st18; &st11;">GA6</tspan></text>
</a>
<a ewd:code="GA3" ewd:figtype="w2w" style="cursor:pointer;" ewd:figID="601">
<path style="&st15;" d="M216.46,311.5h-16.99v8.5h16.99V311.5"/>
<text transform="matrix(1 0 0 1 201.9619 318.2451)" style="&st4;"><tspan x="0" y="0" style="&st18; &st11;">GA3</tspan></text>
</a>
<a ewd:code="GA3" ewd:figtype="w2w" style="cursor:pointer;" ewd:figID="602">
<path style="&st15;" d="M471.42,294.51h-17v8.5h17V294.51"/>
<text transform="matrix(1 0 0 1 456.917 301.2451)" style="&st4;"><tspan x="0" y="0" style="&st18; &st11;">GA3</tspan></text>
</a>
<a ewd:code="FUSE47" ewd:figtype="rb" style="cursor:pointer;" ewd:figID="401">
<path style="&st20;" d="M861.11,39.55v42.49h25.5V39.55H861.11"/>
</a>
<a ewd:code="FUSE10" ewd:figtype="rb" style="cursor:pointer;" ewd:figID="402">
<path style="&st20;" d="M1070.57,39.55v42.49h25.5V39.55H1070.57"/>
</a>
<a ewd:code="3JB" ewd:figtype="jb" style="cursor:pointer;" ewd:figID="304">
<path style="&st17;" d="M1941.68,167.02v50.99h93.48v-50.99H1941.68"/>
</a>
<a ewd:code="2" ewd:figtype="jb" style="cursor:pointer;" ewd:figID="303">
<path style="&st17;" d="M1763.21,82.04v76.49h25.49V82.04H1763.21"/>
</a>
<a ewd:code="3JB" ewd:figtype="jb" style="cursor:pointer;" ewd:figID="305">
<path style="&st17;" d="M1907.68,515.47v67.99h40.38v-67.99H1907.68"/>
</a>
<a ewd:code="2" ewd:figtype="jb" style="cursor:pointer;" ewd:figID="302">
<path style="&st17;" d="M1134.31,158.52h356.94V82.04h-169.97V39.55h-186.97V158.52"/>
</a>
<a ewd:code="2" ewd:figtype="jb" style="cursor:pointer;" ewd:figID="301">
<path style="&st17;" d="M692.38,39.55v67.99h67.99V39.55H692.38"/>
</a>
<a ewd:code="G3" ewd:figtype="gp" style="cursor:pointer;" ewd:figID="206">
<path style="&st15;" d="M1914.06,685.43h21.24l-10.62,15.58L1914.06,685.43"/>
<text transform="matrix(1 0 0 1 1919.7002 693.5947)" style="&st4;"><tspan x="0" y="0" style="&st18; &st11;">G3</tspan></text>
</a>
<a ewd:code="G3" ewd:figtype="gp" style="cursor:pointer;" ewd:figID="205">
<path style="&st15;" d="M1769.58,685.43h21.25l-10.63,15.58L1769.58,685.43"/>
<text transform="matrix(1 0 0 1 1775.2197 693.5947)" style="&st4;"><tspan x="0" y="0" style="&st18; &st11;">G3</tspan></text>
</a>
<a ewd:code="G5" ewd:figtype="gp" style="cursor:pointer;" ewd:figID="204">
<path style="&st15;" d="M1642.1,685.43h21.25l-10.63,15.58L1642.1,685.43"/>
<text transform="matrix(1 0 0 1 1647.7402 693.5947)" style="&st4;"><tspan x="0" y="0" style="&st18; &st11;">G5</tspan></text>
</a>
<a ewd:code="A2" ewd:figtype="gp" style="cursor:pointer;" ewd:figID="203">
<path style="&st15;" d="M741.25,685.43h21.25l-10.62,15.58L741.25,685.43"/>
<text transform="matrix(1 0 0 1 747.3398 693.5947)" style="&st4;"><tspan x="0" y="0" style="&st18; &st11;">A2</tspan></text>
</a>
<a ewd:code="G3" ewd:figtype="gp" style="cursor:pointer;" ewd:figID="202">
<path style="&st15;" d="M256.83,685.43h21.25l-10.62,15.58L256.83,685.43"/>
<text transform="matrix(1 0 0 1 262.4702 693.5947)" style="&st4;"><tspan x="0" y="0" style="&st18; &st11;">G3</tspan></text>
</a>
<a ewd:code="G3" ewd:figtype="gp" style="cursor:pointer;" ewd:figID="201">
<path style="&st15;" d="M18.87,685.43h21.25L29.5,701.01L18.87,685.43"/>
<text transform="matrix(1 0 0 1 24.5098 693.5947)" style="&st4;"><tspan x="0" y="0" style="&st18; &st11;">G3</tspan></text>
</a>
<a ewd:code="A1" ewd:figtype="gp" style="cursor:pointer;" ewd:figID="207">
<path style="&st15;" d="M782.24,685.43h21.25l-10.62,15.58L782.24,685.43"/>
<text transform="matrix(1 0 0 1 788.3301 693.5947)" style="&st4;"><tspan x="0" y="0" style="&st18; &st11;">A1</tspan></text>
</a>
<a ewd:code="FUSE75" ewd:figtype="fuse" style="cursor:pointer;" ewd:figID="106">
<path style="&st5;" d="M1257.54,39.55v42.49h25.5V39.55H1257.54"/>
</a>
<a ewd:code="FUSE65" ewd:figtype="fuse" style="cursor:pointer;" ewd:figID="105">
<path style="&st5;" d="M1198.05,39.55v42.49h25.5V39.55H1198.05"/>
</a>
<a ewd:code="FUSE87" ewd:figtype="fuse" style="cursor:pointer;" ewd:figID="104">
<path style="&st5;" d="M1138.56,39.55v42.49h25.5V39.55H1138.56"/>
</a>
<a ewd:code="FUSE75" ewd:figtype="fuse" style="cursor:pointer;" ewd:figID="101">
<path style="&st5;" d="M696.63,39.55v42.49h25.5V39.55H696.63"/>
</a>
<a ewd:code="FUSE10" ewd:figtype="fuse" style="cursor:pointer;" ewd:figID="103">
<path style="&st5;" d="M1070.57,39.55v42.49h25.5V39.55H1070.57"/>
</a>
<a ewd:code="FUSE47" ewd:figtype="fuse" style="cursor:pointer;" ewd:figID="102">
<path style="&st5;" d="M861.11,39.55v42.49h25.5V39.55H861.11"/>
</a>
<a ewd:code="G104" ewd:figtype="conn" style="cursor:pointer;" ewd:figID="12">
<path style="&st20;" d="M21,659.94h16.99v16.99H21V659.94"/>
<title ewd:textID="17">Junction Connector</title>
</a>
<a ewd:code="G104" ewd:figtype="conn" style="cursor:pointer;" ewd:figID="14">
<path style="&st20;" d="M258.96,659.94h16.99v16.99h-16.99V659.94"/>
<title ewd:textID="17">Junction Connector</title>
</a>
<a ewd:code="G106" ewd:figtype="conn" style="cursor:pointer;" ewd:figID="19">
<path style="&st20;" d="M1644.23,659.94v16.99h16.99v-16.99H1644.23"/>
<title ewd:textID="17">Junction Connector</title>
</a>
<a ewd:code="G104" ewd:figtype="conn" style="cursor:pointer;" ewd:figID="20">
<path style="&st20;" d="M1771.7,659.94h17v16.99h-17V659.94"/>
<title ewd:textID="17">Junction Connector</title>
</a>
<a ewd:code="G104" ewd:figtype="conn" style="cursor:pointer;" ewd:figID="21">
<path style="&st20;" d="M1916.18,659.94v16.99h17v-16.99H1916.18"/>
<title ewd:textID="17">Junction Connector</title>
</a>
<a ewd:code="G81-A,G82-B,G164,G165" ewd:figtype="conn" style="cursor:pointer;" ewd:figID="18">
<path style="&st20;" d="M1644.23,498.47h16.99v25.5h-16.99V498.47"/>
<title ewd:textID="17">Junction Connector</title>
</a>
<a ewd:code="G128-C,G129-D" ewd:figtype="conn" style="cursor:pointer;" ewd:figID="17">
<path style="&st20;" d="M1593.23,498.47h17v25.5h-17V498.47"/>
<title ewd:textID="17">Junction Connector</title>
</a>
<a ewd:code="A38" ewd:figtype="conn" style="cursor:pointer;" ewd:figID="5">
<path style="&st20;" d="M692.38,277.51V320h198.48v-42.49H692.38"/>
<title ewd:textID="13">Headlight Cleaner Control Relay</title>
</a>
<a ewd:code="G79,G80,G140,G141" ewd:figtype="conn" style="cursor:pointer;" ewd:figID="15">
<path style="&st20;" d="M369.44,481.48v25.49h50.99v-25.49H369.44"/>
<title ewd:textID="17">Junction Connector</title>
</a>
<a ewd:code="G79,G80,G140,G141" ewd:figtype="conn" style="cursor:pointer;" ewd:figID="13">
<path style="&st20;" d="M114.48,481.48v25.49h50.99v-25.49H114.48"/>
<title ewd:textID="17">Junction Connector</title>
</a>
<a ewd:code="G127" ewd:figtype="conn" style="cursor:pointer;" ewd:figID="1">
<path style="&st20;" d="M54.99,354v16.99h59.49V354H54.99"/>
<title ewd:textID="17">Junction Connector</title>
</a>
<a ewd:code="G127" ewd:figtype="conn" style="cursor:pointer;" ewd:figID="4">
<path style="&st20;" d="M301.45,354v16.99h67.99V354H301.45"/>
<title ewd:textID="17">Junction Connector</title>
</a>
<a ewd:code="G120" ewd:figtype="conn" style="cursor:pointer;" ewd:figID="2">
<path style="&st20;" d="M80.49,243.52h144.47V116.04H80.49v93.48V243.52"/>
<title ewd:textID="24">Windshield Wiper Switch Assembly</title>
</a>
<a ewd:code="G43" ewd:figtype="conn" style="cursor:pointer;" ewd:figID="3">
<path style="&st20;" d="M479.92,124.54H241.96v118.98h237.96V124.54"/>
<title ewd:textID="24">Windshield Wiper Switch Assembly</title>
</a>
<a ewd:code="A69" ewd:figtype="conn" style="cursor:pointer;" ewd:figID="6">
<path style="&st20;" d="M700.88,175.52h17v16.99h-17V175.52"/>
<title ewd:textID="17">Junction Connector</title>
</a>
<a ewd:code="G127" ewd:figtype="conn" style="cursor:pointer;" ewd:figID="9">
<path style="&st20;" d="M1720.71,260.51h17v16.99h-17V260.51"/>
<title ewd:textID="17">Junction Connector</title>
</a>
<a ewd:code="G79,G80,G140,G141" ewd:figtype="conn" style="cursor:pointer;" ewd:figID="10">
<path style="&st20;" d="M1771.7,260.51v25.5h17v-25.5H1771.7"/>
<title ewd:textID="17">Junction Connector</title>
</a>
<a ewd:code="G44" ewd:figtype="conn" style="cursor:pointer;" ewd:figID="11">
<path style="&st20;" d="M1805.7,320v127.48h246.46V320H1805.7"/>
<title ewd:textID="16">Headlight Dimmer Switch Assembly</title>
</a>
<a ewd:code="G63-A,G64-B" ewd:figtype="conn" style="cursor:pointer;" ewd:figID="8">
<path style="&st20;" d="M1321.28,39.55v42.49h722.38V39.55H1321.28"/>
<title ewd:textID="20">Main Body ECU</title>
</a>
<a ewd:code="A37" ewd:figtype="conn" style="cursor:pointer;" ewd:figID="7">
<path style="&st20;" d="M869.61,176.67v-3.98h8.5v3.98c1.35,0.78,2.33,1.75,3.11,3.1c2.35,4.07,0.95,9.27-3.11,11.61v3.98h-8.5v-3.98c-1.35-0.78-2.33-1.75-3.11-3.11C864.15,184.21,865.55,179.01,869.61,176.67"/>
<title ewd:textID="14">Headlight Cleaner Motor and Pump Assembly</title>
</a>
<a ewd:code="G72" ewd:figtype="conn" style="cursor:pointer;" ewd:figID="16">
<path style="&st20;" d="M882.36,464.48v-34h-17v34H882.36"/>
<title ewd:textID="15">Headlight Cleaner Switch Assembly</title>
</a>
</g>
</svg>
