<?xml version="1.0" encoding="UTF-8"?>
<!DOCTYPE svg PUBLIC "-//W3C//DTD SVG 1.0//EN" "http://www.w3.org/TR/2001/REC-SVG-20010904/DTD/svg10.dtd"[
<!ENTITY ns_flows "http://ns.adobe.com/Flows/1.0/">
<!ENTITY ns_svg "http://www.w3.org/2000/svg">
<!ENTITY ns_xlink "http://www.w3.org/1999/xlink">
	<!ENTITY st0 "fill:none;stroke:#F8E616;stroke-width:5.1;stroke-linejoin:round;">
	<!ENTITY st1 "fill:none;stroke:#FB0F0C;stroke-width:5.1;stroke-linejoin:round;">
	<!ENTITY st2 "fill:none;stroke:#9A9999;stroke-width:5.1;stroke-linejoin:round;">
	<!ENTITY st3 "fill:none;stroke:#99280B;stroke-width:5.1;stroke-linejoin:round;">
		<!ENTITY st4 "fill:none;stroke:#000000;stroke-width:0.85;stroke-linecap:round;stroke-linejoin:round;stroke-dasharray:3 1.5;enable-background:new    ;">
	<!ENTITY st5 "fill:none;stroke:#000000;stroke-width:5.1;stroke-linejoin:round;">
	<!ENTITY st6 "fill:none;stroke:#199DBF;stroke-width:1.13;stroke-linejoin:round;">
	<!ENTITY st7 "fill:none;stroke:#000000;stroke-linecap:round;stroke-linejoin:round;">
	<!ENTITY st8 "fill:#1D63A2;">
	<!ENTITY st9 "stroke:#000000;stroke-width:0.28;stroke-linecap:round;stroke-linejoin:round;enable-background:new    ;">
	<!ENTITY st10 "enable-background:new    ;">
		<!ENTITY st11 "fill:none;stroke:#000000;stroke-width:1.42;stroke-linecap:round;stroke-linejoin:round;enable-background:new    ;">
	<!ENTITY st12 "fill:none;stroke:#EE67AA;stroke-width:5.1;stroke-linejoin:round;">
	<!ENTITY st13 "fill:none;stroke:#199DBF;stroke-width:5.1;stroke-linejoin:round;">
	<!ENTITY st14 "opacity:0.5;fill:none;stroke:#34ACCE;stroke-linejoin:round;stroke-dasharray:6;">
	<!ENTITY st15 "fill:none;stroke:#FFFFFF;stroke-width:4.53;stroke-linejoin:round;">
	<!ENTITY st16 "fill:#F6140D;">
		<!ENTITY st17 "fill:none;stroke:#000000;stroke-width:0.85;stroke-linecap:round;stroke-linejoin:round;enable-background:new    ;">
	<!ENTITY st18 "fill:none;stroke:#56107C;stroke-width:5.1;stroke-linejoin:round;">
	<!ENTITY st19 "font-size:6px;">
	<!ENTITY st20 "fill:none;stroke:#FFFFFF;stroke-width:2.27;stroke-linejoin:round;">
	<!ENTITY st21 "fill:none;stroke:#FB0F0C;stroke-width:1.13;stroke-linejoin:round;">
	<!ENTITY st22 "fill:none;stroke:#168638;stroke-width:5.1;stroke-linejoin:round;">
	<!ENTITY st23 "fill:none;stroke:#000000;stroke-width:1.13;stroke-linejoin:round;">
		<!ENTITY st24 "fill:none;stroke:#000000;stroke-width:1.13;stroke-linecap:round;stroke-linejoin:round;stroke-dasharray:3 1.5;enable-background:new    ;">
	<!ENTITY st25 "fill:#FFFFFF;stroke:#000000;stroke-width:1.41;stroke-linecap:round;stroke-linejoin:round;">
	<!ENTITY st26 "fill:none;stroke:#3E65AC;stroke-width:3;">
	<!ENTITY st27 "display:inline;">
	<!ENTITY st28 "fill:#CCCCCC;stroke:#CCCCCC;stroke-width:0.1;stroke-linecap:round;stroke-linejoin:round;">
	<!ENTITY st29 "stroke:#FFFFFF;stroke-width:2;">
	<!ENTITY st30 "fill:none;stroke:#000000;stroke-width:5.1;stroke-linejoin:round;enable-background:new    ;">
	<!ENTITY st31 "font-family:'Arial';">
	<!ENTITY st32 "opacity:0.5;fill:none;stroke:#34ACCE;stroke-linejoin:round;">
	<!ENTITY st33 "fill:#CFE6E7;stroke:#000000;stroke-width:1.133;stroke-linecap:round;stroke-linejoin:round;">
	<!ENTITY st34 "font-size:12px;">
	<!ENTITY st35 "fill:none;stroke:#99D5E0;stroke-width:5.1;stroke-linejoin:round;">
	<!ENTITY st36 "display:none;">
	<!ENTITY st37 "fill:none;stroke:#FFFFFF;stroke-width:1.13;stroke-linejoin:round;enable-background:new    ;">
	<!ENTITY st38 "fill:none;stroke:#7EC57E;stroke-width:5.1;stroke-linejoin:round;">
<!ATTLIST svg
xmlns:ewd CDATA #FIXED "http://shcl.co.jp/ewd"
xmlns:a CDATA #FIXED "http://ns.adobe.com/AdobeSVGViewerExtensions/3.0/"
ewd:ver CDATA #IMPLIED
>
<!ATTLIST a
ewd:lineID CDATA #IMPLIED
ewd:groupID CDATA #IMPLIED
ewd:figtype CDATA #IMPLIED
ewd:code CDATA #IMPLIED
ewd:figID CDATA #IMPLIED
ewd:pinNo CDATA #IMPLIED
ewd:comment CDATA #IMPLIED >
<!ATTLIST g
ewd:lineID CDATA #IMPLIED
ewd:groupID CDATA #IMPLIED
ewd:figtype CDATA #IMPLIED
ewd:code CDATA #IMPLIED
ewd:figID CDATA #IMPLIED
ewd:pinNo CDATA #IMPLIED
ewd:comment CDATA #IMPLIED >
<!ATTLIST text
ewd:textID CDATA #IMPLIED >
<!ATTLIST title
ewd:textID CDATA #IMPLIED >
]>
<svg 
viewBox='0 0 6236.63 729.44'
height='729.44'
width='6236.63'
xml:space="preserve"
xmlns="&ns_svg;"
xmlns:ewd="http://shcl.co.jp/ewd"
xmlns:xlink="&ns_xlink;" ewd:ver="L2.1">
<g ewd:code="GR1" ewd:figID="627" ewd:figtype="w2w" ewd:pinNo="38">
<path style="&st11;" d="M1979.44,481.48h-8.5"/>
<path style="&st11;" d="M1975.19,487.14l-4.25-4.25l-4.25,4.25"/>
<path style="&st11;" d="M1975.19,490.54l-4.25-4.25l-4.25,4.25"/>
<text transform="matrix(1 0 0 1 1952.7656 479.1958)" style="&st10;"><tspan x="0" y="0" style="&st31; &st19;">38</tspan></text>
</g>
<g ewd:code="GR1" ewd:figID="625" ewd:figtype="w2w" ewd:pinNo="39">
<path style="&st11;" d="M1945.45,481.48h-8.5"/>
<path style="&st11;" d="M1941.2,487.14l-4.25-4.25l-4.25,4.25"/>
<path style="&st11;" d="M1941.2,490.54l-4.25-4.25l-4.25,4.25"/>
<text transform="matrix(1 0 0 1 1918.7754 479.1958)" style="&st10;"><tspan x="0" y="0" style="&st31; &st19;">39</tspan></text>
</g>
<g ewd:code="GR1" ewd:figID="623" ewd:figtype="w2w" ewd:pinNo="40">
<path style="&st11;" d="M1911.45,481.48h-8.5"/>
<path style="&st11;" d="M1907.2,487.14l-4.25-4.25l-4.25,4.25"/>
<path style="&st11;" d="M1907.2,490.54l-4.25-4.25l-4.25,4.25"/>
<text transform="matrix(1 0 0 1 1884.7852 479.1958)" style="&st10;"><tspan x="0" y="0" style="&st31; &st19;">40</tspan></text>
</g>
<g ewd:code="tR1" ewd:figID="628" ewd:figtype="w2w" ewd:pinNo="2">
<path style="&st11;" d="M1962.44,532.47h8.5"/>
<path style="&st11;" d="M1975.19,526.8l-4.25,4.25l-4.25-4.25"/>
<path style="&st11;" d="M1966.69,523.4l4.25,4.25l4.25-4.25"/>
<text transform="matrix(1 0 0 1 1956.1025 538.686)" style="&st10;"><tspan x="0" y="0" style="&st31; &st19;">2</tspan></text>
</g>
<g ewd:code="tR1" ewd:figID="626" ewd:figtype="w2w" ewd:pinNo="5">
<path style="&st11;" d="M1928.45,532.47h8.5"/>
<path style="&st11;" d="M1941.2,526.8l-4.25,4.25l-4.25-4.25"/>
<path style="&st11;" d="M1932.7,523.4l4.25,4.25l4.25-4.25"/>
<text transform="matrix(1 0 0 1 1922.1123 538.686)" style="&st10;"><tspan x="0" y="0" style="&st31; &st19;">5</tspan></text>
</g>
<g ewd:code="tR1" ewd:figID="624" ewd:figtype="w2w" ewd:pinNo="4">
<path style="&st11;" d="M1894.46,532.47h8.49"/>
<path style="&st11;" d="M1907.2,526.8l-4.25,4.25l-4.25-4.25"/>
<path style="&st11;" d="M1898.7,523.4l4.25,4.25l4.25-4.25"/>
<text transform="matrix(1 0 0 1 1888.1221 538.686)" style="&st10;"><tspan x="0" y="0" style="&st31; &st19;">4</tspan></text>
</g>
<g ewd:code="tR1" ewd:figID="622" ewd:figtype="w2w" ewd:pinNo="3">
<path style="&st11;" d="M1860.46,532.47h8.5"/>
<path style="&st11;" d="M1873.21,526.8l-4.25,4.25l-4.25-4.25"/>
<path style="&st11;" d="M1864.71,523.4l4.25,4.25l4.25-4.25"/>
<text transform="matrix(1 0 0 1 1854.1221 538.686)" style="&st10;"><tspan x="0" y="0" style="&st31; &st19;">3</tspan></text>
</g>
<g ewd:code="tR1" ewd:figID="621" ewd:figtype="w2w" ewd:pinNo="1">
<path style="&st11;" d="M1826.47,532.47h8.5"/>
<path style="&st11;" d="M1839.21,526.8l-4.24,4.25l-4.25-4.25"/>
<path style="&st11;" d="M1830.72,523.4l4.25,4.25l4.24-4.25"/>
<text transform="matrix(1 0 0 1 1820.1328 538.686)" style="&st10;"><tspan x="0" y="0" style="&st31; &st19;">1</tspan></text>
</g>
<g ewd:code="R2" ewd:figID="206" ewd:figtype="gp">
<path style="&st17;" d="M1694.74,708.1h8.5"/>
<path style="&st17;" d="M1698.99,701.02v4.25"/>
<path style="&st17;" d="M1690.49,705.27h17"/>
<path style="&st17;" d="M1696.16,710.94h5.66"/>
<path style="&st17;" d="M1697.57,713.77h2.83"/>
</g>
<g ewd:code="R39" ewd:figID="44" ewd:figtype="conn">
<path style="&st11;" d="M1631,523.3h33.99v-34H1631V523.3"/>
<text transform="matrix(1 0 0 1 1645.6699 519.6001)" style="&st10;"><tspan x="0" y="0" style="&st31; &st19;">E</tspan></text>
<text transform="matrix(1 0 0 1 1641.209 531.4907)" style="&st10;"><tspan x="0" y="0" style="&st31; &st19;">2</tspan></text>
<text ewd:textID="69" transform="matrix(0 -1 1 0 1679.709 525.8208)" style="&st10; &st31; &st19;">Fuel Tank <tspan x="0" y="7">Sub-Assembly</tspan></text>
<text transform="matrix(0 -1 1 0 1672.6094 525.8208)" style="&st10;"><tspan x="0" y="0" style="&st31; &st19;">R39</tspan></text>
</g>
<g ewd:code="R30" ewd:figID="45" ewd:figtype="conn">
<path style="&st11;" d="M1690.49,591.29h17v16.99h-17V591.29"/>
<path style="&st17;" d="M1698.99,591.29v16.99"/>
<path style="&st11;" d="M1703.52,586.75c0-2.5-2.03-4.53-4.53-4.53"/>
<path style="&st11;" d="M1698.99,582.22c-2.5,0-4.53,2.03-4.53,4.53"/>
<path style="&st11;" d="M1694.46,586.75c0,2.51,2.03,4.54,4.53,4.54"/>
<path style="&st11;" d="M1698.99,591.29c2.5,0,4.53-2.03,4.53-4.54"/>
<path style="&st11;" d="M1703.52,612.82c0-2.51-2.03-4.54-4.53-4.54"/>
<path style="&st11;" d="M1698.99,608.28c-2.5,0-4.53,2.03-4.53,4.54"/>
<path style="&st11;" d="M1694.46,612.82c0,2.5,2.03,4.53,4.53,4.53"/>
<path style="&st11;" d="M1698.99,617.35c2.5,0,4.53-2.03,4.53-4.53"/>
<text transform="matrix(0 -1 1 0 1715.0996 610.811)" style="&st10;"><tspan x="0" y="0" style="&st31; &st19;">R30(B)</tspan></text>
<text ewd:textID="74" transform="matrix(0 -1 1 0 1722.209 610.811)" style="&st10; &st31; &st19;">Junction Connector</text>
<text transform="matrix(1 0 0 1 1696.6592 588.7212)" style="&st10;"><tspan x="0" y="0" style="&st31; &st19;">B</tspan></text>
<text transform="matrix(1 0 0 1 1684.9297 588.7212)" style="&st10;"><tspan x="0" y="0" style="&st31; &st19;">15</tspan></text>
<text transform="matrix(1 0 0 1 1696.6592 614.7915)" style="&st10;"><tspan x="0" y="0" style="&st31; &st19;">B</tspan></text>
<text transform="matrix(1 0 0 1 1684.9297 614.7915)" style="&st10;"><tspan x="0" y="0" style="&st31; &st19;">13</tspan></text>
</g>
<g ewd:code="R28" ewd:figID="47" ewd:figtype="conn">
<path style="&st11;" d="M1758.48,591.29h17v16.99h-17V591.29"/>
<path style="&st17;" d="M1766.98,591.29v16.99"/>
<text transform="matrix(1 0 0 1 1757.0098 587.6001)" style="&st10;"><tspan x="0" y="0" style="&st31; &st19;">14</tspan></text>
<text transform="matrix(1 0 0 1 1757.0098 616.481)" style="&st10;"><tspan x="0" y="0" style="&st31; &st19;">19</tspan></text>
<text transform="matrix(0 -1 1 0 1783.0898 610.811)" style="&st10;"><tspan x="0" y="0" style="&st31; &st19;">R28</tspan></text>
<text ewd:textID="74" transform="matrix(0 -1 1 0 1790.1895 610.811)" style="&st10; &st31; &st19;">Junction Connector</text>
</g>
<g ewd:code="R31" ewd:figID="46" ewd:figtype="conn">
<path style="&st17;" d="M1697.8,666.77l-0.28,0.47l-0.09,0.53l0.09,0.54l0.28,0.47l0.41,0.34l0.51,0.19h0.54l0.51-0.19l0.41-0.34l0.27-0.47l0.1-0.54l-0.1-0.53l-0.27-0.47l-0.41-0.34l-0.51-0.19h-0.54l-0.51,0.19L1697.8,666.77l0.39,0.71v0.59l0.37,0.44l0.58,0.1l0.5-0.29l0.2-0.55l-0.2-0.54l-0.5-0.29l-0.58,0.1l0.43,0.73"/>
<path style="&st17;" d="M1698.99,667.77h67.99v-8.49"/>
<path style="&st17;" d="M1698.99,659.28v25.49"/>
<path style="&st11;" d="M1690.49,659.28v16.99h84.99v-16.99H1690.49"/>
<text transform="matrix(1 0 0 1 1692.1895 655.5903)" style="&st10;"><tspan x="0" y="0" style="&st31; &st19;">2</tspan></text>
<text transform="matrix(0 -1 1 0 1783.0898 678.8013)" style="&st10;"><tspan x="0" y="0" style="&st31; &st19;">R31</tspan></text>
<text ewd:textID="74" transform="matrix(0 -1 1 0 1790.1895 678.8013)" style="&st10; &st31; &st19;">Junction <tspan x="0" y="7">Connector</tspan></text>
<text transform="matrix(1 0 0 1 1760.1797 655.5903)" style="&st10;"><tspan x="0" y="0" style="&st31; &st19;">5</tspan></text>
</g>
<g ewd:code="t1" ewd:figID="48" ewd:figtype="conn">
<path style="&st11;" d="M1817.97,582.79v42.49h169.97v-42.49H1817.97"/>
<text transform="matrix(1 0 0 1 1900.6191 590.4204)" style="&st10;"><tspan x="0" y="0" style="&st31; &st19;">S</tspan></text>
<text transform="matrix(1 0 0 1 1934.6191 590.4204)" style="&st10;"><tspan x="0" y="0" style="&st31; &st19;">E</tspan></text>
<text transform="matrix(1 0 0 1 1968.6094 590.4204)" style="&st10;"><tspan x="0" y="0" style="&st31; &st19;">E</tspan></text>
<text transform="matrix(1 0 0 1 1896.1699 579.1001)" style="&st10;"><tspan x="0" y="0" style="&st31; &st19;">4</tspan></text>
<text transform="matrix(1 0 0 1 1930.1592 579.1001)" style="&st10;"><tspan x="0" y="0" style="&st31; &st19;">5</tspan></text>
<text transform="matrix(1 0 0 1 1964.1494 579.1001)" style="&st10;"><tspan x="0" y="0" style="&st31; &st19;">2</tspan></text>
<text ewd:textID="68" transform="matrix(0 -1 1 0 2002.6592 627.811)" style="&st10; &st31; &st19;">Fuel Sender Gauge Assembly (Sub)</text>
<text transform="matrix(0 -1 1 0 1995.5498 627.811)" style="&st10;"><tspan x="0" y="0" style="&st31; &st19;">t1</tspan></text>
<text transform="matrix(1 0 0 1 1832.6299 590.4204)" style="&st10;"><tspan x="0" y="0" style="&st31; &st19;">E</tspan></text>
<text transform="matrix(1 0 0 1 1866.6299 590.4204)" style="&st10;"><tspan x="0" y="0" style="&st31; &st19;">E</tspan></text>
<text transform="matrix(1 0 0 1 1828.9492 579.1001)" style="&st10;"><tspan x="0" y="0" style="&st31; &st19;">1</tspan></text>
<text transform="matrix(1 0 0 1 1862.1699 579.1001)" style="&st10;"><tspan x="0" y="0" style="&st31; &st19;">3</tspan></text>
</g>
<text transform="matrix(1 0 0 1 1543.5391 18.8564)" style="&st10;"><tspan x="0" y="0" style="&st31; &st19;">R</tspan></text>
<text transform="matrix(1 0 0 1 1594.5293 18.8564)" style="&st10;"><tspan x="0" y="0" style="&st31; &st19;">R</tspan></text>
<text transform="matrix(0 -1 1 0 1508.3193 448.4575)" style="&st10;"><tspan x="0" y="0" style="&st31; &st19;">GR</tspan></text>
<text transform="matrix(0 -1 1 0 1508.3193 597.1763)" style="&st10;"><tspan x="0" y="0" style="&st31; &st19;">GR</tspan></text>
<text transform="matrix(0 -1 1 0 1899.2598 450.8364)" style="&st10;"><tspan x="0" y="0" style="&st31; &st19;">W</tspan></text>
<text transform="matrix(0 -1 1 0 1899.2598 510.3267)" style="&st10;"><tspan x="0" y="0" style="&st31; &st19;">W</tspan></text>
<text transform="matrix(0 -1 1 0 1899.2598 561.3169)" style="&st10;"><tspan x="0" y="0" style="&st31; &st19;">W</tspan></text>
<text transform="matrix(0 -1 1 0 1933.25 560.2856)" style="&st10;"><tspan x="0" y="0" style="&st31; &st19;">B</tspan></text>
<text transform="matrix(0 -1 1 0 1967.25 560.7173)" style="&st10;"><tspan x="0" y="0" style="&st31; &st19;">G</tspan></text>
<text transform="matrix(0 -1 1 0 1967.25 509.7271)" style="&st10;"><tspan x="0" y="0" style="&st31; &st19;">G</tspan></text>
<text transform="matrix(0 -1 1 0 1933.25 509.2974)" style="&st10;"><tspan x="0" y="0" style="&st31; &st19;">B</tspan></text>
<text transform="matrix(0 -1 1 0 1933.25 449.8071)" style="&st10;"><tspan x="0" y="0" style="&st31; &st19;">B</tspan></text>
<text transform="matrix(0 -1 1 0 1967.25 450.2368)" style="&st10;"><tspan x="0" y="0" style="&st31; &st19;">G</tspan></text>
<text transform="matrix(0 -1 1 0 1910.5898 455.2466)" style="&st10;"><tspan x="0" y="0" style="&st31; &st19;">(*15)</tspan></text>
<text transform="matrix(0 -1 1 0 1944.5898 455.2466)" style="&st10;"><tspan x="0" y="0" style="&st31; &st19;">(*15)</tspan></text>
<text transform="matrix(0 -1 1 0 1978.5801 455.2466)" style="&st10;"><tspan x="0" y="0" style="&st31; &st19;">(*15)</tspan></text>
<text transform="matrix(0 -1 1 0 1910.5898 514.7368)" style="&st10;"><tspan x="0" y="0" style="&st31; &st19;">(*15)</tspan></text>
<text transform="matrix(0 -1 1 0 1944.5898 514.7368)" style="&st10;"><tspan x="0" y="0" style="&st31; &st19;">(*15)</tspan></text>
<text transform="matrix(0 -1 1 0 1978.5801 514.7368)" style="&st10;"><tspan x="0" y="0" style="&st31; &st19;">(*15)</tspan></text>
<text transform="matrix(0 -1 1 0 1910.5898 565.7271)" style="&st10;"><tspan x="0" y="0" style="&st31; &st19;">(*15)</tspan></text>
<text transform="matrix(0 -1 1 0 1944.5898 565.7271)" style="&st10;"><tspan x="0" y="0" style="&st31; &st19;">(*15)</tspan></text>
<text transform="matrix(0 -1 1 0 1978.5801 565.7271)" style="&st10;"><tspan x="0" y="0" style="&st31; &st19;">(*15)</tspan></text>
<text transform="matrix(0 -1 1 0 1831.2695 514.6665)" style="&st10;"><tspan x="0" y="0" style="&st31; &st19;">W-B</tspan></text>
<text transform="matrix(0 -1 1 0 1831.2695 565.6567)" style="&st10;"><tspan x="0" y="0" style="&st31; &st19;">W-B</tspan></text>
<text transform="matrix(0 -1 1 0 1865.2695 565.6567)" style="&st10;"><tspan x="0" y="0" style="&st31; &st19;">W-B</tspan></text>
<text transform="matrix(0 -1 1 0 1865.2695 514.6665)" style="&st10;"><tspan x="0" y="0" style="&st31; &st19;">W-B</tspan></text>
<text transform="matrix(0 -1 1 0 1842.5996 514.7368)" style="&st10;"><tspan x="0" y="0" style="&st31; &st19;">(*15)</tspan></text>
<text transform="matrix(0 -1 1 0 1876.5996 514.7368)" style="&st10;"><tspan x="0" y="0" style="&st31; &st19;">(*15)</tspan></text>
<text transform="matrix(0 -1 1 0 1842.5996 565.7271)" style="&st10;"><tspan x="0" y="0" style="&st31; &st19;">(*15)</tspan></text>
<text transform="matrix(0 -1 1 0 1876.5996 565.7271)" style="&st10;"><tspan x="0" y="0" style="&st31; &st19;">(*15)</tspan></text>
<text transform="matrix(0 -1 1 0 1695.2891 642.147)" style="&st10;"><tspan x="0" y="0" style="&st31; &st19;">W-B</tspan></text>
<text transform="matrix(0 -1 1 0 1763.2793 642.147)" style="&st10;"><tspan x="0" y="0" style="&st31; &st19;">W-B</tspan></text>
<text transform="matrix(0 -1 1 0 1706.6299 642.2173)" style="&st10;"><tspan x="0" y="0" style="&st31; &st19;">(*18)</tspan></text>
<text transform="matrix(0 -1 1 0 1774.6094 642.2173)" style="&st10;"><tspan x="0" y="0" style="&st31; &st19;">(*15)</tspan></text>
<text transform="matrix(0 -1 1 0 1655.6299 552.9868)" style="&st10;"><tspan x="0" y="0" style="&st31; &st19;">(*17)</tspan></text>
<text transform="matrix(0 -1 1 0 1644.2998 552.9067)" style="&st10;"><tspan x="0" y="0" style="&st31; &st19;">W-B</tspan></text>
<text ewd:textID="23" transform="matrix(1 0 0 1 1628.4795 58.5166)" style="&st10; &st31; &st19;">*28 :From Oct. 2011 Production</text>
<text ewd:textID="22" transform="matrix(1 0 0 1 1628.4795 50.0166)" style="&st10; &st31; &st19;">*27 :Before Oct. 2011 Production</text>
<text transform="matrix(1 0 0 1 1517.9893 470.4067)" style="&st10;"><tspan x="0" y="0" style="&st31; &st19;">(*22)</tspan></text>
<text transform="matrix(1 0 0 1 1517.9893 461.3462)" style="&st10;"><tspan x="0" y="0" style="&st31; &st19;">(*21)</tspan></text>
<text transform="matrix(1 0 0 1 1517.9893 505.5356)" style="&st10;"><tspan x="0" y="0" style="&st31; &st19;">(*22)</tspan></text>
<text transform="matrix(1 0 0 1 1517.9893 496.4771)" style="&st10;"><tspan x="0" y="0" style="&st31; &st19;">(*21)</tspan></text>
</svg>
