﻿<?xml version="1.0" encoding="UTF-8"?>
<!DOCTYPE svg PUBLIC "-//W3C//DTD SVG 1.0//EN" "http://www.w3.org/TR/2001/REC-SVG-20010904/DTD/svg10.dtd"[
<!ENTITY ns_flows "http://ns.adobe.com/Flows/1.0/">
<!ENTITY ns_svg "http://www.w3.org/2000/svg">
<!ENTITY ns_xlink "http://www.w3.org/1999/xlink">
	<!ENTITY st0 "fill:none;stroke:#F8E616;stroke-width:5.1;stroke-linejoin:round;">
	<!ENTITY st1 "fill:none;stroke:#FB0F0C;stroke-width:5.1;stroke-linejoin:round;">
	<!ENTITY st2 "fill:none;stroke:#9A9999;stroke-width:5.1;stroke-linejoin:round;">
	<!ENTITY st3 "fill:none;stroke:#99280B;stroke-width:5.1;stroke-linejoin:round;">
		<!ENTITY st4 "fill:none;stroke:#000000;stroke-width:0.85;stroke-linecap:round;stroke-linejoin:round;stroke-dasharray:3 1.5;enable-background:new    ;">
	<!ENTITY st5 "fill:none;stroke:#000000;stroke-width:5.1;stroke-linejoin:round;">
	<!ENTITY st6 "fill:none;stroke:#199DBF;stroke-width:1.13;stroke-linejoin:round;">
	<!ENTITY st7 "fill:none;stroke:#000000;stroke-linecap:round;stroke-linejoin:round;">
	<!ENTITY st8 "stroke:#000000;stroke-width:0.28;stroke-linecap:round;stroke-linejoin:round;enable-background:new    ;">
	<!ENTITY st9 "enable-background:new    ;">
		<!ENTITY st10 "fill:none;stroke:#000000;stroke-width:1.42;stroke-linecap:round;stroke-linejoin:round;enable-background:new    ;">
	<!ENTITY st11 "fill:none;stroke:#EE67AA;stroke-width:5.1;stroke-linejoin:round;">
	<!ENTITY st12 "fill:none;stroke:#199DBF;stroke-width:5.1;stroke-linejoin:round;">
	<!ENTITY st13 "opacity:0.5;fill:none;stroke:#34ACCE;stroke-linejoin:round;stroke-dasharray:6;">
	<!ENTITY st14 "fill:none;stroke:#FFFFFF;stroke-width:4.53;stroke-linejoin:round;">
		<!ENTITY st15 "fill:none;stroke:#000000;stroke-width:0.85;stroke-linecap:round;stroke-linejoin:round;enable-background:new    ;">
	<!ENTITY st16 "fill:none;stroke:#56107C;stroke-width:5.1;stroke-linejoin:round;">
	<!ENTITY st17 "font-size:6px;">
	<!ENTITY st18 "fill:none;stroke:#FFFFFF;stroke-width:2.27;stroke-linejoin:round;">
	<!ENTITY st19 "fill:none;stroke:#FB0F0C;stroke-width:1.13;stroke-linejoin:round;">
	<!ENTITY st20 "fill:none;stroke:#168638;stroke-width:5.1;stroke-linejoin:round;">
	<!ENTITY st21 "fill:none;stroke:#000000;stroke-width:1.13;stroke-linejoin:round;">
		<!ENTITY st22 "fill:none;stroke:#000000;stroke-width:1.13;stroke-linecap:round;stroke-linejoin:round;stroke-dasharray:3 1.5;enable-background:new    ;">
	<!ENTITY st23 "fill:#FFFFFF;stroke:#000000;stroke-width:1.41;stroke-linecap:round;stroke-linejoin:round;">
	<!ENTITY st24 "fill:none;stroke:#3E65AC;stroke-width:3;">
	<!ENTITY st25 "fill:#CCCCCC;stroke:#CCCCCC;stroke-width:0.1;stroke-linecap:round;stroke-linejoin:round;">
	<!ENTITY st26 "fill:none;stroke:#000000;stroke-width:5.1;stroke-linejoin:round;enable-background:new    ;">
	<!ENTITY st27 "font-family:'Arial';">
	<!ENTITY st28 "opacity:0.5;fill:none;stroke:#34ACCE;stroke-linejoin:round;">
	<!ENTITY st29 "fill:#CFE6E7;stroke:#000000;stroke-width:1.133;stroke-linecap:round;stroke-linejoin:round;">
	<!ENTITY st30 "fill:none;stroke:#99D5E0;stroke-width:5.1;stroke-linejoin:round;">
	<!ENTITY st31 "fill:none;stroke:#FFFFFF;stroke-width:1.13;stroke-linejoin:round;enable-background:new    ;">
	<!ENTITY st32 "fill:none;stroke:#7EC57E;stroke-width:5.1;stroke-linejoin:round;">
<!ATTLIST svg
xmlns:ewd CDATA #FIXED "http://shcl.co.jp/ewd"
xmlns:a CDATA #FIXED "http://ns.adobe.com/AdobeSVGViewerExtensions/3.0/"
ewd:ver CDATA #IMPLIED
>
<!ATTLIST a
ewd:lineID CDATA #IMPLIED
ewd:groupID CDATA #IMPLIED
ewd:figtype CDATA #IMPLIED
ewd:code CDATA #IMPLIED
ewd:figID CDATA #IMPLIED
ewd:pinNo CDATA #IMPLIED
ewd:comment CDATA #IMPLIED >
<!ATTLIST g
ewd:lineID CDATA #IMPLIED
ewd:groupID CDATA #IMPLIED
ewd:figtype CDATA #IMPLIED
ewd:code CDATA #IMPLIED
ewd:figID CDATA #IMPLIED
ewd:pinNo CDATA #IMPLIED
ewd:comment CDATA #IMPLIED >
<!ATTLIST text
ewd:textID CDATA #IMPLIED >
<!ATTLIST title
ewd:textID CDATA #IMPLIED >
]>
<svg 
viewBox='0 0 6223.92 729.44'
height='729.44'
width='6223.92'
xml:space="preserve"
xmlns="&ns_svg;"
xmlns:ewd="http://shcl.co.jp/ewd"
xmlns:xlink="&ns_xlink;" ewd:ver="L2.1">
<g ewd:code="GR1" ewd:figID="6033" ewd:figtype="w2w" ewd:pinNo="38">
<path style="&st10;" d="M1971.73,481.48h-8.5"/>
<path style="&st10;" d="M1967.48,487.14l-4.25-4.25l-4.25,4.25"/>
<path style="&st10;" d="M1967.48,490.54l-4.25-4.25l-4.25,4.25"/>
<text transform="matrix(1 0 0 1 1945.0547 479.1958)" style="&st9;"><tspan x="0" y="0" style="&st27; &st17;">38</tspan></text>
</g>
<g ewd:code="GR1" ewd:figID="6031" ewd:figtype="w2w" ewd:pinNo="39">
<path style="&st10;" d="M1937.74,481.48h-8.5"/>
<path style="&st10;" d="M1933.49,487.14l-4.25-4.25l-4.25,4.25"/>
<path style="&st10;" d="M1933.49,490.54l-4.25-4.25l-4.25,4.25"/>
<text transform="matrix(1 0 0 1 1911.0645 479.1958)" style="&st9;"><tspan x="0" y="0" style="&st27; &st17;">39</tspan></text>
</g>
<g ewd:code="GR1" ewd:figID="6029" ewd:figtype="w2w" ewd:pinNo="40">
<path style="&st10;" d="M1903.74,481.48h-8.5"/>
<path style="&st10;" d="M1899.49,487.14l-4.25-4.25l-4.25,4.25"/>
<path style="&st10;" d="M1899.49,490.54l-4.25-4.25l-4.25,4.25"/>
<text transform="matrix(1 0 0 1 1877.0742 479.1958)" style="&st9;"><tspan x="0" y="0" style="&st27; &st17;">40</tspan></text>
</g>
<g ewd:code="tR1" ewd:figID="6034" ewd:figtype="w2w" ewd:pinNo="2">
<path style="&st10;" d="M1954.73,532.47h8.5"/>
<path style="&st10;" d="M1967.48,526.8l-4.25,4.25l-4.25-4.25"/>
<path style="&st10;" d="M1958.98,523.4l4.25,4.25l4.25-4.25"/>
<text transform="matrix(1 0 0 1 1948.3916 538.686)" style="&st9;"><tspan x="0" y="0" style="&st27; &st17;">2</tspan></text>
</g>
<g ewd:code="tR1" ewd:figID="6032" ewd:figtype="w2w" ewd:pinNo="5">
<path style="&st10;" d="M1920.74,532.47h8.5"/>
<path style="&st10;" d="M1933.49,526.8l-4.25,4.25l-4.25-4.25"/>
<path style="&st10;" d="M1924.99,523.4l4.25,4.25l4.25-4.25"/>
<text transform="matrix(1 0 0 1 1914.4014 538.686)" style="&st9;"><tspan x="0" y="0" style="&st27; &st17;">5</tspan></text>
</g>
<g ewd:code="tR1" ewd:figID="6030" ewd:figtype="w2w" ewd:pinNo="4">
<path style="&st10;" d="M1886.75,532.47h8.49"/>
<path style="&st10;" d="M1899.49,526.8l-4.25,4.25l-4.25-4.25"/>
<path style="&st10;" d="M1890.99,523.4l4.25,4.25l4.25-4.25"/>
<text transform="matrix(1 0 0 1 1880.4111 538.686)" style="&st9;"><tspan x="0" y="0" style="&st27; &st17;">4</tspan></text>
</g>
<g ewd:code="tR1" ewd:figID="6028" ewd:figtype="w2w" ewd:pinNo="3">
<path style="&st10;" d="M1852.75,532.47h8.5"/>
<path style="&st10;" d="M1865.5,526.8l-4.25,4.25l-4.25-4.25"/>
<path style="&st10;" d="M1857,523.4l4.25,4.25l4.25-4.25"/>
<text transform="matrix(1 0 0 1 1846.4111 538.686)" style="&st9;"><tspan x="0" y="0" style="&st27; &st17;">3</tspan></text>
</g>
<g ewd:code="tR1" ewd:figID="6027" ewd:figtype="w2w" ewd:pinNo="1">
<path style="&st10;" d="M1818.76,532.47h8.5"/>
<path style="&st10;" d="M1831.5,526.8l-4.24,4.25l-4.25-4.25"/>
<path style="&st10;" d="M1823.01,523.4l4.25,4.25l4.24-4.25"/>
<text transform="matrix(1 0 0 1 1812.4229 538.686)" style="&st9;"><tspan x="0" y="0" style="&st27; &st17;">1</tspan></text>
</g>
<g ewd:code="R2" ewd:figID="2005" ewd:figtype="gp">
<path style="&st15;" d="M1687.03,708.1h8.5"/>
<path style="&st15;" d="M1691.28,701.02v4.25"/>
<path style="&st15;" d="M1682.78,705.27h17"/>
<path style="&st15;" d="M1688.45,710.94h5.66"/>
<path style="&st15;" d="M1689.86,713.77h2.83"/>
</g>
<g ewd:code="R30" ewd:figID="42" ewd:figtype="conn">
<path style="&st10;" d="M1682.78,591.96h17v16.99h-17V591.96"/>
<path style="&st15;" d="M1691.28,591.96v16.99"/>
<path style="&st10;" d="M1695.81,587.42c0-2.5-2.03-4.53-4.53-4.53"/>
<path style="&st10;" d="M1691.28,582.89c-2.5,0-4.53,2.03-4.53,4.53"/>
<path style="&st10;" d="M1686.75,587.42c0,2.51,2.03,4.54,4.53,4.54"/>
<path style="&st10;" d="M1691.28,591.96c2.5,0,4.53-2.03,4.53-4.54"/>
<path style="&st10;" d="M1695.81,613.49c0-2.51-2.03-4.54-4.53-4.54"/>
<path style="&st10;" d="M1691.28,608.95c-2.5,0-4.53,2.03-4.53,4.54"/>
<path style="&st10;" d="M1686.75,613.49c0,2.5,2.03,4.53,4.53,4.53"/>
<path style="&st10;" d="M1691.28,618.02c2.5,0,4.53-2.03,4.53-4.53"/>
<text transform="matrix(0 -1 1 0 1707.3887 611.4771)" style="&st9;"><tspan x="0" y="0" style="&st27; &st17;">R30(B)</tspan></text>
<text ewd:textID='68' transform='matrix(0 -1 1 0 1714.498 611.4771)' style='&st9; &st27; &st17;'>Junction Connector</text>
<text transform="matrix(1 0 0 1 1688.9492 589.3872)" style="&st9;"><tspan x="0" y="0" style="&st27; &st17;">B</tspan></text>
<text transform="matrix(1 0 0 1 1677.2188 589.3872)" style="&st9;"><tspan x="0" y="0" style="&st27; &st17;">15</tspan></text>
<text transform="matrix(1 0 0 1 1688.9492 615.4575)" style="&st9;"><tspan x="0" y="0" style="&st27; &st17;">B</tspan></text>
<text transform="matrix(1 0 0 1 1677.2188 615.4575)" style="&st9;"><tspan x="0" y="0" style="&st27; &st17;">13</tspan></text>
</g>
<g ewd:code="R28" ewd:figID="44" ewd:figtype="conn">
<path style="&st10;" d="M1750.77,591.96h17v16.99h-17V591.96"/>
<path style="&st15;" d="M1759.27,591.96v16.99"/>
<text transform="matrix(1 0 0 1 1749.2988 588.2661)" style="&st9;"><tspan x="0" y="0" style="&st27; &st17;">14</tspan></text>
<text transform="matrix(1 0 0 1 1749.2988 617.147)" style="&st9;"><tspan x="0" y="0" style="&st27; &st17;">19</tspan></text>
<text transform="matrix(0 -1 1 0 1775.3789 611.4771)" style="&st9;"><tspan x="0" y="0" style="&st27; &st17;">R28</tspan></text>
<text ewd:textID='68' transform='matrix(0 -1 1 0 1782.4785 611.4771)' style='&st9; &st27; &st17;'>Junction Connector</text>
</g>
<g ewd:code="R31" ewd:figID="43" ewd:figtype="conn">
<path style="&st15;" d="M1690.09,668.44l-0.28,0.47l-0.09,0.53l0.09,0.54l0.28,0.47l0.41,0.34l0.51,0.19h0.54l0.51-0.19l0.41-0.34l0.27-0.47l0.1-0.54l-0.1-0.53l-0.27-0.47l-0.41-0.34l-0.51-0.19h-0.54l-0.51,0.19L1690.09,668.44l0.39,0.71v0.59l0.37,0.44l0.58,0.1l0.5-0.29l0.2-0.55l-0.2-0.54l-0.5-0.29l-0.58,0.1l0.43,0.73"/>
<path style="&st15;" d="M1691.28,669.44h67.99v-8.49"/>
<path style="&st15;" d="M1691.28,660.95v25.49"/>
<path style="&st10;" d="M1682.78,660.95v16.99h84.99v-16.99H1682.78"/>
<text transform="matrix(1 0 0 1 1684.4785 657.2563)" style="&st9;"><tspan x="0" y="0" style="&st27; &st17;">2</tspan></text>
<text transform="matrix(0 -1 1 0 1775.3789 680.4673)" style="&st9;"><tspan x="0" y="0" style="&st27; &st17;">R31</tspan></text>
<text ewd:textID='68' transform='matrix(0 -1 1 0 1782.4785 680.4673)' style='&st9; &st27; &st17;'>Junction <tspan x='0' y='7' >Connector</tspan></text>
<text transform="matrix(1 0 0 1 1752.4688 657.2563)" style="&st9;"><tspan x="0" y="0" style="&st27; &st17;">5</tspan></text>
</g>
<g ewd:code="t1" ewd:figID="45" ewd:figtype="conn">
<path style="&st10;" d="M1810.26,583.46v42.49h169.97v-42.49H1810.26"/>
<text transform="matrix(1 0 0 1 1892.9082 591.0864)" style="&st9;"><tspan x="0" y="0" style="&st27; &st17;">S</tspan></text>
<text transform="matrix(1 0 0 1 1926.9082 591.0864)" style="&st9;"><tspan x="0" y="0" style="&st27; &st17;">E</tspan></text>
<text transform="matrix(1 0 0 1 1960.8984 591.0864)" style="&st9;"><tspan x="0" y="0" style="&st27; &st17;">E</tspan></text>
<text transform="matrix(1 0 0 1 1888.459 579.7661)" style="&st9;"><tspan x="0" y="0" style="&st27; &st17;">4</tspan></text>
<text transform="matrix(1 0 0 1 1922.4492 579.7661)" style="&st9;"><tspan x="0" y="0" style="&st27; &st17;">5</tspan></text>
<text transform="matrix(1 0 0 1 1956.4395 579.7661)" style="&st9;"><tspan x="0" y="0" style="&st27; &st17;">2</tspan></text>
<text ewd:textID='64' transform='matrix(0 -1 1 0 1994.9492 628.4771)' style='&st9; &st27; &st17;'>Fuel Sender Gauge Assembly (Sub)</text>
<text transform="matrix(0 -1 1 0 1987.8398 628.4771)" style="&st9;"><tspan x="0" y="0" style="&st27; &st17;">t1</tspan></text>
<text transform="matrix(1 0 0 1 1824.9199 591.0864)" style="&st9;"><tspan x="0" y="0" style="&st27; &st17;">E</tspan></text>
<text transform="matrix(1 0 0 1 1858.9199 591.0864)" style="&st9;"><tspan x="0" y="0" style="&st27; &st17;">E</tspan></text>
<text transform="matrix(1 0 0 1 1821.2383 579.7661)" style="&st9;"><tspan x="0" y="0" style="&st27; &st17;">1</tspan></text>
<text transform="matrix(1 0 0 1 1854.459 579.7661)" style="&st9;"><tspan x="0" y="0" style="&st27; &st17;">3</tspan></text>
</g>
<text transform="matrix(1 0 0 1 1535.8281 18.8564)" style="&st9;"><tspan x="0" y="0" style="&st27; &st17;">R</tspan></text>
<text transform="matrix(1 0 0 1 1579.7305 18.8564)" style="&st9;"><tspan x="0" y="0" style="&st27; &st17;">R</tspan></text>
<text transform="matrix(0 -1 1 0 1500.6094 539.438)" style="&st9;"><tspan x="0" y="0" style="&st27; &st17;">GR</tspan></text>
<text transform="matrix(0 -1 1 0 1891.5488 450.8364)" style="&st9;"><tspan x="0" y="0" style="&st27; &st17;">W</tspan></text>
<text transform="matrix(0 -1 1 0 1891.5488 510.3267)" style="&st9;"><tspan x="0" y="0" style="&st27; &st17;">W</tspan></text>
<text transform="matrix(0 -1 1 0 1891.5488 561.3169)" style="&st9;"><tspan x="0" y="0" style="&st27; &st17;">W</tspan></text>
<text transform="matrix(0 -1 1 0 1925.5391 560.2856)" style="&st9;"><tspan x="0" y="0" style="&st27; &st17;">B</tspan></text>
<text transform="matrix(0 -1 1 0 1959.5391 560.7173)" style="&st9;"><tspan x="0" y="0" style="&st27; &st17;">G</tspan></text>
<text transform="matrix(0 -1 1 0 1959.5391 509.7271)" style="&st9;"><tspan x="0" y="0" style="&st27; &st17;">G</tspan></text>
<text transform="matrix(0 -1 1 0 1925.5391 509.2974)" style="&st9;"><tspan x="0" y="0" style="&st27; &st17;">B</tspan></text>
<text transform="matrix(0 -1 1 0 1925.5391 449.8071)" style="&st9;"><tspan x="0" y="0" style="&st27; &st17;">B</tspan></text>
<text transform="matrix(0 -1 1 0 1959.5391 450.2368)" style="&st9;"><tspan x="0" y="0" style="&st27; &st17;">G</tspan></text>
<text transform="matrix(0 -1 1 0 1902.8789 455.2466)" style="&st9;"><tspan x="0" y="0" style="&st27; &st17;">(*15)</tspan></text>
<text transform="matrix(0 -1 1 0 1936.8789 455.2466)" style="&st9;"><tspan x="0" y="0" style="&st27; &st17;">(*15)</tspan></text>
<text transform="matrix(0 -1 1 0 1970.8691 455.2466)" style="&st9;"><tspan x="0" y="0" style="&st27; &st17;">(*15)</tspan></text>
<text transform="matrix(0 -1 1 0 1902.8789 514.7368)" style="&st9;"><tspan x="0" y="0" style="&st27; &st17;">(*15)</tspan></text>
<text transform="matrix(0 -1 1 0 1936.8789 514.7368)" style="&st9;"><tspan x="0" y="0" style="&st27; &st17;">(*15)</tspan></text>
<text transform="matrix(0 -1 1 0 1970.8691 514.7368)" style="&st9;"><tspan x="0" y="0" style="&st27; &st17;">(*15)</tspan></text>
<text transform="matrix(0 -1 1 0 1902.8789 565.7271)" style="&st9;"><tspan x="0" y="0" style="&st27; &st17;">(*15)</tspan></text>
<text transform="matrix(0 -1 1 0 1936.8789 565.7271)" style="&st9;"><tspan x="0" y="0" style="&st27; &st17;">(*15)</tspan></text>
<text transform="matrix(0 -1 1 0 1970.8691 565.7271)" style="&st9;"><tspan x="0" y="0" style="&st27; &st17;">(*15)</tspan></text>
<text transform="matrix(0 -1 1 0 1823.5586 514.6665)" style="&st9;"><tspan x="0" y="0" style="&st27; &st17;">W-B</tspan></text>
<text transform="matrix(0 -1 1 0 1823.5586 565.6567)" style="&st9;"><tspan x="0" y="0" style="&st27; &st17;">W-B</tspan></text>
<text transform="matrix(0 -1 1 0 1857.5586 565.6567)" style="&st9;"><tspan x="0" y="0" style="&st27; &st17;">W-B</tspan></text>
<text transform="matrix(0 -1 1 0 1857.5586 514.6665)" style="&st9;"><tspan x="0" y="0" style="&st27; &st17;">W-B</tspan></text>
<text transform="matrix(0 -1 1 0 1834.8887 514.7368)" style="&st9;"><tspan x="0" y="0" style="&st27; &st17;">(*15)</tspan></text>
<text transform="matrix(0 -1 1 0 1868.8887 514.7368)" style="&st9;"><tspan x="0" y="0" style="&st27; &st17;">(*15)</tspan></text>
<text transform="matrix(0 -1 1 0 1834.8887 565.7271)" style="&st9;"><tspan x="0" y="0" style="&st27; &st17;">(*15)</tspan></text>
<text transform="matrix(0 -1 1 0 1868.8887 565.7271)" style="&st9;"><tspan x="0" y="0" style="&st27; &st17;">(*15)</tspan></text>
<text transform="matrix(0 -1 1 0 1687.5781 641.8198)" style="&st9;"><tspan x="0" y="0" style="&st27; &st17;">W-B</tspan></text>
<text transform="matrix(0 -1 1 0 1755.5684 641.8198)" style="&st9;"><tspan x="0" y="0" style="&st27; &st17;">W-B</tspan></text>
<text transform="matrix(0 -1 1 0 1698.9199 642.5444)" style="&st9;"><tspan x="0" y="0" style="&st27; &st17;">(*15)</tspan></text>
<text transform="matrix(0 -1 1 0 1766.8984 642.5444)" style="&st9;"><tspan x="0" y="0" style="&st27; &st17;">(*15)</tspan></text>
</svg>
