﻿<?xml version="1.0" encoding="UTF-8"?>
<!DOCTYPE svg PUBLIC "-//W3C//DTD SVG 1.0//EN" "http://www.w3.org/TR/2001/REC-SVG-20010904/DTD/svg10.dtd"[
<!ENTITY ns_flows "http://ns.adobe.com/Flows/1.0/">
<!ENTITY ns_svg "http://www.w3.org/2000/svg">
<!ENTITY ns_xlink "http://www.w3.org/1999/xlink">
	<!ENTITY st0 "fill:none;stroke:#F8E616;stroke-width:5.1;stroke-linejoin:round;">
	<!ENTITY st1 "fill:none;stroke:#FB0F0C;stroke-width:5.1;stroke-linejoin:round;">
	<!ENTITY st2 "fill:none;stroke:#9A9999;stroke-width:5.1;stroke-linejoin:round;">
		<!ENTITY st3 "fill:none;stroke:#000000;stroke-width:0.85;stroke-linecap:round;stroke-linejoin:round;stroke-dasharray:3 1.5;enable-background:new    ;">
	<!ENTITY st4 "fill:none;stroke:#000000;stroke-width:5.1;stroke-linejoin:round;">
	<!ENTITY st5 "fill:none;stroke:#000000;stroke-linecap:round;stroke-linejoin:round;">
	<!ENTITY st6 "stroke:#000000;stroke-width:0.28;stroke-linecap:round;stroke-linejoin:round;enable-background:new    ;">
	<!ENTITY st7 "enable-background:new    ;">
		<!ENTITY st8 "fill:none;stroke:#000000;stroke-width:1.42;stroke-linecap:round;stroke-linejoin:round;enable-background:new    ;">
	<!ENTITY st9 "fill:none;stroke:#EE67AA;stroke-width:5.1;stroke-linejoin:round;">
	<!ENTITY st10 "fill:none;stroke:#199DBF;stroke-width:5.1;stroke-linejoin:round;">
	<!ENTITY st11 "opacity:0.5;fill:none;stroke:#34ACCE;stroke-linejoin:round;stroke-dasharray:6;">
	<!ENTITY st12 "fill:none;stroke:#FFFFFF;stroke-width:4.53;stroke-linejoin:round;">
		<!ENTITY st13 "fill:none;stroke:#000000;stroke-width:0.85;stroke-linecap:round;stroke-linejoin:round;enable-background:new    ;">
	<!ENTITY st14 "fill:none;stroke:#56107C;stroke-width:5.1;stroke-linejoin:round;">
	<!ENTITY st15 "font-size:6px;">
	<!ENTITY st16 "fill:none;stroke:#FFFFFF;stroke-width:2.27;stroke-linejoin:round;">
	<!ENTITY st17 "fill:none;stroke:#FB0F0C;stroke-width:1.13;stroke-linejoin:round;">
	<!ENTITY st18 "fill:none;stroke:#168638;stroke-width:5.1;stroke-linejoin:round;">
	<!ENTITY st19 "fill:none;stroke:#000000;stroke-width:1.13;stroke-linejoin:round;">
		<!ENTITY st20 "fill:none;stroke:#000000;stroke-width:1.13;stroke-linecap:round;stroke-linejoin:round;stroke-dasharray:3 1.5;enable-background:new    ;">
	<!ENTITY st21 "fill:#FFFFFF;stroke:#000000;stroke-width:1.41;stroke-linecap:round;stroke-linejoin:round;">
	<!ENTITY st22 "fill:none;stroke:#3E65AC;stroke-width:3;">
	<!ENTITY st23 "fill:#CCCCCC;stroke:#CCCCCC;stroke-width:0.1;stroke-linecap:round;stroke-linejoin:round;">
	<!ENTITY st24 "fill:none;stroke:#000000;stroke-width:1.42;stroke-linejoin:round;">
	<!ENTITY st25 "font-family:'Arial';">
	<!ENTITY st26 "opacity:0.5;fill:none;stroke:#34ACCE;stroke-linejoin:round;">
	<!ENTITY st27 "fill:none;stroke:#000000;stroke-width:1.42;stroke-linecap:round;stroke-linejoin:round;">
	<!ENTITY st28 "fill:#CFE6E7;stroke:#000000;stroke-width:1.133;stroke-linecap:round;stroke-linejoin:round;">
	<!ENTITY st29 "fill:none;stroke:#99D5E0;stroke-width:5.1;stroke-linejoin:round;">
	<!ENTITY st30 "fill:#CFE6E7;stroke:#000000;stroke-width:1.13;stroke-linejoin:round;">
	<!ENTITY st31 "fill:none;stroke:#000000;stroke-width:0.85;stroke-linecap:round;stroke-linejoin:round;">
	<!ENTITY st32 "fill:none;stroke:#7EC57E;stroke-width:5.1;stroke-linejoin:round;">
<!ATTLIST svg
xmlns:ewd CDATA #FIXED "http://shcl.co.jp/ewd"
xmlns:a CDATA #FIXED "http://ns.adobe.com/AdobeSVGViewerExtensions/3.0/"
ewd:ver CDATA #IMPLIED
>
<!ATTLIST a
ewd:lineID CDATA #IMPLIED
ewd:groupID CDATA #IMPLIED
ewd:figtype CDATA #IMPLIED
ewd:code CDATA #IMPLIED
ewd:figID CDATA #IMPLIED
ewd:pinNo CDATA #IMPLIED
ewd:comment CDATA #IMPLIED >
<!ATTLIST g
ewd:lineID CDATA #IMPLIED
ewd:groupID CDATA #IMPLIED
ewd:figtype CDATA #IMPLIED
ewd:code CDATA #IMPLIED
ewd:figID CDATA #IMPLIED
ewd:pinNo CDATA #IMPLIED
ewd:comment CDATA #IMPLIED >
<!ATTLIST text
ewd:textID CDATA #IMPLIED >
<!ATTLIST title
ewd:textID CDATA #IMPLIED >
]>
<svg 
viewBox='0 0 6223.92 729.44'
height='729.44'
width='6223.92'
xml:space="preserve"
xmlns="&ns_svg;"
xmlns:ewd="http://shcl.co.jp/ewd"
xmlns:xlink="&ns_xlink;" ewd:ver="L2.1">
<g ewd:code="GA6" ewd:figID="643" ewd:figtype="w2w" ewd:pinNo="41">
<path style="&st8;" d="M6187.41,286.01h-8.5"/>
<path style="&st8;" d="M6183.16,291.67l-4.25-4.25l-4.25,4.25"/>
<path style="&st8;" d="M6183.16,295.07l-4.25-4.25l-4.25,4.25"/>
<text transform="matrix(1 0 0 1 6160.7397 283.7266)" style="&st7;"><tspan x="0" y="0" style="&st25; &st15;">41</tspan></text>
</g>
<g ewd:code="GA2" ewd:figID="642" ewd:figtype="w2w" ewd:pinNo="30">
<text transform="matrix(1 0 0 1 6160.7397 275.2266)" style="&st7;"><tspan x="0" y="0" style="&st25; &st15;">30</tspan></text>
</g>
<g ewd:code="GA2" ewd:figID="640" ewd:figtype="w2w" ewd:pinNo="29">
<text transform="matrix(1 0 0 1 6101.2505 275.2266)" style="&st7;"><tspan x="0" y="0" style="&st25; &st15;">29</tspan></text>
</g>
<g ewd:code="GA6" ewd:figID="641" ewd:figtype="w2w" ewd:pinNo="40">
<path style="&st8;" d="M6127.92,286.01h-8.5"/>
<path style="&st8;" d="M6123.66,291.67l-4.24-4.25l-4.25,4.25"/>
<path style="&st8;" d="M6123.66,295.07l-4.24-4.25l-4.25,4.25"/>
<text transform="matrix(1 0 0 1 6101.2505 283.7266)" style="&st7;"><tspan x="0" y="0" style="&st25; &st15;">40</tspan></text>
</g>
<g ewd:code="A72,A73" ewd:figID="24" ewd:figtype="conn">
<path style="&st13;" d="M6119.42,362.5v25.49"/>
<path style="&st13;" d="M6178.91,362.5v25.49"/>
<path style="&st8;" d="M6110.92,362.5v25.49h76.49V362.5H6110.92"/>
<path style="&st8;" d="M6183.44,357.96c0-2.5-2.02-4.53-4.53-4.53"/>
<path style="&st8;" d="M6178.91,353.43c-2.5,0-4.53,2.03-4.53,4.53"/>
<path style="&st8;" d="M6174.38,357.96c0,2.51,2.03,4.54,4.53,4.54"/>
<path style="&st8;" d="M6178.91,362.5c2.51,0,4.53-2.03,4.53-4.54"/>
<path style="&st8;" d="M6183.44,348.9c0-2.51-2.02-4.53-4.53-4.53"/>
<path style="&st8;" d="M6178.91,344.37c-2.5,0-4.53,2.02-4.53,4.53"/>
<path style="&st8;" d="M6174.38,348.9c0,2.5,2.03,4.53,4.53,4.53"/>
<path style="&st8;" d="M6178.91,353.43c2.51,0,4.53-2.03,4.53-4.53"/>
<path style="&st8;" d="M6123.95,357.96c0-2.5-2.03-4.53-4.53-4.53"/>
<path style="&st8;" d="M6119.42,353.43c-2.51,0-4.53,2.03-4.53,4.53"/>
<path style="&st8;" d="M6114.89,357.96c0,2.51,2.02,4.54,4.53,4.54"/>
<path style="&st8;" d="M6119.42,362.5c2.5,0,4.53-2.03,4.53-4.54"/>
<path style="&st8;" d="M6123.95,348.9c0-2.51-2.03-4.53-4.53-4.53"/>
<path style="&st8;" d="M6119.42,344.37c-2.51,0-4.53,2.02-4.53,4.53"/>
<path style="&st8;" d="M6114.89,348.9c0,2.5,2.02,4.53,4.53,4.53"/>
<path style="&st8;" d="M6119.42,353.43c2.5,0,4.53-2.03,4.53-4.53"/>
<path style="&st8;" d="M6183.44,392.52c0-2.5-2.02-4.53-4.53-4.53"/>
<path style="&st8;" d="M6178.91,387.99c-2.5,0-4.53,2.03-4.53,4.53"/>
<path style="&st8;" d="M6174.38,392.52c0,2.51,2.03,4.54,4.53,4.54"/>
<path style="&st8;" d="M6178.91,397.06c2.51,0,4.53-2.03,4.53-4.54"/>
<path style="&st8;" d="M6183.44,401.59c0-2.5-2.02-4.53-4.53-4.53"/>
<path style="&st8;" d="M6178.91,397.06c-2.5,0-4.53,2.03-4.53,4.53"/>
<path style="&st8;" d="M6174.38,401.59c0,2.5,2.03,4.53,4.53,4.53"/>
<path style="&st8;" d="M6178.91,406.12c2.51,0,4.53-2.03,4.53-4.53"/>
<path style="&st8;" d="M6123.95,392.52c0-2.5-2.03-4.53-4.53-4.53"/>
<path style="&st8;" d="M6119.42,387.99c-2.51,0-4.53,2.03-4.53,4.53"/>
<path style="&st8;" d="M6114.89,392.52c0,2.51,2.02,4.54,4.53,4.54"/>
<path style="&st8;" d="M6119.42,397.06c2.5,0,4.53-2.03,4.53-4.54"/>
<path style="&st8;" d="M6123.95,401.59c0-2.5-2.03-4.53-4.53-4.53"/>
<path style="&st8;" d="M6119.42,397.06c-2.51,0-4.53,2.03-4.53,4.53"/>
<path style="&st8;" d="M6114.89,401.59c0,2.5,2.02,4.53,4.53,4.53"/>
<path style="&st8;" d="M6119.42,406.12c2.5,0,4.53-2.03,4.53-4.53"/>
<text transform="matrix(1 0 0 1 6164.0845 359.9268)" style="&st7;"><tspan x="0" y="0" style="&st25; &st15;">20</tspan></text>
<text transform="matrix(1 0 0 1 6176.5845 359.9268)" style="&st7;"><tspan x="0" y="0" style="&st25; &st15;">B</tspan></text>
<text transform="matrix(1 0 0 1 6164.0845 350.8667)" style="&st7;"><tspan x="0" y="0" style="&st25; &st15;">20</tspan></text>
<text transform="matrix(1 0 0 1 6176.5845 350.8667)" style="&st7;"><tspan x="0" y="0" style="&st25; &st15;">A</tspan></text>
<text transform="matrix(1 0 0 1 6108.5435 359.9268)" style="&st7;"><tspan x="0" y="0" style="&st25; &st15;">9</tspan></text>
<text transform="matrix(1 0 0 1 6117.0942 359.9268)" style="&st7;"><tspan x="0" y="0" style="&st25; &st15;">B</tspan></text>
<text transform="matrix(1 0 0 1 6108.5435 350.8667)" style="&st7;"><tspan x="0" y="0" style="&st25; &st15;">9</tspan></text>
<text transform="matrix(1 0 0 1 6117.0942 350.8667)" style="&st7;"><tspan x="0" y="0" style="&st25; &st15;">A</tspan></text>
<text transform="matrix(1 0 0 1 6164.0845 394.4868)" style="&st7;"><tspan x="0" y="0" style="&st25; &st15;">22</tspan></text>
<text transform="matrix(1 0 0 1 6176.5845 394.4868)" style="&st7;"><tspan x="0" y="0" style="&st25; &st15;">A</tspan></text>
<text transform="matrix(1 0 0 1 6164.0845 403.5562)" style="&st7;"><tspan x="0" y="0" style="&st25; &st15;">22</tspan></text>
<text transform="matrix(1 0 0 1 6176.5845 403.5562)" style="&st7;"><tspan x="0" y="0" style="&st25; &st15;">B</tspan></text>
<text transform="matrix(1 0 0 1 6106.144 394.4868)" style="&st7;"><tspan x="0" y="0" style="&st25; &st15;">11</tspan></text>
<text transform="matrix(1 0 0 1 6117.0942 394.4868)" style="&st7;"><tspan x="0" y="0" style="&st25; &st15;">A</tspan></text>
<text transform="matrix(1 0 0 1 6106.144 403.5562)" style="&st7;"><tspan x="0" y="0" style="&st25; &st15;">11</tspan></text>
<text transform="matrix(1 0 0 1 6117.0942 403.5562)" style="&st7;"><tspan x="0" y="0" style="&st25; &st15;">B</tspan></text>
<text ewd:textID='33' transform='matrix(0 -1 1 0 6098.4438 390.5171)' style='&st7; &st25; &st15;'>Junction <tspan x='0' y='7' >Connector</tspan></text>
<text transform="matrix(0 -1 1 0 6091.3345 390.5171)" style="&st7;"><tspan x="0" y="0" style="&st25; &st15;">A72(A),A73(B)</tspan></text>
</g>
<g ewd:code="A47,A48" ewd:figID="39" ewd:figtype="conn">
<path style="&st8;" d="M6110.92,494.23h76.49v16.99h-76.49V494.23"/>
<path style="&st8;" d="M6110.92,502.73h76.49"/>
<path style="&st8;" d="M6183.44,489.69c0-2.5-2.02-4.53-4.53-4.53"/>
<path style="&st8;" d="M6178.91,485.16c-2.5,0-4.53,2.03-4.53,4.53"/>
<path style="&st8;" d="M6174.38,489.69c0,2.51,2.03,4.54,4.53,4.54"/>
<path style="&st8;" d="M6178.91,494.23c2.51,0,4.53-2.03,4.53-4.54"/>
<path style="&st8;" d="M6123.95,489.69c0-2.5-2.03-4.53-4.53-4.53"/>
<path style="&st8;" d="M6119.42,485.16c-2.51,0-4.53,2.03-4.53,4.53"/>
<path style="&st8;" d="M6114.89,489.69c0,2.51,2.02,4.54,4.53,4.54"/>
<path style="&st8;" d="M6119.42,494.23c2.5,0,4.53-2.03,4.53-4.54"/>
<path style="&st8;" d="M6183.44,515.76c0-2.51-2.02-4.54-4.53-4.54"/>
<path style="&st8;" d="M6178.91,511.22c-2.5,0-4.53,2.03-4.53,4.54"/>
<path style="&st8;" d="M6174.38,515.76c0,2.5,2.03,4.53,4.53,4.53"/>
<path style="&st8;" d="M6178.91,520.29c2.51,0,4.53-2.03,4.53-4.53"/>
<path style="&st8;" d="M6123.95,515.76c0-2.51-2.03-4.54-4.53-4.54"/>
<path style="&st8;" d="M6119.42,511.22c-2.51,0-4.53,2.03-4.53,4.54"/>
<path style="&st8;" d="M6114.89,515.76c0,2.5,2.02,4.53,4.53,4.53"/>
<path style="&st8;" d="M6119.42,520.29c2.5,0,4.53-2.03,4.53-4.53"/>
<text transform="matrix(1 0 0 1 6117.0942 491.6558)" style="&st7;"><tspan x="0" y="0" style="&st25; &st15;">A</tspan></text>
<text transform="matrix(1 0 0 1 6108.5435 491.6558)" style="&st7;"><tspan x="0" y="0" style="&st25; &st15;">4</tspan></text>
<text transform="matrix(1 0 0 1 6176.5845 517.7261)" style="&st7;"><tspan x="0" y="0" style="&st25; &st15;">B</tspan></text>
<text transform="matrix(1 0 0 1 6168.0435 517.7261)" style="&st7;"><tspan x="0" y="0" style="&st25; &st15;">3</tspan></text>
<text transform="matrix(1 0 0 1 6176.5845 491.6558)" style="&st7;"><tspan x="0" y="0" style="&st25; &st15;">A</tspan></text>
<text ewd:textID='42' transform='matrix(0 -1 1 0 6202.1333 513.7476)' style='&st7; &st25; &st15;'>Short Connector</text>
<text transform="matrix(0 -1 1 0 6195.0239 513.7476)" style="&st7;"><tspan x="0" y="0" style="&st25; &st15;">A47(A),A48(B)</tspan></text>
<text transform="matrix(1 0 0 1 6117.0942 517.7261)" style="&st7;"><tspan x="0" y="0" style="&st25; &st15;">B</tspan></text>
<text transform="matrix(1 0 0 1 6108.5435 517.7261)" style="&st7;"><tspan x="0" y="0" style="&st25; &st15;">4</tspan></text>
<text transform="matrix(1 0 0 1 6168.0435 491.6558)" style="&st7;"><tspan x="0" y="0" style="&st25; &st15;">3</tspan></text>
</g>
<text transform="matrix(0 -1 1 0 6047.7339 297.8467)" style="&st7;"><tspan x="0" y="0" style="&st25; &st15;">W</tspan></text>
<text transform="matrix(0 -1 1 0 6013.7437 296.8267)" style="&st7;"><tspan x="0" y="0" style="&st25; &st15;">Y</tspan></text>
<text transform="matrix(0 -1 1 0 6025.0737 304.2466)" style="&st7;"><tspan x="0" y="0" style="&st25; &st15;">(RHD)</tspan></text>
<text transform="matrix(0 -1 1 0 6059.0737 304.2466)" style="&st7;"><tspan x="0" y="0" style="&st25; &st15;">(RHD)</tspan></text>
<text transform="matrix(0 -1 1 0 6025.0737 150.7866)" style="&st7;"><tspan x="0" y="0" style="&st25; &st15;">(LHD)</tspan></text>
<text transform="matrix(0 -1 1 0 6059.0737 150.7866)" style="&st7;"><tspan x="0" y="0" style="&st25; &st15;">(LHD)</tspan></text>
<text transform="matrix(1 0 0 1 6184.894 403.5562)" style="&st7;"><tspan x="0" y="0" style="&st25; &st15;">(LHD)</tspan></text>
<text transform="matrix(0 -1 1 0 6175.2231 459.3374)" style="&st7;"><tspan x="0" y="0" style="&st25; &st15;">W</tspan></text>
<text transform="matrix(0 -1 1 0 6141.2339 458.3062)" style="&st7;"><tspan x="0" y="0" style="&st25; &st15;">B</tspan></text>
<text transform="matrix(1 0 0 1 6184.894 394.4868)" style="&st7;"><tspan x="0" y="0" style="&st25; &st15;">(RHD)</tspan></text>
<text transform="matrix(0 -1 1 0 6175.2231 318.311)" style="&st7;"><tspan x="0" y="0" style="&st25; &st15;">W</tspan></text>
<text transform="matrix(0 -1 1 0 6115.7231 317.8599)" style="&st7;"><tspan x="0" y="0" style="&st25; &st15;">R</tspan></text>
<text transform="matrix(0 -1 1 0 6175.2231 250.3931)" style="&st7;"><tspan x="0" y="0" style="&st25; &st15;">W</tspan></text>
<text transform="matrix(0 -1 1 0 6115.7231 249.5625)" style="&st7;"><tspan x="0" y="0" style="&st25; &st15;">B</tspan></text>
<text transform="matrix(0 -1 1 0 6141.2339 558.1714)" style="&st7;"><tspan x="0" y="0" style="&st25; &st15;">B</tspan></text>
<text transform="matrix(0 -1 1 0 6115.7231 130.7666)" style="&st7;"><tspan x="0" y="0" style="&st25; &st15;">L</tspan></text>
<text transform="matrix(0 -1 1 0 6175.2231 132.1367)" style="&st7;"><tspan x="0" y="0" style="&st25; &st15;">W</tspan></text>
<text transform="matrix(0 -1 1 0 6047.7339 144.8867)" style="&st7;"><tspan x="0" y="0" style="&st25; &st15;">W</tspan></text>
<text transform="matrix(0 -1 1 0 6013.7437 146.2666)" style="&st7;"><tspan x="0" y="0" style="&st25; &st15;">LG</tspan></text>
<text transform="matrix(0 -1 1 0 6152.564 562.021)" style="&st7;"><tspan x="0" y="0" style="&st25; &st15;">(*5)</tspan></text>
<text transform="matrix(0 -1 1 0 6152.564 462.1558)" style="&st7;"><tspan x="0" y="0" style="&st25; &st15;">(*5)</tspan></text>
<text transform="matrix(0 -1 1 0 6186.5532 562.021)" style="&st7;"><tspan x="0" y="0" style="&st25; &st15;">(*7)</tspan></text>
<text transform="matrix(0 -1 1 0 6175.2231 559.1909)" style="&st7;"><tspan x="0" y="0" style="&st25; &st15;">W</tspan></text>
<text transform="matrix(0 -1 1 0 6186.5532 462.1558)" style="&st7;"><tspan x="0" y="0" style="&st25; &st15;">(*7)</tspan></text>
<text transform="matrix(0 -1 1 0 6186.5532 259.7285)" style="&st7;"><tspan x="0" y="0" style="&st25; &st15;">(RHD,*5)</tspan></text>
<text transform="matrix(0 -1 1 0 6127.0532 259.7285)" style="&st7;"><tspan x="0" y="0" style="&st25; &st15;">(RHD,*5)</tspan></text>
<text transform="matrix(0 -1 1 0 6186.5532 327.8604)" style="&st7;"><tspan x="0" y="0" style="&st25; &st15;">(RHD,*5)</tspan></text>
<text transform="matrix(0 -1 1 0 6127.064 320.5273)" style="&st7;"><tspan x="0" y="0" style="&st25; &st15;">(*5)</tspan></text>
<text transform="matrix(1 0 0 1 6184.894 225.0864)" style="&st7;"><tspan x="0" y="0" style="&st25; &st15;">(RHD)</tspan></text>
<text transform="matrix(1 0 0 1 6184.894 181.4565)" style="&st7;"><tspan x="0" y="0" style="&st25; &st15;">(RHD)</tspan></text>
<text transform="matrix(1 0 0 1 6184.894 172.3965)" style="&st7;"><tspan x="0" y="0" style="&st25; &st15;">(LHD)</tspan></text>
<text transform="matrix(1 0 0 1 6184.894 359.9268)" style="&st7;"><tspan x="0" y="0" style="&st25; &st15;">(LHD)</tspan></text>
<text transform="matrix(1 0 0 1 6184.894 350.8667)" style="&st7;"><tspan x="0" y="0" style="&st25; &st15;">(RHD)</tspan></text>
<text transform="matrix(1 0 0 1 6188.8237 283.7266)" style="&st7;"><tspan x="0" y="0" style="&st25; &st15;">(RHD)</tspan></text>
<text transform="matrix(1 0 0 1 6188.8237 275.2266)" style="&st7;"><tspan x="0" y="0" style="&st25; &st15;">(LHD)</tspan></text>
<text transform="matrix(0 -1 1 0 6115.7231 458.4565)" style="&st7;"><tspan x="0" y="0" style="&st25; &st15;">R</tspan></text>
<text transform="matrix(0 -1 1 0 6127.0532 462.1558)" style="&st7;"><tspan x="0" y="0" style="&st25; &st15;">(*6)</tspan></text>
<text transform="matrix(0 -1 1 0 6115.7231 558.312)" style="&st7;"><tspan x="0" y="0" style="&st25; &st15;">R</tspan></text>
<text transform="matrix(0 -1 1 0 6127.0532 562.021)" style="&st7;"><tspan x="0" y="0" style="&st25; &st15;">(*6)</tspan></text>
<text transform="matrix(0 -1 1 0 6022.2437 655.1538)" style="&st7;"><tspan x="0" y="0" style="&st25; &st15;">R</tspan></text>
<text transform="matrix(0 -1 1 0 6124.2231 655.1538)" style="&st7;"><tspan x="0" y="0" style="&st25; &st15;">R</tspan></text>
<text transform="matrix(0 -1 1 0 6098.7339 655.4429)" style="&st7;"><tspan x="0" y="0" style="&st25; &st15;">G</tspan></text>
<text transform="matrix(0 -1 1 0 6175.2231 655.0132)" style="&st7;"><tspan x="0" y="0" style="&st25; &st15;">B</tspan></text>
<text transform="matrix(0 -1 1 0 6149.7231 656.0425)" style="&st7;"><tspan x="0" y="0" style="&st25; &st15;">W</tspan></text>
<text transform="matrix(0 -1 1 0 6047.7437 654.6636)" style="&st7;"><tspan x="0" y="0" style="&st25; &st15;">L</tspan></text>
<text transform="matrix(0 -1 1 0 6073.2339 655.0132)" style="&st7;"><tspan x="0" y="0" style="&st25; &st15;">P</tspan></text>
<text ewd:textID='43' transform='matrix(1 0 0 1 6069.2739 709.062)' style='&st7; &st25; &st15;'>Speed Sensors</text>
<text transform="matrix(1 0 0 1 6184.894 216.0166)" style="&st7;"><tspan x="0" y="0" style="&st25; &st15;">(LHD)</tspan></text>
<text transform="matrix(0 -1 1 0 6033.5737 658.8628)" style="&st7;"><tspan x="0" y="0" style="&st25; &st15;">(*7)</tspan></text>
<text transform="matrix(0 -1 1 0 6008.0845 658.8628)" style="&st7;"><tspan x="0" y="0" style="&st25; &st15;">(*7)</tspan></text>
<text transform="matrix(0 -1 1 0 6135.564 658.8628)" style="&st7;"><tspan x="0" y="0" style="&st25; &st15;">(*7)</tspan></text>
<text transform="matrix(0 -1 1 0 6110.064 658.8628)" style="&st7;"><tspan x="0" y="0" style="&st25; &st15;">(*7)</tspan></text>
<text transform="matrix(0 -1 1 0 6186.5532 658.8628)" style="&st7;"><tspan x="0" y="0" style="&st25; &st15;">(*7)</tspan></text>
<text transform="matrix(0 -1 1 0 6161.0532 658.8628)" style="&st7;"><tspan x="0" y="0" style="&st25; &st15;">(*7)</tspan></text>
<text transform="matrix(0 -1 1 0 6059.0737 658.8628)" style="&st7;"><tspan x="0" y="0" style="&st25; &st15;">(*7)</tspan></text>
<text transform="matrix(0 -1 1 0 6084.5737 658.8628)" style="&st7;"><tspan x="0" y="0" style="&st25; &st15;">(*7)</tspan></text>
<text transform="matrix(0 -1 1 0 6090.2339 317.6943)" style="&st7;"><tspan x="0" y="0" style="&st25; &st15;">B</tspan></text>
<text transform="matrix(0 -1 1 0 6101.564 324.1909)" style="&st7;"><tspan x="0" y="0" style="&st25; &st15;">(RHD)</tspan></text>
</svg>
