<?xml version="1.0" encoding="UTF-8"?>
<!DOCTYPE svg PUBLIC "-//W3C//DTD SVG 1.0//EN" "http://www.w3.org/TR/2001/REC-SVG-20010904/DTD/svg10.dtd"[
<!ENTITY ns_flows "http://ns.adobe.com/Flows/1.0/">
<!ENTITY ns_svg "http://www.w3.org/2000/svg">
<!ENTITY ns_xlink "http://www.w3.org/1999/xlink">
	<!ENTITY st0 "fill:none;stroke:#FB0F0C;stroke-width:5.1;stroke-linejoin:round;">
	<!ENTITY st1 "fill:none;stroke:#9A9999;stroke-width:5.1;stroke-linejoin:round;">
		<!ENTITY st2 "fill:none;stroke:#000000;stroke-width:0.85;stroke-linecap:round;stroke-linejoin:round;stroke-dasharray:3 1.5;enable-background:new    ;">
	<!ENTITY st3 "fill:none;stroke:#000000;stroke-width:5.1;stroke-linejoin:round;">
	<!ENTITY st4 "fill:none;stroke:#000000;stroke-linecap:round;stroke-linejoin:round;">
	<!ENTITY st5 "stroke:#000000;stroke-width:0.28;stroke-linecap:round;stroke-linejoin:round;enable-background:new    ;">
	<!ENTITY st6 "enable-background:new    ;">
	<!ENTITY st7 "fill:none;stroke:#000000;stroke-width:1.3;">
	<!ENTITY st8 "fill:none;stroke:#000000;stroke-width:5.1;">
		<!ENTITY st9 "fill:none;stroke:#000000;stroke-width:1.42;stroke-linecap:round;stroke-linejoin:round;enable-background:new    ;">
	<!ENTITY st10 "fill:none;stroke:#EE67AA;stroke-width:5.1;stroke-linejoin:round;">
	<!ENTITY st11 "fill:none;stroke:#FFFFFF;stroke-width:4;">
	<!ENTITY st12 "fill:none;stroke:#199DBF;stroke-width:5.1;stroke-linejoin:round;">
	<!ENTITY st13 "opacity:0.5;fill:none;stroke:#34ACCE;stroke-linejoin:round;stroke-dasharray:6;">
	<!ENTITY st14 "fill:none;stroke:#FFFFFF;stroke-width:4.53;stroke-linejoin:round;">
		<!ENTITY st15 "fill:none;stroke:#000000;stroke-width:0.85;stroke-linecap:round;stroke-linejoin:round;enable-background:new    ;">
	<!ENTITY st16 "fill:none;stroke:#56107C;stroke-width:5.1;stroke-linejoin:round;">
	<!ENTITY st17 "font-size:6px;">
	<!ENTITY st18 "fill:none;stroke:#168638;stroke-width:5.1;stroke-linejoin:round;">
	<!ENTITY st19 "fill:none;stroke:#000000;stroke-width:1.13;stroke-linejoin:round;">
	<!ENTITY st20 "fill:#FFFFFF;stroke:#000000;stroke-width:1.41;stroke-linecap:round;stroke-linejoin:round;">
	<!ENTITY st21 "fill:none;stroke:#3E65AC;stroke-width:3;">
	<!ENTITY st22 "fill:#CCCCCC;stroke:#CCCCCC;stroke-width:0.1;stroke-linecap:round;stroke-linejoin:round;">
	<!ENTITY st23 "font-family:'Arial';">
	<!ENTITY st24 "opacity:0.5;fill:none;stroke:#34ACCE;stroke-linejoin:round;">
	<!ENTITY st25 "fill:#CFE6E7;stroke:#000000;stroke-width:1.133;stroke-linecap:round;stroke-linejoin:round;">
	<!ENTITY st26 "fill:none;stroke:#99D5E0;stroke-width:5.1;stroke-linejoin:round;">
	<!ENTITY st27 "fill:none;stroke:#7EC57E;stroke-width:5.1;stroke-linejoin:round;">
<!ATTLIST svg
xmlns:ewd CDATA #FIXED "http://shcl.co.jp/ewd"
xmlns:a CDATA #FIXED "http://ns.adobe.com/AdobeSVGViewerExtensions/3.0/"
ewd:ver CDATA #IMPLIED
>
<!ATTLIST a
ewd:lineID CDATA #IMPLIED
ewd:groupID CDATA #IMPLIED
ewd:figtype CDATA #IMPLIED
ewd:code CDATA #IMPLIED
ewd:figID CDATA #IMPLIED
ewd:pinNo CDATA #IMPLIED
ewd:comment CDATA #IMPLIED >
<!ATTLIST g
ewd:lineID CDATA #IMPLIED
ewd:groupID CDATA #IMPLIED
ewd:figtype CDATA #IMPLIED
ewd:code CDATA #IMPLIED
ewd:figID CDATA #IMPLIED
ewd:pinNo CDATA #IMPLIED
ewd:comment CDATA #IMPLIED >
<!ATTLIST text
ewd:textID CDATA #IMPLIED >
<!ATTLIST title
ewd:textID CDATA #IMPLIED >
]>
<svg onload="call_execInitLoadProc_svg('system')"
style='overflow:visible;enable-background:new 0 0 1039.82 729.44'
viewBox='0 0 1039.82 729.44'
height='729.44'
width='1039.82'
xml:space="preserve"
xmlns="&ns_svg;"
xmlns:ewd="http://shcl.co.jp/ewd"
xmlns:a="http://ns.adobe.com/AdobeSVGViewerExtensions/3.0/"
xmlns:xlink="&ns_xlink;" ewd:ver="L2.1">
<style type="text/css">
	</style>
<script type="text/javascript" xlink:href="../../../../../system/js/ewd/fig/svgfig.js"/>
<defs>
<font horiz-adv-x="1229">
<font-face font-family="Svg Symbol" units-per-em="2048" panose-1="5 5 1 2 1 7 6 2 5 7" ascent="2059" descent="450" alphabetic="0"/>
<missing-glyph d="M 103,0 l 0,1280 1024,0 0,-1280 -1024,0 z m 32,32 l 960,0 0,1216 -960,0 0,-1216 z"/>
<glyph unicode="&#xF057;" horiz-adv-x="1573" d="M 1517,0 l -567,0 24,279 q 141,59 207.5,168 66.5,109 66.5,306    0,272 -132.5,417.5 -132.5,145.5 -333.5,145.5 -194,0 -328,-147.5 -134,-147.5 -134,-401.5 0,-200 68.5,-319 68.5,-119     206.5,-169 l 25,-279 -564,0 0,279 35,0 q 3,-61 32,-83 45,-35 137,-35 l 270,0 0,70 q -210,61 -324.5,209 -114.5,148     -114.5,349 0,252 186.5,425 186.5,173 504.5,173 195,0 358.5,-73.5 163.5,-73.5 252,-214.5 88.5,-141 88.5,-310 0,-207     -121.5,-360.5 -121.5,-153.5 -317.5,-197.5 l -8,-70 275,0 q 92,0 128,28 36,28 42,90 l 38,0 0,-279 z"/>
</font>
</defs>
<g id="ewd_top">
<a ewd:lineID="3" style="cursor:pointer;">
<path style="&st27;" d="M 129.66 , 133.03 L 129.66 , 107.54"/>
</a>
<a ewd:lineID="1" style="cursor:pointer;">
<path style="&st3;" d="M 988.01 , 301.87 L 988.01 , 294.51 L 1013.51 , 269.01 L 1013.51 , 167.03 L 146.65 , 167.03 L 129.66 , 150.03 L 129.66 , 148.05"/>
<path style="&st14;" d="M 988.01 , 301.87 L 988.01 , 294.51 L 1013.51 , 269.01 L 1013.51 , 167.03 L 146.65 , 167.03 L 129.66 , 150.03 L 129.66 , 148.05"/>
</a>
<a ewd:lineID="2" style="cursor:pointer;">
<path style="&st3;" d="M 129.66 , 243.52 L 129.66 , 148.05"/>
<path style="&st14;" d="M 129.66 , 243.52 L 129.66 , 148.05"/>
</a>
<a ewd:lineID="8" style="cursor:pointer;">
<path style="&st12;" d="M 104.16 , 404.99 L 104.16 , 506.4"/>
</a>
<a ewd:lineID="9" style="cursor:pointer;">
<path style="&st1;" d="M 163.65 , 404.99 L 163.65 , 506.4"/>
</a>
<a ewd:lineID="10" style="cursor:pointer;">
<path style="&st16;" d="M 223.14 , 404.99 L 223.14 , 506.4"/>
</a>
<a ewd:lineID="11" style="cursor:pointer;">
<path style="&st18;" d="M 282.63 , 404.99 L 282.63 , 506.4"/>
</a>
<a ewd:lineID="12" style="cursor:pointer;">
<path style="&st3;" d="M 342.12 , 404.99 L 342.12 , 506.4"/>
</a>
<a ewd:lineID="13" style="cursor:pointer;">
<path style="&st0;" d="M 401.61 , 404.99 L 401.61 , 506.4"/>
</a>
<a ewd:lineID="4" style="cursor:pointer;">
<path style="&st26;" d="M 682.06 , 243.52 L 682.06 , 184.03 L 988.01 , 184.03 L 988.01 , 301.87"/>
</a>
<a ewd:lineID="6" style="cursor:pointer;">
<path style="&st3;" d="M 954.02 , 301.87 L 954.02 , 294.51 L 937.02 , 277.51 L 937.02 , 218.02 L 818.04 , 218.02 L 818.04 , 472.98"/>
<path style="&st14;" d="M 954.02 , 301.87 L 954.02 , 294.51 L 937.02 , 277.51 L 937.02 , 218.02 L 818.04 , 218.02 L 818.04 , 472.98"/>
<path style="&st19;" d="M 954.02 , 301.87 L 954.02 , 294.51 L 937.02 , 277.51 L 937.02 , 218.02 L 818.04 , 218.02 L 818.04 , 472.98"/>
</a>
<a ewd:lineID="7" style="cursor:pointer;">
<path style="&st3;" d="M 843.54 , 472.98 L 843.54 , 235.02 L 920.03 , 235.02 L 920.03 , 301.87"/>
<path style="&st14;" d="M 843.54 , 472.98 L 843.54 , 235.02 L 920.03 , 235.02 L 920.03 , 301.87"/>
<path style="&st19;" d="M 843.54 , 472.98 L 843.54 , 235.02 L 920.03 , 235.02 L 920.03 , 301.87"/>
</a>
<a ewd:lineID="14" style="cursor:pointer;">
<path style="&st10;" d="M 597.08 , 404.99 L 597.08 , 458.25"/>
</a>
<a ewd:lineID="16" style="cursor:pointer;">
<path style="&st27;" d="M 656.57 , 404.99 L 656.57 , 458.25"/>
</a>
<a ewd:lineID="15" style="cursor:pointer;">
<path style="&st10;" d="M 597.08 , 472.98 L 597.08 , 515.47"/>
</a>
<a ewd:lineID="17" style="cursor:pointer;">
<path style="&st27;" d="M 656.57 , 472.98 L 656.57 , 515.47"/>
</a>
<a ewd:lineID="18" style="cursor:pointer;">
<path style="&st3;" d="M 724.56 , 551.73 L 724.56 , 549.46 L 733.06 , 540.97 L 818.04 , 540.97 L 818.04 , 489.97"/>
<path style="&st14;" d="M 724.56 , 551.73 L 724.56 , 549.46 L 733.06 , 540.97 L 818.04 , 540.97 L 818.04 , 489.97"/>
<path style="&st19;" d="M 724.56 , 551.73 L 724.56 , 549.46 L 733.06 , 540.97 L 818.04 , 540.97 L 818.04 , 489.97"/>
</a>
<a ewd:lineID="21" style="cursor:pointer;">
<path style="&st3;" d="M 724.56 , 659.95 L 724.56 , 566.46"/>
<path style="&st14;" d="M 724.56 , 659.95 L 724.56 , 566.46"/>
<path style="&st19;" d="M 724.56 , 659.95 L 724.56 , 566.46"/>
</a>
<a ewd:lineID="23" style="cursor:pointer;">
<path style="&st16;" d="M 971.02 , 489.98 L 971.02 , 617.45 L 903.03 , 617.45 L 903.03 , 583.46"/>
</a>
<a ewd:lineID="24" style="cursor:pointer;">
<path style="&st12;" d="M 903.03 , 489.98 L 903.03 , 549.46"/>
</a>
<a ewd:lineID="22" style="cursor:pointer;">
<path style="&st12;" d="M 903.03 , 423.12 L 903.03 , 458.25"/>
</a>
<a ewd:lineID="25" style="cursor:pointer;">
<path style="&st16;" d="M 971.02 , 423.12 L 971.02 , 458.25"/>
</a>
<a ewd:lineID="27" style="cursor:pointer;">
<path style="&st10;" d="M 626.08 , 472.98 L 626.08 , 504.7 L 605.58 , 504.7 L 597.08 , 513.2 L 597.08 , 515.47"/>
</a>
<a ewd:lineID="26" style="cursor:pointer;">
<path style="&st10;" d="M 597.08 , 404.99 L 597.08 , 411.82 L 605.58 , 420.32 L 626.08 , 420.32 L 626.08 , 458.21"/>
</a>
<a ewd:lineID="29" style="cursor:pointer;">
<path style="&st27;" d="M 685.57 , 472.98 L 685.57 , 504.7 L 665.07 , 504.7 L 656.57 , 513.2 L 656.57 , 515.47"/>
</a>
<a ewd:lineID="28" style="cursor:pointer;">
<path style="&st27;" d="M 656.57 , 404.99 L 656.57 , 411.82 L 665.07 , 420.32 L 685.57 , 420.32 L 685.57 , 458.21"/>
</a>
<a ewd:lineID="30" style="cursor:pointer;">
<path style="&st8;" d="M 724.56 , 404.99 L 724.56 , 411.82 L 733.06 , 420.32 L 784.83 , 420.32 L 784.83 , 528.96 L 733.06 , 528.96 L 724.56 , 549.46 L 724.56 , 551.73"/>
<path style="&st11;" d="M 724.56 , 404.99 L 724.56 , 411.82 L 733.06 , 420.32 L 784.83 , 420.32 L 784.83 , 528.96 L 733.06 , 528.96 L 724.56 , 549.46 L 724.56 , 551.73"/>
<path style="&st7;" d="M 724.56 , 404.99 L 724.56 , 411.82 L 733.06 , 420.32 L 784.83 , 420.32 L 784.83 , 528.96 L 733.06 , 528.96 L 724.56 , 549.46 L 724.56 , 551.73"/>
</a>
<a ewd:lineID="20" style="cursor:pointer;">
<path style="&st3;" d="M 724.56 , 454.85 L 724.56 , 404.99"/>
<path style="&st14;" d="M 724.56 , 454.85 L 724.56 , 404.99"/>
<path style="&st19;" d="M 724.56 , 454.85 L 724.56 , 404.99"/>
</a>
<a ewd:lineID="19" style="cursor:pointer;">
<path style="&st3;" d="M 724.56 , 551.73 L 724.56 , 508.1"/>
<path style="&st14;" d="M 724.56 , 551.73 L 724.56 , 508.1"/>
<path style="&st19;" d="M 724.56 , 551.73 L 724.56 , 508.1"/>
</a>
<a ewd:lineID="5" style="cursor:pointer;">
<path style="&st3;" d="M 954.02 , 301.87 L 954.02 , 201.02 L 724.56 , 201.02 L 724.56 , 243.52"/>
<path style="&st14;" d="M 954.02 , 301.87 L 954.02 , 201.02 L 724.56 , 201.02 L 724.56 , 243.52"/>
<path style="&st19;" d="M 954.02 , 301.87 L 954.02 , 201.02 L 724.56 , 201.02 L 724.56 , 243.52"/>
</a>
<a ewd:code="fb3" ewd:figtype="w2w" style="cursor:pointer;" ewd:figID="608">
<path style="&st20;" d="M979.52,472.98h-17v8.5h17V472.98"/>
<text transform="matrix(1 0 0 1 966.8521 479.7153)" style="&st6;"><tspan x="0" y="0" style="&st23; &st17;">fb3</tspan></text>
</a>
<a ewd:code="fb2" ewd:figtype="w2w" style="cursor:pointer;" ewd:figID="607">
<path style="&st20;" d="M979.52,464.48h-17v8.5h17V464.48"/>
<text transform="matrix(1 0 0 1 966.8521 471.2153)" style="&st6;"><tspan x="0" y="0" style="&st23; &st17;">fb2</tspan></text>
</a>
<a ewd:code="fb3" ewd:figtype="w2w" style="cursor:pointer;" ewd:figID="606">
<path style="&st20;" d="M911.53,472.98h-17v8.5h17V472.98"/>
<text transform="matrix(1 0 0 1 898.8618 479.7153)" style="&st6;"><tspan x="0" y="0" style="&st23; &st17;">fb3</tspan></text>
</a>
<a ewd:code="fb2" ewd:figtype="w2w" style="cursor:pointer;" ewd:figID="605">
<path style="&st20;" d="M911.53,464.48h-17v8.5h17V464.48"/>
<text transform="matrix(1 0 0 1 898.8618 471.2153)" style="&st6;"><tspan x="0" y="0" style="&st23; &st17;">fb2</tspan></text>
</a>
<a ewd:code="Rb1" ewd:figtype="w2w" style="cursor:pointer;" ewd:figID="604">
<path style="&st20;" d="M733.06,557.96h-17v8.5h17V557.96"/>
<text transform="matrix(1 0 0 1 719.0591 564.7056)" style="&st6;"><tspan x="0" y="0" style="&st23; &st17;">Rb1</tspan></text>
</a>
<a ewd:code="fb2" ewd:figtype="w2w" style="cursor:pointer;" ewd:figID="603">
<path style="&st20;" d="M665.07,464.48h-17v8.5h17V464.48"/>
<text transform="matrix(1 0 0 1 652.4028 471.2153)" style="&st6;"><tspan x="0" y="0" style="&st23; &st17;">fb2</tspan></text>
</a>
<a ewd:code="fb2" ewd:figtype="w2w" style="cursor:pointer;" ewd:figID="602">
<path style="&st20;" d="M605.58,464.48h-17v8.5h17V464.48"/>
<text transform="matrix(1 0 0 1 592.9126 471.2153)" style="&st6;"><tspan x="0" y="0" style="&st23; &st17;">fb2</tspan></text>
</a>
<a ewd:code="Rb1" ewd:figtype="w2w" style="cursor:pointer;" ewd:figID="601">
<path style="&st20;" d="M138.16,133.03h-17v8.5h17V133.03"/>
<text transform="matrix(1 0 0 1 124.1597 139.7754)" style="&st6;"><tspan x="0" y="0" style="&st23; &st17;">Rb1</tspan></text>
</a>
<a ewd:code="fb4" ewd:figtype="w2w" style="cursor:pointer;" ewd:figID="609">
<path style="&st20;" d="M634.58,464.48h-17v8.5h17V464.48"/>
<text transform="matrix(1 0 0 1 621.9126 471.2163)" style="&st6;"><tspan x="0" y="0" style="&st23; &st17;">fb4</tspan></text>
</a>
<a ewd:code="fb4" ewd:figtype="w2w" style="cursor:pointer;" ewd:figID="610">
<path style="&st20;" d="M694.07,464.48h-17v8.5h17V464.48"/>
<text transform="matrix(1 0 0 1 681.4009 471.2163)" style="&st6;"><tspan x="0" y="0" style="&st23; &st17;">fb4</tspan></text>
</a>
<a ewd:code="fb4" ewd:figtype="w2w" style="cursor:pointer;" ewd:figID="611">
<path style="&st20;" d="M911.53,481.48h-17v8.5h17V481.48"/>
<text transform="matrix(1 0 0 1 898.8618 488.2153)" style="&st6;"><tspan x="0" y="0" style="&st23; &st17;">fb4</tspan></text>
</a>
<a ewd:code="fb4" ewd:figtype="w2w" style="cursor:pointer;" ewd:figID="612">
<path style="&st20;" d="M979.52,481.48h-17v8.5h17V481.48"/>
<text transform="matrix(1 0 0 1 966.8521 488.2153)" style="&st6;"><tspan x="0" y="0" style="&st23; &st17;">fb4</tspan></text>
</a>
<a ewd:code="2" ewd:figtype="jb" style="cursor:pointer;" ewd:figID="301">
<path style="&st22;" d="M112.66,39.55v67.99h59.49V39.55H112.66"/>
</a>
<a ewd:code="R2" ewd:figtype="gp" style="cursor:pointer;" ewd:figID="201">
<path style="&st20;" d="M713.93,685.44h21.25l-10.62,15.58L713.93,685.44"/>
<text transform="matrix(1 0 0 1 719.8735 693.5962)" style="&st6;"><tspan x="0" y="0" style="&st23; &st17;">R2</tspan></text>
</a>
<a ewd:code="FUSE93" ewd:figtype="fuse" style="cursor:pointer;" ewd:figID="101">
<path style="&st9;" d="M142.41,82.04V39.55h-25.5v42.49H142.41"/>
</a>
<a ewd:code="b10,b11,b12" ewd:figtype="conn" style="cursor:pointer;" ewd:figID="3">
<path style="&st25;" d="M87.16,515.47v76.49h348.45v-76.49H87.16"/>
<title ewd:textID="23">Separate Type Front Seat Cushion Spring Assembly LH</title>
</a>
<a ewd:code="f3" ewd:figtype="conn" style="cursor:pointer;" ewd:figID="4">
<path style="&st25;" d="M580.08,515.47v76.49h93.49v-76.49H580.08"/>
<title ewd:textID="22">Separate Type Front Seat Back Assembly LH</title>
</a>
<a ewd:code="b9,b17" ewd:figtype="conn" style="cursor:pointer;" ewd:figID="5">
<path style="&st25;" d="M716.06,472.98v16.99h17v-16.99H716.06"/>
<title ewd:textID="15">Junction Connector</title>
</a>
<a ewd:code="b16" ewd:figtype="conn" style="cursor:pointer;" ewd:figID="7">
<path style="&st25;" d="M809.54,472.98h42.5v16.99h-42.5V472.98"/>
<title ewd:textID="15">Junction Connector</title>
</a>
<a ewd:code="f2" ewd:figtype="conn" style="cursor:pointer;" ewd:figID="8">
<path style="&st25;" d="M877.53,549.46v34h42.5v-34H877.53"/>
<title ewd:textID="22">Separate Type Front Seat Back Assembly LH</title>
</a>
<a ewd:code="R31" ewd:figtype="conn" style="cursor:pointer;" ewd:figID="6">
<path style="&st25;" d="M716.06,659.95v16.99h17v-16.99H716.06"/>
<title ewd:textID="15">Junction Connector</title>
</a>
<a ewd:code="b6,b14" ewd:figtype="conn" style="cursor:pointer;" ewd:figID="2">
<path style="&st25;" d="M869.03,320v84.99h135.98V320H869.03"/>
<title ewd:textID="11">Front Power Seat Switch Assembly LH</title>
</a>
<a ewd:code="b13" ewd:figtype="conn" style="cursor:pointer;" ewd:figID="1">
<path style="&st25;" d="M61.67,243.52v161.47h688.38V243.52H61.67"/>
<title ewd:textID="12">Front Power Seat Switch LH</title>
</a>
</g>
</svg>
