<?xml version="1.0" encoding="UTF-8"?>
<!DOCTYPE svg PUBLIC "-//W3C//DTD SVG 1.0//EN" "http://www.w3.org/TR/2001/REC-SVG-20010904/DTD/svg10.dtd"[
<!ENTITY ns_flows "http://ns.adobe.com/Flows/1.0/">
<!ENTITY ns_svg "http://www.w3.org/2000/svg">
<!ENTITY ns_xlink "http://www.w3.org/1999/xlink">
	<!ENTITY st0 "fill:none;stroke:#FB0F0C;stroke-width:5.1;stroke-linejoin:round;">
	<!ENTITY st1 "fill:none;stroke:#9A9999;stroke-width:5.1;stroke-linejoin:round;">
		<!ENTITY st2 "fill:none;stroke:#000000;stroke-width:0.85;stroke-linecap:round;stroke-linejoin:round;stroke-dasharray:3 1.5;enable-background:new    ;">
	<!ENTITY st3 "fill:none;stroke:#000000;stroke-width:5.1;stroke-linejoin:round;">
	<!ENTITY st4 "fill:none;stroke:#000000;stroke-linecap:round;stroke-linejoin:round;">
	<!ENTITY st5 "stroke:#000000;stroke-width:0.28;stroke-linecap:round;stroke-linejoin:round;enable-background:new    ;">
	<!ENTITY st6 "enable-background:new    ;">
	<!ENTITY st7 "fill:none;stroke:#000000;stroke-width:1.3;">
	<!ENTITY st8 "fill:none;stroke:#000000;stroke-width:5.1;">
		<!ENTITY st9 "fill:none;stroke:#000000;stroke-width:1.42;stroke-linecap:round;stroke-linejoin:round;enable-background:new    ;">
	<!ENTITY st10 "fill:none;stroke:#EE67AA;stroke-width:5.1;stroke-linejoin:round;">
	<!ENTITY st11 "fill:none;stroke:#FFFFFF;stroke-width:4;">
	<!ENTITY st12 "fill:none;stroke:#199DBF;stroke-width:5.1;stroke-linejoin:round;">
	<!ENTITY st13 "opacity:0.5;fill:none;stroke:#34ACCE;stroke-linejoin:round;stroke-dasharray:6;">
	<!ENTITY st14 "fill:none;stroke:#FFFFFF;stroke-width:4.53;stroke-linejoin:round;">
		<!ENTITY st15 "fill:none;stroke:#000000;stroke-width:0.85;stroke-linecap:round;stroke-linejoin:round;enable-background:new    ;">
	<!ENTITY st16 "fill:none;stroke:#56107C;stroke-width:5.1;stroke-linejoin:round;">
	<!ENTITY st17 "font-size:6px;">
	<!ENTITY st18 "fill:none;stroke:#168638;stroke-width:5.1;stroke-linejoin:round;">
	<!ENTITY st19 "fill:none;stroke:#000000;stroke-width:1.13;stroke-linejoin:round;">
	<!ENTITY st20 "fill:#FFFFFF;stroke:#000000;stroke-width:1.41;stroke-linecap:round;stroke-linejoin:round;">
	<!ENTITY st21 "fill:none;stroke:#3E65AC;stroke-width:3;">
	<!ENTITY st22 "fill:#CCCCCC;stroke:#CCCCCC;stroke-width:0.1;stroke-linecap:round;stroke-linejoin:round;">
	<!ENTITY st23 "font-family:'Arial';">
	<!ENTITY st24 "opacity:0.5;fill:none;stroke:#34ACCE;stroke-linejoin:round;">
	<!ENTITY st25 "fill:#CFE6E7;stroke:#000000;stroke-width:1.133;stroke-linecap:round;stroke-linejoin:round;">
	<!ENTITY st26 "fill:none;stroke:#99D5E0;stroke-width:5.1;stroke-linejoin:round;">
	<!ENTITY st27 "fill:none;stroke:#7EC57E;stroke-width:5.1;stroke-linejoin:round;">
<!ATTLIST svg
xmlns:ewd CDATA #FIXED "http://shcl.co.jp/ewd"
xmlns:a CDATA #FIXED "http://ns.adobe.com/AdobeSVGViewerExtensions/3.0/"
ewd:ver CDATA #IMPLIED
>
<!ATTLIST a
ewd:lineID CDATA #IMPLIED
ewd:groupID CDATA #IMPLIED
ewd:figtype CDATA #IMPLIED
ewd:code CDATA #IMPLIED
ewd:figID CDATA #IMPLIED
ewd:pinNo CDATA #IMPLIED
ewd:comment CDATA #IMPLIED >
<!ATTLIST g
ewd:lineID CDATA #IMPLIED
ewd:groupID CDATA #IMPLIED
ewd:figtype CDATA #IMPLIED
ewd:code CDATA #IMPLIED
ewd:figID CDATA #IMPLIED
ewd:pinNo CDATA #IMPLIED
ewd:comment CDATA #IMPLIED >
<!ATTLIST text
ewd:textID CDATA #IMPLIED >
<!ATTLIST title
ewd:textID CDATA #IMPLIED >
]>
<svg 
viewBox='0 0 1039.82 729.44'
height='729.44'
width='1039.82'
xml:space="preserve"
xmlns="&ns_svg;"
xmlns:ewd="http://shcl.co.jp/ewd"
xmlns:xlink="&ns_xlink;" ewd:ver="L2.1">
<g ewd:code="fb3" ewd:figID="608" ewd:figtype="w2w" ewd:pinNo="1">
<text transform="matrix(1 0 0 1 956.186 479.1958)" style="&st6;"><tspan x="0" y="0" style="&st23; &st17;">1</tspan></text>
</g>
<g ewd:code="fb2" ewd:figID="607" ewd:figtype="w2w" ewd:pinNo="1">
<path style="&st9;" d="M962.52,464.48h8.5"/>
<path style="&st9;" d="M975.27,458.81l-4.25,4.25l-4.25-4.25"/>
<path style="&st9;" d="M966.77,455.4l4.25,4.25l4.25-4.25"/>
<text transform="matrix(1 0 0 1 956.186 470.6958)" style="&st6;"><tspan x="0" y="0" style="&st23; &st17;">1</tspan></text>
</g>
<g ewd:code="fb3" ewd:figID="606" ewd:figtype="w2w" ewd:pinNo="2">
<text transform="matrix(1 0 0 1 888.1958 479.1958)" style="&st6;"><tspan x="0" y="0" style="&st23; &st17;">2</tspan></text>
</g>
<g ewd:code="fb2" ewd:figID="605" ewd:figtype="w2w" ewd:pinNo="4">
<path style="&st9;" d="M894.53,464.48h8.5"/>
<path style="&st9;" d="M898.78,455.4l4.25,4.25l4.25-4.25"/>
<path style="&st9;" d="M907.28,458.81l-4.25,4.25l-4.25-4.25"/>
<text transform="matrix(1 0 0 1 888.1958 470.6958)" style="&st6;"><tspan x="0" y="0" style="&st23; &st17;">4</tspan></text>
</g>
<g ewd:code="Rb1" ewd:figID="604" ewd:figtype="w2w" ewd:pinNo="5">
<path style="&st9;" d="M716.06,557.96h8.5"/>
<path style="&st9;" d="M720.31,548.9l4.25,4.25l4.25-4.25"/>
<path style="&st9;" d="M728.81,552.3l-4.25,4.25l-4.25-4.25"/>
<text transform="matrix(1 0 0 1 709.7261 564.1763)" style="&st6;"><tspan x="0" y="0" style="&st23; &st17;">5</tspan></text>
</g>
<g ewd:code="fb2" ewd:figID="603" ewd:figtype="w2w" ewd:pinNo="2">
<path style="&st9;" d="M648.07,464.48h8.5"/>
<path style="&st9;" d="M652.32,455.4l4.25,4.25l4.25-4.25"/>
<path style="&st9;" d="M660.82,458.81l-4.25,4.25l-4.25-4.25"/>
<text transform="matrix(1 0 0 1 641.7358 470.6958)" style="&st6;"><tspan x="0" y="0" style="&st23; &st17;">2</tspan></text>
</g>
<g ewd:code="fb2" ewd:figID="602" ewd:figtype="w2w" ewd:pinNo="3">
<path style="&st9;" d="M588.58,464.48h8.5"/>
<path style="&st9;" d="M592.83,455.4l4.25,4.25l4.25-4.25"/>
<path style="&st9;" d="M601.33,458.81l-4.25,4.25l-4.25-4.25"/>
<text transform="matrix(1 0 0 1 582.2466 470.6958)" style="&st6;"><tspan x="0" y="0" style="&st23; &st17;">3</tspan></text>
</g>
<g ewd:code="fb4" ewd:figID="609" ewd:figtype="w2w" ewd:pinNo="2">
<path style="&st9;" d="M617.58,464.48h8.5"/>
<path style="&st9;" d="M621.83,455.41l4.25,4.25l4.25-4.25"/>
<path style="&st9;" d="M630.33,458.81l-4.25,4.25l-4.25-4.25"/>
<text transform="matrix(1 0 0 1 611.2456 470.6968)" style="&st6;"><tspan x="0" y="0" style="&st23; &st17;">2</tspan></text>
</g>
<g ewd:code="fb4" ewd:figID="610" ewd:figtype="w2w" ewd:pinNo="8">
<path style="&st9;" d="M677.07,464.48h8.5"/>
<path style="&st9;" d="M681.32,455.41l4.25,4.25l4.25-4.25"/>
<path style="&st9;" d="M689.82,458.81l-4.25,4.25l-4.25-4.25"/>
<text transform="matrix(1 0 0 1 670.7349 470.6968)" style="&st6;"><tspan x="0" y="0" style="&st23; &st17;">8</tspan></text>
</g>
<g ewd:code="fb4" ewd:figID="611" ewd:figtype="w2w" ewd:pinNo="11">
<text transform="matrix(1 0 0 1 885.3042 487.6958)" style="&st6;"><tspan x="0" y="0" style="&st23; &st17;">11</tspan></text>
</g>
<g ewd:code="fb4" ewd:figID="612" ewd:figtype="w2w" ewd:pinNo="5">
<text transform="matrix(1 0 0 1 956.186 487.6958)" style="&st6;"><tspan x="0" y="0" style="&st23; &st17;">5</tspan></text>
</g>
<g ewd:code="R2" ewd:figID="201" ewd:figtype="gp">
<path style="&st15;" d="M720.31,708.1h8.5"/>
<path style="&st15;" d="M724.56,701.02v4.25"/>
<path style="&st15;" d="M716.06,705.27h17"/>
<path style="&st15;" d="M723.14,713.77h2.83"/>
<path style="&st15;" d="M721.72,710.94h5.67"/>
</g>
<g ewd:code="f3" ewd:figID="4" ewd:figtype="conn">
<path style="&st9;" d="M592.83,560.8h8.5"/>
<path style="&st9;" d="M592.83,556.82v3.97"/>
<path style="&st9;" d="M601.33,560.8v-3.97"/>
<path style="&st9;" d="M592.83,538.13h8.5"/>
<path style="&st9;" d="M592.83,542.1v-3.97"/>
<path style="&st9;" d="M601.33,538.13v3.97"/>
<path style="&st9;" d="M580.08,515.47v76.49h93.49v-76.49H580.08"/>
<path style="&st15;" d="M597.08,515.47v22.66"/>
<path style="&st15;" d="M656.57,515.47v67.99h-59.49V560.8"/>
<path style="&st9;" d="M588.58,549.46c0,4.7,3.81,8.5,8.5,8.5"/>
<path style="&st9;" d="M597.08,557.96c4.69,0,8.5-3.8,8.5-8.5"/>
<path style="&st9;" d="M605.58,549.46c0-4.69-3.81-8.49-8.5-8.49"/>
<path style="&st9;" d="M597.08,540.97c-4.69,0-8.5,3.8-8.5,8.49"/>
<text transform="matrix(1 0 0 1 594.1831 551.4263)" style="&st6;"><tspan x="0" y="0" style="&st23; &st17;">M</tspan></text>
<text transform="matrix(1 0 0 1 591.0728 511.7759)" style="&st6;"><tspan x="0" y="0" style="&st23; &st17;">1</tspan></text>
<text transform="matrix(1 0 0 1 649.7827 511.7759)" style="&st6;"><tspan x="0" y="0" style="&st23; &st17;">2</tspan></text>
<text ewd:textID="22" transform="matrix(1 0 0 1 577.563 606.6665)" style="&st6; &st23; &st17;">Separate Type Front Seat Back <tspan x="0" y="7">Assembly LH</tspan></text>
<text transform="matrix(1 0 0 1 577.563 599.5649)" style="&st6;"><tspan x="0" y="0" style="&st23; &st17;">f3</tspan></text>
<text ewd:textID="21" transform="matrix(0 -1 1 0 613.2231 574.0454)" style="&st6; &st23; &st17;">Reclining Motor</text>
</g>
<g ewd:code="b9,b17" ewd:figID="5" ewd:figtype="conn">
<path style="&st9;" d="M716.06,472.98v16.99h17v-16.99H716.06"/>
<path style="&st15;" d="M724.56,489.97v-16.99"/>
<path style="&st9;" d="M729.09,468.44c0-2.5-2.03-4.53-4.53-4.53"/>
<path style="&st9;" d="M724.56,463.9c-2.51,0-4.53,2.03-4.53,4.53"/>
<path style="&st9;" d="M720.03,468.44c0,2.51,2.02,4.54,4.53,4.54"/>
<path style="&st9;" d="M724.56,472.98c2.5,0,4.53-2.03,4.53-4.54"/>
<path style="&st9;" d="M729.09,459.38c0-2.5-2.03-4.53-4.53-4.53"/>
<path style="&st9;" d="M724.56,454.85c-2.51,0-4.53,2.03-4.53,4.53"/>
<path style="&st9;" d="M720.03,459.38c0,2.5,2.02,4.53,4.53,4.53"/>
<path style="&st9;" d="M724.56,463.9c2.5,0,4.53-2.03,4.53-4.53"/>
<path style="&st9;" d="M729.09,494.51c0-2.51-2.03-4.54-4.53-4.54"/>
<path style="&st9;" d="M724.56,489.97c-2.51,0-4.53,2.03-4.53,4.54"/>
<path style="&st9;" d="M720.03,494.51c0,2.5,2.02,4.53,4.53,4.53"/>
<path style="&st9;" d="M724.56,499.04c2.5,0,4.53-2.03,4.53-4.53"/>
<path style="&st9;" d="M729.09,503.56c0-2.5-2.03-4.53-4.53-4.53"/>
<path style="&st9;" d="M724.56,499.04c-2.51,0-4.53,2.03-4.53,4.53"/>
<path style="&st9;" d="M720.03,503.56c0,2.51,2.02,4.53,4.53,4.53"/>
<path style="&st9;" d="M724.56,508.1c2.5,0,4.53-2.02,4.53-4.53"/>
<text transform="matrix(1 0 0 1 713.6831 470.4048)" style="&st6;"><tspan x="0" y="0" style="&st23; &st17;">8</tspan></text>
<text transform="matrix(1 0 0 1 722.2329 470.4048)" style="&st6;"><tspan x="0" y="0" style="&st23; &st17;">B</tspan></text>
<text transform="matrix(1 0 0 1 713.6831 461.3462)" style="&st6;"><tspan x="0" y="0" style="&st23; &st17;">8</tspan></text>
<text transform="matrix(1 0 0 1 722.2329 461.3462)" style="&st6;"><tspan x="0" y="0" style="&st23; &st17;">A</tspan></text>
<text transform="matrix(1 0 0 1 713.6831 496.4751)" style="&st6;"><tspan x="0" y="0" style="&st23; &st17;">3</tspan></text>
<text transform="matrix(1 0 0 1 722.2329 496.4751)" style="&st6;"><tspan x="0" y="0" style="&st23; &st17;">A</tspan></text>
<text transform="matrix(1 0 0 1 713.6831 505.5356)" style="&st6;"><tspan x="0" y="0" style="&st23; &st17;">3</tspan></text>
<text transform="matrix(1 0 0 1 722.2329 505.5356)" style="&st6;"><tspan x="0" y="0" style="&st23; &st17;">B</tspan></text>
<text ewd:textID="15" transform="matrix(1 0 0 1 735.8638 483.7964)" style="&st6; &st23; &st17;">Junction <tspan x="0" y="7">Connector</tspan></text>
<text transform="matrix(1 0 0 1 735.8638 476.6958)" style="&st6;"><tspan x="0" y="0" style="&st23; &st17;">b9(A),b17(B)</tspan></text>
</g>
<g ewd:code="b16" ewd:figID="7" ewd:figtype="conn">
<path style="&st15;" d="M818.04,481.48h25.5v-8.5"/>
<path style="&st15;" d="M818.04,472.98v16.99"/>
<path style="&st15;" d="M816.85,480.47l-0.27,0.47l-0.1,0.54l0.1,0.53l0.27,0.47l0.41,0.34l0.51,0.19h0.54l0.51-0.19l0.41-0.34l0.28-0.47l0.09-0.53l-0.09-0.54l-0.28-0.47l-0.41-0.34l-0.51-0.19h-0.54l-0.51,0.19L816.85,480.47l0.39,0.71v0.59l0.38,0.44l0.57,0.1l0.5-0.29l0.2-0.54l-0.2-0.55l-0.5-0.29l-0.57,0.1l0.42,0.74"/>
<path style="&st9;" d="M809.54,472.98h42.5v16.99h-42.5V472.98"/>
<text transform="matrix(1 0 0 1 812.0327 498.1665)" style="&st6;"><tspan x="0" y="0" style="&st23; &st17;">1</tspan></text>
<text transform="matrix(1 0 0 1 836.7534 469.2856)" style="&st6;"><tspan x="0" y="0" style="&st23; &st17;">3</tspan></text>
<text transform="matrix(1 0 0 1 811.2534 469.2856)" style="&st6;"><tspan x="0" y="0" style="&st23; &st17;">4</tspan></text>
<text ewd:textID="15" transform="matrix(0 -1 1 0 866.7534 492.4966)" style="&st6; &st23; &st17;">Junction <tspan x="0" y="7">Connector</tspan></text>
<text transform="matrix(0 -1 1 0 859.6528 492.4966)" style="&st6;"><tspan x="0" y="0" style="&st23; &st17;">b16</tspan></text>
</g>
<g ewd:code="f2" ewd:figID="8" ewd:figtype="conn">
<path style="&st9;" d="M907.28,555.13v3.97"/>
<path style="&st9;" d="M898.78,559.1v-3.97"/>
<path style="&st9;" d="M898.78,555.13h8.5"/>
<path style="&st9;" d="M907.28,577.79v-3.96"/>
<path style="&st9;" d="M898.78,573.82v3.96"/>
<path style="&st9;" d="M898.78,577.79h8.5"/>
<path style="&st15;" d="M903.03,583.46v-5.67"/>
<path style="&st15;" d="M903.03,549.46v5.67"/>
<path style="&st9;" d="M877.53,549.46v34h42.49v-34H877.53"/>
<path style="&st9;" d="M911.53,566.46c0-4.69-3.81-8.5-8.5-8.5"/>
<path style="&st9;" d="M903.03,557.96c-4.7,0-8.5,3.81-8.5,8.5"/>
<path style="&st9;" d="M894.53,566.46c0,4.69,3.8,8.5,8.5,8.5"/>
<path style="&st9;" d="M903.03,574.96c4.69,0,8.5-3.81,8.5-8.5"/>
<text transform="matrix(1 0 0 1 900.1333 568.4263)" style="&st6;"><tspan x="0" y="0" style="&st23; &st17;">M</tspan></text>
<text ewd:textID="22" transform="matrix(0 -1 1 0 934.7427 585.9751)" style="&st6; &st23; &st17;">Separate Type Front <tspan x="0" y="7">Seat Back Assembly LH</tspan></text>
<text transform="matrix(0 -1 1 0 927.6431 585.9751)" style="&st6;"><tspan x="0" y="0" style="&st23; &st17;">f2</tspan></text>
<text transform="matrix(1 0 0 1 897.0229 591.645)" style="&st6;"><tspan x="0" y="0" style="&st23; &st17;">1</tspan></text>
<text transform="matrix(1 0 0 1 896.2427 545.7661)" style="&st6;"><tspan x="0" y="0" style="&st23; &st17;">2</tspan></text>
<text ewd:textID="18" transform="matrix(0 -1 1 0 890.8433 578.5356)" style="&st6; &st23; &st17;">Lumbar</text>
</g>
<g ewd:code="R31" ewd:figID="6" ewd:figtype="conn">
<path style="&st9;" d="M716.06,659.95v16.99h17v-16.99H716.06"/>
<path style="&st15;" d="M724.56,659.95v25.49"/>
<text ewd:textID="15" transform="matrix(1 0 0 1 736.2026 670.4048)" style="&st6; &st23; &st17;">Junction <tspan x="0" y="7">Connector</tspan></text>
<text transform="matrix(1 0 0 1 736.2026 663.3052)" style="&st6;"><tspan x="0" y="0" style="&st23; &st17;">R31</tspan></text>
<text transform="matrix(1 0 0 1 717.7632 656.2563)" style="&st6;"><tspan x="0" y="0" style="&st23; &st17;">7</tspan></text>
</g>
<g ewd:code="b6,b14" ewd:figID="2" ewd:figtype="conn">
<path style="&st15;" d="M903.03,404.99v-17"/>
<path style="&st9;" d="M911.01,370.15l-7.98,15.01"/>
<path style="&st15;" d="M971.02,404.99v-17"/>
<path style="&st9;" d="M963.04,370.15l7.98,15.01"/>
<path style="&st15;" d="M920.02,310.94V320"/>
<path style="&st9;" d="M869.03,320v84.99h135.98V320H869.03"/>
<path style="&st15;" d="M920.02,345.5h34"/>
<path style="&st15;" d="M980.93,372.41h7.08V320"/>
<path style="&st15;" d="M961.1,372.41h-7.08V320"/>
<path style="&st15;" d="M893.11,372.41h-7.08V354h101.98"/>
<path style="&st15;" d="M912.94,372.41h7.08V320"/>
<path style="&st15;" d="M986.82,352.99l-0.27,0.47l-0.09,0.54l0.09,0.53l0.27,0.47l0.41,0.35l0.51,0.18h0.55l0.5-0.18l0.42-0.35l0.27-0.47l0.09-0.53l-0.09-0.54l-0.27-0.47l-0.42-0.34l-0.5-0.19h-0.55l-0.51,0.19L986.82,352.99l0.39,0.72v0.58l0.38,0.44l0.57,0.1l0.5-0.29l0.2-0.54l-0.2-0.55l-0.5-0.29l-0.57,0.1l0.42,0.74"/>
<path style="&st15;" d="M952.83,344.5l-0.28,0.47l-0.09,0.53l0.09,0.53l0.28,0.47l0.41,0.35l0.51,0.18h0.54l0.51-0.18l0.41-0.35l0.27-0.47l0.1-0.53l-0.1-0.53l-0.27-0.47l-0.41-0.35l-0.51-0.19h-0.54l-0.51,0.19L952.83,344.5l0.39,0.71v0.58l0.37,0.44l0.58,0.1l0.5-0.28l0.2-0.55l-0.2-0.55l-0.5-0.29l-0.58,0.1l0.43,0.74"/>
<path style="&st15;" d="M918.83,344.5l-0.27,0.47l-0.09,0.53l0.09,0.53l0.27,0.47l0.42,0.35l0.5,0.18h0.55l0.5-0.18l0.42-0.35l0.27-0.47l0.09-0.53l-0.09-0.53l-0.27-0.47l-0.42-0.35l-0.5-0.19h-0.55l-0.5,0.19L918.83,344.5l0.4,0.71v0.58l0.37,0.44l0.57,0.1l0.51-0.28l0.19-0.55l-0.19-0.55l-0.51-0.29l-0.57,0.1l0.42,0.74"/>
<path style="&st9;" d="M975.55,418.59c0-2.51-2.03-4.54-4.53-4.54"/>
<path style="&st9;" d="M971.02,414.05c-2.51,0-4.54,2.03-4.54,4.54"/>
<path style="&st9;" d="M966.48,418.59c0,2.5,2.03,4.53,4.54,4.53"/>
<path style="&st9;" d="M971.02,423.12c2.5,0,4.53-2.03,4.53-4.53"/>
<path style="&st9;" d="M907.56,418.59c0-2.51-2.03-4.54-4.53-4.54"/>
<path style="&st9;" d="M903.03,414.05c-2.51,0-4.53,2.03-4.53,4.54"/>
<path style="&st9;" d="M898.5,418.59c0,2.5,2.02,4.53,4.53,4.53"/>
<path style="&st9;" d="M903.03,423.12c2.5,0,4.53-2.03,4.53-4.53"/>
<path style="&st9;" d="M924.56,306.4c0-2.5-2.03-4.53-4.53-4.53"/>
<path style="&st9;" d="M920.03,301.87c-2.51,0-4.54,2.03-4.54,4.53"/>
<path style="&st9;" d="M915.49,306.4c0,2.51,2.03,4.54,4.54,4.54"/>
<path style="&st9;" d="M920.03,310.94c2.5,0,4.53-2.03,4.53-4.54"/>
<path style="&st9;" d="M958.55,306.4c0-2.5-2.03-4.53-4.53-4.53"/>
<path style="&st9;" d="M954.02,301.87c-2.5,0-4.53,2.03-4.53,4.53"/>
<path style="&st9;" d="M949.49,306.4c0,2.51,2.03,4.54,4.53,4.54"/>
<path style="&st9;" d="M954.02,310.94c2.5,0,4.53-2.03,4.53-4.54"/>
<path style="&st9;" d="M992.55,306.4c0-2.5-2.03-4.53-4.54-4.53"/>
<path style="&st9;" d="M988.01,301.87c-2.5,0-4.53,2.03-4.53,4.53"/>
<path style="&st9;" d="M983.48,306.4c0,2.51,2.03,4.54,4.53,4.54"/>
<path style="&st9;" d="M988.01,310.94c2.51,0,4.54-2.03,4.54-4.54"/>
<path style="&st9;" d="M992.55,315.47c0-2.5-2.03-4.53-4.54-4.53"/>
<path style="&st9;" d="M988.01,310.94c-2.5,0-4.53,2.03-4.53,4.53"/>
<path style="&st9;" d="M983.48,315.47c0,2.5,2.03,4.53,4.53,4.53"/>
<path style="&st9;" d="M988.01,320c2.51,0,4.54-2.03,4.54-4.53"/>
<path style="&st9;" d="M958.55,315.47c0-2.5-2.03-4.53-4.53-4.53"/>
<path style="&st9;" d="M954.02,310.94c-2.5,0-4.53,2.03-4.53,4.53"/>
<path style="&st9;" d="M949.49,315.47c0,2.5,2.03,4.53,4.53,4.53"/>
<path style="&st9;" d="M954.02,320c2.5,0,4.53-2.03,4.53-4.53"/>
<path style="&st9;" d="M907.56,409.52c0-2.5-2.03-4.53-4.53-4.53"/>
<path style="&st9;" d="M903.03,404.99c-2.51,0-4.53,2.03-4.53,4.53"/>
<path style="&st9;" d="M898.5,409.52c0,2.5,2.02,4.53,4.53,4.53"/>
<path style="&st9;" d="M903.03,414.05c2.5,0,4.53-2.03,4.53-4.53"/>
<path style="&st9;" d="M975.55,409.52c0-2.5-2.03-4.53-4.53-4.53"/>
<path style="&st9;" d="M971.02,404.99c-2.51,0-4.54,2.03-4.54,4.53"/>
<path style="&st9;" d="M966.48,409.52c0,2.5,2.03,4.53,4.54,4.53"/>
<path style="&st9;" d="M971.02,414.05c2.5,0,4.53-2.03,4.53-4.53"/>
<path style="&st15;" d="M912.94,372.41c0-0.78-0.63-1.42-1.41-1.42"/>
<path style="&st15;" d="M911.53,370.99c-0.79,0-1.42,0.64-1.42,1.42"/>
<path style="&st15;" d="M910.11,372.41c0,0.78,0.63,1.42,1.42,1.42"/>
<path style="&st15;" d="M911.53,373.83c0.78,0,1.41-0.64,1.41-1.42"/>
<path style="&st15;" d="M895.95,372.41c0-0.78-0.64-1.42-1.42-1.42"/>
<path style="&st15;" d="M894.53,370.99c-0.78,0-1.42,0.64-1.42,1.42"/>
<path style="&st15;" d="M893.11,372.41c0,0.78,0.64,1.42,1.42,1.42"/>
<path style="&st15;" d="M894.53,373.83c0.78,0,1.42-0.64,1.42-1.42"/>
<path style="&st15;" d="M904.44,386.56c0-0.78-0.63-1.41-1.41-1.41"/>
<path style="&st15;" d="M903.03,385.16c-0.78,0-1.42,0.63-1.42,1.41"/>
<path style="&st15;" d="M901.61,386.56c0,0.79,0.64,1.42,1.42,1.42"/>
<path style="&st15;" d="M903.03,387.99c0.78,0,1.41-0.63,1.41-1.42"/>
<path style="&st15;" d="M980.93,372.41c0-0.78-0.63-1.42-1.41-1.42"/>
<path style="&st15;" d="M979.52,370.99c-0.79,0-1.42,0.64-1.42,1.42"/>
<path style="&st15;" d="M978.1,372.41c0,0.78,0.63,1.42,1.42,1.42"/>
<path style="&st15;" d="M979.52,373.83c0.78,0,1.41-0.64,1.41-1.42"/>
<path style="&st15;" d="M963.93,372.41c0-0.78-0.63-1.42-1.41-1.42"/>
<path style="&st15;" d="M962.52,370.99c-0.78,0-1.42,0.64-1.42,1.42"/>
<path style="&st15;" d="M961.1,372.41c0,0.78,0.64,1.42,1.42,1.42"/>
<path style="&st15;" d="M962.52,373.83c0.78,0,1.41-0.64,1.41-1.42"/>
<path style="&st15;" d="M972.43,386.56c0-0.78-0.63-1.41-1.41-1.41"/>
<path style="&st15;" d="M971.02,385.16c-0.79,0-1.42,0.63-1.42,1.41"/>
<path style="&st15;" d="M969.6,386.56c0,0.79,0.63,1.42,1.42,1.42"/>
<path style="&st15;" d="M971.02,387.99c0.78,0,1.41-0.63,1.41-1.42"/>
<text transform="matrix(1 0 0 1 985.6831 317.4355)" style="&st6;"><tspan x="0" y="0" style="&st23; &st17;">A</tspan></text>
<text transform="matrix(1 0 0 1 977.1431 317.4355)" style="&st6;"><tspan x="0" y="0" style="&st23; &st17;">5</tspan></text>
<text transform="matrix(1 0 0 1 917.6929 308.3657)" style="&st6;"><tspan x="0" y="0" style="&st23; &st17;">B</tspan></text>
<text transform="matrix(1 0 0 1 909.1528 308.3657)" style="&st6;"><tspan x="0" y="0" style="&st23; &st17;">5</tspan></text>
<text transform="matrix(1 0 0 1 900.7026 420.5552)" style="&st6;"><tspan x="0" y="0" style="&st23; &st17;">A</tspan></text>
<text transform="matrix(1 0 0 1 892.9331 420.5552)" style="&st6;"><tspan x="0" y="0" style="&st23; &st17;">1</tspan></text>
<text transform="matrix(1 0 0 1 951.6929 308.3657)" style="&st6;"><tspan x="0" y="0" style="&st23; &st17;">B</tspan></text>
<text transform="matrix(1 0 0 1 943.1431 308.3657)" style="&st6;"><tspan x="0" y="0" style="&st23; &st17;">2</tspan></text>
<text transform="matrix(1 0 0 1 892.9331 411.4858)" style="&st6;"><tspan x="0" y="0" style="&st23; &st17;">1</tspan></text>
<text transform="matrix(1 0 0 1 960.1431 420.5552)" style="&st6;"><tspan x="0" y="0" style="&st23; &st17;">3</tspan></text>
<text transform="matrix(1 0 0 1 900.7026 411.4858)" style="&st6;"><tspan x="0" y="0" style="&st23; &st17;">B</tspan></text>
<text transform="matrix(1 0 0 1 968.6929 420.5552)" style="&st6;"><tspan x="0" y="0" style="&st23; &st17;">A</tspan></text>
<text transform="matrix(1 0 0 1 951.6929 317.4355)" style="&st6;"><tspan x="0" y="0" style="&st23; &st17;">A</tspan></text>
<text transform="matrix(1 0 0 1 943.1431 317.4355)" style="&st6;"><tspan x="0" y="0" style="&st23; &st17;">2</tspan></text>
<text transform="matrix(1 0 0 1 985.6831 308.3657)" style="&st6;"><tspan x="0" y="0" style="&st23; &st17;">B</tspan></text>
<text transform="matrix(1 0 0 1 977.1431 308.3657)" style="&st6;"><tspan x="0" y="0" style="&st23; &st17;">3</tspan></text>
<text ewd:textID="11" transform="matrix(0 -1 1 0 1019.7329 407.5063)" style="&st6; &st23; &st17;">Front Power Seat Switch <tspan x="0" y="7">Assembly LH</tspan></text>
<text transform="matrix(0 -1 1 0 1012.6235 407.5063)" style="&st6;"><tspan x="0" y="0" style="&st23; &st17;">b6(A),b14(B)</tspan></text>
<text transform="matrix(1 0 0 1 968.6929 411.4858)" style="&st6;"><tspan x="0" y="0" style="&st23; &st17;">B</tspan></text>
<text transform="matrix(1 0 0 1 960.1431 411.4858)" style="&st6;"><tspan x="0" y="0" style="&st23; &st17;">4</tspan></text>
<text transform="matrix(1 0 0 1 930.8433 341.7954)" style="&st6;"><tspan x="0" y="0" style="&st23; &st17;">(*2)</tspan></text>
<text transform="matrix(0 -1 1 0 916.3335 338.5356)" style="&st6;"><tspan x="0" y="0" style="&st23; &st17;">(*1)</tspan></text>
<text ewd:textID="18" transform="matrix(1 0 0 1 924.9429 398.4556)" style="&st6; &st23; &st17;">Lumbar</text>
</g>
<text transform="matrix(1 0 0 1 976.9927 420.5552)" style="&st6;"><tspan x="0" y="0" style="&st23; &st17;">(*2)</tspan></text>
<text transform="matrix(1 0 0 1 993.9927 317.4355)" style="&st6;"><tspan x="0" y="0" style="&st23; &st17;">(*2)</tspan></text>
<text transform="matrix(0 -1 1 0 593.3833 439.8579)" style="&st6;"><tspan x="0" y="0" style="&st23; &st17;">P</tspan></text>
<text transform="matrix(0 -1 1 0 652.8735 441.8599)" style="&st6;"><tspan x="0" y="0" style="&st23; &st17;">LG</tspan></text>
<text transform="matrix(0 -1 1 0 720.8628 444.5522)" style="&st6;"><tspan x="0" y="0" style="&st23; &st17;">W-B</tspan></text>
<text transform="matrix(1 0 0 1 993.9927 308.3657)" style="&st6;"><tspan x="0" y="0" style="&st23; &st17;">(*1)</tspan></text>
<text transform="matrix(0 -1 1 0 720.8628 523.1099)" style="&st6;"><tspan x="0" y="0" style="&st23; &st17;">W-B</tspan></text>
<text transform="matrix(0 -1 1 0 720.8628 616.645)" style="&st6;"><tspan x="0" y="0" style="&st23; &st17;">W-B</tspan></text>
<text transform="matrix(0 -1 1 0 899.3335 440.9556)" style="&st6;"><tspan x="0" y="0" style="&st23; &st17;">L</tspan></text>
<text transform="matrix(0 -1 1 0 967.3228 441.3052)" style="&st6;"><tspan x="0" y="0" style="&st23; &st17;">V</tspan></text>
<text transform="matrix(0 -1 1 0 814.353 446.6763)" style="&st6;"><tspan x="0" y="0" style="&st23; &st17;">W-B</tspan></text>
<text transform="matrix(0 -1 1 0 825.6831 444.7759)" style="&st6;"><tspan x="0" y="0" style="&st23; &st17;">(*1)</tspan></text>
<text transform="matrix(0 -1 1 0 839.8433 446.6763)" style="&st6;"><tspan x="0" y="0" style="&st23; &st17;">W-B</tspan></text>
<text transform="matrix(0 -1 1 0 851.1733 444.7759)" style="&st6;"><tspan x="0" y="0" style="&st23; &st17;">(*1)</tspan></text>
<text transform="matrix(1 0 0 1 976.9927 411.4858)" style="&st6;"><tspan x="0" y="0" style="&st23; &st17;">(*1)</tspan></text>
<text transform="matrix(0 -1 1 0 604.7231 446.3608)" style="&st6;"><tspan x="0" y="0" style="&st23; &st17;">(*2 *6)</tspan></text>
<text transform="matrix(0 -1 1 0 664.2134 446.3608)" style="&st6;"><tspan x="0" y="0" style="&st23; &st17;">(*2 *6)</tspan></text>
<text transform="matrix(0 -1 1 0 732.1929 525.8354)" style="&st6;"><tspan x="0" y="0" style="&st23; &st17;">(*2 *7)</tspan></text>
<text transform="matrix(0 -1 1 0 732.1929 447.2788)" style="&st6;"><tspan x="0" y="0" style="&st23; &st17;">(*2 *7)</tspan></text>
<text transform="matrix(1 0 0 1 912.9429 470.6958)" style="&st6;"><tspan x="0" y="0" style="&st23; &st17;">(*2 *6)</tspan></text>
<text transform="matrix(1 0 0 1 912.9429 488.2153)" style="&st6;"><tspan x="0" y="0" style="&st23; &st17;">(*2 *5)</tspan></text>
<text transform="matrix(1 0 0 1 980.9331 488.2153)" style="&st6;"><tspan x="0" y="0" style="&st23; &st17;">(*2 *5)</tspan></text>
<text transform="matrix(1 0 0 1 912.9429 479.1958)" style="&st6;"><tspan x="0" y="0" style="&st23; &st17;">(*1)</tspan></text>
<text transform="matrix(0 -1 1 0 593.3833 491.856)" style="&st6;"><tspan x="0" y="0" style="&st23; &st17;">P</tspan></text>
<text transform="matrix(0 -1 1 0 652.8735 493.8569)" style="&st6;"><tspan x="0" y="0" style="&st23; &st17;">LG</tspan></text>
<text transform="matrix(0 -1 1 0 814.353 531.6665)" style="&st6;"><tspan x="0" y="0" style="&st23; &st17;">W-B</tspan></text>
<text transform="matrix(0 -1 1 0 825.6831 529.7563)" style="&st6;"><tspan x="0" y="0" style="&st23; &st17;">(*1)</tspan></text>
<text transform="matrix(0 -1 1 0 678.3735 222.6758)" style="&st6;"><tspan x="0" y="0" style="&st23; &st17;">SB</tspan></text>
<text transform="matrix(0 -1 1 0 689.7026 224.1958)" style="&st6;"><tspan x="0" y="0" style="&st23; &st17;">(*2)</tspan></text>
<text transform="matrix(0 -1 1 0 720.8628 225.7158)" style="&st6;"><tspan x="0" y="0" style="&st23; &st17;">W-B</tspan></text>
<text transform="matrix(0 -1 1 0 732.1929 224.1958)" style="&st6;"><tspan x="0" y="0" style="&st23; &st17;">(*2)</tspan></text>
<text transform="matrix(1 0 0 1 980.9331 479.1958)" style="&st6;"><tspan x="0" y="0" style="&st23; &st17;">(*1)</tspan></text>
<text transform="matrix(1 0 0 1 980.9331 470.6958)" style="&st6;"><tspan x="0" y="0" style="&st23; &st17;">(*2 *6)</tspan></text>
<text transform="matrix(0 -1 1 0 899.3335 508.9458)" style="&st6;"><tspan x="0" y="0" style="&st23; &st17;">L</tspan></text>
<text transform="matrix(0 -1 1 0 967.3228 509.2954)" style="&st6;"><tspan x="0" y="0" style="&st23; &st17;">V</tspan></text>
<text ewd:textID="1" transform="matrix(1 0 0 1 620.0532 50.0156)" style="&st6; &st23; &st17;">* 1 :Lumbar Support Control Only</text>
<text ewd:textID="2" transform="matrix(1 0 0 1 620.0532 58.5156)" style="&st6; &st23; &st17;">* 2 :Except Lumbar Support Control Only</text>
<text transform="matrix(0 -1 1 0 604.7231 498.3579)" style="&st6;"><tspan x="0" y="0" style="&st23; &st17;">(*2 *6)</tspan></text>
<text transform="matrix(0 -1 1 0 664.2134 498.3579)" style="&st6;"><tspan x="0" y="0" style="&st23; &st17;">(*2 *6)</tspan></text>
<text transform="matrix(1 0 0 1 549.7329 163.3257)" style="&st6;"><tspan x="0" y="0" style="&st23; &st17;">W</tspan></text>
<text transform="matrix(1 0 0 1 547.2935 174.6558)" style="&st6;"><tspan x="0" y="0" style="&st23; &st17;">(*1)</tspan></text>
<text ewd:textID="3" transform="matrix(1 0 0 1 620.0532 67.0059)" style="&st6; &st23; &st17;">* 3 :Before Oct. 2010 Production</text>
<text ewd:textID="4" transform="matrix(1 0 0 1 620.0532 75.5059)" style="&st6; &st23; &st17;">* 4 :From Oct. 2010 Production</text>
<text transform="matrix(1 0 0 1 730.5327 461.3462)" style="&st6;"><tspan x="0" y="0" style="&st23; &st17;">(*3)</tspan></text>
<text transform="matrix(1 0 0 1 730.5327 470.4048)" style="&st6;"><tspan x="0" y="0" style="&st23; &st17;">(*4)</tspan></text>
<text transform="matrix(1 0 0 1 730.5327 496.4751)" style="&st6;"><tspan x="0" y="0" style="&st23; &st17;">(*3)</tspan></text>
<text transform="matrix(1 0 0 1 730.5327 505.5356)" style="&st6;"><tspan x="0" y="0" style="&st23; &st17;">(*4)</tspan></text>
<text ewd:textID="5" transform="matrix(1 0 0 1 620.0532 84.0059)" style="&st6; &st23; &st17;">* 5 :w/ Climate Control Seat</text>
<text ewd:textID="8" transform="matrix(1 0 0 1 620.0532 109.4961)" style="&st6; &st23; &st17;">* 8 :w/o Seat Heater</text>
<text ewd:textID="6" transform="matrix(1 0 0 1 620.0532 92.4961)" style="&st6; &st23; &st17;">* 6 :w/o Climate Control Seat</text>
<text ewd:textID="7" transform="matrix(1 0 0 1 620.0532 100.9961)" style="&st6; &st23; &st17;">* 7 :w/ Seat Heater</text>
<text transform="matrix(0 -1 1 0 622.3921 439.8579)" style="&st6;"><tspan x="0" y="0" style="&st23; &st17;">P</tspan></text>
<text transform="matrix(0 -1 1 0 633.7222 446.3608)" style="&st6;"><tspan x="0" y="0" style="&st23; &st17;">(*2 *5)</tspan></text>
<text transform="matrix(0 -1 1 0 622.3921 491.856)" style="&st6;"><tspan x="0" y="0" style="&st23; &st17;">P</tspan></text>
<text transform="matrix(0 -1 1 0 633.7222 498.3579)" style="&st6;"><tspan x="0" y="0" style="&st23; &st17;">(*2 *5)</tspan></text>
<text transform="matrix(0 -1 1 0 681.8813 441.8599)" style="&st6;"><tspan x="0" y="0" style="&st23; &st17;">LG</tspan></text>
<text transform="matrix(0 -1 1 0 693.2114 446.3608)" style="&st6;"><tspan x="0" y="0" style="&st23; &st17;">(*2 *5)</tspan></text>
<text transform="matrix(0 -1 1 0 681.8813 493.8569)" style="&st6;"><tspan x="0" y="0" style="&st23; &st17;">LG</tspan></text>
<text transform="matrix(0 -1 1 0 693.2114 498.3579)" style="&st6;"><tspan x="0" y="0" style="&st23; &st17;">(*2 *5)</tspan></text>
<text transform="matrix(0 -1 1 0 781.1353 480.5522)" style="&st6;"><tspan x="0" y="0" style="&st23; &st17;">W-B</tspan></text>
<text transform="matrix(0 -1 1 0 792.4653 483.2788)" style="&st6;"><tspan x="0" y="0" style="&st23; &st17;">(*2 *8)</tspan></text>
</svg>
