﻿<?xml version="1.0" encoding="UTF-8"?>
<!DOCTYPE svg PUBLIC "-//W3C//DTD SVG 1.0//EN" "http://www.w3.org/TR/2001/REC-SVG-20010904/DTD/svg10.dtd"[
<!ENTITY ns_flows "http://ns.adobe.com/Flows/1.0/">
<!ENTITY ns_svg "http://www.w3.org/2000/svg">
<!ENTITY ns_xlink "http://www.w3.org/1999/xlink">
	<!ENTITY st0 "fill:none;stroke:#FB0F0C;stroke-width:5.1;stroke-linejoin:round;">
		<!ENTITY st1 "fill:none;stroke:#000000;stroke-width:0.85;stroke-linecap:round;stroke-linejoin:round;stroke-dasharray:3 1.5;enable-background:new    ;">
	<!ENTITY st2 "fill:none;stroke:#000000;stroke-width:5.1;stroke-linejoin:round;">
	<!ENTITY st3 "fill:none;stroke:#000000;stroke-linecap:round;stroke-linejoin:round;">
	<!ENTITY st4 "fill:#1D63A2;">
	<!ENTITY st5 "stroke:#000000;stroke-width:0.28;stroke-linecap:round;stroke-linejoin:round;enable-background:new    ;">
	<!ENTITY st6 "enable-background:new    ;">
	<!ENTITY st7 "fill:none;stroke:#000000;stroke-width:0.5;">
		<!ENTITY st8 "fill:none;stroke:#000000;stroke-width:1.42;stroke-linecap:round;stroke-linejoin:round;enable-background:new    ;">
	<!ENTITY st9 "fill:none;stroke:#199DBF;stroke-width:5.1;stroke-linejoin:round;">
	<!ENTITY st10 "opacity:0.5;fill:none;stroke:#34ACCE;stroke-linejoin:round;stroke-dasharray:6;">
	<!ENTITY st11 "fill:none;stroke:#FFFFFF;stroke-width:4.53;stroke-linejoin:round;">
	<!ENTITY st12 "fill:#F6140D;">
		<!ENTITY st13 "fill:none;stroke:#000000;stroke-width:0.85;stroke-linecap:round;stroke-linejoin:round;enable-background:new    ;">
	<!ENTITY st14 "fill:none;stroke:#56107C;stroke-width:5.1;stroke-linejoin:round;">
	<!ENTITY st15 "font-size:6px;">
	<!ENTITY st16 "fill:none;stroke:#168638;stroke-width:5.1;stroke-linejoin:round;">
	<!ENTITY st17 "fill:none;stroke:#000000;stroke-width:1.13;stroke-linejoin:round;">
	<!ENTITY st18 "fill:#FFFFFF;stroke:#000000;stroke-width:1.41;stroke-linecap:round;stroke-linejoin:round;">
	<!ENTITY st19 "fill:none;stroke:#3E65AC;stroke-width:3;">
	<!ENTITY st20 "display:inline;">
	<!ENTITY st21 "fill:#CCCCCC;stroke:#CCCCCC;stroke-width:0.1;stroke-linecap:round;stroke-linejoin:round;">
	<!ENTITY st22 "stroke:#FFFFFF;stroke-width:2;">
	<!ENTITY st23 "font-family:'Arial';">
	<!ENTITY st24 "opacity:0.5;fill:none;stroke:#34ACCE;stroke-linejoin:round;">
	<!ENTITY st25 "fill:#CFE6E7;stroke:#000000;stroke-width:1.133;stroke-linecap:round;stroke-linejoin:round;">
	<!ENTITY st26 "font-size:12px;">
	<!ENTITY st27 "fill:none;stroke:#99D5E0;stroke-width:5.1;stroke-linejoin:round;">
	<!ENTITY st28 "display:none;">
<!ATTLIST svg
xmlns:ewd CDATA #FIXED "http://shcl.co.jp/ewd"
xmlns:a CDATA #FIXED "http://ns.adobe.com/AdobeSVGViewerExtensions/3.0/"
ewd:ver CDATA #IMPLIED
>
<!ATTLIST a
ewd:lineID CDATA #IMPLIED
ewd:groupID CDATA #IMPLIED
ewd:figtype CDATA #IMPLIED
ewd:code CDATA #IMPLIED
ewd:figID CDATA #IMPLIED
ewd:pinNo CDATA #IMPLIED
ewd:comment CDATA #IMPLIED >
<!ATTLIST g
ewd:lineID CDATA #IMPLIED
ewd:groupID CDATA #IMPLIED
ewd:figtype CDATA #IMPLIED
ewd:code CDATA #IMPLIED
ewd:figID CDATA #IMPLIED
ewd:pinNo CDATA #IMPLIED
ewd:comment CDATA #IMPLIED >
<!ATTLIST text
ewd:textID CDATA #IMPLIED >
<!ATTLIST title
ewd:textID CDATA #IMPLIED >
]>
<svg 
viewBox='0 0 1044.62 729.44'
height='729.44'
width='1044.62'
xml:space="preserve"
xmlns="&ns_svg;"
xmlns:ewd="http://shcl.co.jp/ewd"
xmlns:xlink="&ns_xlink;" ewd:ver="L2.1">
<g ewd:code="Gi1" ewd:figID="619" ewd:figtype="w2w" ewd:pinNo="23">
<path style="&st8;" d="M691.39,649.44h8.49"/>
<path style="&st8;" d="M695.64,640.37l4.24,4.25l4.25-4.25"/>
<path style="&st8;" d="M704.13,643.77l-4.25,4.25l-4.24-4.25"/>
<text transform="matrix(1 0 0 1 681.7158 655.6655)" style="&st6;"><tspan x="0" y="0" style="&st23; &st15;">23</tspan></text>
</g>
<g ewd:code="Qa1" ewd:figID="620" ewd:figtype="w2w" ewd:pinNo="5">
<path style="&st8;" d="M869.86,379.48h8.5"/>
<path style="&st8;" d="M874.11,370.43l4.24,4.25l4.25-4.25"/>
<path style="&st8;" d="M882.6,373.82l-4.25,4.25l-4.24-4.25"/>
<text transform="matrix(1 0 0 1 863.5234 385.7046)" style="&st6;"><tspan x="0" y="0" style="&st23; &st15;">5</tspan></text>
</g>
<g ewd:code="Qa1" ewd:figID="621" ewd:figtype="w2w" ewd:pinNo="6">
<path style="&st8;" d="M946.34,379.48h8.5"/>
<path style="&st8;" d="M950.59,370.43l4.25,4.25l4.25-4.25"/>
<path style="&st8;" d="M959.09,373.82l-4.25,4.25l-4.25-4.25"/>
<text transform="matrix(1 0 0 1 940.0029 385.7046)" style="&st6;"><tspan x="0" y="0" style="&st23; &st15;">6</tspan></text>
</g>
<g ewd:code="GQ1" ewd:figID="622" ewd:figtype="w2w" ewd:pinNo="8">
<path style="&st8;" d="M971.84,467.47h8.5"/>
<path style="&st8;" d="M976.09,458.42l4.25,4.25l4.25-4.25"/>
<path style="&st8;" d="M984.59,461.81l-4.25,4.24l-4.25-4.24"/>
<text transform="matrix(1 0 0 1 965.5029 473.6948)" style="&st6;"><tspan x="0" y="0" style="&st23; &st15;">8</tspan></text>
</g>
<g ewd:code="GQ1" ewd:figID="615" ewd:figtype="w2w" ewd:pinNo="29">
<path style="&st8;" d="M776.37,294.5h8.5"/>
<path style="&st8;" d="M780.62,285.43l4.25,4.25l4.25-4.25"/>
<path style="&st8;" d="M789.12,288.83l-4.25,4.25l-4.25-4.25"/>
<text transform="matrix(1 0 0 1 766.6963 300.7246)" style="&st6;"><tspan x="0" y="0" style="&st23; &st15;">29</tspan></text>
</g>
<g ewd:code="Qa1" ewd:figID="617" ewd:figtype="w2w" ewd:pinNo="11">
<path style="&st8;" d="M776.37,255.75h8.5"/>
<path style="&st8;" d="M780.62,246.69l4.25,4.25l4.25-4.25"/>
<path style="&st8;" d="M789.12,250.09l-4.25,4.25l-4.25-4.25"/>
<text transform="matrix(1 0 0 1 767.1416 261.9746)" style="&st6;"><tspan x="0" y="0" style="&st23; &st15;">11</tspan></text>
</g>
<g ewd:code="Qa1" ewd:figID="613" ewd:figtype="w2w" ewd:pinNo="10">
<path style="&st8;" d="M733.88,255.75h8.5"/>
<path style="&st8;" d="M738.13,246.69l4.25,4.25l4.25-4.25"/>
<path style="&st8;" d="M746.63,250.09l-4.25,4.25l-4.25-4.25"/>
<text transform="matrix(1 0 0 1 724.2061 261.9746)" style="&st6;"><tspan x="0" y="0" style="&st23; &st15;">10</tspan></text>
</g>
<g ewd:code="GQ1" ewd:figID="612" ewd:figtype="w2w" ewd:pinNo="28">
<path style="&st8;" d="M733.88,294.5h8.5"/>
<path style="&st8;" d="M738.13,285.43l4.25,4.25l4.25-4.25"/>
<path style="&st8;" d="M746.63,288.83l-4.25,4.25l-4.25-4.25"/>
<text transform="matrix(1 0 0 1 724.2061 300.7246)" style="&st6;"><tspan x="0" y="0" style="&st23; &st15;">28</tspan></text>
</g>
<g ewd:code="Gi1" ewd:figID="616" ewd:figtype="w2w" ewd:pinNo="18">
<path style="&st8;" d="M793.37,353.49h-8.5"/>
<path style="&st8;" d="M789.12,359.15l-4.25-4.25l-4.25,4.25"/>
<path style="&st8;" d="M789.12,362.55l-4.25-4.25l-4.25,4.25"/>
<text transform="matrix(1 0 0 1 766.6963 351.2148)" style="&st6;"><tspan x="0" y="0" style="&st23; &st15;">18</tspan></text>
</g>
<g ewd:code="Gi1" ewd:figID="614" ewd:figtype="w2w" ewd:pinNo="19">
<path style="&st8;" d="M750.88,353.49h-8.5"/>
<path style="&st8;" d="M746.63,359.15l-4.25-4.25l-4.25,4.25"/>
<path style="&st8;" d="M746.63,362.55l-4.25-4.25l-4.25,4.25"/>
<text transform="matrix(1 0 0 1 724.2061 351.2148)" style="&st6;"><tspan x="0" y="0" style="&st23; &st15;">19</tspan></text>
</g>
<g ewd:code="Gi1" ewd:figID="611" ewd:figtype="w2w" ewd:pinNo="20">
<path style="&st8;" d="M691.39,349.49h-8.5"/>
<path style="&st8;" d="M687.14,358.55l-4.25-4.25l-4.25,4.25"/>
<path style="&st8;" d="M687.14,355.15l-4.25-4.25l-4.25,4.25"/>
<text transform="matrix(1 0 0 1 664.7158 347.2148)" style="&st6;"><tspan x="0" y="0" style="&st23; &st15;">20</tspan></text>
</g>
<g ewd:code="" ewd:figID="623" ewd:figtype="">
<path style="&st8;" d="M776.37,264.25h8.5"/>
</g>
<g ewd:code="" ewd:figID="624" ewd:figtype="">
<path style="&st8;" d="M733.88,264.25h8.5"/>
</g>
<g ewd:code="" ewd:figID="625" ewd:figtype="">
<path style="&st8;" d="M869.86,387.98h8.5"/>
</g>
<g ewd:code="" ewd:figID="626" ewd:figtype="">
<path style="&st8;" d="M946.34,387.98h8.5"/>
</g>
<g ewd:code="2" ewd:figID="302" ewd:figtype="jb">
<path style="&st3;" d="M670.14,73.53v42.5h25.5v-42.5H670.14"/>
<path style="&st8;" d="M685.01,150.02h-4.25"/>
<path style="&st8;" d="M685.01,141.52h-4.25"/>
<path style="&st13;" d="M682.89,107.53v33.99"/>
<path style="&st8;" d="M670.14,73.53v42.5h25.5v-42.5H670.14"/>
<path style="&st5;" d="M682.89,136.63l-2.84-2.84v4.25l2.84,2.84l2.83-2.84v-4.25L682.89,136.63"/>
<path style="&st8;" d="M689.26,145.77c0-2.35-1.9-4.25-4.25-4.25"/>
<path style="&st8;" d="M685.01,150.02c2.35,0,4.25-1.9,4.25-4.25"/>
<path style="&st8;" d="M676.51,145.77c0,2.35,1.91,4.25,4.25,4.25"/>
<path style="&st8;" d="M680.76,141.52c-2.34,0-4.25,1.9-4.25,4.25"/>
<path style="&st13;" d="M684.3,106.11c0-0.78-0.63-1.41-1.41-1.41"/>
<path style="&st13;" d="M682.89,104.7c-0.78,0-1.42,0.63-1.42,1.41"/>
<path style="&st13;" d="M681.47,106.11c0,0.78,0.64,1.42,1.42,1.42"/>
<path style="&st13;" d="M682.89,107.53c0.78,0,1.41-0.64,1.41-1.42"/>
<path style="&st13;" d="M684.3,83.45c0-0.78-0.63-1.42-1.41-1.42"/>
<path style="&st13;" d="M682.89,82.03c-0.78,0-1.42,0.64-1.42,1.42"/>
<path style="&st13;" d="M681.47,83.45c0,0.78,0.64,1.42,1.42,1.42"/>
<path style="&st13;" d="M682.89,84.87c0.78,0,1.41-0.64,1.41-1.42"/>
<path style="&st8;" d="M682.89,104.7c2.74-1.62,3.65-5.15,2.03-7.88"/>
<path style="&st8;" d="M684.92,96.82c-0.51-0.89-1.15-1.52-2.03-2.04"/>
<path style="&st8;" d="M682.89,84.87c-2.74,1.61-3.65,5.14-2.04,7.87"/>
<path style="&st8;" d="M680.85,92.74c0.52,0.89,1.16,1.52,2.04,2.04"/>
<text transform="matrix(1 0 0 1 639.5098 91.1045)" style="&st6;"><tspan x="0" y="0" style="&st23; &st15;">10A</tspan></text>
<text transform="matrix(1 0 0 1 639.5098 97.1045)" style="&st6;"><tspan x="0" y="0" style="&st23; &st15;">ECU-IG</tspan></text>
<text transform="matrix(1 0 0 1 639.5098 103.1045)" style="&st6;"><tspan x="0" y="0" style="&st23; &st15;">NO.2</tspan></text>
<text transform="matrix(1 0 0 1 676.8096 69.8447)" style="&st6;"><tspan x="0" y="0" style="&st23; &st15;">(IG)</tspan></text>
<text transform="matrix(1 0 0 1 666.2402 147.7446)" style="&st6;"><tspan x="0" y="0" style="&st23; &st15;">39</tspan></text>
<text transform="matrix(1 0 0 1 678.4404 147.7446)" style="&st6;"><tspan x="0" y="0" style="&st23; &st15;">2D</tspan></text>
</g>
<g ewd:code="3JB" ewd:figID="304" ewd:figtype="jb">
<path style="&st8;" d="M685.01,175.52h-4.25"/>
<path style="&st8;" d="M685.01,184.02h-4.25"/>
<path style="&st8;" d="M685.01,218.01h-4.25"/>
<path style="&st8;" d="M685.01,226.51h-4.25"/>
<path style="&st5;" d="M682.89,188.91l2.83,2.83v-4.25l-2.83-2.83l-2.84,2.83v4.25L682.89,188.91"/>
<path style="&st5;" d="M682.89,213.11l-2.84-2.83v4.25l2.84,2.83l2.83-2.83v-4.25L682.89,213.11"/>
<path style="&st13;" d="M682.89,218.01v-33.99"/>
<path style="&st8;" d="M680.76,175.52c-2.34,0-4.25,1.9-4.25,4.25"/>
<path style="&st8;" d="M676.51,179.77c0,2.34,1.91,4.25,4.25,4.25"/>
<path style="&st8;" d="M685.01,184.02c2.35,0,4.25-1.91,4.25-4.25"/>
<path style="&st8;" d="M689.26,179.77c0-2.35-1.9-4.25-4.25-4.25"/>
<path style="&st8;" d="M680.76,218.01c-2.34,0-4.25,1.9-4.25,4.25"/>
<path style="&st8;" d="M676.51,222.26c0,2.35,1.91,4.25,4.25,4.25"/>
<path style="&st8;" d="M685.01,226.51c2.35,0,4.25-1.9,4.25-4.25"/>
<path style="&st8;" d="M689.26,222.26c0-2.35-1.9-4.25-4.25-4.25"/>
<text transform="matrix(1 0 0 1 678.5801 181.7446)" style="&st6;"><tspan x="0" y="0" style="&st23; &st15;">3B</tspan></text>
<text transform="matrix(1 0 0 1 666.2402 181.7446)" style="&st6;"><tspan x="0" y="0" style="&st23; &st15;">36</tspan></text>
<text transform="matrix(1 0 0 1 678.5801 224.2344)" style="&st6;"><tspan x="0" y="0" style="&st23; &st15;">3A</tspan></text>
<text transform="matrix(1 0 0 1 667.0195 224.2344)" style="&st6;"><tspan x="0" y="0" style="&st23; &st15;">18</tspan></text>
</g>
<g ewd:code="4JB" ewd:figID="303" ewd:figtype="jb">
<path style="&st8;" d="M685.01,243.51h-4.25"/>
<path style="&st8;" d="M685.01,252h-4.25"/>
<path style="&st8;" d="M685.01,286h-4.25"/>
<path style="&st8;" d="M685.01,294.5h-4.25"/>
<path style="&st8;" d="M653.14,264.75h4.25"/>
<path style="&st8;" d="M657.39,273.25h-4.25"/>
<path style="&st5;" d="M682.89,256.9l2.83,2.83v-4.25l-2.83-2.83l-2.84,2.83v4.25L682.89,256.9"/>
<path style="&st13;" d="M682.89,286v-34"/>
<path style="&st5;" d="M682.89,281.1l-2.84-2.83v4.25l2.84,2.83l2.83-2.83v-4.25L682.89,281.1"/>
<path style="&st13;" d="M661.64,269h21.25"/>
<path style="&st13;" d="M681.69,268l-0.27,0.47l-0.09,0.53l0.09,0.53l0.27,0.47l0.42,0.35l0.51,0.19h0.54l0.51-0.19l0.41-0.35l0.27-0.47l0.1-0.53l-0.1-0.53l-0.27-0.47l-0.41-0.35l-0.51-0.18h-0.54l-0.51,0.18L681.69,268l0.4,0.71v0.58l0.37,0.45l0.57,0.1l0.51-0.29l0.2-0.55l-0.2-0.55l-0.51-0.28l-0.57,0.09l0.43,0.74"/>
<path style="&st5;" d="M666.54,269l2.83-2.83h-4.25l-2.83,2.83l2.83,2.83h4.25L666.54,269"/>
<path style="&st8;" d="M680.76,243.51c-2.34,0-4.25,1.9-4.25,4.24"/>
<path style="&st8;" d="M676.51,247.75c0,2.35,1.91,4.25,4.25,4.25"/>
<path style="&st8;" d="M685.01,252c2.35,0,4.25-1.9,4.25-4.25"/>
<path style="&st8;" d="M689.26,247.75c0-2.34-1.9-4.24-4.25-4.24"/>
<path style="&st8;" d="M680.76,286c-2.34,0-4.25,1.9-4.25,4.25"/>
<path style="&st8;" d="M676.51,290.25c0,2.34,1.91,4.25,4.25,4.25"/>
<path style="&st8;" d="M685.01,294.5c2.35,0,4.25-1.91,4.25-4.25"/>
<path style="&st8;" d="M689.26,290.25c0-2.35-1.9-4.25-4.25-4.25"/>
<path style="&st8;" d="M653.14,264.75c-2.34,0-4.25,1.9-4.25,4.25"/>
<path style="&st8;" d="M648.89,269c0,2.35,1.91,4.25,4.25,4.25"/>
<path style="&st8;" d="M657.39,273.25c2.35,0,4.25-1.9,4.25-4.25"/>
<path style="&st8;" d="M661.64,269c0-2.35-1.9-4.25-4.25-4.25"/>
<text transform="matrix(1 0 0 1 650.8203 270.9746)" style="&st6;"><tspan x="0" y="0" style="&st23; &st15;">4C</tspan></text>
<text transform="matrix(1 0 0 1 651.3096 261.7646)" style="&st6;"><tspan x="0" y="0" style="&st23; &st15;">37</tspan></text>
<text transform="matrix(1 0 0 1 678.5801 249.7246)" style="&st6;"><tspan x="0" y="0" style="&st23; &st15;">4A</tspan></text>
<text transform="matrix(1 0 0 1 667.0195 249.7246)" style="&st6;"><tspan x="0" y="0" style="&st23; &st15;">14</tspan></text>
<text transform="matrix(1 0 0 1 678.4404 292.2246)" style="&st6;"><tspan x="0" y="0" style="&st23; &st15;">4C</tspan></text>
<text transform="matrix(1 0 0 1 666.2402 292.2246)" style="&st6;"><tspan x="0" y="0" style="&st23; &st15;">38</tspan></text>
</g>
<g ewd:code="4JB" ewd:figID="305" ewd:figtype="jb">
<path style="&st8;" d="M642.52,652.94h-4.25"/>
<path style="&st8;" d="M642.52,661.44h-4.25"/>
<path style="&st8;" d="M610.65,631.69h4.25"/>
<path style="&st8;" d="M614.9,640.19h-4.25"/>
<path style="&st8;" d="M668.02,652.94h-4.25"/>
<path style="&st8;" d="M668.02,661.44h-4.25"/>
<path style="&st5;" d="M665.89,648.04l-2.83-2.83v4.25l2.83,2.83l2.83-2.83v-4.25L665.89,648.04"/>
<path style="&st5;" d="M640.39,648.04l-2.83-2.83v4.25l2.83,2.83l2.84-2.83v-4.25L640.39,648.04"/>
<path style="&st13;" d="M639.2,634.94l-0.27,0.47l-0.09,0.53l0.09,0.53l0.27,0.47l0.42,0.35l0.5,0.19h0.55l0.5-0.19l0.42-0.35l0.27-0.47l0.09-0.53l-0.09-0.53l-0.27-0.47l-0.42-0.35l-0.5-0.18h-0.55l-0.5,0.18L639.2,634.94l0.4,0.71v0.58l0.37,0.45l0.57,0.1l0.51-0.29l0.19-0.55l-0.19-0.55l-0.51-0.28l-0.57,0.09l0.42,0.74"/>
<path style="&st13;" d="M640.39,652.94v-17"/>
<path style="&st5;" d="M624.04,635.94l2.84-2.83h-4.25l-2.84,2.83l2.84,2.83h4.25L624.04,635.94"/>
<path style="&st13;" d="M619.15,635.94h21.24"/>
<path style="&st13;" d="M640.39,635.94h25.5v17"/>
<path style="&st8;" d="M638.27,652.94c-2.35,0-4.25,1.9-4.25,4.25"/>
<path style="&st8;" d="M634.02,657.19c0,2.34,1.9,4.25,4.25,4.25"/>
<path style="&st8;" d="M642.52,661.44c2.35,0,4.25-1.91,4.25-4.25"/>
<path style="&st8;" d="M646.77,657.19c0-2.35-1.9-4.25-4.25-4.25"/>
<path style="&st8;" d="M610.65,631.69c-2.35,0-4.25,1.9-4.25,4.25"/>
<path style="&st8;" d="M606.4,635.94c0,2.35,1.9,4.25,4.25,4.25"/>
<path style="&st8;" d="M614.9,640.19c2.35,0,4.25-1.9,4.25-4.25"/>
<path style="&st8;" d="M619.15,635.94c0-2.35-1.9-4.25-4.25-4.25"/>
<path style="&st8;" d="M663.77,652.94c-2.35,0-4.25,1.9-4.25,4.25"/>
<path style="&st8;" d="M659.52,657.19c0,2.34,1.9,4.25,4.25,4.25"/>
<path style="&st8;" d="M668.02,661.44c2.34,0,4.24-1.91,4.24-4.25"/>
<path style="&st8;" d="M672.26,657.19c0-2.35-1.9-4.25-4.24-4.25"/>
<text transform="matrix(1 0 0 1 608.3203 637.9155)" style="&st6;"><tspan x="0" y="0" style="&st23; &st15;">4C</tspan></text>
<text transform="matrix(1 0 0 1 608.8203 628.7046)" style="&st6;"><tspan x="0" y="0" style="&st23; &st15;">47</tspan></text>
<text transform="matrix(1 0 0 1 661.4404 659.1655)" style="&st6;"><tspan x="0" y="0" style="&st23; &st15;">4C</tspan></text>
<text transform="matrix(1 0 0 1 649.2402 659.1655)" style="&st6;"><tspan x="0" y="0" style="&st23; &st15;">48</tspan></text>
<text transform="matrix(1 0 0 1 636.0898 659.1655)" style="&st6;"><tspan x="0" y="0" style="&st23; &st15;">4A</tspan></text>
<text transform="matrix(1 0 0 1 623.75 659.1655)" style="&st6;"><tspan x="0" y="0" style="&st23; &st15;">68</tspan></text>
</g>
<g ewd:code="Q1" ewd:figID="203" ewd:figtype="gp">
<path style="&st13;" d="M878.35,701.02v4.25"/>
<path style="&st13;" d="M869.86,705.27h16.99"/>
<path style="&st13;" d="M874.11,708.1h8.49"/>
<path style="&st13;" d="M875.52,710.94h5.67"/>
<path style="&st13;" d="M876.94,713.77h2.83"/>
<text transform="matrix(1 0 0 1 873.7803 693.5952)" style="&st6;"><tspan x="0" y="0" style="&st23; &st15;">Q1</tspan></text>
</g>
<g ewd:code="i3,G109" ewd:figID="10" ewd:figtype="conn">
<path style="&st13;" d="M704.13,530.46h-8.49"/>
<path style="&st13;" d="M712.62,520.8l-7.36,4.25"/>
<path style="&st13;" d="M707.26,528.52l7.36-4.25"/>
<path style="&st13;" d="M704.13,547.46h-8.49"/>
<path style="&st5;" d="M699.88,547.46l-5.66-8.5h11.33L699.88,547.46"/>
<path style="&st13;" d="M742.38,419.98v93.48"/>
<path style="&st13;" d="M745.21,529.04l3.54,1.47v-2.93L745.21,529.04h1.48l1.49,0.62v-1.23l-1.49,0.61h0.74l0.47,0.2v-0.39l-0.47,0.19"/>
<path style="&st5;" d="M699.88,530.46l-5.66-8.5h11.33L699.88,530.46"/>
<path style="&st13;" d="M712.62,520.8l-2.34,3.04l-1.46-2.54L712.62,520.8l-1.28,0.74l-0.99,1.28l-0.62-1.07l1.61-0.21l-0.65,0.37l-0.31,0.4l-0.19-0.34l0.5-0.06"/>
<path style="&st13;" d="M714.62,524.27l-2.33,3.05l-1.47-2.54L714.62,524.27l-1.28,0.75l-0.99,1.28l-0.62-1.07l1.61-0.21l-0.64,0.36l-0.31,0.41l-0.2-0.34l0.51-0.07"/>
<path style="&st13;" d="M745.21,529.04h39.66"/>
<path style="&st13;" d="M699.88,513.46h42.5"/>
<path style="&st13;" d="M783.68,528.04l-0.27,0.47l-0.1,0.53l0.1,0.54l0.27,0.47l0.41,0.34l0.51,0.19h0.54l0.51-0.19l0.41-0.34l0.28-0.47l0.09-0.54l-0.09-0.53l-0.28-0.47l-0.41-0.34l-0.51-0.19h-0.54l-0.51,0.19L783.68,528.04l0.39,0.71v0.59l0.38,0.44l0.57,0.1l0.5-0.29l0.2-0.55l-0.2-0.54l-0.5-0.29l-0.57,0.1l0.42,0.73"/>
<path style="&st13;" d="M741.18,512.46l-0.27,0.47l-0.09,0.53l0.09,0.54l0.27,0.47l0.42,0.34l0.51,0.19h0.54l0.51-0.19l0.41-0.34l0.27-0.47l0.1-0.54l-0.1-0.53l-0.27-0.47l-0.41-0.35l-0.51-0.18h-0.54l-0.51,0.18L741.18,512.46l0.4,0.71v0.58l0.37,0.45l0.57,0.1l0.51-0.29l0.2-0.55l-0.2-0.54l-0.51-0.29l-0.57,0.1l0.43,0.73"/>
<path style="&st8;" d="M597.9,419.98v161.47h203.97V419.98H597.9"/>
<path style="&st1;" d="M716.88,462.47h42.49v66.57"/>
<path style="&st13;" d="M742.38,513.46v8.5l2.83,1.42l-5.67,2.83l5.67,2.83l-5.67,2.84l5.67,2.83l-5.67,2.83l2.84,1.42v8.5h42.49V419.98"/>
<path style="&st13;" d="M699.88,496.47v59.49l2.84,1.41l-5.67,2.83l5.67,2.84l-5.67,2.83l5.67,2.83l-5.67,2.84l2.83,1.41v8.5"/>
<path style="&st8;" d="M614.9,445.47h93.48v51H614.9V445.47"/>
<path style="&st13;" d="M674.39,445.47v51"/>
<path style="&st13;" d="M691.39,445.47v51"/>
<path style="&st13;" d="M698.47,483.72H684.3"/>
<path style="&st13;" d="M614.9,470.97h93.48"/>
<path style="&st13;" d="M698.69,512.46l-0.27,0.47l-0.09,0.53l0.09,0.54l0.27,0.47l0.42,0.34l0.5,0.19h0.55l0.5-0.19l0.42-0.34l0.27-0.47l0.09-0.54l-0.09-0.53l-0.27-0.47l-0.42-0.35l-0.5-0.18h-0.55l-0.5,0.18L698.69,512.46l0.4,0.71v0.58l0.37,0.45l0.57,0.1l0.51-0.29l0.19-0.55l-0.19-0.54l-0.51-0.29l-0.57,0.1l0.42,0.73"/>
<path style="&st1;" d="M606.4,436.98v67.98h110.48v-67.98H606.4"/>
<path style="&st13;" d="M682.89,419.98v25.49"/>
<path style="&st13;" d="M701.3,483.72c0-0.78-0.63-1.42-1.42-1.42"/>
<path style="&st13;" d="M699.88,482.3c-0.78,0-1.41,0.64-1.41,1.42"/>
<path style="&st13;" d="M698.47,483.72c0,0.78,0.63,1.41,1.41,1.41"/>
<path style="&st13;" d="M699.88,485.13c0.79,0,1.42-0.63,1.42-1.41"/>
<path style="&st13;" d="M684.3,483.72c0-0.78-0.63-1.42-1.41-1.42"/>
<path style="&st13;" d="M682.89,482.3c-0.78,0-1.42,0.64-1.42,1.42"/>
<path style="&st13;" d="M681.47,483.72c0,0.78,0.64,1.41,1.42,1.41"/>
<path style="&st13;" d="M682.89,485.13c0.78,0,1.41-0.63,1.41-1.41"/>
<path style="&st8;" d="M687.42,415.45c0-2.51-2.03-4.54-4.53-4.54"/>
<path style="&st8;" d="M682.89,410.91c-2.51,0-4.53,2.03-4.53,4.54"/>
<path style="&st8;" d="M678.36,415.45c0,2.5,2.02,4.53,4.53,4.53"/>
<path style="&st8;" d="M682.89,419.98c2.5,0,4.53-2.03,4.53-4.53"/>
<path style="&st8;" d="M687.42,406.38c0-2.5-2.03-4.53-4.53-4.53"/>
<path style="&st8;" d="M682.89,401.85c-2.51,0-4.53,2.03-4.53,4.53"/>
<path style="&st8;" d="M678.36,406.38c0,2.5,2.02,4.53,4.53,4.53"/>
<path style="&st8;" d="M682.89,410.91c2.5,0,4.53-2.03,4.53-4.53"/>
<path style="&st8;" d="M746.91,415.45c0-2.51-2.03-4.54-4.53-4.54"/>
<path style="&st8;" d="M742.38,410.91c-2.51,0-4.53,2.03-4.53,4.54"/>
<path style="&st8;" d="M737.85,415.45c0,2.5,2.02,4.53,4.53,4.53"/>
<path style="&st8;" d="M742.38,419.98c2.5,0,4.53-2.03,4.53-4.53"/>
<path style="&st8;" d="M704.42,585.98c0-2.5-2.03-4.53-4.54-4.53"/>
<path style="&st8;" d="M699.88,581.45c-2.5,0-4.53,2.03-4.53,4.53"/>
<path style="&st8;" d="M695.35,585.98c0,2.51,2.03,4.54,4.53,4.54"/>
<path style="&st8;" d="M699.88,590.52c2.51,0,4.54-2.03,4.54-4.54"/>
<path style="&st8;" d="M746.91,406.38c0-2.5-2.03-4.53-4.53-4.53"/>
<path style="&st8;" d="M742.38,401.85c-2.51,0-4.53,2.03-4.53,4.53"/>
<path style="&st8;" d="M737.85,406.38c0,2.5,2.02,4.53,4.53,4.53"/>
<path style="&st8;" d="M742.38,410.91c2.5,0,4.53-2.03,4.53-4.53"/>
<path style="&st8;" d="M789.4,415.45c0-2.51-2.03-4.54-4.53-4.54"/>
<path style="&st8;" d="M784.87,410.91c-2.5,0-4.53,2.03-4.53,4.54"/>
<path style="&st8;" d="M780.34,415.45c0,2.5,2.03,4.53,4.53,4.53"/>
<path style="&st8;" d="M784.87,419.98c2.5,0,4.53-2.03,4.53-4.53"/>
<path style="&st8;" d="M789.4,406.38c0-2.5-2.03-4.53-4.53-4.53"/>
<path style="&st8;" d="M784.87,401.85c-2.5,0-4.53,2.03-4.53,4.53"/>
<path style="&st8;" d="M780.34,406.38c0,2.5,2.03,4.53,4.53,4.53"/>
<path style="&st8;" d="M784.87,410.91c2.5,0,4.53-2.03,4.53-4.53"/>
<path style="&st8;" d="M704.42,595.05c0-2.5-2.03-4.53-4.54-4.53"/>
<path style="&st8;" d="M699.88,590.52c-2.5,0-4.53,2.03-4.53,4.53"/>
<path style="&st8;" d="M695.35,595.05c0,2.5,2.03,4.53,4.53,4.53"/>
<path style="&st8;" d="M699.88,599.59c2.51,0,4.54-2.03,4.54-4.53"/>
<text transform="matrix(1 0 0 1 697.5498 587.9546)" style="&st6;"><tspan x="0" y="0" style="&st23; &st15;">A</tspan></text>
<text transform="matrix(1 0 0 1 689.0098 597.0249)" style="&st6;"><tspan x="0" y="0" style="&st23; &st15;">3</tspan></text>
<text transform="matrix(1 0 0 1 697.5498 597.0249)" style="&st6;"><tspan x="0" y="0" style="&st23; &st15;">B</tspan></text>
<text transform="matrix(1 0 0 1 637.6504 460.1948)" style="&st6;"><tspan x="0" y="0" style="&st23; &st15;">OFF</tspan></text>
<text ewd:textID='14' transform='matrix(1 0 0 1 624.2998 478.4194)' style='&st6; &st23; &st15;'>ON <tspan x='0' y='7' >Temperature </tspan><tspan x='0' y='14' style='&st23; &st15;'>Adjustment</tspan></text>
<text transform="matrix(1 0 0 1 672.0098 417.4146)" style="&st6;"><tspan x="0" y="0" style="&st23; &st15;">7</tspan></text>
<text transform="matrix(1 0 0 1 745.21 428.1753)" style="&st6;"><tspan x="0" y="0" style="&st23; &st15;">SW</tspan></text>
<text transform="matrix(1 0 0 1 787.7002 428.1753)" style="&st6;"><tspan x="0" y="0" style="&st23; &st15;">RV</tspan></text>
<text transform="matrix(1 0 0 1 702.7197 577.7651)" style="&st6;"><tspan x="0" y="0" style="&st23; &st15;">E</tspan></text>
<text transform="matrix(1 0 0 1 685.7197 428.1753)" style="&st6;"><tspan x="0" y="0" style="&st23; &st15;">IG</tspan></text>
<text ewd:textID='20' transform='matrix(1 0 0 1 743.3496 596.1753)' style='&st6; &st23; &st15;'>Seat Heater Switch RH</text>
<text transform="matrix(1 0 0 1 743.3496 589.064)" style="&st6;"><tspan x="0" y="0" style="&st23; &st15;">G109(A),i3(B)</tspan></text>
<text transform="matrix(1 0 0 1 680.5596 408.355)" style="&st6;"><tspan x="0" y="0" style="&st23; &st15;">A</tspan></text>
<text transform="matrix(1 0 0 1 680.5596 417.4146)" style="&st6;"><tspan x="0" y="0" style="&st23; &st15;">B</tspan></text>
<text transform="matrix(1 0 0 1 672.0098 408.355)" style="&st6;"><tspan x="0" y="0" style="&st23; &st15;">7</tspan></text>
<text transform="matrix(1 0 0 1 731.5 417.4146)" style="&st6;"><tspan x="0" y="0" style="&st23; &st15;">2</tspan></text>
<text transform="matrix(1 0 0 1 740.0498 417.4146)" style="&st6;"><tspan x="0" y="0" style="&st23; &st15;">B</tspan></text>
<text transform="matrix(1 0 0 1 731.5 408.355)" style="&st6;"><tspan x="0" y="0" style="&st23; &st15;">2</tspan></text>
<text transform="matrix(1 0 0 1 740.0498 408.355)" style="&st6;"><tspan x="0" y="0" style="&st23; &st15;">A</tspan></text>
<text transform="matrix(1 0 0 1 689.0098 587.9546)" style="&st6;"><tspan x="0" y="0" style="&st23; &st15;">3</tspan></text>
<text transform="matrix(1 0 0 1 773.9902 417.4146)" style="&st6;"><tspan x="0" y="0" style="&st23; &st15;">5</tspan></text>
<text transform="matrix(1 0 0 1 782.54 417.4146)" style="&st6;"><tspan x="0" y="0" style="&st23; &st15;">B</tspan></text>
<text transform="matrix(1 0 0 1 773.9902 408.355)" style="&st6;"><tspan x="0" y="0" style="&st23; &st15;">5</tspan></text>
<text transform="matrix(1 0 0 1 782.54 408.355)" style="&st6;"><tspan x="0" y="0" style="&st23; &st15;">A</tspan></text>
</g>
<g ewd:code="a7" ewd:figID="4" ewd:figtype="conn">
<path style="&st13;" d="M861.36,136.52h8.5l1.41-2.83l2.84,5.67l2.83-5.67l2.83,5.67l2.83-5.67l2.84,5.67l1.41-2.84h8.5"/>
<path style="&st8;" d="M716.88,221.51V60.04h263.46v161.47H716.88"/>
<path style="&st13;" d="M742.38,221.51v-17"/>
<path style="&st8;" d="M733.88,204.51v-17h229.46v17H733.88"/>
<path style="&st13;" d="M784.87,204.51v17"/>
<path style="&st13;" d="M878.35,204.51v17"/>
<path style="&st13;" d="M954.84,204.51v17"/>
<path style="&st8;" d="M784.87,179.02V68.53h127.48v110.49H784.87"/>
<path style="&st13;" d="M793.37,187.51v-8.49"/>
<path style="&st13;" d="M895.35,179.02v8.49"/>
<path style="&st8;" d="M827.36,102.53v-17h34v17H827.36"/>
<path style="&st13;" d="M861.36,94.03h33.99v17"/>
<path style="&st13;" d="M793.37,179.02v-67.99"/>
<path style="&st13;" d="M827.36,136.52h4.25v4.25h4.25v-8.5h4.25v8.5h4.25v-8.5h4.25v8.5h4.25v-8.5h4.25v4.25h4.25"/>
<path style="&st13;" d="M827.36,94.03h4.25v4.25h4.25v-8.5h4.25v8.5h4.25v-8.5h4.25v8.5h4.25v-8.5h4.25v4.25h4.25"/>
<path style="&st13;" d="M895.35,136.52v-25.49"/>
<path style="&st13;" d="M827.36,187.51v-8.49"/>
<path style="&st13;" d="M891.1,162.02v8.5"/>
<path style="&st13;" d="M891.1,166.27h8.5"/>
<path style="&st13;" d="M899.6,162.02v8.5"/>
<path style="&st13;" d="M895.35,136.52v24.08"/>
<path style="&st13;" d="M895.35,171.93v7.09"/>
<path style="&st8;" d="M818.86,170.52v-17h51v17H818.86"/>
<path style="&st13;" d="M793.37,111.03v-17h33.99"/>
<path style="&st13;" d="M827.36,170.52v8.5"/>
<path style="&st1;" d="M811.5,140.49v4.53h32.86v7.08"/>
<path style="&st1;" d="M889.69,166.27h-9.64v-27.48"/>
<path style="&st13;" d="M861.36,179.02v8.49"/>
<path style="&st13;" d="M861.36,170.52v8.5"/>
<path style="&st13;" d="M792.18,137.53l-0.28-0.47l-0.09-0.54l0.09-0.53l0.28-0.47l0.41-0.35l0.51-0.18h0.54l0.51,0.18l0.41,0.35l0.27,0.47l0.1,0.53l-0.1,0.54l-0.27,0.47l-0.41,0.34l-0.51,0.19h-0.54l-0.51-0.19L792.18,137.53l0.39-0.72v-0.58l0.37-0.44l0.58-0.1l0.5,0.29l0.2,0.54l-0.2,0.55l-0.5,0.29l-0.58-0.1l0.43-0.74"/>
<path style="&st13;" d="M894.16,137.53l-0.27-0.47l-0.1-0.54l0.1-0.53l0.27-0.47l0.41-0.35l0.51-0.18h0.54l0.51,0.18l0.41,0.35l0.28,0.47l0.09,0.53l-0.09,0.54l-0.28,0.47l-0.41,0.34l-0.51,0.19h-0.54l-0.51-0.19L894.16,137.53l0.39-0.72v-0.58l0.38-0.44l0.57-0.1l0.5,0.29l0.2,0.54l-0.2,0.55l-0.5,0.29l-0.57-0.1l0.42-0.74"/>
<path style="&st8;" d="M784.87,111.03h127.48"/>
<path style="&st13;" d="M793.37,136.52h8.5l1.41-2.83l2.84,5.67l2.83-5.67l2.83,5.67l2.84-5.67l2.83,5.67l1.41-2.84h8.5"/>
<path style="&st13;" d="M896.77,162.02c0-0.78-0.64-1.42-1.42-1.42"/>
<path style="&st13;" d="M895.35,160.6c-0.78,0-1.41,0.64-1.41,1.42"/>
<path style="&st13;" d="M893.94,162.02c0,0.78,0.63,1.41,1.41,1.41"/>
<path style="&st13;" d="M895.35,163.43c0.78,0,1.42-0.63,1.42-1.41"/>
<path style="&st13;" d="M896.77,170.52c0-0.79-0.64-1.42-1.42-1.42"/>
<path style="&st13;" d="M895.35,169.1c-0.78,0-1.41,0.63-1.41,1.42"/>
<path style="&st13;" d="M893.94,170.52c0,0.78,0.63,1.41,1.41,1.41"/>
<path style="&st13;" d="M895.35,171.93c0.78,0,1.42-0.63,1.42-1.41"/>
<text ewd:textID='12' transform='matrix(0 -1 1 0 713.1904 224.0347)' style='&st6; &st23; &st15;'>Front Seat Heater Assembly RH</text>
<text transform="matrix(0 -1 1 0 706.0801 224.0347)" style="&st6;"><tspan x="0" y="0" style="&st23; &st15;">a7</tspan></text>
<text transform="matrix(1 0 0 1 778.0801 229.7046)" style="&st6;"><tspan x="0" y="0" style="&st23; &st15;">5</tspan></text>
<text transform="matrix(1 0 0 1 736.3701 229.7046)" style="&st6;"><tspan x="0" y="0" style="&st23; &st15;">1</tspan></text>
<text transform="matrix(1 0 0 1 871.5703 229.7046)" style="&st6;"><tspan x="0" y="0" style="&st23; &st15;">6</tspan></text>
<text ewd:textID='21' transform='matrix(1 0 0 1 827.4404 163.9946)' style='&st6; &st23; &st15;'>Thermistor</text>
<text ewd:textID='18' transform='matrix(1 0 0 1 817.0996 197.9844)' style='&st6; &st23; &st15;'>Seat Heater Control</text>
<text ewd:textID='16' transform='matrix(1 0 0 1 828.04 81.8345)' style='&st6; &st23; &st15;'>Seat Back</text>
<text ewd:textID='17' transform='matrix(1 0 0 1 823.0303 124.3345)' style='&st6; &st23; &st15;'>Seat Cushion</text>
<text transform="matrix(1 0 0 1 745.21 217.8247)" style="&st6;"><tspan x="0" y="0" style="&st23; &st15;">SWR</tspan></text>
<text transform="matrix(1 0 0 1 787.7002 217.8247)" style="&st6;"><tspan x="0" y="0" style="&st23; &st15;">THR</tspan></text>
<text transform="matrix(1 0 0 1 881.1904 217.8247)" style="&st6;"><tspan x="0" y="0" style="&st23; &st15;">E</tspan></text>
<text transform="matrix(1 0 0 1 948.0498 229.7046)" style="&st6;"><tspan x="0" y="0" style="&st23; &st15;">4</tspan></text>
<text transform="matrix(1 0 0 1 957.6797 217.8247)" style="&st6;"><tspan x="0" y="0" style="&st23; &st15;">B1</tspan></text>
</g>
<g ewd:code="a9,a17" ewd:figID="5" ewd:figtype="conn">
<path style="&st13;" d="M878.35,294.5v16.99"/>
<path style="&st8;" d="M869.86,294.5h16.99v16.99h-16.99V294.5"/>
<path style="&st8;" d="M882.89,325.09c0-2.5-2.03-4.53-4.53-4.53"/>
<path style="&st8;" d="M878.36,320.56c-2.51,0-4.54,2.03-4.54,4.53"/>
<path style="&st8;" d="M873.82,325.09c0,2.5,2.03,4.53,4.54,4.53"/>
<path style="&st8;" d="M878.36,329.62c2.5,0,4.53-2.03,4.53-4.53"/>
<path style="&st8;" d="M882.89,280.9c0-2.5-2.03-4.53-4.53-4.53"/>
<path style="&st8;" d="M878.36,276.37c-2.51,0-4.54,2.03-4.54,4.53"/>
<path style="&st8;" d="M873.82,280.9c0,2.5,2.03,4.53,4.54,4.53"/>
<path style="&st8;" d="M878.36,285.43c2.5,0,4.53-2.03,4.53-4.53"/>
<path style="&st8;" d="M882.89,316.03c0-2.51-2.03-4.54-4.53-4.54"/>
<path style="&st8;" d="M878.36,311.49c-2.51,0-4.54,2.03-4.54,4.54"/>
<path style="&st8;" d="M873.82,316.03c0,2.5,2.03,4.53,4.54,4.53"/>
<path style="&st8;" d="M878.36,320.56c2.5,0,4.53-2.03,4.53-4.53"/>
<path style="&st8;" d="M882.89,289.96c0-2.5-2.03-4.53-4.53-4.53"/>
<path style="&st8;" d="M878.36,285.43c-2.51,0-4.54,2.03-4.54,4.53"/>
<path style="&st8;" d="M873.82,289.96c0,2.51,2.03,4.54,4.54,4.54"/>
<path style="&st8;" d="M878.36,294.5c2.5,0,4.53-2.03,4.53-4.54"/>
<text ewd:textID='13' transform='matrix(0 -1 1 0 858.085 314.0244)' style='&st6; &st23; &st15;'>Junction <tspan x='0' y='7' >Connector</tspan></text>
<text transform="matrix(0 -1 1 0 850.9854 314.0244)" style="&st6;"><tspan x="0" y="0" style="&st23; &st15;">a9(A),a17(B)</tspan></text>
<text transform="matrix(1 0 0 1 867.4805 291.9346)" style="&st6;"><tspan x="0" y="0" style="&st23; &st15;">2</tspan></text>
<text transform="matrix(1 0 0 1 876.0195 291.9346)" style="&st6;"><tspan x="0" y="0" style="&st23; &st15;">B</tspan></text>
<text transform="matrix(1 0 0 1 867.4805 282.8745)" style="&st6;"><tspan x="0" y="0" style="&st23; &st15;">2</tspan></text>
<text transform="matrix(1 0 0 1 876.0195 282.8745)" style="&st6;"><tspan x="0" y="0" style="&st23; &st15;">A</tspan></text>
<text transform="matrix(1 0 0 1 867.4805 327.0645)" style="&st6;"><tspan x="0" y="0" style="&st23; &st15;">3</tspan></text>
<text transform="matrix(1 0 0 1 876.0195 327.0645)" style="&st6;"><tspan x="0" y="0" style="&st23; &st15;">B</tspan></text>
<text transform="matrix(1 0 0 1 867.4805 318.0049)" style="&st6;"><tspan x="0" y="0" style="&st23; &st15;">3</tspan></text>
<text transform="matrix(1 0 0 1 876.0195 318.0049)" style="&st6;"><tspan x="0" y="0" style="&st23; &st15;">A</tspan></text>
</g>
<g ewd:code="a16" ewd:figID="6" ewd:figtype="conn">
<path style="&st13;" d="M920.85,294.5v16.99"/>
<path style="&st8;" d="M912.35,294.5h17v16.99h-17V294.5"/>
<text transform="matrix(0 -1 1 0 936.96 314.0244)" style="&st6;"><tspan x="0" y="0" style="&st23; &st15;">a16</tspan></text>
<text ewd:textID='13' transform='matrix(0 -1 1 0 944.0596 314.0244)' style='&st6; &st23; &st15;'>Junction <tspan x='0' y='7' >Connector</tspan></text>
<text transform="matrix(1 0 0 1 914.0596 290.8145)" style="&st6;"><tspan x="0" y="0" style="&st23; &st15;">2</tspan></text>
<text transform="matrix(1 0 0 1 914.8398 319.6948)" style="&st6;"><tspan x="0" y="0" style="&st23; &st15;">1</tspan></text>
</g>
<text transform="matrix(0 -1 1 0 750.0098 343.9111)" style="&st6;"><tspan x="0" y="0" style="&st23; &st15;">(*6,*10)</tspan></text>
<text transform="matrix(0 -1 1 0 792.5098 343.9111)" style="&st6;"><tspan x="0" y="0" style="&st23; &st15;">(*6,*10)</tspan></text>
<text transform="matrix(0 -1 1 0 750.0098 383.6616)" style="&st6;"><tspan x="0" y="0" style="&st23; &st15;">(*6,*10)</tspan></text>
<text transform="matrix(0 -1 1 0 792.5098 383.6616)" style="&st6;"><tspan x="0" y="0" style="&st23; &st15;">(*6,*10)</tspan></text>
<text transform="matrix(1 0 0 1 705.8604 597.0249)" style="&st6;"><tspan x="0" y="0" style="&st23; &st15;">(*6,*10)</tspan></text>
<text transform="matrix(0 -1 1 0 733.0195 660.7476)" style="&st6;"><tspan x="0" y="0" style="&st23; &st15;">(*5,*9)</tspan></text>
<text transform="matrix(0 -1 1 0 721.6904 658.021)" style="&st6;"><tspan x="0" y="0" style="&st23; &st15;">W-B</tspan></text>
<text transform="matrix(0 -1 1 0 707.5195 638.3315)" style="&st6;"><tspan x="0" y="0" style="&st23; &st15;">(*6,*10)</tspan></text>
<text transform="matrix(0 -1 1 0 707.5195 680.3315)" style="&st6;"><tspan x="0" y="0" style="&st23; &st15;">(*6,*10)</tspan></text>
<text transform="matrix(1 0 0 1 542.2793 282.3047)" style="&st6;"><tspan x="0" y="0" style="&st23; &st15;">L(*5,*9)</tspan></text>
<text transform="matrix(1 0 0 1 540.6104 265.3047)" style="&st6;"><tspan x="0" y="0" style="&st23; &st15;">L(*6,*10)</tspan></text>
<text transform="matrix(1 0 0 1 539.1797 44.3447)" style="&st6;"><tspan x="0" y="0" style="&st23; &st15;">L(LHD)</tspan></text>
<text transform="matrix(1 0 0 1 538.6797 27.3447)" style="&st6;"><tspan x="0" y="0" style="&st23; &st15;">L(RHD)</tspan></text>
<text transform="matrix(1 0 0 1 538.1699 615.2554)" style="&st6;"><tspan x="0" y="0" style="&st23; &st15;">W-B(*5,*9)</tspan></text>
<text transform="matrix(1 0 0 1 536.502 632.2456)" style="&st6;"><tspan x="0" y="0" style="&st23; &st15;">W-B(*6,*10)</tspan></text>
<text transform="matrix(1 0 0 1 542.71 691.7339)" style="&st6;"><tspan x="0" y="0" style="&st23; &st15;">W-B</tspan></text>
<text transform="matrix(0 -1 1 0 656.5303 357.5488)" style="&st6;"><tspan x="0" y="0" style="&st23; &st15;">(*5,*9)</tspan></text>
<text transform="matrix(0 -1 1 0 781.1699 238.9565)" style="&st6;"><tspan x="0" y="0" style="&st23; &st15;">V</tspan></text>
<text transform="matrix(0 -1 1 0 738.6797 239.1226)" style="&st6;"><tspan x="0" y="0" style="&st23; &st15;">R</tspan></text>
<text transform="matrix(0 -1 1 0 738.6797 279.8623)" style="&st6;"><tspan x="0" y="0" style="&st23; &st15;">SB</tspan></text>
<text transform="matrix(0 -1 1 0 781.1699 278.0269)" style="&st6;"><tspan x="0" y="0" style="&st23; &st15;">R</tspan></text>
<text transform="matrix(0 -1 1 0 738.6797 375.6558)" style="&st6;"><tspan x="0" y="0" style="&st23; &st15;">R</tspan></text>
<text transform="matrix(0 -1 1 0 781.1797 377.4917)" style="&st6;"><tspan x="0" y="0" style="&st23; &st15;">SB</tspan></text>
<text transform="matrix(0 -1 1 0 874.6602 574.1538)" style="&st6;"><tspan x="0" y="0" style="&st23; &st15;">W-B</tspan></text>
<text transform="matrix(0 -1 1 0 679.1904 169.0049)" style="&st6;"><tspan x="0" y="0" style="&st23; &st15;">L</tspan></text>
<text transform="matrix(0 -1 1 0 951.1504 254.7646)" style="&st6;"><tspan x="0" y="0" style="&st23; &st15;">G</tspan></text>
<text transform="matrix(0 -1 1 0 738.6797 337.7412)" style="&st6;"><tspan x="0" y="0" style="&st23; &st15;">SB</tspan></text>
<text transform="matrix(0 -1 1 0 781.1699 335.9058)" style="&st6;"><tspan x="0" y="0" style="&st23; &st15;">R</tspan></text>
<text transform="matrix(0 -1 1 0 951.1504 443.9546)" style="&st6;"><tspan x="0" y="0" style="&st23; &st15;">L</tspan></text>
<text transform="matrix(0 -1 1 0 636.7002 681.8843)" style="&st6;"><tspan x="0" y="0" style="&st23; &st15;">W-B</tspan></text>
<text transform="matrix(0 -1 1 0 679.1904 236.9844)" style="&st6;"><tspan x="0" y="0" style="&st23; &st15;">L</tspan></text>
<text transform="matrix(0 -1 1 0 679.1904 326.6978)" style="&st6;"><tspan x="0" y="0" style="&st23; &st15;">L</tspan></text>
<text transform="matrix(0 -1 1 0 679.1904 375.8179)" style="&st6;"><tspan x="0" y="0" style="&st23; &st15;">L</tspan></text>
<text transform="matrix(0 -1 1 0 696.1904 633.937)" style="&st6;"><tspan x="0" y="0" style="&st23; &st15;">W-B</tspan></text>
<text transform="matrix(0 -1 1 0 696.1904 675.937)" style="&st6;"><tspan x="0" y="0" style="&st23; &st15;">W-B</tspan></text>
<text transform="matrix(0 -1 1 0 690.5195 335.2017)" style="&st6;"><tspan x="0" y="0" style="&st23; &st15;">(*6,*10)</tspan></text>
<text transform="matrix(0 -1 1 0 885.9902 271.7046)" style="&st6;"><tspan x="0" y="0" style="&st23; &st15;">(*2 *4)</tspan></text>
<text transform="matrix(0 -1 1 0 987.9697 451.2339)" style="&st6;"><tspan x="0" y="0" style="&st23; &st15;">(LHD)</tspan></text>
<text transform="matrix(0 -1 1 0 976.6396 443.9546)" style="&st6;"><tspan x="0" y="0" style="&st23; &st15;">L</tspan></text>
<text transform="matrix(0 -1 1 0 976.6396 494.9448)" style="&st6;"><tspan x="0" y="0" style="&st23; &st15;">L</tspan></text>
<text transform="matrix(0 -1 1 0 987.9697 502.2241)" style="&st6;"><tspan x="0" y="0" style="&st23; &st15;">(LHD)</tspan></text>
<text transform="matrix(0 -1 1 0 962.4805 451.7241)" style="&st6;"><tspan x="0" y="0" style="&st23; &st15;">(RHD)</tspan></text>
<text transform="matrix(0 -1 1 0 645.2002 350.7139)" style="&st6;"><tspan x="0" y="0" style="&st23; &st15;">L</tspan></text>
<text transform="matrix(0 -1 1 0 917.1504 268.2046)" style="&st6;"><tspan x="0" y="0" style="&st23; &st15;">W-B</tspan></text>
<text transform="matrix(0 -1 1 0 835 300.2949)" style="&st6;"><tspan x="0" y="0" style="&st23; &st15;">(*1)</tspan></text>
<text transform="matrix(0 -1 1 0 823.6699 302.2046)" style="&st6;"><tspan x="0" y="0" style="&st23; &st15;">W-B</tspan></text>
<text transform="matrix(0 -1 1 0 928.4902 271.7046)" style="&st6;"><tspan x="0" y="0" style="&st23; &st15;">(*2 *3)</tspan></text>
<text transform="matrix(0 -1 1 0 690.5195 384.3218)" style="&st6;"><tspan x="0" y="0" style="&st23; &st15;">(*6,*10)</tspan></text>
<text transform="matrix(0 -1 1 0 874.6602 268.2046)" style="&st6;"><tspan x="0" y="0" style="&st23; &st15;">W-B</tspan></text>
<text transform="matrix(0 -1 1 0 928.4902 356.6846)" style="&st6;"><tspan x="0" y="0" style="&st23; &st15;">(*2 *3)</tspan></text>
<text transform="matrix(0 -1 1 0 917.1504 353.1948)" style="&st6;"><tspan x="0" y="0" style="&st23; &st15;">W-B</tspan></text>
<text transform="matrix(0 -1 1 0 874.6602 353.1948)" style="&st6;"><tspan x="0" y="0" style="&st23; &st15;">W-B</tspan></text>
<text transform="matrix(0 -1 1 0 885.9902 356.6846)" style="&st6;"><tspan x="0" y="0" style="&st23; &st15;">(*2 *4)</tspan></text>
<text transform="matrix(1 0 0 1 705.8604 587.9546)" style="&st6;"><tspan x="0" y="0" style="&st23; &st15;">(*5,*9)</tspan></text>
<text transform="matrix(1 0 0 1 790.8398 417.4146)" style="&st6;"><tspan x="0" y="0" style="&st23; &st15;">(*6,*10)</tspan></text>
<text transform="matrix(1 0 0 1 790.8398 408.355)" style="&st6;"><tspan x="0" y="0" style="&st23; &st15;">(*5,*9)</tspan></text>
<text transform="matrix(0 -1 1 0 704.6904 353.0474)" style="&st6;"><tspan x="0" y="0" style="&st23; &st15;">SB</tspan></text>
<text transform="matrix(0 -1 1 0 716.0195 357.5488)" style="&st6;"><tspan x="0" y="0" style="&st23; &st15;">(*5,*9)</tspan></text>
<text transform="matrix(0 -1 1 0 806.6699 351.2119)" style="&st6;"><tspan x="0" y="0" style="&st23; &st15;">R</tspan></text>
<text transform="matrix(0 -1 1 0 818 357.5488)" style="&st6;"><tspan x="0" y="0" style="&st23; &st15;">(*5,*9)</tspan></text>
<text transform="matrix(1 0 0 1 884.3301 291.9346)" style="&st6;"><tspan x="0" y="0" style="&st23; &st15;">(*8)</tspan></text>
<text transform="matrix(1 0 0 1 884.3301 282.8745)" style="&st6;"><tspan x="0" y="0" style="&st23; &st15;">(*7)</tspan></text>
<text transform="matrix(1 0 0 1 884.3301 327.0645)" style="&st6;"><tspan x="0" y="0" style="&st23; &st15;">(*8)</tspan></text>
<text transform="matrix(1 0 0 1 884.3301 318.0049)" style="&st6;"><tspan x="0" y="0" style="&st23; &st15;">(*7)</tspan></text>
</svg>
