<?xml version="1.0" encoding="UTF-8"?>
<!DOCTYPE svg PUBLIC "-//W3C//DTD SVG 1.0//EN" "http://www.w3.org/TR/2001/REC-SVG-20010904/DTD/svg10.dtd"[
<!ENTITY ns_flows "http://ns.adobe.com/Flows/1.0/">
<!ENTITY ns_svg "http://www.w3.org/2000/svg">
<!ENTITY ns_xlink "http://www.w3.org/1999/xlink">
	<!ENTITY st0 "fill:none;stroke:#9A9999;stroke-width:5.1;stroke-linejoin:round;">
	<!ENTITY st1 "fill:none;stroke:#99280B;stroke-width:5.1;stroke-linejoin:round;">
		<!ENTITY st2 "fill:none;stroke:#000000;stroke-width:0.85;stroke-linecap:round;stroke-linejoin:round;stroke-dasharray:3 1.5;enable-background:new    ;">
	<!ENTITY st3 "fill:none;stroke:#000000;stroke-width:5.1;stroke-linejoin:round;">
	<!ENTITY st4 "stroke:#000000;stroke-width:0.28;stroke-linecap:round;stroke-linejoin:round;enable-background:new    ;">
	<!ENTITY st5 "enable-background:new    ;">
		<!ENTITY st6 "fill:none;stroke:#000000;stroke-width:1.42;stroke-linecap:round;stroke-linejoin:round;enable-background:new    ;">
	<!ENTITY st7 "fill:none;stroke:#199DBF;stroke-width:5.1;stroke-linejoin:round;">
	<!ENTITY st8 "opacity:0.5;fill:none;stroke:#34ACCE;stroke-linejoin:round;stroke-dasharray:6;">
	<!ENTITY st9 "fill:none;stroke:#FFFFFF;stroke-width:4.53;stroke-linejoin:round;">
		<!ENTITY st10 "fill:none;stroke:#000000;stroke-width:0.85;stroke-linecap:round;stroke-linejoin:round;enable-background:new    ;">
	<!ENTITY st11 "font-size:6px;">
	<!ENTITY st12 "fill:none;stroke:#000000;stroke-width:1.13;stroke-linejoin:round;">
		<!ENTITY st13 "fill:none;stroke:#000000;stroke-width:1.13;stroke-linecap:round;stroke-linejoin:round;stroke-dasharray:3 1.5;enable-background:new    ;">
	<!ENTITY st14 "fill:#FFFFFF;stroke:#000000;stroke-width:1.41;stroke-linecap:round;stroke-linejoin:round;">
	<!ENTITY st15 "fill:none;stroke:#3E65AC;stroke-width:3;">
	<!ENTITY st16 "fill:#CCCCCC;stroke:#CCCCCC;stroke-width:0.1;stroke-linecap:round;stroke-linejoin:round;">
	<!ENTITY st17 "font-family:'Arial';">
	<!ENTITY st18 "opacity:0.5;fill:none;stroke:#34ACCE;stroke-linejoin:round;">
	<!ENTITY st19 "fill:#CFE6E7;stroke:#000000;stroke-width:1.133;stroke-linecap:round;stroke-linejoin:round;">
<!ATTLIST svg
xmlns:ewd CDATA #FIXED "http://shcl.co.jp/ewd"
xmlns:a CDATA #FIXED "http://ns.adobe.com/AdobeSVGViewerExtensions/3.0/"
ewd:ver CDATA #IMPLIED
>
<!ATTLIST a
ewd:lineID CDATA #IMPLIED
ewd:groupID CDATA #IMPLIED
ewd:figtype CDATA #IMPLIED
ewd:code CDATA #IMPLIED
ewd:figID CDATA #IMPLIED
ewd:pinNo CDATA #IMPLIED
ewd:comment CDATA #IMPLIED >
<!ATTLIST g
ewd:lineID CDATA #IMPLIED
ewd:groupID CDATA #IMPLIED
ewd:figtype CDATA #IMPLIED
ewd:code CDATA #IMPLIED
ewd:figID CDATA #IMPLIED
ewd:pinNo CDATA #IMPLIED
ewd:comment CDATA #IMPLIED >
<!ATTLIST text
ewd:textID CDATA #IMPLIED >
<!ATTLIST title
ewd:textID CDATA #IMPLIED >
]>
<svg 
viewBox='0 0 11408.02 729.44'
height='729.44'
width='11408.02'
xml:space="preserve"
xmlns="&ns_svg;"
xmlns:ewd="http://shcl.co.jp/ewd"
xmlns:xlink="&ns_xlink;" ewd:ver="L2.1">
<g ewd:code="tR1" ewd:figID="6051" ewd:figtype="w2w" ewd:pinNo="3">
<path style="&st6;" d="M10522.84,264.76v4.25"/>
<path style="&st6;" d="M10531.9,273.26l-4.25-4.25l4.25-4.25"/>
<path style="&st6;" d="M10528.5,273.26l-4.25-4.25l4.25-4.25"/>
<text transform="matrix(1 0 0 1 10512.6719 261.7661)" style="&st5;"><tspan x="0" y="0" style="&st17; &st11;">3</tspan></text>
</g>
<g ewd:code="SE1" ewd:figID="6089" ewd:figtype="w2w" ewd:pinNo="6">
<path style="&st6;" d="M10735.31,604.7v4.25"/>
<path style="&st6;" d="M10740.97,613.2l-4.25-4.25l4.25-4.25"/>
<path style="&st6;" d="M10744.37,613.2l-4.25-4.25l4.25-4.25"/>
<text transform="matrix(1 0 0 1 10725.1426 601.7168)" style="&st5;"><tspan x="0" y="0" style="&st17; &st11;">6</tspan></text>
</g>
<g ewd:code="SE1" ewd:figID="6088" ewd:figtype="w2w" ewd:pinNo="7">
<path style="&st6;" d="M10735.31,638.7v4.25"/>
<path style="&st6;" d="M10744.37,647.2l-4.25-4.25l4.25-4.25"/>
<path style="&st6;" d="M10740.97,647.2l-4.25-4.25l4.25-4.25"/>
<text transform="matrix(1 0 0 1 10725.1426 635.707)" style="&st5;"><tspan x="0" y="0" style="&st17; &st11;">7</tspan></text>
</g>
<g ewd:code="295079" ewd:figID="5079" ewd:figtype="sp">
<path style="&st6;" d="M10658.82,503.44l-4.97-4.97"/>
<path style="&st6;" d="M10641.82,510.5l4.97,4.97"/>
<path style="&st6;" d="M10653.85,515.47l4.97-4.97"/>
<path style="&st6;" d="M10646.79,498.47l-4.97,4.97"/>
</g>
<g ewd:code="295080" ewd:figID="5080" ewd:figtype="sp">
<path style="&st6;" d="M10658.82,605.43l-4.97-4.97"/>
<path style="&st6;" d="M10641.82,612.48l4.97,4.97"/>
<path style="&st6;" d="M10653.85,617.45l4.97-4.97"/>
<path style="&st6;" d="M10646.79,600.46l-4.97,4.97"/>
</g>
<g ewd:code="295035" ewd:figID="5035" ewd:figtype="sp">
<path style="&st6;" d="M10522.84,197.5l-4.97-4.98"/>
<path style="&st6;" d="M10505.84,204.55l4.97,4.97"/>
<path style="&st6;" d="M10517.87,209.52l4.97-4.97"/>
<path style="&st6;" d="M10510.81,192.52l-4.97,4.98"/>
</g>
<g ewd:code="295036" ewd:figID="5036" ewd:figtype="sp">
<path style="&st6;" d="M10675.82,197.5l4.97-4.98"/>
<path style="&st6;" d="M10692.81,204.55l-4.97,4.97"/>
<path style="&st6;" d="M10680.79,209.52l-4.97-4.97"/>
<path style="&st6;" d="M10687.84,192.52l4.97,4.98"/>
</g>
<g ewd:code="295037" ewd:figID="5037" ewd:figtype="sp">
<path style="&st6;" d="M10687.84,226.52l4.97,4.97"/>
<path style="&st6;" d="M10680.79,243.52l-4.97-4.97"/>
<path style="&st6;" d="M10692.81,238.55l-4.97,4.97"/>
<path style="&st6;" d="M10675.82,231.49l4.97-4.97"/>
</g>
<g ewd:code="R29,R30" ewd:figID="16" ewd:figtype="conn">
<path style="&st6;" d="M10590.83,192.52V345.5h33.99V192.52H10590.83"/>
<path style="&st13;" d="M10599.32,345.5V192.52"/>
<path style="&st13;" d="M10616.32,192.52V345.5"/>
<path style="&st10;" d="M10590.83,235.02h33.99"/>
<path style="&st10;" d="M10590.83,201.02h33.99"/>
<path style="&st10;" d="M10607.82,201.02V337h-16.99"/>
<path style="&st10;" d="M10606.63,234.01l-0.27,0.47l-0.09,0.54l0.09,0.53l0.27,0.47l0.41,0.35l0.51,0.18h0.54l0.51-0.18l0.42-0.35l0.27-0.47l0.09-0.53l-0.09-0.54l-0.27-0.47l-0.42-0.34l-0.51-0.19h-0.54l-0.51,0.19L10606.63,234.01l0.39,0.72v0.58l0.38,0.44l0.57,0.1l0.5-0.29l0.2-0.54l-0.2-0.55l-0.5-0.29l-0.57,0.1l0.42,0.74"/>
<path style="&st10;" d="M10606.63,200.02l-0.27,0.47l-0.09,0.53l0.09,0.54l0.27,0.47l0.41,0.34l0.51,0.19h0.54l0.51-0.19l0.42-0.34l0.27-0.47l0.09-0.54l-0.09-0.53l-0.27-0.47l-0.42-0.35l-0.51-0.18h-0.54l-0.51,0.18L10606.63,200.02l0.39,0.71v0.58l0.38,0.45l0.57,0.1l0.5-0.29l0.2-0.55l-0.2-0.54l-0.5-0.29l-0.57,0.1l0.42,0.73"/>
<path style="&st6;" d="M10633.89,201.02c0-2.5-2.03-4.53-4.53-4.53"/>
<path style="&st6;" d="M10629.36,196.49c-2.51,0-4.53,2.03-4.53,4.53"/>
<path style="&st6;" d="M10624.83,201.02c0,2.51,2.02,4.53,4.53,4.53"/>
<path style="&st6;" d="M10629.36,205.55c2.5,0,4.53-2.02,4.53-4.53"/>
<path style="&st6;" d="M10633.89,235.02c0-2.51-2.03-4.54-4.53-4.54"/>
<path style="&st6;" d="M10629.36,230.48c-2.51,0-4.53,2.03-4.53,4.54"/>
<path style="&st6;" d="M10624.83,235.02c0,2.5,2.02,4.53,4.53,4.53"/>
<path style="&st6;" d="M10629.36,239.55c2.5,0,4.53-2.03,4.53-4.53"/>
<path style="&st6;" d="M10590.83,201.02c0-2.5-2.03-4.53-4.53-4.53"/>
<path style="&st6;" d="M10586.3,196.49c-2.51,0-4.53,2.03-4.53,4.53"/>
<path style="&st6;" d="M10581.77,201.02c0,2.51,2.02,4.53,4.53,4.53"/>
<path style="&st6;" d="M10586.3,205.55c2.5,0,4.53-2.02,4.53-4.53"/>
<path style="&st6;" d="M10590.83,235.02c0-2.51-2.03-4.54-4.53-4.54"/>
<path style="&st6;" d="M10586.3,230.48c-2.51,0-4.53,2.03-4.53,4.54"/>
<path style="&st6;" d="M10581.77,235.02c0,2.5,2.02,4.53,4.53,4.53"/>
<path style="&st6;" d="M10586.3,239.55c2.5,0,4.53-2.03,4.53-4.53"/>
<path style="&st6;" d="M10590.83,337c0-2.5-2.03-4.53-4.53-4.53"/>
<path style="&st6;" d="M10586.3,332.47c-2.51,0-4.53,2.03-4.53,4.53"/>
<path style="&st6;" d="M10581.77,337c0,2.5,2.02,4.53,4.53,4.53"/>
<path style="&st6;" d="M10586.3,341.53c2.5,0,4.53-2.03,4.53-4.53"/>
<text transform="matrix(1 0 0 1 10627.0293 202.9858)" style="&st5;"><tspan x="0" y="0" style="&st17; &st11;">A</tspan></text>
<text transform="matrix(1 0 0 1 10625.791 194.4858)" style="&st5;"><tspan x="0" y="0" style="&st17; &st11;">21</tspan></text>
<text transform="matrix(1 0 0 1 10627.0293 236.9858)" style="&st5;"><tspan x="0" y="0" style="&st17; &st11;">A</tspan></text>
<text transform="matrix(1 0 0 1 10625.4004 228.4858)" style="&st5;"><tspan x="0" y="0" style="&st17; &st11;">22</tspan></text>
<text transform="matrix(1 0 0 1 10583.9707 202.9858)" style="&st5;"><tspan x="0" y="0" style="&st17; &st11;">B</tspan></text>
<text transform="matrix(1 0 0 1 10582.7285 194.4858)" style="&st5;"><tspan x="0" y="0" style="&st17; &st11;">12</tspan></text>
<text transform="matrix(1 0 0 1 10583.9707 236.9858)" style="&st5;"><tspan x="0" y="0" style="&st17; &st11;">B</tspan></text>
<text transform="matrix(1 0 0 1 10582.7285 228.4858)" style="&st5;"><tspan x="0" y="0" style="&st17; &st11;">15</tspan></text>
<text transform="matrix(1 0 0 1 10583.9707 338.9663)" style="&st5;"><tspan x="0" y="0" style="&st17; &st11;">B</tspan></text>
<text transform="matrix(1 0 0 1 10582.7285 330.4663)" style="&st5;"><tspan x="0" y="0" style="&st17; &st11;">13</tspan></text>
<text ewd:textID="175" transform="matrix(0 -1 1 0 10639.541 348.0161)" style="&st5; &st17; &st11;">Junction Connector</text>
<text transform="matrix(0 -1 1 0 10632.4395 348.0161)" style="&st5;"><tspan x="0" y="0" style="&st17; &st11;">R29(A),R30(B)</tspan></text>
</g>
<text ewd:textID="154" transform="matrix(1 0 0 1 10822.0195 514.6055)" style="&st5; &st17; &st11;">Height Control <tspan x="0" y="7">Valve</tspan></text>
<text transform="matrix(1 0 0 1 10822.0195 507.4961)" style="&st5;"><tspan x="0" y="0" style="&st17; &st11;">S7</tspan></text>
<text transform="matrix(1 0 0 1 10796.7793 508.9355)" style="&st5;"><tspan x="0" y="0" style="&st17; &st11;">(E)</tspan></text>
<text transform="matrix(1 0 0 1 10796.7793 542.9258)" style="&st5;"><tspan x="0" y="0" style="&st17; &st11;">(E)</tspan></text>
<text transform="matrix(1 0 0 1 10822.0195 541.4863)" style="&st5;"><tspan x="0" y="0" style="&st17; &st11;">S11</tspan></text>
<text ewd:textID="152" transform="matrix(1 0 0 1 10822.0195 548.5957)" style="&st5; &st17; &st11;">Height Control <tspan x="0" y="7">Compressor Motor </tspan><tspan x="0" y="14">(Height Control </tspan><tspan x="0" y="21">Compressor </tspan><tspan x="0" y="28">Assembly)</tspan></text>
<text transform="matrix(1 0 0 1 10796.7793 610.916)" style="&st5;"><tspan x="0" y="0" style="&st17; &st11;">(GND)</tspan></text>
<text transform="matrix(1 0 0 1 10822.0195 609.4766)" style="&st5;"><tspan x="0" y="0" style="&st17; &st11;">E2</tspan></text>
<text ewd:textID="191" transform="matrix(1 0 0 1 10822.0195 616.5859)" style="&st5; &st17; &st11;">No. 1 Transfer <tspan x="0" y="7">Indicator Switch</tspan></text>
<text ewd:textID="84" transform="matrix(1 0 0 1 10822.0195 650.5762)" style="&st5; &st17; &st11;">Differential Lock <tspan x="0" y="7">Shift Actuator</tspan></text>
<text transform="matrix(1 0 0 1 10822.0195 643.4766)" style="&st5;"><tspan x="0" y="0" style="&st17; &st11;">E1</tspan></text>
<text transform="matrix(1 0 0 1 10796.7793 644.916)" style="&st5;"><tspan x="0" y="0" style="&st17; &st11;">(GND2)</tspan></text>
<text transform="matrix(1 0 0 1 10959.7207 101.0063)" style="&st5;"><tspan x="0" y="0" style="&st17; &st11;">(GND)</tspan></text>
<text ewd:textID="219" transform="matrix(1 0 0 1 10898.5 106.666)" style="&st5; &st17; &st11;">Radio Receiver Assembly</text>
<text transform="matrix(1 0 0 1 10898.5 99.5659)" style="&st5;"><tspan x="0" y="0" style="&st17; &st11;">H1</tspan></text>
<text transform="matrix(1 0 0 1 10959.7207 67.0063)" style="&st5;"><tspan x="0" y="0" style="&st17; &st11;">(GND)</tspan></text>
<text ewd:textID="219" transform="matrix(1 0 0 1 10898.5 72.6763)" style="&st5; &st17; &st11;">Radio Receiver Assembly</text>
<text transform="matrix(1 0 0 1 10898.5 65.5659)" style="&st5;"><tspan x="0" y="0" style="&st17; &st11;">H38</tspan></text>
<text transform="matrix(1 0 0 1 10956.541 134.9961)" style="&st5;"><tspan x="0" y="0" style="&st17; &st11;">(GND1)</tspan></text>
<text ewd:textID="89" transform="matrix(1 0 0 1 10898.5 140.666)" style="&st5; &st17; &st11;">Display &amp; Navigation <tspan x="0" y="7">Module Display</tspan></text>
<text transform="matrix(1 0 0 1 10898.5 133.5562)" style="&st5;"><tspan x="0" y="0" style="&st17; &st11;">H4</tspan></text>
<text transform="matrix(1 0 0 1 10959.7207 168.9961)" style="&st5;"><tspan x="0" y="0" style="&st17; &st11;">(GND)</tspan></text>
<text ewd:textID="260" transform="matrix(1 0 0 1 10898.5 174.6563)" style="&st5; &st17; &st11;">Television Display <tspan x="0" y="7">Assembly</tspan></text>
<text transform="matrix(1 0 0 1 10898.5 167.5562)" style="&st5;"><tspan x="0" y="0" style="&st17; &st11;">W14</tspan></text>
<text transform="matrix(1 0 0 1 10956.3301 270.9761)" style="&st5;"><tspan x="0" y="0" style="&st17; &st11;">(LRHD)</tspan></text>
<text ewd:textID="219" transform="matrix(1 0 0 1 10898.5 276.646)" style="&st5; &st17; &st11;">Radio Receiver Assembly</text>
<text transform="matrix(1 0 0 1 10898.5 269.5361)" style="&st5;"><tspan x="0" y="0" style="&st17; &st11;">H28</tspan></text>
<text transform="matrix(1 0 0 1 10955.7598 304.9663)" style="&st5;"><tspan x="0" y="0" style="&st17; &st11;">(GND2)</tspan></text>
<text ewd:textID="260" transform="matrix(1 0 0 1 10898.5 310.6362)" style="&st5; &st17; &st11;">Television Display <tspan x="0" y="7">Assembly</tspan></text>
<text transform="matrix(1 0 0 1 10898.5 303.5259)" style="&st5;"><tspan x="0" y="0" style="&st17; &st11;">W14</tspan></text>
<text transform="matrix(1 0 0 1 10898.5 31.5762)" style="&st5;"><tspan x="0" y="0" style="&st17; &st11;">H29</tspan></text>
<text ewd:textID="219" transform="matrix(1 0 0 1 10898.5 38.686)" style="&st5; &st17; &st11;">Radio Receiver Assembly</text>
<text transform="matrix(1 0 0 1 10959.7207 33.0161)" style="&st5;"><tspan x="0" y="0" style="&st17; &st11;">(GND)</tspan></text>
<text transform="matrix(1 0 0 1 10685.1094 639.2461)" style="&st5;"><tspan x="0" y="0" style="&st17; &st11;">W-B</tspan></text>
<text transform="matrix(1 0 0 1 10684.6504 650.5762)" style="&st5;"><tspan x="0" y="0" style="&st17; &st11;">(*22)</tspan></text>
<text transform="matrix(1 0 0 1 10685.1094 605.2559)" style="&st5;"><tspan x="0" y="0" style="&st17; &st11;">W-B</tspan></text>
<text transform="matrix(1 0 0 1 10684.6504 616.5859)" style="&st5;"><tspan x="0" y="0" style="&st17; &st11;">(*22)</tspan></text>
<text transform="matrix(1 0 0 1 10766.9707 605.2559)" style="&st5;"><tspan x="0" y="0" style="&st17; &st11;">B</tspan></text>
<text transform="matrix(1 0 0 1 10767.3184 639.2461)" style="&st5;"><tspan x="0" y="0" style="&st17; &st11;">L</tspan></text>
<text transform="matrix(1 0 0 1 10719.1094 537.2656)" style="&st5;"><tspan x="0" y="0" style="&st17; &st11;">W-B</tspan></text>
<text transform="matrix(1 0 0 1 10719.1094 503.2656)" style="&st5;"><tspan x="0" y="0" style="&st17; &st11;">W-B</tspan></text>
<text transform="matrix(1 0 0 1 10591.6309 503.2656)" style="&st5;"><tspan x="0" y="0" style="&st17; &st11;">W-B</tspan></text>
<text transform="matrix(1 0 0 1 10651.1191 231.3159)" style="&st5;"><tspan x="0" y="0" style="&st17; &st11;">W-B</tspan></text>
<text transform="matrix(1 0 0 1 10651.1191 197.3262)" style="&st5;"><tspan x="0" y="0" style="&st17; &st11;">W-B</tspan></text>
<text transform="matrix(1 0 0 1 10557.6309 197.3262)" style="&st5;"><tspan x="0" y="0" style="&st17; &st11;">W-B</tspan></text>
<text transform="matrix(1 0 0 1 10506.6387 231.3159)" style="&st5;"><tspan x="0" y="0" style="&st17; &st11;">W-B</tspan></text>
<text transform="matrix(1 0 0 1 10544.8887 265.3062)" style="&st5;"><tspan x="0" y="0" style="&st17; &st11;">W-B</tspan></text>
<text ewd:textID="2" transform="matrix(1 0 0 1 10538.6309 276.646)" style="&st5; &st17; &st11;">(5-Door)</text>
<text transform="matrix(0 -1 1 0 10646.6309 565.6563)" style="&st5;"><tspan x="0" y="0" style="&st17; &st11;">W-B</tspan></text>
<text transform="matrix(1 0 0 1 10761.1387 616.5859)" style="&st5;"><tspan x="0" y="0" style="&st17; &st11;">(*22)</tspan></text>
<text transform="matrix(1 0 0 1 10761.1387 650.5762)" style="&st5;"><tspan x="0" y="0" style="&st17; &st11;">(*22)</tspan></text>
<text transform="matrix(1 0 0 1 10999.0996 310.6362)" style="&st5;"><tspan x="0" y="0" style="&st17; &st11;">(*32)</tspan></text>
<text transform="matrix(1 0 0 1 10515.1387 605.2559)" style="&st5;"><tspan x="0" y="0" style="&st17; &st11;">W-B</tspan></text>
<text transform="matrix(1 0 0 1 10956.3301 236.9858)" style="&st5;"><tspan x="0" y="0" style="&st17; &st11;">(LRHD)</tspan></text>
<text ewd:textID="256" transform="matrix(1 0 0 1 10898.5 242.646)" style="&st5; &st17; &st11;">Stereo Component <tspan x="0" y="7">Amplifier Assembly</tspan></text>
<text transform="matrix(1 0 0 1 10898.5 235.5464)" style="&st5;"><tspan x="0" y="0" style="&st17; &st11;">H31</tspan></text>
<text ewd:textID="3" transform="matrix(1 0 0 1 10702.3105 197.3262)" style="&st5; &st17; &st11;">(Shielded)</text>
<text ewd:textID="3" transform="matrix(1 0 0 1 10702.3105 231.3159)" style="&st5; &st17; &st11;">(Shielded)</text>
</svg>
