<?xml version="1.0" encoding="UTF-8"?>
<!DOCTYPE svg PUBLIC "-//W3C//DTD SVG 1.0//EN" "http://www.w3.org/TR/2001/REC-SVG-20010904/DTD/svg10.dtd"[
<!ENTITY ns_flows "http://ns.adobe.com/Flows/1.0/">
<!ENTITY ns_svg "http://www.w3.org/2000/svg">
<!ENTITY ns_xlink "http://www.w3.org/1999/xlink">
	<!ENTITY st0 "fill:none;stroke:#9A9999;stroke-width:5.1;stroke-linejoin:round;">
	<!ENTITY st1 "fill:none;stroke:#99280B;stroke-width:5.1;stroke-linejoin:round;">
		<!ENTITY st2 "fill:none;stroke:#000000;stroke-width:0.85;stroke-linecap:round;stroke-linejoin:round;stroke-dasharray:3 1.5;enable-background:new    ;">
	<!ENTITY st3 "fill:none;stroke:#000000;stroke-width:5.1;stroke-linejoin:round;">
	<!ENTITY st4 "stroke:#000000;stroke-width:0.28;stroke-linecap:round;stroke-linejoin:round;enable-background:new    ;">
	<!ENTITY st5 "enable-background:new    ;">
		<!ENTITY st6 "fill:none;stroke:#000000;stroke-width:1.42;stroke-linecap:round;stroke-linejoin:round;enable-background:new    ;">
	<!ENTITY st7 "fill:none;stroke:#199DBF;stroke-width:5.1;stroke-linejoin:round;">
	<!ENTITY st8 "opacity:0.5;fill:none;stroke:#34ACCE;stroke-linejoin:round;stroke-dasharray:6;">
	<!ENTITY st9 "fill:none;stroke:#FFFFFF;stroke-width:4.53;stroke-linejoin:round;">
		<!ENTITY st10 "fill:none;stroke:#000000;stroke-width:0.85;stroke-linecap:round;stroke-linejoin:round;enable-background:new    ;">
	<!ENTITY st11 "font-size:6px;">
	<!ENTITY st12 "fill:none;stroke:#000000;stroke-width:1.13;stroke-linejoin:round;">
		<!ENTITY st13 "fill:none;stroke:#000000;stroke-width:1.13;stroke-linecap:round;stroke-linejoin:round;stroke-dasharray:3 1.5;enable-background:new    ;">
	<!ENTITY st14 "fill:#FFFFFF;stroke:#000000;stroke-width:1.41;stroke-linecap:round;stroke-linejoin:round;">
	<!ENTITY st15 "fill:none;stroke:#3E65AC;stroke-width:3;">
	<!ENTITY st16 "fill:#CCCCCC;stroke:#CCCCCC;stroke-width:0.1;stroke-linecap:round;stroke-linejoin:round;">
	<!ENTITY st17 "font-family:'Arial';">
	<!ENTITY st18 "opacity:0.5;fill:none;stroke:#34ACCE;stroke-linejoin:round;">
	<!ENTITY st19 "fill:#CFE6E7;stroke:#000000;stroke-width:1.133;stroke-linecap:round;stroke-linejoin:round;">
<!ATTLIST svg
xmlns:ewd CDATA #FIXED "http://shcl.co.jp/ewd"
xmlns:a CDATA #FIXED "http://ns.adobe.com/AdobeSVGViewerExtensions/3.0/"
ewd:ver CDATA #IMPLIED
>
<!ATTLIST a
ewd:lineID CDATA #IMPLIED
ewd:groupID CDATA #IMPLIED
ewd:figtype CDATA #IMPLIED
ewd:code CDATA #IMPLIED
ewd:figID CDATA #IMPLIED
ewd:pinNo CDATA #IMPLIED
ewd:comment CDATA #IMPLIED >
<!ATTLIST g
ewd:lineID CDATA #IMPLIED
ewd:groupID CDATA #IMPLIED
ewd:figtype CDATA #IMPLIED
ewd:code CDATA #IMPLIED
ewd:figID CDATA #IMPLIED
ewd:pinNo CDATA #IMPLIED
ewd:comment CDATA #IMPLIED >
<!ATTLIST text
ewd:textID CDATA #IMPLIED >
<!ATTLIST title
ewd:textID CDATA #IMPLIED >
]>
<svg 
viewBox='0 0 11408.02 729.44'
height='729.44'
width='11408.02'
xml:space="preserve"
xmlns="&ns_svg;"
xmlns:ewd="http://shcl.co.jp/ewd"
xmlns:xlink="&ns_xlink;" ewd:ver="L2.1">
<g ewd:code="CG2" ewd:figID="6057" ewd:figtype="w2w" ewd:pinNo="19">
<path style="&st6;" d="M1871.29,621.7v4.25"/>
<path style="&st6;" d="M1876.95,630.2l-4.25-4.25l4.25-4.25"/>
<path style="&st6;" d="M1880.35,630.2l-4.25-4.25l4.25-4.25"/>
<text transform="matrix(1 0 0 1 1859.4512 618.707)" style="&st5;"><tspan x="0" y="0" style="&st17; &st11;">19</tspan></text>
</g>
<g ewd:code="CG1" ewd:figID="6056" ewd:figtype="w2w" ewd:pinNo="2">
<path style="&st6;" d="M1871.29,655.7v4.25"/>
<path style="&st6;" d="M1876.95,664.19l-4.25-4.24l4.25-4.25"/>
<path style="&st6;" d="M1880.35,664.19l-4.25-4.24l4.25-4.25"/>
<text transform="matrix(1 0 0 1 1861.1196 652.707)" style="&st5;"><tspan x="0" y="0" style="&st17; &st11;">2</tspan></text>
</g>
<g ewd:code="CG1" ewd:figID="6005" ewd:figtype="w2w" ewd:pinNo="2">
<path style="&st6;" d="M1769.3,175.53v4.25"/>
<path style="&st6;" d="M1763.64,171.28l4.25,4.25l-4.25,4.25"/>
<path style="&st6;" d="M1760.24,171.28l4.25,4.25l-4.25,4.25"/>
<text transform="matrix(1 0 0 1 1776.1304 168.2861)" style="&st5;"><tspan x="0" y="0" style="&st17; &st11;">2</tspan></text>
</g>
<g ewd:code="CG2" ewd:figID="6004" ewd:figtype="w2w" ewd:pinNo="19">
<path style="&st6;" d="M1769.3,141.53v4.25"/>
<path style="&st6;" d="M1763.64,137.28l4.25,4.25l-4.25,4.25"/>
<path style="&st6;" d="M1760.24,137.28l4.25,4.25l-4.25,4.25"/>
<text transform="matrix(1 0 0 1 1774.4619 134.2861)" style="&st5;"><tspan x="0" y="0" style="&st17; &st11;">19</tspan></text>
</g>
<g ewd:code="GA1" ewd:figID="6006" ewd:figtype="w2w" ewd:pinNo="2">
<text transform="matrix(1 0 0 1 1878.1147 23.8062)" style="&st5;"><tspan x="0" y="0" style="&st17; &st11;">2</tspan></text>
</g>
<g ewd:code="GA1" ewd:figID="6007" ewd:figtype="w2w" ewd:pinNo="52">
<path style="&st6;" d="M1905.28,26.8v4.25"/>
<path style="&st6;" d="M1914.35,26.8l-4.25,4.25l4.25,4.25"/>
<path style="&st6;" d="M1910.95,26.8l-4.25,4.25l4.25,4.25"/>
<text transform="matrix(1 0 0 1 1893.4414 23.8062)" style="&st5;"><tspan x="0" y="0" style="&st17; &st11;">52</tspan></text>
</g>
<g ewd:code="295015" ewd:figID="5015" ewd:figtype="sp">
<path style="&st6;" d="M1692.82,222.99l-4.97-4.97"/>
<path style="&st6;" d="M1675.82,230.05l4.97,4.97"/>
<path style="&st6;" d="M1687.85,235.02l4.97-4.97"/>
<path style="&st6;" d="M1680.79,218.02l-4.97,4.97"/>
</g>
<g ewd:code="295013" ewd:figID="5013" ewd:figtype="sp">
<path style="&st6;" d="M1692.82,248.49l-4.97-4.97"/>
<path style="&st6;" d="M1675.82,255.54l4.97,4.97"/>
<path style="&st6;" d="M1687.85,260.51l4.97-4.97"/>
<path style="&st6;" d="M1680.79,243.52l-4.97,4.97"/>
</g>
<g ewd:code="295014" ewd:figID="5014" ewd:figtype="sp">
<path style="&st6;" d="M1692.82,273.98l-4.97-4.97"/>
<path style="&st6;" d="M1675.82,281.04l4.97,4.97"/>
<path style="&st6;" d="M1687.85,286.01l4.97-4.97"/>
<path style="&st6;" d="M1680.79,269.01l-4.97,4.97"/>
</g>
<g ewd:code="295016" ewd:figID="5016" ewd:figtype="sp">
<path style="&st6;" d="M1692.82,299.48l-4.97-4.97"/>
<path style="&st6;" d="M1675.82,306.54l4.97,4.96"/>
<path style="&st6;" d="M1687.85,311.5l4.97-4.96"/>
<path style="&st6;" d="M1680.79,294.51l-4.97,4.97"/>
</g>
<g ewd:code="295012" ewd:figID="5012" ewd:figtype="sp">
<path style="&st6;" d="M1680.79,320l-4.97,4.97"/>
<path style="&st6;" d="M1687.85,337l4.97-4.97"/>
<path style="&st6;" d="M1675.82,332.03l4.97,4.97"/>
<path style="&st6;" d="M1692.82,324.97l-4.97-4.97"/>
</g>
<g ewd:code="295017" ewd:figID="5017" ewd:figtype="sp">
<path style="&st6;" d="M1680.79,345.5l-4.97,4.97"/>
<path style="&st6;" d="M1687.85,362.5l4.97-4.97"/>
<path style="&st6;" d="M1675.82,357.53l4.97,4.97"/>
<path style="&st6;" d="M1692.82,350.47l-4.97-4.97"/>
</g>
<g ewd:code="295046" ewd:figID="5046" ewd:figtype="sp">
<path style="&st6;" d="M1680.79,370.99l-4.97,4.98"/>
<path style="&st6;" d="M1687.85,387.99l4.97-4.97"/>
<path style="&st6;" d="M1675.82,383.02l4.97,4.97"/>
<path style="&st6;" d="M1692.82,375.97l-4.97-4.98"/>
</g>
<g ewd:code="295051" ewd:figID="5051" ewd:figtype="sp">
<path style="&st6;" d="M1896.78,367.47l-4.97-4.97"/>
<path style="&st6;" d="M1879.79,374.52l4.97,4.97"/>
<path style="&st6;" d="M1891.81,379.49l4.97-4.97"/>
<path style="&st6;" d="M1884.76,362.5l-4.97,4.97"/>
</g>
<g ewd:code="295048" ewd:figID="5048" ewd:figtype="sp">
<path style="&st6;" d="M1896.78,401.46l-4.97-4.97"/>
<path style="&st6;" d="M1879.79,408.52l4.97,4.97"/>
<path style="&st6;" d="M1891.81,413.49l4.97-4.97"/>
<path style="&st6;" d="M1884.76,396.49l-4.97,4.97"/>
</g>
<g ewd:code="295050" ewd:figID="5050" ewd:figtype="sp">
<path style="&st6;" d="M1896.78,435.46l-4.97-4.98"/>
<path style="&st6;" d="M1879.79,442.51l4.97,4.97"/>
<path style="&st6;" d="M1891.81,447.48l4.97-4.97"/>
<path style="&st6;" d="M1884.76,430.48l-4.97,4.98"/>
</g>
<g ewd:code="295049" ewd:figID="5049" ewd:figtype="sp">
<path style="&st6;" d="M1896.78,469.45l-4.97-4.97"/>
<path style="&st6;" d="M1879.79,476.51l4.97,4.97"/>
<path style="&st6;" d="M1891.81,481.48l4.97-4.97"/>
<path style="&st6;" d="M1884.76,464.48l-4.97,4.97"/>
</g>
<g ewd:code="295047" ewd:figID="5047" ewd:figtype="sp">
<path style="&st6;" d="M1896.78,503.44l-4.97-4.97"/>
<path style="&st6;" d="M1879.79,510.5l4.97,4.97"/>
<path style="&st6;" d="M1891.81,515.47l4.97-4.97"/>
<path style="&st6;" d="M1884.76,498.47l-4.97,4.97"/>
</g>
<g ewd:code="4JB" ewd:figID="3002" ewd:figtype="jb">
<path style="&st6;" d="M1684.32,145.78h-4.25"/>
<path style="&st6;" d="M1680.07,137.28h4.25"/>
<path style="&st6;" d="M1722.56,145.78h-4.25"/>
<path style="&st6;" d="M1722.56,137.28h-4.25"/>
<path style="&st10;" d="M1688.57,141.53h25.49"/>
<path style="&st4;" d="M1693.46,141.53l2.84-2.83h-4.25l-2.84,2.83l2.84,2.84h4.25L1693.46,141.53"/>
<path style="&st4;" d="M1709.17,141.53l-2.83-2.83h4.24l2.84,2.83l-2.84,2.84h-4.24L1709.17,141.53"/>
<path style="&st6;" d="M1688.57,141.53c0-2.34-1.9-4.25-4.25-4.25"/>
<path style="&st6;" d="M1684.32,145.78c2.35,0,4.25-1.9,4.25-4.25"/>
<path style="&st6;" d="M1675.82,141.53c0,2.35,1.9,4.25,4.25,4.25"/>
<path style="&st6;" d="M1680.07,137.28c-2.35,0-4.25,1.91-4.25,4.25"/>
<path style="&st6;" d="M1726.81,141.53c0-2.34-1.9-4.25-4.25-4.25"/>
<path style="&st6;" d="M1722.56,145.78c2.35,0,4.25-1.9,4.25-4.25"/>
<path style="&st6;" d="M1714.06,141.53c0,2.35,1.91,4.25,4.25,4.25"/>
<path style="&st6;" d="M1718.31,137.28c-2.34,0-4.25,1.91-4.25,4.25"/>
<text transform="matrix(1 0 0 1 1716.8682 134.2861)" style="&st5;"><tspan x="0" y="0" style="&st17; &st11;">10</tspan></text>
<text transform="matrix(1 0 0 1 1716.1289 143.4961)" style="&st5;"><tspan x="0" y="0" style="&st17; &st11;">4B</tspan></text>
<text transform="matrix(1 0 0 1 1678.2383 134.2861)" style="&st5;"><tspan x="0" y="0" style="&st17; &st11;">70</tspan></text>
<text transform="matrix(1 0 0 1 1677.8789 143.4961)" style="&st5;"><tspan x="0" y="0" style="&st17; &st11;">4A</tspan></text>
</g>
<g ewd:code="3JB" ewd:figID="3003" ewd:figtype="jb">
<path style="&st6;" d="M1777.8,35.3h-4.25"/>
<path style="&st6;" d="M1773.55,26.8h4.25"/>
<path style="&st6;" d="M1816.05,35.3h-4.25"/>
<path style="&st6;" d="M1816.05,26.8h-4.25"/>
<path style="&st6;" d="M1777.8,69.29h-4.25"/>
<path style="&st6;" d="M1773.55,60.8h4.25"/>
<path style="&st6;" d="M1816.05,69.29h-4.25"/>
<path style="&st6;" d="M1816.05,60.8h-4.25"/>
<path style="&st6;" d="M1773.55,103.29h4.25"/>
<path style="&st6;" d="M1777.8,111.79h-4.25"/>
<path style="&st10;" d="M1782.05,31.05h25.5"/>
<path style="&st4;" d="M1786.95,31.05l2.83-2.83h-4.25l-2.83,2.83l2.83,2.83h4.25L1786.95,31.05"/>
<path style="&st4;" d="M1802.65,31.05l-2.83-2.83h4.25l2.83,2.83l-2.83,2.83h-4.25L1802.65,31.05"/>
<path style="&st10;" d="M1782.05,65.05h25.5"/>
<path style="&st4;" d="M1786.95,65.05l2.83-2.84h-4.25l-2.83,2.84l2.83,2.83h4.25L1786.95,65.05"/>
<path style="&st4;" d="M1802.65,65.05l-2.83-2.84h4.25l2.83,2.84l-2.83,2.83h-4.25L1802.65,65.05"/>
<path style="&st10;" d="M1793.61,30.05l-0.27,0.47l-0.1,0.53l0.1,0.53l0.27,0.47l0.41,0.35l0.51,0.19h0.54l0.51-0.19l0.41-0.35l0.27-0.47l0.1-0.53l-0.1-0.53l-0.27-0.47l-0.41-0.35l-0.51-0.18h-0.54l-0.51,0.18L1793.61,30.05l0.39,0.71v0.58l0.37,0.45l0.58,0.1l0.5-0.29l0.2-0.55l-0.2-0.55l-0.5-0.28l-0.58,0.09l0.43,0.74"/>
<path style="&st10;" d="M1793.61,64.04l-0.27,0.47l-0.1,0.54l0.1,0.53l0.27,0.47l0.41,0.34l0.51,0.19h0.54l0.51-0.19l0.41-0.34l0.27-0.47l0.1-0.53l-0.1-0.54l-0.27-0.47l-0.41-0.34l-0.51-0.19h-0.54l-0.51,0.19L1793.61,64.04l0.39,0.71v0.59l0.37,0.44l0.58,0.1l0.5-0.29l0.2-0.54l-0.2-0.55l-0.5-0.29l-0.58,0.1l0.43,0.74"/>
<path style="&st4;" d="M1786.95,107.54l2.83-2.83h-4.25l-2.83,2.83l2.83,2.83h4.25L1786.95,107.54"/>
<path style="&st10;" d="M1794.8,31.05v76.49h-12.75"/>
<path style="&st6;" d="M1782.05,31.05c0-2.35-1.9-4.25-4.25-4.25"/>
<path style="&st6;" d="M1777.8,35.3c2.35,0,4.25-1.9,4.25-4.25"/>
<path style="&st6;" d="M1769.3,31.05c0,2.35,1.91,4.25,4.25,4.25"/>
<path style="&st6;" d="M1773.55,26.8c-2.34,0-4.25,1.9-4.25,4.25"/>
<path style="&st6;" d="M1820.3,31.05c0-2.35-1.91-4.25-4.25-4.25"/>
<path style="&st6;" d="M1816.05,35.3c2.34,0,4.25-1.9,4.25-4.25"/>
<path style="&st6;" d="M1807.55,31.05c0,2.35,1.9,4.25,4.25,4.25"/>
<path style="&st6;" d="M1811.8,26.8c-2.35,0-4.25,1.9-4.25,4.25"/>
<path style="&st6;" d="M1782.05,65.05c0-2.35-1.9-4.25-4.25-4.25"/>
<path style="&st6;" d="M1777.8,69.29c2.35,0,4.25-1.9,4.25-4.24"/>
<path style="&st6;" d="M1769.3,65.05c0,2.34,1.91,4.24,4.25,4.24"/>
<path style="&st6;" d="M1773.55,60.8c-2.34,0-4.25,1.9-4.25,4.25"/>
<path style="&st6;" d="M1820.3,65.05c0-2.35-1.91-4.25-4.25-4.25"/>
<path style="&st6;" d="M1816.05,69.29c2.34,0,4.25-1.9,4.25-4.24"/>
<path style="&st6;" d="M1807.55,65.05c0,2.34,1.9,4.24,4.25,4.24"/>
<path style="&st6;" d="M1811.8,60.8c-2.35,0-4.25,1.9-4.25,4.25"/>
<path style="&st6;" d="M1773.55,103.29c-2.34,0-4.25,1.9-4.25,4.25"/>
<path style="&st6;" d="M1769.3,107.54c0,2.34,1.91,4.25,4.25,4.25"/>
<path style="&st6;" d="M1777.8,111.79c2.35,0,4.25-1.91,4.25-4.25"/>
<path style="&st6;" d="M1782.05,107.54c0-2.35-1.9-4.25-4.25-4.25"/>
<text transform="matrix(1 0 0 1 1809.9688 23.8062)" style="&st5;"><tspan x="0" y="0" style="&st17; &st11;">67</tspan></text>
<text transform="matrix(1 0 0 1 1809.6084 33.0161)" style="&st5;"><tspan x="0" y="0" style="&st17; &st11;">3A</tspan></text>
<text transform="matrix(1 0 0 1 1771.7188 23.8062)" style="&st5;"><tspan x="0" y="0" style="&st17; &st11;">43</tspan></text>
<text transform="matrix(1 0 0 1 1771.3682 33.0161)" style="&st5;"><tspan x="0" y="0" style="&st17; &st11;">3A</tspan></text>
<text transform="matrix(1 0 0 1 1809.9688 57.8062)" style="&st5;"><tspan x="0" y="0" style="&st17; &st11;">34</tspan></text>
<text transform="matrix(1 0 0 1 1809.4688 67.0063)" style="&st5;"><tspan x="0" y="0" style="&st17; &st11;">3C</tspan></text>
<text transform="matrix(1 0 0 1 1771.7188 57.8062)" style="&st5;"><tspan x="0" y="0" style="&st17; &st11;">55</tspan></text>
<text transform="matrix(1 0 0 1 1771.3682 67.0063)" style="&st5;"><tspan x="0" y="0" style="&st17; &st11;">3A</tspan></text>
<text transform="matrix(1 0 0 1 1771.3682 109.5063)" style="&st5;"><tspan x="0" y="0" style="&st17; &st11;">3B</tspan></text>
<text transform="matrix(1 0 0 1 1771.7188 100.2964)" style="&st5;"><tspan x="0" y="0" style="&st17; &st11;">25</tspan></text>
</g>
<g ewd:code="3JB" ewd:figID="3018" ewd:figtype="jb">
<path style="&st6;" d="M1905.28,553.71h-4.25"/>
<path style="&st6;" d="M1901.03,545.21h4.25"/>
<path style="&st6;" d="M1943.53,553.71h-4.25"/>
<path style="&st6;" d="M1943.53,545.21h-4.25"/>
<path style="&st10;" d="M1909.53,549.46h25.5"/>
<path style="&st4;" d="M1914.43,549.46l2.83-2.83h-4.25l-2.83,2.83l2.83,2.84h4.25L1914.43,549.46"/>
<path style="&st4;" d="M1930.13,549.46l-2.83-2.83h4.25l2.83,2.83l-2.83,2.84h-4.25L1930.13,549.46"/>
<path style="&st6;" d="M1909.53,549.46c0-2.34-1.9-4.25-4.25-4.25"/>
<path style="&st6;" d="M1905.28,553.71c2.35,0,4.25-1.9,4.25-4.25"/>
<path style="&st6;" d="M1896.78,549.46c0,2.35,1.91,4.25,4.25,4.25"/>
<path style="&st6;" d="M1901.03,545.21c-2.34,0-4.25,1.91-4.25,4.25"/>
<path style="&st6;" d="M1947.77,549.46c0-2.34-1.9-4.25-4.24-4.25"/>
<path style="&st6;" d="M1943.53,553.71c2.34,0,4.24-1.9,4.24-4.25"/>
<path style="&st6;" d="M1935.03,549.46c0,2.35,1.9,4.25,4.25,4.25"/>
<path style="&st6;" d="M1939.28,545.21c-2.35,0-4.25,1.91-4.25,4.25"/>
<text transform="matrix(1 0 0 1 1937.4385 542.2266)" style="&st5;"><tspan x="0" y="0" style="&st17; &st11;">55</tspan></text>
<text transform="matrix(1 0 0 1 1937.0889 551.4258)" style="&st5;"><tspan x="0" y="0" style="&st17; &st11;">3A</tspan></text>
<text transform="matrix(1 0 0 1 1899.1982 542.2266)" style="&st5;"><tspan x="0" y="0" style="&st17; &st11;">25</tspan></text>
<text transform="matrix(1 0 0 1 1898.8486 551.4258)" style="&st5;"><tspan x="0" y="0" style="&st17; &st11;">3B</tspan></text>
</g>
<g ewd:code="4JB" ewd:figID="3019" ewd:figtype="jb">
<path style="&st6;" d="M1990.27,630.2h-4.25"/>
<path style="&st6;" d="M1986.02,621.7h4.25"/>
<path style="&st6;" d="M2028.51,630.2h-4.25"/>
<path style="&st6;" d="M2028.51,621.7h-4.25"/>
<path style="&st10;" d="M1994.52,625.95h25.49"/>
<path style="&st4;" d="M1999.41,625.95l2.83-2.83h-4.25l-2.83,2.83l2.83,2.83h4.25L1999.41,625.95"/>
<path style="&st4;" d="M2015.12,625.95l-2.84-2.83h4.25l2.84,2.83l-2.84,2.83h-4.25L2015.12,625.95"/>
<path style="&st6;" d="M1994.52,625.95c0-2.35-1.91-4.25-4.25-4.25"/>
<path style="&st6;" d="M1990.27,630.2c2.34,0,4.25-1.9,4.25-4.25"/>
<path style="&st6;" d="M1981.77,625.95c0,2.35,1.9,4.25,4.25,4.25"/>
<path style="&st6;" d="M1986.02,621.7c-2.35,0-4.25,1.9-4.25,4.25"/>
<path style="&st6;" d="M2032.76,625.95c0-2.35-1.9-4.25-4.25-4.25"/>
<path style="&st6;" d="M2028.51,630.2c2.35,0,4.25-1.9,4.25-4.25"/>
<path style="&st6;" d="M2020.01,625.95c0,2.35,1.91,4.25,4.25,4.25"/>
<path style="&st6;" d="M2024.26,621.7c-2.34,0-4.25,1.9-4.25,4.25"/>
<text transform="matrix(1 0 0 1 2022.4287 618.707)" style="&st5;"><tspan x="0" y="0" style="&st17; &st11;">70</tspan></text>
<text transform="matrix(1 0 0 1 2022.0791 627.916)" style="&st5;"><tspan x="0" y="0" style="&st17; &st11;">4A</tspan></text>
<text transform="matrix(1 0 0 1 1984.5791 618.707)" style="&st5;"><tspan x="0" y="0" style="&st17; &st11;">10</tspan></text>
<text transform="matrix(1 0 0 1 1983.8291 627.916)" style="&st5;"><tspan x="0" y="0" style="&st17; &st11;">4B</tspan></text>
</g>
<g ewd:code="C2" ewd:figID="2011" ewd:figtype="gp">
<path style="&st10;" d="M1752.31,701.02v4.25"/>
<path style="&st10;" d="M1743.81,705.27h17"/>
<path style="&st10;" d="M1748.06,708.1h8.5"/>
<path style="&st10;" d="M1749.47,710.94h5.67"/>
<path style="&st10;" d="M1750.89,713.77h2.83"/>
</g>
<g ewd:code="C1" ewd:figID="2002" ewd:figtype="gp">
<path style="&st10;" d="M1876.95,345.5h5.67"/>
<path style="&st10;" d="M1875.54,342.67h8.49"/>
<path style="&st10;" d="M1871.29,339.83h16.99"/>
<path style="&st10;" d="M1879.79,335.58v4.25"/>
<path style="&st10;" d="M1878.37,348.33h2.83"/>
</g>
<g ewd:code="C48" ewd:figID="21" ewd:figtype="conn">
<path style="&st10;" d="M1827.6,505.97l-0.27,0.47l-0.09,0.53l0.09,0.53l0.27,0.47l0.41,0.35l0.51,0.19h0.55l0.5-0.19l0.42-0.35l0.27-0.47l0.09-0.53l-0.09-0.53l-0.27-0.47l-0.42-0.35l-0.5-0.18h-0.55l-0.51,0.18L1827.6,505.97l0.4,0.71v0.58l0.37,0.45l0.57,0.1l0.51-0.29l0.19-0.55l-0.19-0.55l-0.51-0.28l-0.57,0.09l0.42,0.74"/>
<path style="&st10;" d="M1827.6,471.97l-0.27,0.47l-0.09,0.54l0.09,0.53l0.27,0.47l0.41,0.35l0.51,0.18h0.55l0.5-0.18l0.42-0.35l0.27-0.47l0.09-0.53l-0.09-0.54l-0.27-0.47l-0.42-0.34l-0.5-0.19h-0.55l-0.51,0.19L1827.6,471.97l0.4,0.72v0.58l0.37,0.44l0.57,0.1l0.51-0.29l0.19-0.54l-0.19-0.55l-0.51-0.29l-0.57,0.1l0.42,0.74"/>
<path style="&st6;" d="M1820.3,362.5v152.97h16.99V362.5H1820.3"/>
<path style="&st10;" d="M1827.6,437.98l-0.27,0.47l-0.09,0.53l0.09,0.54l0.27,0.47l0.41,0.34l0.51,0.19h0.55l0.5-0.19l0.42-0.34l0.27-0.47l0.09-0.54l-0.09-0.53l-0.27-0.47l-0.42-0.35l-0.5-0.18h-0.55l-0.51,0.18L1827.6,437.98l0.4,0.71v0.58l0.37,0.45l0.57,0.1l0.51-0.29l0.19-0.55l-0.19-0.54l-0.51-0.29l-0.57,0.1l0.42,0.73"/>
<path style="&st10;" d="M1827.6,403.99l-0.27,0.47l-0.09,0.53l0.09,0.53l0.27,0.47l0.41,0.35l0.51,0.18h0.55l0.5-0.18l0.42-0.35l0.27-0.47l0.09-0.53l-0.09-0.53l-0.27-0.47l-0.42-0.35l-0.5-0.19h-0.55l-0.51,0.19L1827.6,403.99l0.4,0.71v0.58l0.37,0.44l0.57,0.1l0.51-0.28l0.19-0.55l-0.19-0.55l-0.51-0.29l-0.57,0.1l0.42,0.74"/>
<path style="&st10;" d="M1828.79,404.99h8.5"/>
<path style="&st10;" d="M1828.79,438.98h8.5"/>
<path style="&st10;" d="M1828.79,472.98h8.5"/>
<path style="&st10;" d="M1820.3,506.97h16.99"/>
<path style="&st10;" d="M1828.79,506.97V370.99h8.5"/>
<text transform="matrix(1 0 0 1 1840.1289 367.2959)" style="&st5;"><tspan x="0" y="0" style="&st17; &st11;">20</tspan></text>
<text transform="matrix(1 0 0 1 1840.1289 401.2959)" style="&st5;"><tspan x="0" y="0" style="&st17; &st11;">17</tspan></text>
<text transform="matrix(1 0 0 1 1840.1289 435.2852)" style="&st5;"><tspan x="0" y="0" style="&st17; &st11;">18</tspan></text>
<text transform="matrix(1 0 0 1 1840.1289 469.2852)" style="&st5;"><tspan x="0" y="0" style="&st17; &st11;">19</tspan></text>
<text transform="matrix(1 0 0 1 1840.1289 503.2754)" style="&st5;"><tspan x="0" y="0" style="&st17; &st11;">21</tspan></text>
<text ewd:textID="175" transform="matrix(0 -1 1 0 1816.5986 424.5059)" style="&st5; &st17; &st11;">Junction Connector</text>
<text transform="matrix(0 -1 1 0 1809.4883 424.5059)" style="&st5;"><tspan x="0" y="0" style="&st17; &st11;">C48</tspan></text>
<text transform="matrix(1 0 0 1 1810.3291 503.2754)" style="&st5;"><tspan x="0" y="0" style="&st17; &st11;">16</tspan></text>
</g>
<g ewd:code="C48" ewd:figID="2" ewd:figtype="conn">
<path style="&st10;" d="M1759.61,302l-0.27,0.47l-0.09,0.54l0.09,0.53l0.27,0.47l0.42,0.34l0.5,0.19h0.55l0.5-0.19l0.42-0.34l0.27-0.47l0.09-0.53l-0.09-0.54L1762,302l-0.42-0.34l-0.5-0.19h-0.55l-0.5,0.19L1759.61,302l0.4,0.71v0.59l0.37,0.44l0.57,0.1l0.51-0.29l0.2-0.54l-0.2-0.55l-0.51-0.29l-0.57,0.1l0.43,0.74"/>
<path style="&st10;" d="M1759.61,276.51l-0.27,0.47l-0.09,0.53l0.09,0.53l0.27,0.47l0.42,0.35l0.5,0.19h0.55l0.5-0.19l0.42-0.35l0.27-0.47l0.09-0.53l-0.09-0.53l-0.27-0.47l-0.42-0.35l-0.5-0.19h-0.55l-0.5,0.19L1759.61,276.51l0.4,0.71v0.58l0.37,0.45l0.57,0.1l0.51-0.29l0.2-0.55l-0.2-0.55l-0.51-0.29l-0.57,0.1l0.43,0.74"/>
<path style="&st10;" d="M1759.61,251.01l-0.27,0.47l-0.09,0.53l0.09,0.54l0.27,0.47l0.42,0.34l0.5,0.19h0.55l0.5-0.19l0.42-0.34l0.27-0.47l0.09-0.54l-0.09-0.53l-0.27-0.47l-0.42-0.34l-0.5-0.19h-0.55l-0.5,0.19L1759.61,251.01l0.4,0.71v0.59l0.37,0.44l0.57,0.1l0.51-0.29l0.2-0.55l-0.2-0.54l-0.51-0.29l-0.57,0.1l0.43,0.73"/>
<path style="&st10;" d="M1752.31,303.01h16.99"/>
<path style="&st10;" d="M1752.31,277.51h8.5"/>
<path style="&st10;" d="M1752.31,252.01h8.5"/>
<path style="&st10;" d="M1752.31,226.52h8.5"/>
<path style="&st10;" d="M1760.81,226.52v152.97h-8.5"/>
<path style="&st6;" d="M1752.31,218.02v169.97h16.99V218.02H1752.31"/>
<path style="&st10;" d="M1759.61,352.99l-0.27,0.47l-0.09,0.54l0.09,0.53l0.27,0.47l0.42,0.35l0.5,0.18h0.55l0.5-0.18L1762,355l0.27-0.47l0.09-0.53l-0.09-0.54l-0.27-0.47l-0.42-0.34l-0.5-0.19h-0.55l-0.5,0.19L1759.61,352.99l0.4,0.72v0.58l0.37,0.44l0.57,0.1l0.51-0.29l0.2-0.54l-0.2-0.55l-0.51-0.29l-0.57,0.1l0.43,0.74"/>
<path style="&st10;" d="M1759.61,327.5l-0.27,0.47l-0.09,0.53l0.09,0.53l0.27,0.47l0.42,0.35l0.5,0.19h0.55l0.5-0.19l0.42-0.35l0.27-0.47l0.09-0.53l-0.09-0.53l-0.27-0.47l-0.42-0.35l-0.5-0.18h-0.55l-0.5,0.18L1759.61,327.5l0.4,0.71v0.58l0.37,0.45l0.57,0.1l0.51-0.29l0.2-0.55l-0.2-0.55l-0.51-0.28l-0.57,0.09l0.43,0.74"/>
<path style="&st10;" d="M1752.31,328.5h8.5"/>
<path style="&st10;" d="M1752.31,354h8.5"/>
<text transform="matrix(1 0 0 1 1742.3389 222.8262)" style="&st5;"><tspan x="0" y="0" style="&st17; &st11;">17</tspan></text>
<text transform="matrix(1 0 0 1 1742.3389 248.3159)" style="&st5;"><tspan x="0" y="0" style="&st17; &st11;">21</tspan></text>
<text transform="matrix(1 0 0 1 1741.5586 273.8159)" style="&st5;"><tspan x="0" y="0" style="&st17; &st11;">20</tspan></text>
<text transform="matrix(1 0 0 1 1742.3389 299.3159)" style="&st5;"><tspan x="0" y="0" style="&st17; &st11;">15</tspan></text>
<text transform="matrix(1 0 0 1 1772.1387 299.3062)" style="&st5;"><tspan x="0" y="0" style="&st17; &st11;">16</tspan></text>
<text transform="matrix(1 0 0 1 1742.3389 324.8062)" style="&st5;"><tspan x="0" y="0" style="&st17; &st11;">19</tspan></text>
<text transform="matrix(1 0 0 1 1742.3389 350.3062)" style="&st5;"><tspan x="0" y="0" style="&st17; &st11;">18</tspan></text>
<text transform="matrix(1 0 0 1 1741.5586 375.7959)" style="&st5;"><tspan x="0" y="0" style="&st17; &st11;">22</tspan></text>
<text ewd:textID="175" transform="matrix(0 -1 1 0 1784.0186 390.5156)" style="&st5; &st17; &st11;">Junction Connector</text>
<text transform="matrix(0 -1 1 0 1776.9189 390.5156)" style="&st5;"><tspan x="0" y="0" style="&st17; &st11;">C48</tspan></text>
</g>
<text transform="matrix(1 0 0 1 1635.8389 568.4258)" style="&st5;"><tspan x="0" y="0" style="&st17; &st11;">(E1)</tspan></text>
<text transform="matrix(1 0 0 1 1983.749 202.9858)" style="&st5;"><tspan x="0" y="0" style="&st17; &st11;">(E05)</tspan></text>
<text transform="matrix(1 0 0 1 1983.749 168.9961)" style="&st5;"><tspan x="0" y="0" style="&st17; &st11;">(E04)</tspan></text>
<text transform="matrix(1 0 0 1 1983.749 134.9961)" style="&st5;"><tspan x="0" y="0" style="&st17; &st11;">(E03)</tspan></text>
<text transform="matrix(1 0 0 1 1983.749 84.0063)" style="&st5;"><tspan x="0" y="0" style="&st17; &st11;">(ECC)</tspan></text>
<text transform="matrix(1 0 0 1 1983.749 33.0161)" style="&st5;"><tspan x="0" y="0" style="&st17; &st11;">(SGND)</tspan></text>
<text transform="matrix(1 0 0 1 1983.749 661.9063)" style="&st5;"><tspan x="0" y="0" style="&st17; &st11;">(SG)</tspan></text>
<text transform="matrix(1 0 0 1 1631.0986 661.9063)" style="&st5;"><tspan x="0" y="0" style="&st17; &st11;">(E03)</tspan></text>
<text transform="matrix(1 0 0 1 1567.0586 626.4766)" style="&st5;"><tspan x="0" y="0" style="&st17; &st11;">C63</tspan></text>
<text transform="matrix(1 0 0 1 1567.0586 633.5859)" style="&st5;"><tspan x="0" y="0" style="&st17; &st11;">ECM</tspan></text>
<text transform="matrix(1 0 0 1 1631.0986 627.916)" style="&st5;"><tspan x="0" y="0" style="&st17; &st11;">(E04)</tspan></text>
<text transform="matrix(1 0 0 1 1626.0889 602.416)" style="&st5;"><tspan x="0" y="0" style="&st17; &st11;">(ME01)</tspan></text>
<text transform="matrix(1 0 0 1 1567.0586 566.9863)" style="&st5;"><tspan x="0" y="0" style="&st17; &st11;">C64</tspan></text>
<text transform="matrix(1 0 0 1 1567.0586 574.0957)" style="&st5;"><tspan x="0" y="0" style="&st17; &st11;">ECM</tspan></text>
<text transform="matrix(1 0 0 1 1679.5186 656.2461)" style="&st5;"><tspan x="0" y="0" style="&st17; &st11;">BR</tspan></text>
<text transform="matrix(1 0 0 1 1679.5186 622.2461)" style="&st5;"><tspan x="0" y="0" style="&st17; &st11;">BR</tspan></text>
<text transform="matrix(1 0 0 1 1676.6182 596.7559)" style="&st5;"><tspan x="0" y="0" style="&st17; &st11;">W-B</tspan></text>
<text transform="matrix(1 0 0 1 1679.5186 562.7559)" style="&st5;"><tspan x="0" y="0" style="&st17; &st11;">BR</tspan></text>
<text transform="matrix(1 0 0 1 1857.9883 367.2959)" style="&st5;"><tspan x="0" y="0" style="&st17; &st11;">BR</tspan></text>
<text transform="matrix(1 0 0 1 1857.9883 401.2861)" style="&st5;"><tspan x="0" y="0" style="&st17; &st11;">BR</tspan></text>
<text transform="matrix(1 0 0 1 1857.9883 435.2852)" style="&st5;"><tspan x="0" y="0" style="&st17; &st11;">BR</tspan></text>
<text transform="matrix(1 0 0 1 1857.9883 469.2754)" style="&st5;"><tspan x="0" y="0" style="&st17; &st11;">BR</tspan></text>
<text transform="matrix(1 0 0 1 1857.9883 503.2656)" style="&st5;"><tspan x="0" y="0" style="&st17; &st11;">BR</tspan></text>
<text transform="matrix(1 0 0 1 1766.0684 690.2363)" style="&st5;"><tspan x="0" y="0" style="&st17; &st11;">(*2)</tspan></text>
<text transform="matrix(1 0 0 1 1823.9883 656.2461)" style="&st5;"><tspan x="0" y="0" style="&st17; &st11;">BR</tspan></text>
<text transform="matrix(1 0 0 1 1934.4688 656.2461)" style="&st5;"><tspan x="0" y="0" style="&st17; &st11;">BR</tspan></text>
<text transform="matrix(1 0 0 1 1789.999 503.2656)" style="&st5;"><tspan x="0" y="0" style="&st17; &st11;">BR</tspan></text>
<text transform="matrix(1 0 0 1 1983.749 551.4258)" style="&st5;"><tspan x="0" y="0" style="&st17; &st11;">(E2)</tspan></text>
<text transform="matrix(1 0 0 1 1823.9883 622.2461)" style="&st5;"><tspan x="0" y="0" style="&st17; &st11;">BR</tspan></text>
<text transform="matrix(1 0 0 1 1959.9688 545.7656)" style="&st5;"><tspan x="0" y="0" style="&st17; &st11;">BR</tspan></text>
<text transform="matrix(1 0 0 1 1713.5088 222.8159)" style="&st5;"><tspan x="0" y="0" style="&st17; &st11;">BR</tspan></text>
<text transform="matrix(1 0 0 1 1713.5088 248.3159)" style="&st5;"><tspan x="0" y="0" style="&st17; &st11;">BR</tspan></text>
<text transform="matrix(1 0 0 1 1713.5088 273.8062)" style="&st5;"><tspan x="0" y="0" style="&st17; &st11;">BR</tspan></text>
<text transform="matrix(1 0 0 1 1713.5088 299.3062)" style="&st5;"><tspan x="0" y="0" style="&st17; &st11;">BR</tspan></text>
<text transform="matrix(1 0 0 1 1567.0586 176.0562)" style="&st5;"><tspan x="0" y="0" style="&st17; &st11;">G48</tspan></text>
<text transform="matrix(1 0 0 1 1567.0586 183.1563)" style="&st5;"><tspan x="0" y="0" style="&st17; &st11;">DLC3</tspan></text>
<text transform="matrix(1 0 0 1 1633.5088 177.4961)" style="&st5;"><tspan x="0" y="0" style="&st17; &st11;">(SG)</tspan></text>
<text transform="matrix(1 0 0 1 1870.0381 42.2261)" style="&st5;"><tspan x="0" y="0" style="&st17; &st11;">(RHD)</tspan></text>
<text transform="matrix(1 0 0 1 1887.5283 42.2261)" style="&st5;"><tspan x="0" y="0" style="&st17; &st11;">(LHD)</tspan></text>
<text transform="matrix(1 0 0 1 1567.0586 65.5659)" style="&st5;"><tspan x="0" y="0" style="&st17; &st11;">G6</tspan></text>
<text ewd:textID="79" transform="matrix(1 0 0 1 1567.0586 72.6763)" style="&st5; &st17; &st11;">Combination Meter <tspan x="0" y="7">Assembly</tspan></text>
<text transform="matrix(1 0 0 1 1635.0586 67.0063)" style="&st5;"><tspan x="0" y="0" style="&st17; &st11;">(E2)</tspan></text>
<text transform="matrix(1 0 0 1 1567.0586 31.5762)" style="&st5;"><tspan x="0" y="0" style="&st17; &st11;">G119</tspan></text>
<text ewd:textID="95" transform="matrix(1 0 0 1 1567.0586 38.686)" style="&st5; &st17; &st11;">Driving Support ECU <tspan x="0" y="7">Assembly</tspan></text>
<text transform="matrix(1 0 0 1 1628.2783 33.0161)" style="&st5;"><tspan x="0" y="0" style="&st17; &st11;">(GND)</tspan></text>
<text transform="matrix(1 0 0 1 1696.5088 27.3462)" style="&st5;"><tspan x="0" y="0" style="&st17; &st11;">BR</tspan></text>
<text transform="matrix(1 0 0 1 1696.5088 61.3462)" style="&st5;"><tspan x="0" y="0" style="&st17; &st11;">BR</tspan></text>
<text transform="matrix(1 0 0 1 1696.5088 103.8359)" style="&st5;"><tspan x="0" y="0" style="&st17; &st11;">BR</tspan></text>
<text transform="matrix(1 0 0 1 1739.0088 137.8359)" style="&st5;"><tspan x="0" y="0" style="&st17; &st11;">BR</tspan></text>
<text transform="matrix(1 0 0 1 1739.0088 171.8262)" style="&st5;"><tspan x="0" y="0" style="&st17; &st11;">BR</tspan></text>
<text transform="matrix(1 0 0 1 1798.499 171.8262)" style="&st5;"><tspan x="0" y="0" style="&st17; &st11;">BR</tspan></text>
<text transform="matrix(1 0 0 1 1798.499 137.8359)" style="&st5;"><tspan x="0" y="0" style="&st17; &st11;">BR</tspan></text>
<text transform="matrix(1 0 0 1 1840.9883 61.3462)" style="&st5;"><tspan x="0" y="0" style="&st17; &st11;">BR</tspan></text>
<text transform="matrix(1 0 0 1 1840.9883 27.3462)" style="&st5;"><tspan x="0" y="0" style="&st17; &st11;">BR</tspan></text>
<text transform="matrix(1 0 0 1 1951.4688 27.3462)" style="&st5;"><tspan x="0" y="0" style="&st17; &st11;">BR</tspan></text>
<text transform="matrix(1 0 0 1 1948.5684 129.3359)" style="&st5;"><tspan x="0" y="0" style="&st17; &st11;">W-B</tspan></text>
<text transform="matrix(1 0 0 1 1948.5684 163.3262)" style="&st5;"><tspan x="0" y="0" style="&st17; &st11;">W-B</tspan></text>
<text transform="matrix(1 0 0 1 1948.5684 197.3262)" style="&st5;"><tspan x="0" y="0" style="&st17; &st11;">W-B</tspan></text>
<text transform="matrix(1 0 0 1 1798.499 299.3062)" style="&st5;"><tspan x="0" y="0" style="&st17; &st11;">BR</tspan></text>
<text transform="matrix(1 0 0 1 1893.5488 324.7964)" style="&st5;"><tspan x="0" y="0" style="&st17; &st11;">(*1)</tspan></text>
<text transform="matrix(1 0 0 1 1983.749 270.9761)" style="&st5;"><tspan x="0" y="0" style="&st17; &st11;">(E02)</tspan></text>
<text transform="matrix(1 0 0 1 1983.749 304.9663)" style="&st5;"><tspan x="0" y="0" style="&st17; &st11;">(ME01)</tspan></text>
<text transform="matrix(1 0 0 1 1948.5684 265.3062)" style="&st5;"><tspan x="0" y="0" style="&st17; &st11;">W-B</tspan></text>
<text transform="matrix(1 0 0 1 1948.5684 299.3062)" style="&st5;"><tspan x="0" y="0" style="&st17; &st11;">W-B</tspan></text>
<text transform="matrix(1 0 0 1 1713.5088 324.7964)" style="&st5;"><tspan x="0" y="0" style="&st17; &st11;">BR</tspan></text>
<text transform="matrix(1 0 0 1 1713.5088 350.2959)" style="&st5;"><tspan x="0" y="0" style="&st17; &st11;">BR</tspan></text>
<text transform="matrix(1 0 0 1 1713.5088 375.7959)" style="&st5;"><tspan x="0" y="0" style="&st17; &st11;">BR</tspan></text>
<text transform="matrix(1 0 0 1 1934.4688 622.2461)" style="&st5;"><tspan x="0" y="0" style="&st17; &st11;">BR</tspan></text>
<text transform="matrix(1 0 0 1 1857.9883 545.7656)" style="&st5;"><tspan x="0" y="0" style="&st17; &st11;">BR</tspan></text>
<text transform="matrix(1 0 0 1 1983.749 236.9858)" style="&st5;"><tspan x="0" y="0" style="&st17; &st11;">(E01)</tspan></text>
<text transform="matrix(1 0 0 1 1948.5684 231.3159)" style="&st5;"><tspan x="0" y="0" style="&st17; &st11;">W-B</tspan></text>
<text ewd:textID="3" transform="matrix(1 0 0 1 1906.2783 367.2959)" style="&st5; &st17; &st11;">(Shielded)</text>
<text ewd:textID="3" transform="matrix(1 0 0 1 1906.2783 401.2861)" style="&st5; &st17; &st11;">(Shielded)</text>
<text ewd:textID="3" transform="matrix(1 0 0 1 1906.2783 435.2852)" style="&st5; &st17; &st11;">(Shielded)</text>
<text ewd:textID="3" transform="matrix(1 0 0 1 1906.2783 469.2754)" style="&st5; &st17; &st11;">(Shielded)</text>
<text ewd:textID="3" transform="matrix(1 0 0 1 1906.2783 503.2656)" style="&st5; &st17; &st11;">(Shielded)</text>
<text ewd:textID="3" transform="matrix(1 0 0 1 1625.8184 222.8159)" style="&st5; &st17; &st11;">(Shielded)</text>
<text ewd:textID="3" transform="matrix(1 0 0 1 1625.8184 248.3159)" style="&st5; &st17; &st11;">(Shielded)</text>
<text ewd:textID="3" transform="matrix(1 0 0 1 1625.8184 273.8062)" style="&st5; &st17; &st11;">(Shielded)</text>
<text ewd:textID="3" transform="matrix(1 0 0 1 1625.8184 299.3062)" style="&st5; &st17; &st11;">(Shielded)</text>
<text ewd:textID="3" transform="matrix(1 0 0 1 1625.8184 324.7964)" style="&st5; &st17; &st11;">(Shielded)</text>
<text ewd:textID="3" transform="matrix(1 0 0 1 1625.8184 350.2959)" style="&st5; &st17; &st11;">(Shielded)</text>
<text ewd:textID="3" transform="matrix(1 0 0 1 1625.8184 375.7959)" style="&st5; &st17; &st11;">(Shielded)</text>
</svg>
