<?xml version="1.0" encoding="UTF-8"?>
<!DOCTYPE svg PUBLIC "-//W3C//DTD SVG 1.0//EN" "http://www.w3.org/TR/2001/REC-SVG-20010904/DTD/svg10.dtd"[
<!ENTITY ns_flows "http://ns.adobe.com/Flows/1.0/">
<!ENTITY ns_svg "http://www.w3.org/2000/svg">
<!ENTITY ns_xlink "http://www.w3.org/1999/xlink">
	<!ENTITY st0 "fill:none;stroke:#9A9999;stroke-width:5.1;stroke-linejoin:round;">
	<!ENTITY st1 "fill:none;stroke:#000000;stroke-width:5.1;stroke-linejoin:round;">
	<!ENTITY st2 "fill:none;stroke:#000000;stroke-linecap:round;stroke-linejoin:round;">
	<!ENTITY st3 "stroke:#000000;stroke-width:0.28;stroke-linecap:round;stroke-linejoin:round;enable-background:new    ;">
	<!ENTITY st4 "enable-background:new    ;">
		<!ENTITY st5 "fill:none;stroke:#000000;stroke-width:1.42;stroke-linecap:round;stroke-linejoin:round;enable-background:new    ;">
	<!ENTITY st6 "fill:none;stroke:#199DBF;stroke-width:5.1;stroke-linejoin:round;">
	<!ENTITY st7 "fill:none;stroke:#FFFFFF;stroke-width:4.53;stroke-linejoin:round;">
		<!ENTITY st8 "fill:none;stroke:#000000;stroke-width:0.85;stroke-linecap:round;stroke-linejoin:round;enable-background:new    ;">
	<!ENTITY st9 "font-size:6px;">
	<!ENTITY st10 "fill:none;stroke:#000000;stroke-width:1.13;stroke-linejoin:round;">
		<!ENTITY st11 "fill:none;stroke:#000000;stroke-width:1.13;stroke-linecap:round;stroke-linejoin:round;stroke-dasharray:3 1.5;enable-background:new    ;">
	<!ENTITY st12 "fill:#FFFFFF;stroke:#000000;stroke-width:1.41;stroke-linecap:round;stroke-linejoin:round;">
	<!ENTITY st13 "fill:none;stroke:#000000;stroke-width:1.133;stroke-linecap:round;stroke-linejoin:round;">
	<!ENTITY st14 "fill:#CCCCCC;stroke:#CCCCCC;stroke-width:0.1;stroke-linecap:round;stroke-linejoin:round;">
	<!ENTITY st15 "opacity:0.5;fill:none;stroke:#000000;stroke-linejoin:round;">
	<!ENTITY st16 "fill:none;stroke:#000000;stroke-width:3;">
	<!ENTITY st17 "font-family:'Arial';">
	<!ENTITY st18 "fill:none;stroke:#000000;stroke-width:0.8472;stroke-linecap:round;stroke-linejoin:round;">
	<!ENTITY st19 "fill:#CFE6E7;stroke:#000000;stroke-width:1.133;stroke-linecap:round;stroke-linejoin:round;">
	<!ENTITY st20 "fill:none;stroke:#7EC57E;stroke-width:5.1;stroke-linejoin:round;">
<!ATTLIST svg
xmlns:ewd CDATA #FIXED "http://shcl.co.jp/ewd"
xmlns:a CDATA #FIXED "http://ns.adobe.com/AdobeSVGViewerExtensions/3.0/"
ewd:ver CDATA #IMPLIED
>
<!ATTLIST a
ewd:lineID CDATA #IMPLIED
ewd:groupID CDATA #IMPLIED
ewd:figtype CDATA #IMPLIED
ewd:code CDATA #IMPLIED
ewd:figID CDATA #IMPLIED
ewd:pinNo CDATA #IMPLIED
ewd:comment CDATA #IMPLIED >
<!ATTLIST g
ewd:lineID CDATA #IMPLIED
ewd:groupID CDATA #IMPLIED
ewd:figtype CDATA #IMPLIED
ewd:code CDATA #IMPLIED
ewd:figID CDATA #IMPLIED
ewd:pinNo CDATA #IMPLIED
ewd:comment CDATA #IMPLIED >
<!ATTLIST text
ewd:textID CDATA #IMPLIED >
<!ATTLIST title
ewd:textID CDATA #IMPLIED >
]>
<svg onload="call_execInitLoadProc_svg('system')"
style='overflow:visible;enable-background:new 0 0 521.41 729.44'
viewBox='0 0 521.41 729.44'
height='729.44'
width='521.41'
xml:space="preserve"
xmlns="&ns_svg;"
xmlns:ewd="http://shcl.co.jp/ewd"
xmlns:a="http://ns.adobe.com/AdobeSVGViewerExtensions/3.0/"
xmlns:xlink="&ns_xlink;" ewd:ver="L2.1">
<style type="text/css">
	</style>
<script type="text/javascript" xlink:href="../../../../../system/js/ewd/fig/svgfig.js"/>
<defs>
<font horiz-adv-x="1229">
<font-face font-family="Svg Symbol" units-per-em="2048" panose-1="5 5 1 2 1 7 6 2 5 7" ascent="2059" descent="450" alphabetic="0"/>
<missing-glyph d="M 103,0 l 0,1280 1024,0 0,-1280 -1024,0 z m 32,32 l 960,0 0,1216 -960,0 0,-1216 z"/>
<glyph unicode="&#xF057;" horiz-adv-x="1573" d="M 1517,0 l -567,0 24,279 q 141,59 207.5,168 66.5,109 66.5,306    0,272 -132.5,417.5 -132.5,145.5 -333.5,145.5 -194,0 -328,-147.5 -134,-147.5 -134,-401.5 0,-200 68.5,-319 68.5,-119     206.5,-169 l 25,-279 -564,0 0,279 35,0 q 3,-61 32,-83 45,-35 137,-35 l 270,0 0,70 q -210,61 -324.5,209 -114.5,148     -114.5,349 0,252 186.5,425 186.5,173 504.5,173 195,0 358.5,-73.5 163.5,-73.5 252,-214.5 88.5,-141 88.5,-310 0,-207     -121.5,-360.5 -121.5,-153.5 -317.5,-197.5 l -8,-70 275,0 q 92,0 128,28 36,28 42,90 l 38,0 0,-279 z"/>
</font>
</defs>
<g id="ewd_top">
<a ewd:lineID="11" style="cursor:pointer;">
    <path style="&st1;" d="M 463.66 , 575 L 463.66 , 622.99 L 63.69 , 622.99 L 63.69 , 458.57"/>
</a>
<a ewd:lineID="15" style="cursor:pointer;">
    <path style="&st1;" d="M 328.42 , 584.8 L 328.42 , 635.68 L 349.28 , 635.68 L 357.78 , 644.16 L 357.78 , 660.03"/><path style="&st7;" d="M 328.42 , 584.8 L 328.42 , 635.68 L 349.28 , 635.68 L 357.78 , 644.16 L 357.78 , 660.03"/><path style="&st10;" d="M 328.42 , 584.8 L 328.42 , 635.68 L 349.28 , 635.68 L 357.78 , 644.16 L 357.78 , 660.03"/>
</a>
<a ewd:lineID="3" style="cursor:pointer;">
    <path style="&st0;" d="M 38.19 , 288.24 L 38.19 , 356.59"/>
</a>
<a ewd:lineID="1" style="cursor:pointer;">
    <path style="&st0;" d="M 38.19 , 202.89 L 38.19 , 271.24"/>
</a>
<a ewd:lineID="2" style="cursor:pointer;">
    <path style="&st0;" d="M 38.19 , 107.54 L 38.19 , 185.89"/>
</a>
<a ewd:lineID="17" style="cursor:pointer;">
    <path style="&st1;" d="M 357.79 , 584.82 L 357.79 , 659.94"/><path style="&st7;" d="M 357.79 , 584.82 L 357.79 , 659.94"/><path style="&st10;" d="M 357.79 , 584.82 L 357.79 , 659.94"/>
</a>
<a ewd:lineID="12" style="cursor:pointer;">
    <path style="&st1;" d="M 274.29 , 532.7 L 274.29 , 479.66 L 295.15 , 479.66 L 303.65 , 471.18 L 303.65 , 463.25"/><path style="&st7;" d="M 274.29 , 532.7 L 274.29 , 479.66 L 295.15 , 479.66 L 303.65 , 471.18 L 303.65 , 463.25"/><path style="&st10;" d="M 274.29 , 532.7 L 274.29 , 479.66 L 295.15 , 479.66 L 303.65 , 471.18 L 303.65 , 463.25"/>
</a>
<a ewd:lineID="14" style="cursor:pointer;">
    <path style="&st1;" d="M 303.66 , 532.69 L 303.66 , 463.25"/><path style="&st7;" d="M 303.66 , 532.69 L 303.66 , 463.25"/><path style="&st10;" d="M 303.66 , 532.69 L 303.66 , 463.25"/>
</a>
<a ewd:lineID="13" style="cursor:pointer;">
    <path style="&st1;" d="M 302.93 , 584.8 L 302.93 , 600.68 L 274.29 , 600.68 L 274.29 , 584.82"/><path style="&st7;" d="M 302.93 , 584.8 L 302.93 , 600.68 L 274.29 , 600.68 L 274.29 , 584.82"/><path style="&st10;" d="M 302.93 , 584.8 L 302.93 , 600.68 L 274.29 , 600.68 L 274.29 , 584.82"/>
</a>
<a ewd:lineID="16" style="cursor:pointer;">
    <path style="&st1;" d="M 329.15 , 532.7 L 329.15 , 520.82 L 357.79 , 520.82 L 357.79 , 532.68"/><path style="&st7;" d="M 329.15 , 532.7 L 329.15 , 520.82 L 357.79 , 520.82 L 357.79 , 532.68"/><path style="&st10;" d="M 329.15 , 532.7 L 329.15 , 520.82 L 357.79 , 520.82 L 357.79 , 532.68"/>
</a>
<a ewd:lineID="18" style="cursor:pointer;">
    <path style="&st1;" d="M 383.66 , 463.25 L 383.65 , 511.76 L 463.65 , 511.76 L 463.65 , 551.76"/>
</a>
<a ewd:lineID="7" style="cursor:pointer;">
    <path style="&st20;" d="M 343.66 , 463.25 L 343.66 , 485.25 L 463.58 , 485.25 L 463.65 , 259.36 L 264.4 , 259.36 L 264.4 , 215.28"/>
</a>
<a ewd:lineID="6" style="cursor:pointer;">
    <path style="&st6;" d="M 463.59 , 222.79 L 463.58 , 241.59 L 403.66 , 241.59 L 403.66 , 39.55 L 264.4 , 39.55 L 264.4 , 71.29"/>
</a>
<a ewd:lineID="5" style="cursor:pointer;">
    <path style="&st1;" d="M 193.66 , 215.28 L 193.66 , 498.94 L 263.66 , 498.94 L 263.66 , 463.25"/><path style="&st7;" d="M 193.66 , 215.28 L 193.66 , 498.94 L 263.66 , 498.94 L 263.66 , 463.25"/>
</a>
<a ewd:lineID="10" style="cursor:pointer;">
    <path style="&st1;" d="M 38.19 , 546.92 L 38.19 , 458.57"/><path style="&st7;" d="M 38.19 , 546.92 L 38.19 , 458.57"/><path style="&st10;" d="M 38.19 , 546.92 L 38.19 , 458.57"/>
</a>
<a ewd:lineID="9" style="cursor:pointer;">
    <path style="&st1;" d="M 38.19 , 685.44 L 38.19 , 563.92"/><path style="&st7;" d="M 38.19 , 685.44 L 38.19 , 563.92"/><path style="&st10;" d="M 38.19 , 685.44 L 38.19 , 563.92"/>
</a>
<a ewd:lineID="8" style="cursor:pointer;">
    <path style="&st6;" d="M 463.59 , 171.8 L 463.59 , 107.54"/>
</a>
<a ewd:lineID="4" style="cursor:pointer;">
    <path style="&st20;" d="M 115.68 , 107.54 L 115.68 , 305.37 L 63.69 , 305.37 L 63.69 , 356.6"/>
</a>
<a ewd:code="GA1" ewd:figtype="w2w" style="cursor:pointer;" ewd:figID="6001">
    <path style="&st12;" d="M472.15,551.76h-17v8.5h17V551.76"/>
<text transform="matrix(1 0 0 1 457.6445 558.5093)" style="&st4;"><tspan x="0" y="0" style="&st17; &st9;">GA1</tspan></text>
</a>
<a ewd:code="GA1" ewd:figtype="w2w" style="cursor:pointer;" ewd:figID="6002">
    <path style="&st12;" d="M472.15,560.26h-17v8.5h17V560.26"/>
<text transform="matrix(1 0 0 1 457.6445 567.0093)" style="&st4;"><tspan x="0" y="0" style="&st17; &st9;">GA1</tspan></text>
</a>
<a ewd:code="5" ewd:figtype="rb" style="cursor:pointer;" ewd:figID="4001">
    <path style="&st19;" d="M72.19,390.58h-42.5v33.99h42.5V390.58"/>
</a>
<a ewd:code="FUSE98" ewd:figtype="rb" style="cursor:pointer;" ewd:figID="4002">
    <path style="&st19;" d="M102.94,39.55v42.49h25.49V39.55H102.94"/>
</a>
<a ewd:code="2" ewd:figtype="jb" style="cursor:pointer;" ewd:figID="3001">
    <path style="&st14;" d="M21.19,39.55v67.99h67.99V39.55H21.19"/>
</a>
<a ewd:code="2" ewd:figtype="jb" style="cursor:pointer;" ewd:figID="3002">
    <path style="&st14;" d="M446.64,39.55v67.99h67.99V39.55H446.64"/>
</a>
<a ewd:code="3JB" ewd:figtype="jb" style="cursor:pointer;" ewd:figID="3003">
    <path style="&st14;" d="M446.65,171.8v50.99h25.5V171.8H446.65"/>
</a>
<a ewd:code="G3" ewd:figtype="gp" style="cursor:pointer;" ewd:figID="2002">
    <path style="&st12;" d="M347.17,685.44h21.25l-10.63,15.58L347.17,685.44"/>
<text transform="matrix(1 0 0 1 352.8057 693.5952)" style="&st4;"><tspan x="0" y="0" style="&st17; &st9;">G3</tspan></text>
</a>
<a ewd:code="A1" ewd:figtype="gp" style="cursor:pointer;" ewd:figID="2001">
    <path style="&st12;" d="M27.57,685.44h21.25l-10.63,15.58L27.57,685.44"/>
<text transform="matrix(1 0 0 1 33.207 693.5952)" style="&st4;"><tspan x="0" y="0" style="&st17; &st9;">A1</tspan></text>
</a>
<a ewd:code="FUSE75" ewd:figtype="fuse" style="cursor:pointer;" ewd:figID="1003">
    <path style="&st5;" d="M476.39,82.04V39.55h-25.5v42.49H476.39"/>
</a>
<a ewd:code="FUSE68" ewd:figtype="fuse" style="cursor:pointer;" ewd:figID="1001">
    <path style="&st5;" d="M50.94,82.04V39.55h-25.5v42.49H50.94"/>
</a>
<a ewd:code="FUSE98" ewd:figtype="fuse" style="cursor:pointer;" ewd:figID="1002">
    <path style="&st5;" d="M102.94,39.55v42.49h25.49V39.55H102.94"/>
</a>
<a ewd:code="A65" ewd:figtype="conn" style="cursor:pointer;" ewd:figID="2">
    <path style="&st19;" d="M29.69,185.89h17v17h-17V185.89"/>
<title ewd:textID="1">Junction Connector</title>
</a>
<a ewd:code="A69" ewd:figtype="conn" style="cursor:pointer;" ewd:figID="1">
    <path style="&st19;" d="M29.69,271.24h17v17h-17V271.24"/>
<title ewd:textID="1">Junction Connector</title>
</a>
<a ewd:code="A70" ewd:figtype="conn" style="cursor:pointer;" ewd:figID="5">
    <path style="&st19;" d="M29.69,546.92h17v17h-17V546.92"/>
<title ewd:textID="1">Junction Connector</title>
</a>
<a ewd:code="G126,G127,G140,G141" ewd:figtype="conn" style="cursor:pointer;" ewd:figID="6">
    <path style="&st19;" d="M265.8,541.76v33.99h100.48v-33.99H265.8"/>
<title ewd:textID="1">Junction Connector</title>
</a>
<a ewd:code="G104" ewd:figtype="conn" style="cursor:pointer;" ewd:figID="7">
    <path style="&st19;" d="M349.29,659.94h17v17h-17V659.94"/><path style="&st19;" d="M366.28,676.94h-16.99v-16.99"/><path style="&st19;" d="M366.29,676.93v-16.99"/>
<title ewd:textID="1">Junction Connector</title>
</a>
<a ewd:code="G151,z14" ewd:figtype="conn" style="cursor:pointer;" ewd:figID="4">
    <path style="&st19;" d="M237.42,433.19v20.99H409.9v-20.99H237.42"/>
<title ewd:textID="2">Spiral Cable Sub-Assembly</title>
</a>
<a ewd:code="G152" ewd:figtype="conn" style="cursor:pointer;" ewd:figID="3">
    <path style="&st19;" d="M156.8,71.29v143.99h144.48V71.29H156.8"/>
<title ewd:textID="6">Steering Wheel Heater Control Assembly</title>
</a>
<a ewd:code="z14" ewd:figtype="conn" style="cursor:pointer;" ewd:figID="8">
    <path style="&st19;" d="M237.42,281.13v142.99H409.9V281.13H237.42"/><path style="&st13;" d="M247.42,395.53v19.99H399.9v-19.99H247.42"/><path style="&st13;" d="M247.42,305.54v79.99H399.9v-79.99H247.42"/>
<title ewd:textID="6">Steering Wheel Heater Control Assembly</title>
</a>
<g ewd:code="GA1" ewd:figID="6001" ewd:figtype="w2w" ewd:pinNo="44">
    <text transform="matrix(1 0 0 1 473.5576 557.978)" style="&st4;"><tspan x="0" y="0" style="&st17; &st9;">(RHD)</tspan></text>
    <text transform="matrix(1 0 0 1 445.4736 557.978)" style="&st4;"><tspan x="0" y="0" style="&st17; &st9;">44</tspan></text>
</g>
<g ewd:code="GA1" ewd:figID="6002" ewd:figtype="w2w" ewd:pinNo="45">
    <path style="&st5;" d="M467.9,577.82l-4.25-4.24l-4.25,4.24"/><path style="&st5;" d="M467.9,574.43l-4.25-4.25l-4.25,4.25"/>
    <text transform="matrix(1 0 0 1 473.5576 566.478)" style="&st4;"><tspan x="0" y="0" style="&st17; &st9;">(LHD)</tspan></text>
    <text transform="matrix(1 0 0 1 445.4736 566.478)" style="&st4;"><tspan x="0" y="0" style="&st17; &st9;">45</tspan></text>
</g>
<g ewd:code="5" ewd:figID="4001" ewd:figtype="rb">
    <path style="&st5;" d="M40.32,356.59h-4.25"/><path style="&st5;" d="M40.32,365.08h-4.25"/><path style="&st5;" d="M65.81,356.59h-4.25"/><path style="&st5;" d="M65.81,365.08h-4.25"/><path style="&st5;" d="M40.32,450.07h-4.25"/><path style="&st5;" d="M40.32,458.57h-4.25"/><path style="&st5;" d="M65.81,450.07h-4.25"/><path style="&st5;" d="M65.81,458.57h-4.25"/><path style="&st5;" d="M72.19,390.58h-42.5v33.99h42.5V390.58"/><path style="&st3;" d="M38.19,369.98l2.83,2.83v-4.25l-2.83-2.83l-2.83,2.83v4.25L38.19,369.98"/><path style="&st3;" d="M63.69,369.98l2.83,2.83v-4.25l-2.83-2.83l-2.84,2.83v4.25L63.69,369.98"/><path style="&st3;" d="M38.19,445.17l-2.83-2.83v4.25l2.83,2.83l2.83-2.83v-4.25L38.19,445.17"/><path style="&st3;" d="M63.69,445.17l-2.84-2.83v4.25l2.84,2.83l2.83-2.83v-4.25L63.69,445.17"/><path style="&st8;" d="M38.19,390.58v-25.5"/><path style="&st8;" d="M63.69,390.58v-25.5"/><path style="&st8;" d="M38.19,424.57v25.5"/><path style="&st8;" d="M63.69,424.57v25.5"/><path style="&st5;" d="M63.69,417.49l5.66-22.66"/><path style="&st8;" d="M63.69,424.57v-4.25"/><path style="&st8;" d="M63.69,394.83v-4.25"/><path style="&st8;" d="M65.11,418.91c0-0.78-0.64-1.42-1.42-1.42"/><path style="&st8;" d="M63.69,417.49c-0.78,0-1.41,0.64-1.41,1.42"/><path style="&st8;" d="M62.28,418.91c0,0.78,0.63,1.41,1.41,1.41"/><path style="&st8;" d="M63.69,420.32c0.78,0,1.42-0.63,1.42-1.41"/><path style="&st8;" d="M65.11,396.25c0-0.79-0.64-1.42-1.42-1.42"/><path style="&st8;" d="M63.69,394.83c-0.78,0-1.41,0.63-1.41,1.42"/><path style="&st8;" d="M62.28,396.25c0,0.78,0.63,1.41,1.41,1.41"/><path style="&st8;" d="M63.69,397.66c0.78,0,1.42-0.63,1.42-1.41"/><path style="&st8;" d="M35.71,405.05c-0.02,0.01-0.03,0.03-0.05,0.05"/><path style="&st8;" d="M38.19,390.58v8.5"/><path style="&st8;" d="M38.19,416.08v8.49"/><path style="&st8;" d="M35.66,405.1c1.37,1.4,3.61,1.42,5.01,0.05"/><path style="&st8;" d="M40.67,405.15c1.39-1.37,1.42-3.61,0.05-5.01"/><path style="&st8;" d="M40.72,400.14c-0.7-0.71-1.54-1.06-2.53-1.06"/><path style="&st8;" d="M35.66,410.06c1.37,1.39,3.61,1.42,5.01,0.05"/><path style="&st8;" d="M40.67,410.11c1.39-1.37,1.42-3.61,0.05-5.01"/><path style="&st8;" d="M40.72,405.1c-1.37-1.4-3.61-1.42-5.01-0.05"/><path style="&st8;" d="M38.19,416.08c1.95,0,3.54-1.59,3.54-3.55"/><path style="&st8;" d="M41.73,412.53c0-1.95-1.59-3.54-3.54-3.54"/><path style="&st8;" d="M38.19,408.99c-0.99,0-1.84,0.36-2.53,1.07"/><path style="&st5;" d="M36.07,356.59c-2.35,0-4.25,1.9-4.25,4.24"/><path style="&st5;" d="M31.82,360.83c0,2.35,1.9,4.25,4.25,4.25"/><path style="&st5;" d="M40.32,365.08c2.34,0,4.25-1.9,4.25-4.25"/><path style="&st5;" d="M44.57,360.83c0-2.34-1.91-4.24-4.25-4.24"/><path style="&st5;" d="M61.56,356.59c-2.34,0-4.25,1.9-4.25,4.24"/><path style="&st5;" d="M57.31,360.83c0,2.35,1.91,4.25,4.25,4.25"/><path style="&st5;" d="M65.81,365.08c2.35,0,4.25-1.9,4.25-4.25"/><path style="&st5;" d="M70.06,360.83c0-2.34-1.9-4.24-4.25-4.24"/><path style="&st5;" d="M36.07,450.07c-2.35,0-4.25,1.9-4.25,4.25"/><path style="&st5;" d="M31.82,454.32c0,2.35,1.9,4.25,4.25,4.25"/><path style="&st5;" d="M40.32,458.57c2.34,0,4.25-1.9,4.25-4.25"/><path style="&st5;" d="M44.57,454.32c0-2.35-1.91-4.25-4.25-4.25"/><path style="&st5;" d="M61.56,450.07c-2.34,0-4.25,1.9-4.25,4.25"/><path style="&st5;" d="M57.31,454.32c0,2.35,1.91,4.25,4.25,4.25"/><path style="&st5;" d="M65.81,458.57c2.35,0,4.25-1.9,4.25-4.25"/><path style="&st5;" d="M70.06,454.32c0-2.35-1.9-4.25-4.25-4.25"/>
    <text ewd:textID="7" transform="matrix(0 -1 1 0 18.9258 427.1665)" style="&st4; &st17; &st9;">STRG HTR <tspan x="0" y="7">Relay</tspan></text>
    <text transform="matrix(1 0 0 1 36.5962 362.7964)" style="&st4;"><tspan x="0" y="0" style="&st17; &st9;">5</tspan></text>
    <text transform="matrix(1 0 0 1 62.0967 362.7964)" style="&st4;"><tspan x="0" y="0" style="&st17; &st9;">5</tspan></text>
    <text transform="matrix(1 0 0 1 36.5962 456.2876)" style="&st4;"><tspan x="0" y="0" style="&st17; &st9;">5</tspan></text>
    <text transform="matrix(1 0 0 1 62.0967 456.2876)" style="&st4;"><tspan x="0" y="0" style="&st17; &st9;">5</tspan></text>
    <text transform="matrix(1 0 0 1 31.3965 386.8862)" style="&st4;"><tspan x="0" y="0" style="&st17; &st9;">1</tspan></text>
    <text transform="matrix(1 0 0 1 56.8965 386.8862)" style="&st4;"><tspan x="0" y="0" style="&st17; &st9;">3</tspan></text>
    <text transform="matrix(1 0 0 1 31.3965 432.7671)" style="&st4;"><tspan x="0" y="0" style="&st17; &st9;">2</tspan></text>
    <text transform="matrix(1 0 0 1 57.6768 432.7671)" style="&st4;"><tspan x="0" y="0" style="&st17; &st9;">5</tspan></text>
</g>
<g ewd:code="FUSE98" ewd:figID="4002" ewd:figtype="rb">
    <path style="&st2;" d="M102.94,39.55v42.49h25.49V39.55H102.94"/><path style="&st8;" d="M115.68,73.54v25.5"/><path style="&st5;" d="M117.81,99.04h-4.25"/><path style="&st5;" d="M117.81,107.54h-4.25"/><path style="&st3;" d="M115.68,94.14l-2.83-2.83v4.25l2.83,2.83l2.84-2.83v-4.25L115.68,94.14"/><path style="&st5;" d="M102.94,39.55v42.49h25.49V39.55H102.94"/><path style="&st5;" d="M115.68,50.88c-2.73,1.61-3.64,5.14-2.03,7.88"/><path style="&st5;" d="M113.65,58.76c0.52,0.88,1.15,1.52,2.03,2.04"/><path style="&st5;" d="M115.68,70.71c2.74-1.61,3.65-5.14,2.04-7.88"/><path style="&st5;" d="M117.72,62.83c-0.52-0.88-1.15-1.51-2.04-2.03"/><path style="&st8;" d="M117.1,49.46c0-0.78-0.63-1.41-1.42-1.41"/><path style="&st8;" d="M115.68,48.05c-0.78,0-1.41,0.63-1.41,1.41"/><path style="&st8;" d="M114.27,49.46c0,0.79,0.63,1.42,1.41,1.42"/><path style="&st8;" d="M115.68,50.88c0.79,0,1.42-0.63,1.42-1.42"/><path style="&st8;" d="M117.1,72.13c0-0.79-0.63-1.42-1.42-1.42"/><path style="&st8;" d="M115.68,70.71c-0.78,0-1.41,0.63-1.41,1.42"/><path style="&st8;" d="M114.27,72.13c0,0.78,0.63,1.41,1.41,1.41"/><path style="&st8;" d="M115.68,73.54c0.79,0,1.42-0.63,1.42-1.41"/><path style="&st5;" d="M113.56,99.04c-2.35,0-4.25,1.9-4.25,4.25"/><path style="&st5;" d="M109.31,103.29c0,2.35,1.9,4.25,4.25,4.25"/><path style="&st5;" d="M117.81,107.54c2.35,0,4.25-1.9,4.25-4.25"/><path style="&st5;" d="M122.06,103.29c0-2.35-1.9-4.25-4.25-4.25"/>
    <text transform="matrix(1 0 0 1 114.0957 105.2563)" style="&st4;"><tspan x="0" y="0" style="&st17; &st9;">1</tspan></text>
    <text transform="matrix(1 0 0 1 108.8965 90.2358)" style="&st4;"><tspan x="0" y="0" style="&st17; &st9;">2</tspan></text>
    <text transform="matrix(1 0 0 1 106.5664 35.8462)" style="&st4;"><tspan x="0" y="0" style="&st17; &st9;">(BAT)</tspan></text>
    <text transform="matrix(1 0 0 1 132.9863 57.106)" style="&st4;"><tspan x="0" y="0" style="&st17; &st9;">10A</tspan></text>
    <text transform="matrix(1 0 0 1 132.9863 63.106)" style="&st4;"><tspan x="0" y="0" style="&st17; &st9;">STRG</tspan></text>
    <text transform="matrix(1 0 0 1 132.9863 69.106)" style="&st4;"><tspan x="0" y="0" style="&st17; &st9;">HTR</tspan></text>
</g>
<g ewd:code="2" ewd:figID="3001" ewd:figtype="jb">
    <path style="&st2;" d="M50.94,82.04V39.55h-25.5v42.49H50.94"/><path style="&st8;" d="M38.19,73.54v25.5"/><path style="&st5;" d="M40.32,99.04h-4.25"/><path style="&st5;" d="M40.32,107.54h-4.25"/><path style="&st5;" d="M50.94,82.04V39.55h-25.5v42.49H50.94"/><path style="&st3;" d="M38.19,94.14l-2.83-2.83v4.25l2.83,2.83l2.83-2.83v-4.25L38.19,94.14"/><path style="&st5;" d="M38.19,50.88c-2.74,1.61-3.65,5.14-2.04,7.88"/><path style="&st5;" d="M36.15,58.76c0.52,0.88,1.16,1.51,2.04,2.03"/><path style="&st5;" d="M38.19,70.71c2.74-1.62,3.65-5.14,2.04-7.88"/><path style="&st5;" d="M40.23,62.83c-0.52-0.88-1.16-1.52-2.04-2.04"/><path style="&st8;" d="M39.61,49.46c0-0.78-0.64-1.41-1.42-1.41"/><path style="&st8;" d="M38.19,48.05c-0.78,0-1.41,0.63-1.41,1.41"/><path style="&st8;" d="M36.78,49.46c0,0.78,0.63,1.42,1.41,1.42"/><path style="&st8;" d="M38.19,50.88c0.78,0,1.42-0.64,1.42-1.42"/><path style="&st8;" d="M39.61,72.12c0-0.78-0.64-1.41-1.42-1.41"/><path style="&st8;" d="M38.19,70.71c-0.78,0-1.41,0.63-1.41,1.41"/><path style="&st8;" d="M36.78,72.12c0,0.79,0.63,1.42,1.41,1.42"/><path style="&st8;" d="M38.19,73.54c0.78,0,1.42-0.63,1.42-1.42"/><path style="&st5;" d="M36.07,99.04c-2.35,0-4.25,1.9-4.25,4.25"/><path style="&st5;" d="M31.82,103.29c0,2.34,1.9,4.25,4.25,4.25"/><path style="&st5;" d="M40.32,107.54c2.34,0,4.25-1.91,4.25-4.25"/><path style="&st5;" d="M44.57,103.29c0-2.35-1.91-4.25-4.25-4.25"/>
    <text transform="matrix(1 0 0 1 33.876 105.2563)" style="&st4;"><tspan x="0" y="0" style="&st17; &st9;">2F</tspan></text>
    <text transform="matrix(1 0 0 1 32.1162 35.8462)" style="&st4;"><tspan x="0" y="0" style="&st17; &st9;">(IG)</tspan></text>
    <text transform="matrix(1 0 0 1 21.5459 105.2563)" style="&st4;"><tspan x="0" y="0" style="&st17; &st9;">11</tspan></text>
    <text transform="matrix(1 0 0 1 55.4971 59.936)" style="&st4;"><tspan x="0" y="0" style="&st17; &st9;">7.5A</tspan></text>
    <text transform="matrix(1 0 0 1 55.4971 65.936)" style="&st4;"><tspan x="0" y="0" style="&st17; &st9;">IG1</tspan></text>
</g>
<g ewd:code="2" ewd:figID="3002" ewd:figtype="jb">
    <path style="&st2;" d="M476.39,82.04V39.55h-25.5v42.49H476.39"/><path style="&st8;" d="M463.64,73.54v25.5"/><path style="&st5;" d="M465.77,99.04h-4.25"/><path style="&st5;" d="M465.77,107.54h-4.25"/><path style="&st5;" d="M476.39,82.04V39.55h-25.5v42.49H476.39"/><path style="&st3;" d="M463.64,94.14l-2.83-2.83v4.25l2.83,2.83l2.83-2.83v-4.25L463.64,94.14"/><path style="&st5;" d="M463.64,50.88c-2.74,1.61-3.65,5.14-2.04,7.88"/><path style="&st5;" d="M461.6,58.76c0.52,0.88,1.16,1.51,2.04,2.03"/><path style="&st5;" d="M463.64,70.71c2.74-1.62,3.65-5.14,2.04-7.88"/><path style="&st5;" d="M465.68,62.83c-0.52-0.88-1.16-1.52-2.04-2.04"/><path style="&st8;" d="M465.06,49.46c0-0.78-0.64-1.41-1.42-1.41"/><path style="&st8;" d="M463.64,48.05c-0.78,0-1.41,0.63-1.41,1.41"/><path style="&st8;" d="M462.23,49.46c0,0.78,0.63,1.42,1.41,1.42"/><path style="&st8;" d="M463.64,50.88c0.78,0,1.42-0.64,1.42-1.42"/><path style="&st8;" d="M465.06,72.12c0-0.78-0.64-1.41-1.42-1.41"/><path style="&st8;" d="M463.64,70.71c-0.78,0-1.41,0.63-1.41,1.41"/><path style="&st8;" d="M462.23,72.12c0,0.79,0.63,1.42,1.41,1.42"/><path style="&st8;" d="M463.64,73.54c0.78,0,1.42-0.63,1.42-1.42"/><path style="&st5;" d="M461.52,99.04c-2.35,0-4.25,1.9-4.25,4.25"/><path style="&st5;" d="M457.27,103.29c0,2.34,1.9,4.25,4.25,4.25"/><path style="&st5;" d="M465.77,107.54c2.34,0,4.25-1.91,4.25-4.25"/><path style="&st5;" d="M470.02,103.29c0-2.35-1.91-4.25-4.25-4.25"/>
    <text transform="matrix(1 0 0 1 459.3301 105.2563)" style="&st4;"><tspan x="0" y="0" style="&st17; &st9;">2D</tspan></text>
    <text transform="matrix(1 0 0 1 457.5703 35.8462)" style="&st4;"><tspan x="0" y="0" style="&st17; &st9;">(IG)</tspan></text>
    <text transform="matrix(1 0 0 1 447 105.2563)" style="&st4;"><tspan x="0" y="0" style="&st17; &st9;">39</tspan></text>
    <text transform="matrix(1 0 0 1 480.9512 57.106)" style="&st4;"><tspan x="0" y="0" style="&st17; &st9;">10A</tspan></text>
    <text transform="matrix(1 0 0 1 480.9512 63.106)" style="&st4;"><tspan x="0" y="0" style="&st17; &st9;">ECU-IG</tspan></text>
    <text transform="matrix(1 0 0 1 480.9512 69.106)" style="&st4;"><tspan x="0" y="0" style="&st17; &st9;">NO.2</tspan></text>
</g>
<g ewd:code="3JB" ewd:figID="3003" ewd:figtype="jb">
    <path style="&st5;" d="M465.78,222.79h-4.25"/><path style="&st5;" d="M465.78,214.29h-4.25"/><path style="&st5;" d="M465.78,180.3h-4.25"/><path style="&st5;" d="M465.78,171.8h-4.25"/><path style="&st8;" d="M463.65,214.29V180.3"/><path style="&st3;" d="M463.65,209.4l-2.83-2.84v4.25l2.83,2.84l2.83-2.84v-4.25L463.65,209.4"/><path style="&st3;" d="M463.65,185.19l2.83,2.83v-4.24l-2.83-2.84l-2.83,2.84v4.24L463.65,185.19"/><path style="&st5;" d="M461.53,171.8c-2.35,0-4.25,1.9-4.25,4.25"/><path style="&st5;" d="M457.28,176.05c0,2.34,1.9,4.25,4.25,4.25"/><path style="&st5;" d="M465.78,180.3c2.34,0,4.25-1.91,4.25-4.25"/><path style="&st5;" d="M470.03,176.05c0-2.35-1.91-4.25-4.25-4.25"/><path style="&st5;" d="M461.53,214.29c-2.35,0-4.25,1.9-4.25,4.25"/><path style="&st5;" d="M457.28,218.54c0,2.35,1.9,4.25,4.25,4.25"/><path style="&st5;" d="M465.78,222.79c2.34,0,4.25-1.9,4.25-4.25"/><path style="&st5;" d="M470.03,218.54c0-2.35-1.91-4.25-4.25-4.25"/>
    <text transform="matrix(1 0 0 1 459.1982 178.0171)" style="&st4;"><tspan x="0" y="0" style="&st17; &st9;">3B</tspan></text>
    <text transform="matrix(1 0 0 1 447.0068 178.0171)" style="&st4;"><tspan x="0" y="0" style="&st17; &st9;">36</tspan></text>
    <text transform="matrix(1 0 0 1 459.3369 220.5068)" style="&st4;"><tspan x="0" y="0" style="&st17; &st9;">3A</tspan></text>
    <text transform="matrix(1 0 0 1 447.0068 220.5068)" style="&st4;"><tspan x="0" y="0" style="&st17; &st9;">30</tspan></text>
</g>
<g ewd:code="G3" ewd:figID="2002" ewd:figtype="gp">
    <path style="&st8;" d="M357.79,701.02v4.25"/><path style="&st8;" d="M349.29,705.27h17"/><path style="&st8;" d="M353.54,708.1h8.5"/><path style="&st8;" d="M354.96,710.94h5.67"/><path style="&st8;" d="M356.38,713.77h2.83"/>
</g>
<g ewd:code="A1" ewd:figID="2001" ewd:figtype="gp">
    <path style="&st8;" d="M38.19,701.02v4.25"/><path style="&st8;" d="M29.69,705.27h17"/><path style="&st8;" d="M33.94,708.1h8.5"/><path style="&st8;" d="M35.36,710.94h5.67"/><path style="&st8;" d="M36.78,713.77h2.83"/>
</g>
<g ewd:code="A65" ewd:figID="2" ewd:figtype="conn">
    <path style="&st5;" d="M29.69,185.89h17v17h-17V185.89"/><path style="&st8;" d="M38.19,185.89v17"/>
    <text ewd:textID="1" transform="matrix(0 -1 1 0 61.4063 205.4067)" style="&st4; &st17; &st9;">Junction <tspan x="0" y="7">Connector</tspan></text>
    <text transform="matrix(0 -1 1 0 54.2969 205.4067)" style="&st4;"><tspan x="0" y="0" style="&st17; &st9;">A65</tspan></text>
    <text transform="matrix(1 0 0 1 28.2129 211.0767)" style="&st4;"><tspan x="0" y="0" style="&st17; &st9;">22</tspan></text>
    <text transform="matrix(1 0 0 1 28.2129 182.1963)" style="&st4;"><tspan x="0" y="0" style="&st17; &st9;">21</tspan></text>
</g>
<g ewd:code="A69" ewd:figID="1" ewd:figtype="conn">
    <path style="&st5;" d="M29.69,271.24h17v17h-17V271.24"/><path style="&st8;" d="M38.19,271.24v17"/>
    <text transform="matrix(1 0 0 1 31.1494 296.4268)" style="&st4;"><tspan x="0" y="0" style="&st17; &st9;">7</tspan></text>
    <text transform="matrix(1 0 0 1 31.1494 267.5464)" style="&st4;"><tspan x="0" y="0" style="&st17; &st9;">8</tspan></text>
    <text ewd:textID="1" transform="matrix(0 -1 1 0 18.9097 290.6763)" style="&st4; &st17; &st9;">Junction <tspan x="0" y="7">Connector</tspan></text>
    <text transform="matrix(0 -1 1 0 11.8003 290.6763)" style="&st4;"><tspan x="0" y="0" style="&st17; &st9;">A69</tspan></text>
</g>
<g ewd:code="A70" ewd:figID="5" ewd:figtype="conn">
    <path style="&st5;" d="M29.69,546.92h17v17h-17V546.92"/><path style="&st8;" d="M38.19,546.92v17"/>
    <text ewd:textID="1" transform="matrix(0 -1 1 0 18.7314 566.4253)" style="&st4; &st17; &st9;">Junction <tspan x="0" y="7">Connector</tspan></text>
    <text transform="matrix(1 0 0 1 31.5498 572.1079)" style="&st4;"><tspan x="0" y="0" style="&st17; &st9;">6</tspan></text>
    <text transform="matrix(1 0 0 1 28.6582 543.2271)" style="&st4;"><tspan x="0" y="0" style="&st17; &st9;">11</tspan></text>
</g>
<g ewd:code="G126,G127,G140,G141" ewd:figID="6" ewd:figtype="conn">
    <path style="&st8;" d="M303.29,541.76v17h25.49v-17"/><path style="&st5;" d="M265.8,541.76v33.99h100.48v-33.99H265.8"/><path style="&st8;" d="M357.79,541.76v33.99"/><path style="&st11;" d="M265.8,550.26h100.47"/><path style="&st11;" d="M265.8,567.25h100.47"/><path style="&st8;" d="M328.79,541.76v16h-25.49v-16"/><path style="&st8;" d="M274.29,541.76v33.99"/><path style="&st5;" d="M278.83,580.3c0-2.51-2.03-4.54-4.53-4.54"/><path style="&st5;" d="M274.29,575.77c-2.5,0-4.53,2.03-4.53,4.54"/><path style="&st5;" d="M269.76,580.3c0,2.5,2.03,4.53,4.53,4.53"/><path style="&st5;" d="M274.29,584.84c2.5,0,4.53-2.03,4.53-4.53"/><path style="&st5;" d="M308.19,580.29c0-2.51-2.03-4.54-4.53-4.54"/><path style="&st5;" d="M303.66,575.75c-2.5,0-4.53,2.03-4.53,4.54"/><path style="&st5;" d="M299.13,580.29c0,2.5,2.03,4.53,4.53,4.53"/><path style="&st5;" d="M303.66,584.82c2.5,0,4.53-2.03,4.53-4.53"/><path style="&st5;" d="M333.68,580.3c0-2.51-2.03-4.54-4.53-4.54"/><path style="&st5;" d="M329.15,575.77c-2.5,0-4.53,2.03-4.53,4.54"/><path style="&st5;" d="M324.62,580.3c0,2.5,2.03,4.53,4.53,4.53"/><path style="&st5;" d="M329.15,584.84c2.5,0,4.53-2.03,4.53-4.53"/><path style="&st5;" d="M362.32,580.29c0-2.51-2.03-4.54-4.53-4.54"/><path style="&st5;" d="M357.79,575.75c-2.5,0-4.53,2.03-4.53,4.54"/><path style="&st5;" d="M353.25,580.29c0,2.5,2.03,4.53,4.53,4.53"/><path style="&st5;" d="M357.79,584.82c2.5,0,4.53-2.03,4.53-4.53"/><path style="&st5;" d="M278.83,537.24c0-2.51-2.03-4.54-4.53-4.54"/><path style="&st5;" d="M274.29,532.7c-2.5,0-4.53,2.03-4.53,4.54"/><path style="&st5;" d="M269.76,537.24c0,2.5,2.03,4.53,4.53,4.53"/><path style="&st5;" d="M274.29,541.77c2.5,0,4.53-2.03,4.53-4.53"/><path style="&st5;" d="M308.19,537.23c0-2.51-2.03-4.54-4.53-4.54"/><path style="&st5;" d="M303.66,532.69c-2.5,0-4.53,2.03-4.53,4.54"/><path style="&st5;" d="M299.13,537.23c0,2.5,2.03,4.53,4.53,4.53"/><path style="&st5;" d="M303.66,541.76c2.5,0,4.53-2.03,4.53-4.53"/><path style="&st5;" d="M333.68,537.24c0-2.51-2.03-4.54-4.53-4.54"/><path style="&st5;" d="M329.15,532.7c-2.5,0-4.53,2.03-4.53,4.54"/><path style="&st5;" d="M324.62,537.24c0,2.5,2.03,4.53,4.53,4.53"/><path style="&st5;" d="M329.15,541.77c2.5,0,4.53-2.03,4.53-4.53"/><path style="&st5;" d="M362.32,537.23c0-2.51-2.03-4.54-4.53-4.54"/><path style="&st5;" d="M357.79,532.69c-2.5,0-4.53,2.03-4.53,4.54"/><path style="&st5;" d="M353.25,537.23c0,2.5,2.03,4.53,4.53,4.53"/><path style="&st5;" d="M357.79,541.76c2.5,0,4.53-2.03,4.53-4.53"/><path style="&st8;" d="M303.66,575.75v-12h25.49v12"/>
    <text transform="matrix(1 0 0 1 334.7178 528.4575)" style="&st4;"><tspan x="0" y="0" style="&st17; &st9;">(LHD)</tspan></text>
    <text transform="matrix(1 0 0 1 292.4238 539.1987)" style="&st4;"><tspan x="0" y="0" style="&st17; &st9;">7</tspan></text>
    <text transform="matrix(1 0 0 1 318.2705 539.2144)" style="&st4;"><tspan x="0" y="0" style="&st17; &st9;">9</tspan></text>
    <text transform="matrix(1 0 0 1 343.7363 539.1987)" style="&st4;"><tspan x="0" y="0" style="&st17; &st9;">10</tspan></text>
    <text transform="matrix(1 0 0 1 263.416 539.1987)" style="&st4;"><tspan x="0" y="0" style="&st17; &st9;">7</tspan></text>
    <text transform="matrix(1 0 0 1 260.2632 582.2593)" style="&st4;"><tspan x="0" y="0" style="&st17; &st9;">10</tspan></text>
    <text transform="matrix(1 0 0 1 292.0586 582.2437)" style="&st4;"><tspan x="0" y="0" style="&st17; &st9;">9</tspan></text>
    <text transform="matrix(1 0 0 1 317.542 582.2437)" style="&st4;"><tspan x="0" y="0" style="&st17; &st9;">7</tspan></text>
    <text transform="matrix(1 0 0 1 346.1875 582.2593)" style="&st4;"><tspan x="0" y="0" style="&st17; &st9;">7</tspan></text>
    <text ewd:textID="1" transform="matrix(0 -1 1 0 387.6055 578.3491)" style="&st4; &st17; &st9;">Junction Connector</text>
    <text transform="matrix(0 -1 1 0 374.2852 578.3589)" style="&st4;"><tspan x="0" y="0" style="&st17; &st9;">G126(A),G127(B),</tspan><tspan x="0" y="7" style="&st17; &st9;">G140(C),G141(D)</tspan></text>
    <text transform="matrix(1 0 0 1 272.2939 582.2749)" style="&st4;"><tspan x="0" y="0" style="&st17; &st9;">B</tspan></text>
    <text transform="matrix(1 0 0 1 301.6582 582.2593)" style="&st4;"><tspan x="0" y="0" style="&st17; &st9;">B</tspan></text>
    <text transform="matrix(1 0 0 1 327.1494 582.2749)" style="&st4;"><tspan x="0" y="0" style="&st17; &st9;">B</tspan></text>
    <text transform="matrix(1 0 0 1 355.7852 582.2593)" style="&st4;"><tspan x="0" y="0" style="&st17; &st9;">C</tspan></text>
    <text transform="matrix(1 0 0 1 272.2939 539.2144)" style="&st4;"><tspan x="0" y="0" style="&st17; &st9;">A</tspan></text>
    <text transform="matrix(1 0 0 1 301.6582 539.1987)" style="&st4;"><tspan x="0" y="0" style="&st17; &st9;">D</tspan></text>
    <text transform="matrix(1 0 0 1 327.1494 539.2144)" style="&st4;"><tspan x="0" y="0" style="&st17; &st9;">D</tspan></text>
    <text transform="matrix(1 0 0 1 355.7852 539.1987)" style="&st4;"><tspan x="0" y="0" style="&st17; &st9;">D</tspan></text>
</g>
<g ewd:code="G104" ewd:figID="7" ewd:figtype="conn">
    <path style="&st5;" d="M349.29,659.94h17v17h-17V659.94"/><path style="&st8;" d="M357.79,659.94v17"/><path style="&st8;" d="M357.78,659.94v25.49"/>
    <text transform="matrix(1 0 0 1 351.1484 656.2456)" style="&st4;"><tspan x="0" y="0" style="&st17; &st9;">4</tspan></text>
    <text ewd:textID="1" transform="matrix(1 0 0 1 369.4355 670.397)" style="&st4; &st17; &st9;">Junction Connector</text>
    <text transform="matrix(1 0 0 1 369.4355 663.2974)" style="&st4;"><tspan x="0" y="0" style="&st17; &st9;">G104</tspan></text>
</g>
<g ewd:code="G151,z14" ewd:figID="4" ewd:figtype="conn">
    <path style="&st5;" d="M237.41,433.19v20.99h172.48v-20.99H237.41"/><path style="&st8;" d="M343.66,433.19v20.99"/><path style="&st8;" d="M303.66,433.19v20.99"/><path style="&st8;" d="M383.66,433.19v20.99"/><path style="&st8;" d="M263.66,433.19v20.99"/><path style="&st5;" d="M388.19,458.72c0-2.51-2.03-4.54-4.53-4.54"/><path style="&st5;" d="M383.66,454.18c-2.5,0-4.53,2.03-4.53,4.54"/><path style="&st5;" d="M379.13,458.72c0,2.5,2.03,4.53,4.53,4.53"/><path style="&st5;" d="M383.66,463.25c2.5,0,4.53-2.03,4.53-4.53"/><path style="&st5;" d="M308.19,458.72c0-2.51-2.03-4.54-4.53-4.54"/><path style="&st5;" d="M303.66,454.18c-2.5,0-4.53,2.03-4.53,4.54"/><path style="&st5;" d="M299.13,458.72c0,2.5,2.03,4.53,4.53,4.53"/><path style="&st5;" d="M303.66,463.25c2.5,0,4.53-2.03,4.53-4.53"/><path style="&st5;" d="M348.19,458.72c0-2.51-2.03-4.54-4.53-4.54"/><path style="&st5;" d="M343.66,454.18c-2.5,0-4.53,2.03-4.53,4.54"/><path style="&st5;" d="M339.13,458.72c0,2.5,2.03,4.53,4.53,4.53"/><path style="&st5;" d="M343.66,463.25c2.5,0,4.53-2.03,4.53-4.53"/><path style="&st5;" d="M268.19,458.72c0-2.51-2.03-4.54-4.53-4.54"/><path style="&st5;" d="M263.66,454.18c-2.5,0-4.53,2.03-4.53,4.54"/><path style="&st5;" d="M259.13,458.72c0,2.5,2.03,4.53,4.53,4.53"/><path style="&st5;" d="M263.66,463.25c2.5,0,4.53-2.03,4.53-4.53"/>
    <text transform="matrix(1 0 0 1 292.7871 460.688)" style="&st4;"><tspan x="0" y="0" style="&st17; &st9;">2</tspan></text>
    <text transform="matrix(1 0 0 1 372.7871 460.688)" style="&st4;"><tspan x="0" y="0" style="&st17; &st9;">4</tspan></text>
    <text transform="matrix(1 0 0 1 332.7871 460.688)" style="&st4;"><tspan x="0" y="0" style="&st17; &st9;">3</tspan></text>
    <text transform="matrix(1 0 0 1 266.6582 450.1782)" style="&st4;"><tspan x="0" y="0" style="&st17; &st9;">BTM</tspan></text>
    <text transform="matrix(1 0 0 1 306.6582 450.1782)" style="&st4;"><tspan x="0" y="0" style="&st17; &st9;">EHT</tspan></text>
    <text transform="matrix(1 0 0 1 381.6582 460.688)" style="&st4;"><tspan x="0" y="0" style="&st17; &st9;">A</tspan></text>
    <text transform="matrix(1 0 0 1 301.6582 460.688)" style="&st4;"><tspan x="0" y="0" style="&st17; &st9;">A</tspan></text>
    <text transform="matrix(1 0 0 1 341.6582 460.688)" style="&st4;"><tspan x="0" y="0" style="&st17; &st9;">A</tspan></text>
    <text transform="matrix(1 0 0 1 386.6582 450.1782)" style="&st4;"><tspan x="0" y="0" style="&st17; &st9;">BHT</tspan></text>
    <text transform="matrix(1 0 0 1 346.6582 450.1782)" style="&st4;"><tspan x="0" y="0" style="&st17; &st9;">ETM</tspan></text>
    <text transform="matrix(1 0 0 1 252.8086 460.6782)" style="&st4;"><tspan x="0" y="0" style="&st17; &st9;">1</tspan></text>
    <text transform="matrix(1 0 0 1 261.6582 460.688)" style="&st4;"><tspan x="0" y="0" style="&st17; &st9;">A</tspan></text>
    <text ewd:textID="2" transform="matrix(0 -1 1 0 424.6025 456.7778)" style="&st4; &st17; &st9;">Spiral Cable Sub-Assembly</text>
    <text transform="matrix(0 -1 1 0 417.4932 456.7778)" style="&st4;"><tspan x="0" y="0" style="&st17; &st9;">G151(A),z14(B)</tspan></text>
</g>
<g ewd:code="G152" ewd:figID="3" ewd:figtype="conn">
    <path style="&st5;" d="M156.79,71.29v143.99h144.48V71.29H156.79"/><path style="&st8;" d="M197.92,176.78h-8.5"/><path style="&st8;" d="M264.4,176.78v38.5"/><path style="&st8;" d="M193.66,176.78v38.5"/><path style="&st3;" d="M193.66,176.78l-5.66-8.5h11.33L193.66,176.78"/><path style="&st8;" d="M193.66,168.28v-8.5l-2.83-1.41l5.66-2.84l-5.66-2.83l5.66-2.83l-5.66-2.84l5.66-2.83l-2.83-1.41v-18.5"/><path style="&st8;" d="M197.92,124.29h-8.5"/><path style="&st3;" d="M193.66,124.29l-5.66-8.5h11.33L193.66,124.29"/><path style="&st5;" d="M264.4,173.95l5.66-22.66"/><path style="&st8;" d="M264.4,151.29v-80"/><path style="&st8;" d="M265.82,175.37c0-0.78-0.64-1.42-1.42-1.42"/><path style="&st8;" d="M264.4,173.95c-0.78,0-1.41,0.64-1.41,1.42"/><path style="&st8;" d="M262.99,175.37c0,0.78,0.63,1.41,1.41,1.41"/><path style="&st8;" d="M264.4,176.78c0.78,0,1.42-0.63,1.42-1.41"/><path style="&st8;" d="M265.82,152.71c0-0.79-0.64-1.42-1.42-1.42"/><path style="&st8;" d="M264.4,151.29c-0.78,0-1.41,0.63-1.41,1.42"/><path style="&st8;" d="M262.99,152.71c0,0.78,0.63,1.41,1.41,1.41"/><path style="&st8;" d="M264.4,154.12c0.78,0,1.42-0.63,1.42-1.41"/><path style="&st8;" d="M263.2,92.77l-0.27,0.47l-0.09,0.54l0.09,0.53l0.27,0.47l0.42,0.35l0.51,0.18h0.54l0.51-0.18l0.41-0.35l0.27-0.47l0.1-0.53l-0.1-0.54l-0.27-0.47l-0.41-0.34l-0.51-0.19h-0.54l-0.51,0.19L263.2,92.77l0.4,0.72v0.58l0.37,0.44l0.57,0.1l0.51-0.29l0.2-0.54l-0.2-0.55l-0.51-0.29l-0.57,0.1l0.43,0.74"/><path style="&st8;" d="M264.4,93.78h-70.75v22.01"/><path style="&st8;" d="M206.41,167.11l-7.36,4.25"/><path style="&st8;" d="M201.05,174.83l7.36-4.25"/><path style="&st8;" d="M208.4,170.58l-2.33,3.04l-1.47-2.54L208.4,170.58l-1.28,0.74l-0.98,1.28l-0.62-1.07l1.6-0.21l-0.64,0.37l-0.31,0.41l-0.19-0.34l0.5-0.07"/><path style="&st8;" d="M206.4,167.11l-2.33,3.04l-1.47-2.54L206.4,167.11l-1.28,0.74l-0.99,1.29l-0.61-1.08l1.6-0.21l-0.64,0.37l-0.31,0.41l-0.2-0.34l0.51-0.07"/>
    <text ewd:textID="5" transform="matrix(0 -1 1 0 315.9902 217.8789)" style="&st4; &st17; &st9;">Steering Heater Switch</text>
    <text transform="matrix(0 -1 1 0 308.8809 217.8789)" style="&st4;"><tspan x="0" y="0" style="&st17; &st9;">G152</tspan></text>
    <text transform="matrix(1 0 0 1 196.6582 211.2788)" style="&st4;"><tspan x="0" y="0" style="&st17; &st9;">INDC</tspan></text>
    <text transform="matrix(1 0 0 1 267.4033 211.2788)" style="&st4;"><tspan x="0" y="0" style="&st17; &st9;">RC</tspan></text>
    <text transform="matrix(1 0 0 1 267.4033 79.2886)" style="&st4;"><tspan x="0" y="0" style="&st17; &st9;">IG</tspan></text>
    <text transform="matrix(1 0 0 1 186.6211 223.2788)" style="&st4;"><tspan x="0" y="0" style="&st17; &st9;">5</tspan></text>
    <text transform="matrix(1 0 0 1 257.3662 67.2886)" style="&st4;"><tspan x="0" y="0" style="&st17; &st9;">1</tspan></text>
    <text transform="matrix(1 0 0 1 257.3662 223.2788)" style="&st4;"><tspan x="0" y="0" style="&st17; &st9;">4</tspan></text>
</g>
<g ewd:code="z14" ewd:figID="8" ewd:figtype="conn">
    <path style="&st5;" d="M388.19,428.66c0-2.51-2.03-4.54-4.53-4.54"/><path style="&st5;" d="M383.66,424.12c-2.5,0-4.53,2.03-4.53,4.54"/><path style="&st5;" d="M379.13,428.66c0,2.5,2.03,4.53,4.53,4.53"/><path style="&st5;" d="M383.66,433.19c2.5,0,4.53-2.03,4.53-4.53"/><path style="&st5;" d="M308.19,428.66c0-2.51-2.03-4.54-4.53-4.54"/><path style="&st5;" d="M303.66,424.12c-2.5,0-4.53,2.03-4.53,4.54"/><path style="&st5;" d="M299.13,428.66c0,2.5,2.03,4.53,4.53,4.53"/><path style="&st5;" d="M303.66,433.19c2.5,0,4.53-2.03,4.53-4.53"/><path style="&st5;" d="M348.19,428.66c0-2.51-2.03-4.54-4.53-4.54"/><path style="&st5;" d="M343.66,424.12c-2.5,0-4.53,2.03-4.53,4.54"/><path style="&st5;" d="M339.13,428.66c0,2.5,2.03,4.53,4.53,4.53"/><path style="&st5;" d="M343.66,433.19c2.5,0,4.53-2.03,4.53-4.53"/><path style="&st5;" d="M268.19,428.66c0-2.51-2.03-4.54-4.53-4.54"/><path style="&st5;" d="M263.66,424.12c-2.5,0-4.53,2.03-4.53,4.54"/><path style="&st5;" d="M259.13,428.66c0,2.5,2.03,4.53,4.53,4.53"/><path style="&st5;" d="M263.66,433.19c2.5,0,4.53-2.03,4.53-4.53"/><path style="&st5;" d="M237.41,281.13v142.99h172.48V281.13H237.41"/><path style="&st5;" d="M247.41,395.53v19.99h152.48v-19.99H247.41"/><path style="&st8;" d="M343.66,385.53v10"/><path style="&st8;" d="M383.66,385.53v10"/><path style="&st8;" d="M263.66,385.53v10"/><path style="&st8;" d="M343.66,415.52v8.6"/><path style="&st8;" d="M383.66,415.52v8.6"/><path style="&st8;" d="M263.66,415.52v8.6"/><path style="&st8;" d="M303.66,415.52v8.6"/><path style="&st8;" d="M303.66,365.86v29.67"/><path style="&st5;" d="M247.41,305.54v79.99h152.48v-79.99H247.41"/><path style="&st8;" d="M303.66,365.86v-12.75"/><path style="&st8;" d="M306.49,348.86l-5.67,2.83"/><path style="&st8;" d="M300.82,346.03l5.67,2.83"/><path style="&st8;" d="M306.49,343.19l-5.67,2.84"/><path style="&st8;" d="M300.82,340.36l5.67,2.83"/><path style="&st8;" d="M306.49,337.53l-5.67,2.83"/><path style="&st8;" d="M303.66,336.11l2.83,1.42"/><path style="&st8;" d="M300.82,351.69l2.84,1.42"/><path style="&st8;" d="M303.66,336.11v-19.75h-40v69.17"/><path style="&st8;" d="M295.16,336.11v17"/><path style="&st8;" d="M312.15,336.11v17"/><path style="&st8;" d="M312.15,336.11c0-4.69-3.8-8.5-8.49-8.5"/><path style="&st8;" d="M303.66,327.61c-4.7,0-8.5,3.81-8.5,8.5"/><path style="&st8;" d="M295.16,353.11c0,4.69,3.8,8.5,8.5,8.5"/><path style="&st8;" d="M303.66,361.61c4.69,0,8.49-3.81,8.49-8.5"/><path style="&st18;" d="M385.07,356.09c0-0.78-0.63-1.41-1.42-1.41s-1.41,0.63-1.41,1.41c0,0.78,0.63,1.41,1.41,1.41S385.07,356.87,385.07,356.09 M385.07,347.62c0-0.78-0.63-1.42-1.42-1.42s-1.41,0.63-1.41,1.42c0,0.78,0.63,1.41,1.41,1.41S385.07,348.4,385.07,347.62"/><path style="&st18;" d="M342.47,363.57l-0.27,0.47l-0.09,0.53l0.09,0.53l0.27,0.47l0.41,0.35l0.51,0.19h0.54l0.51-0.19l0.41-0.35l0.27-0.47l0.09-0.53l-0.09-0.53l-0.27-0.47l-0.41-0.34l-0.51-0.19h-0.54l-0.51,0.19L342.47,363.57l0.39,0.71v0.58l0.37,0.44l0.57,0.1l0.5-0.29l0.2-0.55l-0.2-0.54l-0.5-0.29l-0.57,0.1l0.42,0.73 M359.43,329.66l-0.27,0.47l-0.09,0.53l0.09,0.53l0.27,0.47l0.41,0.34l0.51,0.19h0.54l0.51-0.19l0.41-0.34l0.27-0.47l0.09-0.53l-0.09-0.53l-0.27-0.47l-0.41-0.34l-0.51-0.19h-0.54l-0.51,0.19L359.43,329.66l0.39,0.71v0.58l0.37,0.44l0.57,0.1l0.5-0.29l0.2-0.54l-0.2-0.55l-0.5-0.29l-0.57,0.1l0.42,0.74 M343.66,330.66h40v8.48 M360.61,364.57h-16.95 M383.66,357.51v7.06 M383.66,339.14v7.07 M379.42,347.62v8.47 M387.9,351.86h-8.48 M387.9,347.62v8.47 M360.61,330.66v4.24h4.24v4.24h-8.48v4.24h8.48v4.24h-8.48v4.24h8.48v4.24h-8.48v4.24h4.24v4.24 M343.66,330.66v4.24h4.24v4.24h-8.48v4.24h8.48v4.24h-8.48v4.24h8.48v4.24h-8.48v4.24h4.24v25.2"/><path style="&st18;" d="M383.66,364.57v20.96"/>
    <text transform="matrix(1 0 0 1 252.7871 430.6274)" style="&st4;"><tspan x="0" y="0" style="&st17; &st9;">1</tspan></text>
    <text transform="matrix(1 0 0 1 292.7871 430.6274)" style="&st4;"><tspan x="0" y="0" style="&st17; &st9;">3</tspan></text>
    <text transform="matrix(1 0 0 1 372.7871 430.6274)" style="&st4;"><tspan x="0" y="0" style="&st17; &st9;">4</tspan></text>
    <text transform="matrix(1 0 0 1 332.7871 430.6274)" style="&st4;"><tspan x="0" y="0" style="&st17; &st9;">2</tspan></text>
    <text transform="matrix(1 0 0 1 381.6582 430.6274)" style="&st4;"><tspan x="0" y="0" style="&st17; &st9;">B</tspan></text>
    <text transform="matrix(1 0 0 1 301.6582 430.6274)" style="&st4;"><tspan x="0" y="0" style="&st17; &st9;">B</tspan></text>
    <text transform="matrix(1 0 0 1 341.6582 430.6274)" style="&st4;"><tspan x="0" y="0" style="&st17; &st9;">B</tspan></text>
    <text transform="matrix(1 0 0 1 261.6582 430.6274)" style="&st4;"><tspan x="0" y="0" style="&st17; &st9;">B</tspan></text>
    <text ewd:textID="6" transform="matrix(1 0 0 1 234.8135 277.1274)" style="&st4; &st17; &st9;">Steering Wheel Heater Control Assembly</text>
    <text transform="matrix(1 0 0 1 234.8135 270.0176)" style="&st4;"><tspan x="0" y="0" style="&st17; &st9;">z14(B)</tspan></text>
    <text ewd:textID="3" transform="matrix(1 0 0 1 302.6465 301.8384)" style="&st4; &st17; &st9;">Steering Heater</text>
    <text ewd:textID="4" transform="matrix(1 0 0 1 288.8086 407.6274)" style="&st4; &st17; &st9;">Steering Heater Controller</text>
</g>
<text transform="matrix(0 -1 1 0 34.4961 146.7563)" style="&st4;"><tspan x="0" y="0" style="&st17; &st9;">GR</tspan></text>
<text transform="matrix(0 -1 1 0 34.4961 327.4561)" style="&st4;"><tspan x="0" y="0" style="&st17; &st9;">GR</tspan></text>
<text transform="matrix(0 -1 1 0 34.4961 242.1064)" style="&st4;"><tspan x="0" y="0" style="&st17; &st9;">GR</tspan></text>
<text transform="matrix(1 0 0 1 336.9395 517.1284)" style="&st4;"><tspan x="0" y="0" style="&st17; &st9;">W-B</tspan></text>
<text transform="matrix(1 0 0 1 283.3359 596.9819)" style="&st4;"><tspan x="0" y="0" style="&st17; &st9;">W-B</tspan></text>
<text transform="matrix(1 0 0 1 281.6133 608.311)" style="&st4;"><tspan x="0" y="0" style="&st17; &st9;">(RHD)</tspan></text>
<text transform="matrix(0 -1 1 0 354.0859 609.0483)" style="&st4;"><tspan x="0" y="0" style="&st17; &st9;">W-B</tspan></text>
<text transform="matrix(0 -1 1 0 365.415 611.27)" style="&st4;"><tspan x="0" y="0" style="&st17; &st9;">(LHD)</tspan></text>
<text transform="matrix(0 -1 1 0 324.7217 609.0327)" style="&st4;"><tspan x="0" y="0" style="&st17; &st9;">W-B</tspan></text>
<text transform="matrix(0 -1 1 0 336.0508 611.2544)" style="&st4;"><tspan x="0" y="0" style="&st17; &st9;">(RHD)</tspan></text>
<text transform="matrix(0 -1 1 0 299.959 519.9185)" style="&st4;"><tspan x="0" y="0" style="&st17; &st9;">W-B</tspan></text>
<text transform="matrix(0 -1 1 0 311.2881 522.1401)" style="&st4;"><tspan x="0" y="0" style="&st17; &st9;">(LHD)</tspan></text>
<text transform="matrix(0 -1 1 0 270.5947 519.9028)" style="&st4;"><tspan x="0" y="0" style="&st17; &st9;">W-B</tspan></text>
<text transform="matrix(0 -1 1 0 281.9238 522.1245)" style="&st4;"><tspan x="0" y="0" style="&st17; &st9;">(RHD)</tspan></text>
<text transform="matrix(1 0 0 1 425.9775 508.0601)" style="&st4;"><tspan x="0" y="0" style="&st17; &st9;">B</tspan></text>
<text transform="matrix(0 -1 1 0 34.4961 619.4702)" style="&st4;"><tspan x="0" y="0" style="&st17; &st9;">W-B</tspan></text>
<text transform="matrix(0 -1 1 0 59.9961 503.8979)" style="&st4;"><tspan x="0" y="0" style="&st17; &st9;">B</tspan></text>
<text transform="matrix(0 -1 1 0 34.4961 507.6753)" style="&st4;"><tspan x="0" y="0" style="&st17; &st9;">W-B</tspan></text>
<text transform="matrix(0 -1 1 0 11.6221 566.4253)" style="&st4;"><tspan x="0" y="0" style="&st17; &st9;">A70</tspan></text>
<text transform="matrix(0 -1 1 0 111.9863 199.8403)" style="&st4;"><tspan x="0" y="0" style="&st17; &st9;">LG</tspan></text>
<text transform="matrix(0 -1 1 0 189.6582 241.3623)" style="&st4;"><tspan x="0" y="0" style="&st17; &st9;">W</tspan></text>
<text transform="matrix(0 -1 1 0 260.4033 241.3623)" style="&st4;"><tspan x="0" y="0" style="&st17; &st9;">LG</tspan></text>
<text transform="matrix(0 -1 1 0 459.8975 141.645)" style="&st4;"><tspan x="0" y="0" style="&st17; &st9;">L</tspan></text>
<text transform="matrix(0 -1 1 0 260.4033 54.5288)" style="&st4;"><tspan x="0" y="0" style="&st17; &st9;">L</tspan></text>
<text transform="matrix(0 -1 1 0 459.9668 601.2075)" style="&st4;"><tspan x="0" y="0" style="&st17; &st9;">B</tspan></text>
</g>
</svg>
