﻿<?xml version="1.0" encoding="UTF-8"?>
<!DOCTYPE svg PUBLIC "-//W3C//DTD SVG 1.0//EN" "http://www.w3.org/TR/2001/REC-SVG-20010904/DTD/svg10.dtd"[
<!ENTITY ns_flows "http://ns.adobe.com/Flows/1.0/">
<!ENTITY ns_svg "http://www.w3.org/2000/svg">
<!ENTITY ns_xlink "http://www.w3.org/1999/xlink">
	<!ENTITY st0 "fill:none;stroke:#FB0F0C;stroke-width:5.1;stroke-linejoin:round;">
	<!ENTITY st1 "fill:none;stroke:#9A9999;stroke-width:5.1;stroke-linejoin:round;">
	<!ENTITY st2 "fill:none;stroke:#99280B;stroke-width:5.1;stroke-linejoin:round;">
		<!ENTITY st3 "fill:none;stroke:#000000;stroke-width:0.85;stroke-linecap:round;stroke-linejoin:round;stroke-dasharray:3 1.5;enable-background:new    ;">
	<!ENTITY st4 "fill:none;stroke:#99280B;stroke-width:4.54;stroke-linejoin:round;">
	<!ENTITY st5 "fill:none;stroke:#000000;stroke-width:5.1;stroke-linejoin:round;">
	<!ENTITY st6 "fill:none;stroke:#FB0F0C;stroke-width:4.54;stroke-linejoin:round;">
	<!ENTITY st7 "fill:none;stroke:#000000;stroke-linecap:round;stroke-linejoin:round;">
	<!ENTITY st8 "stroke:#000000;stroke-width:0.28;stroke-linecap:round;stroke-linejoin:round;enable-background:new    ;">
	<!ENTITY st9 "fill:none;stroke:#9A9999;stroke-width:4.54;stroke-linejoin:round;">
	<!ENTITY st10 "enable-background:new    ;">
		<!ENTITY st11 "fill:none;stroke:#000000;stroke-width:1.42;stroke-linecap:round;stroke-linejoin:round;enable-background:new    ;">
	<!ENTITY st12 "fill:none;stroke:#EE67AA;stroke-width:5.1;stroke-linejoin:round;">
	<!ENTITY st13 "fill:none;stroke:#199DBF;stroke-width:5.1;stroke-linejoin:round;">
	<!ENTITY st14 "opacity:0.5;fill:none;stroke:#34ACCE;stroke-linejoin:round;stroke-dasharray:6;">
	<!ENTITY st15 "fill:none;stroke:#FFFFFF;stroke-width:4.53;stroke-linejoin:round;">
		<!ENTITY st16 "fill:none;stroke:#000000;stroke-width:0.85;stroke-linecap:round;stroke-linejoin:round;enable-background:new    ;">
	<!ENTITY st17 "fill:none;stroke:#56107C;stroke-width:5.1;stroke-linejoin:round;">
	<!ENTITY st18 "font-size:6px;">
	<!ENTITY st19 "fill:none;stroke:#168638;stroke-width:4.54;stroke-linejoin:round;">
	<!ENTITY st20 "fill:none;stroke:#168638;stroke-width:5.1;stroke-linejoin:round;">
	<!ENTITY st21 "fill:none;stroke:#000000;stroke-width:1.13;stroke-linejoin:round;">
		<!ENTITY st22 "fill:none;stroke:#000000;stroke-width:1.13;stroke-linecap:round;stroke-linejoin:round;stroke-dasharray:3 1.5;enable-background:new    ;">
	<!ENTITY st23 "fill:none;stroke:#550E7B;stroke-width:4.54;stroke-linejoin:round;">
	<!ENTITY st24 "fill:#FFFFFF;stroke:#000000;stroke-width:1.41;stroke-linecap:round;stroke-linejoin:round;">
	<!ENTITY st25 "fill:none;stroke:#EE67AA;stroke-width:4.54;stroke-linejoin:round;">
	<!ENTITY st26 "fill:none;stroke:#3E65AC;stroke-width:3;">
	<!ENTITY st27 "fill:#CCCCCC;stroke:#CCCCCC;stroke-width:0.1;stroke-linecap:round;stroke-linejoin:round;">
	<!ENTITY st28 "fill:none;stroke:#7EC57E;stroke-width:4.54;stroke-linejoin:round;">
	<!ENTITY st29 "fill:none;stroke:#000000;stroke-width:5.1;stroke-linejoin:round;enable-background:new    ;">
	<!ENTITY st30 "font-family:'Arial';">
	<!ENTITY st31 "opacity:0.5;fill:none;stroke:#34ACCE;stroke-linejoin:round;">
	<!ENTITY st32 "fill:#CFE6E7;stroke:#000000;stroke-width:1.133;stroke-linecap:round;stroke-linejoin:round;">
	<!ENTITY st33 "fill:none;stroke:#99D5E0;stroke-width:5.1;stroke-linejoin:round;">
	<!ENTITY st34 "fill:none;stroke:#000000;stroke-width:0.85;stroke-linecap:round;stroke-linejoin:round;stroke-dasharray:3 1.5;">
	<!ENTITY st35 "fill:none;stroke:#FFFFFF;stroke-width:1.13;stroke-linejoin:round;enable-background:new    ;">
	<!ENTITY st36 "fill:none;stroke:#000000;stroke-width:0.85;stroke-linecap:round;stroke-linejoin:round;">
	<!ENTITY st37 "fill:none;stroke:#199DBF;stroke-width:4.54;stroke-linejoin:round;">
<!ATTLIST svg
xmlns:ewd CDATA #FIXED "http://shcl.co.jp/ewd"
xmlns:a CDATA #FIXED "http://ns.adobe.com/AdobeSVGViewerExtensions/3.0/"
ewd:ver CDATA #IMPLIED
>
<!ATTLIST a
ewd:lineID CDATA #IMPLIED
ewd:groupID CDATA #IMPLIED
ewd:figtype CDATA #IMPLIED
ewd:code CDATA #IMPLIED
ewd:figID CDATA #IMPLIED
ewd:pinNo CDATA #IMPLIED
ewd:comment CDATA #IMPLIED >
<!ATTLIST g
ewd:lineID CDATA #IMPLIED
ewd:groupID CDATA #IMPLIED
ewd:figtype CDATA #IMPLIED
ewd:code CDATA #IMPLIED
ewd:figID CDATA #IMPLIED
ewd:pinNo CDATA #IMPLIED
ewd:comment CDATA #IMPLIED >
<!ATTLIST text
ewd:textID CDATA #IMPLIED >
<!ATTLIST title
ewd:textID CDATA #IMPLIED >
]>
<svg 
viewBox='0 0 3113.46 729.44'
height='729.44'
width='3113.46'
xml:space="preserve"
xmlns="&ns_svg;"
xmlns:ewd="http://shcl.co.jp/ewd"
xmlns:xlink="&ns_xlink;" ewd:ver="L2.1">
<g ewd:code="GA6" ewd:figID="6015" ewd:figtype="w2w" ewd:pinNo="38">
<path style="&st11;" d="M436.71,448.42l4.24,4.25l4.25-4.25"/>
<path style="&st11;" d="M445.2,451.82l-4.25,4.25l-4.24-4.25"/>
<text transform="matrix(1 0 0 1 422.7783 463.6987)"><tspan x="0" y="0" style="&st30; &st18;">38</tspan></text>
</g>
<g ewd:code="GA6" ewd:figID="6014" ewd:figtype="w2w" ewd:pinNo="39">
<path style="&st11;" d="M401.57,448.42l4.24,4.25l4.25-4.25"/>
<path style="&st11;" d="M410.05,451.82l-4.25,4.25l-4.24-4.25"/>
<text transform="matrix(1 0 0 1 387.6309 463.6987)"><tspan x="0" y="0" style="&st30; &st18;">39</tspan></text>
</g>
<g ewd:code="GA6" ewd:figID="6001" ewd:figtype="w2w" ewd:pinNo="40">
<path style="&st11;" d="M410.06,307.98l-4.25-4.25l-4.25,4.25"/>
<path style="&st11;" d="M410.06,304.58l-4.25-4.25l-4.25,4.25"/>
<text transform="matrix(1 0 0 1 387.6357 296.6357)"><tspan x="0" y="0" style="&st30; &st18;">40</tspan></text>
</g>
<g ewd:code="GA6" ewd:figID="6002" ewd:figtype="w2w" ewd:pinNo="41">
<path style="&st11;" d="M445.21,307.98l-4.25-4.25l-4.25,4.25"/>
<path style="&st11;" d="M445.21,304.58l-4.25-4.25l-4.25,4.25"/>
<text transform="matrix(1 0 0 1 422.7832 296.6357)"><tspan x="0" y="0" style="&st30; &st18;">41</tspan></text>
</g>
<g ewd:code="2" ewd:figID="3002" ewd:figtype="jb">
<path style="&st7;" d="M82.26,39.55v42.49h25.5V39.55H82.26"/>
<path style="&st11;" d="M97.13,107.54h-4.25"/>
<path style="&st11;" d="M97.13,99.04h-4.25"/>
<path style="&st16;" d="M95.01,73.54v25.5"/>
<path style="&st11;" d="M82.26,39.55v42.49h25.5V39.55H82.26"/>
<path style="&st8;" d="M95.01,94.14l-2.84-2.83v4.25l2.84,2.83l2.83-2.83v-4.25L95.01,94.14"/>
<path style="&st11;" d="M101.38,103.29c0-2.35-1.9-4.25-4.25-4.25"/>
<path style="&st11;" d="M97.13,107.54c2.35,0,4.25-1.9,4.25-4.25"/>
<path style="&st11;" d="M88.63,103.29c0,2.35,1.91,4.25,4.25,4.25"/>
<path style="&st11;" d="M92.88,99.04c-2.34,0-4.25,1.9-4.25,4.25"/>
<path style="&st16;" d="M96.42,72.13c0-0.79-0.63-1.42-1.41-1.42"/>
<path style="&st16;" d="M95.01,70.71c-0.79,0-1.42,0.63-1.42,1.42"/>
<path style="&st16;" d="M93.59,72.13c0,0.78,0.63,1.41,1.42,1.41"/>
<path style="&st16;" d="M95.01,73.54c0.78,0,1.41-0.63,1.41-1.41"/>
<path style="&st16;" d="M96.42,49.46c0-0.78-0.63-1.41-1.41-1.41"/>
<path style="&st16;" d="M95.01,48.05c-0.79,0-1.42,0.63-1.42,1.41"/>
<path style="&st16;" d="M93.59,49.46c0,0.79,0.63,1.42,1.42,1.42"/>
<path style="&st16;" d="M95.01,50.88c0.78,0,1.41-0.63,1.41-1.42"/>
<path style="&st11;" d="M95.01,70.71c2.74-1.61,3.65-5.14,2.03-7.88"/>
<path style="&st11;" d="M97.04,62.83c-0.52-0.88-1.15-1.51-2.03-2.03"/>
<path style="&st11;" d="M95.01,50.88c-2.74,1.61-3.65,5.14-2.04,7.88"/>
<path style="&st11;" d="M92.97,58.76c0.52,0.88,1.16,1.52,2.04,2.04"/>
<text transform="matrix(1 0 0 1 88.9336 35.8467)" style="&st10;"><tspan x="0" y="0" style="&st30; &st18;">(IG)</tspan></text>
<text transform="matrix(1 0 0 1 78.3633 105.2573)" style="&st10;"><tspan x="0" y="0" style="&st30; &st18;">39</tspan></text>
<text transform="matrix(1 0 0 1 90.5635 105.2573)" style="&st10;"><tspan x="0" y="0" style="&st30; &st18;">2D</tspan></text>
<text transform="matrix(1 0 0 1 112.3135 59.9365)" style="&st10;"><tspan x="0" y="0" style="&st30; &st18;">10A</tspan></text>
<text transform="matrix(1 0 0 1 112.3135 65.9365)" style="&st10;"><tspan x="0" y="0" style="&st30; &st18;">ECU-IG</tspan><tspan x="0" y="7" style="&st30; &st18;">NO.2</tspan></text>
<text transform="matrix(1 0 0 1 89.0137 89.6069)" style="&st10;"><tspan x="0" y="0" style="&st30; &st18;">2</tspan></text>
</g>
<g ewd:code="3JB" ewd:figID="3003" ewd:figtype="jb">
<path style="&st11;" d="M97.14,185.93h-4.25"/>
<path style="&st11;" d="M97.14,177.43h-4.25"/>
<path style="&st11;" d="M97.14,151.93h-4.25"/>
<path style="&st11;" d="M97.14,143.43h-4.25"/>
<path style="&st8;" d="M95.01,156.83l2.84,2.83v-4.25l-2.84-2.83l-2.83,2.83v4.25L95.01,156.83"/>
<path style="&st8;" d="M95.01,172.53l-2.83-2.83v4.25l2.83,2.83l2.84-2.83v-4.25L95.01,172.53"/>
<path style="&st16;" d="M95.01,177.43v-25.5"/>
<path style="&st11;" d="M101.39,181.68c0-2.35-1.91-4.25-4.25-4.25"/>
<path style="&st11;" d="M97.14,185.93c2.34,0,4.25-1.91,4.25-4.25"/>
<path style="&st11;" d="M88.64,181.68c0,2.34,1.9,4.25,4.25,4.25"/>
<path style="&st11;" d="M92.89,177.43c-2.35,0-4.25,1.9-4.25,4.25"/>
<path style="&st11;" d="M101.39,147.68c0-2.34-1.91-4.25-4.25-4.25"/>
<path style="&st11;" d="M97.14,151.93c2.34,0,4.25-1.9,4.25-4.25"/>
<path style="&st11;" d="M88.64,147.68c0,2.35,1.9,4.25,4.25,4.25"/>
<path style="&st11;" d="M92.89,143.43c-2.35,0-4.25,1.91-4.25,4.25"/>
<text transform="matrix(1 0 0 1 79.1436 183.6533)" style="&st10;"><tspan x="0" y="0" style="&st30; &st18;">18</tspan></text>
<text transform="matrix(1 0 0 1 90.5635 183.6533)" style="&st10;"><tspan x="0" y="0" style="&st30; &st18;">3A</tspan></text>
<text transform="matrix(1 0 0 1 78.374 149.6533)" style="&st10;"><tspan x="0" y="0" style="&st30; &st18;">36</tspan></text>
<text transform="matrix(1 0 0 1 90.9238 149.6533)" style="&st10;"><tspan x="0" y="0" style="&st30; &st18;">3B</tspan></text>
</g>
<g ewd:code="4JB" ewd:figID="3001" ewd:figtype="jb">
<path style="&st11;" d="M36.63,205.93h-4.25"/>
<path style="&st11;" d="M36.63,197.43h-4.25"/>
<path style="&st11;" d="M36.63,171.93h-4.25"/>
<path style="&st11;" d="M36.63,163.43h-4.25"/>
<path style="&st8;" d="M34.5,176.83l2.84,2.83v-4.25l-2.84-2.83l-2.83,2.83v4.25L34.5,176.83"/>
<path style="&st8;" d="M34.5,192.53l-2.83-2.83v4.25l2.83,2.83l2.84-2.83v-4.25L34.5,192.53"/>
<path style="&st16;" d="M34.5,197.43v-25.5"/>
<path style="&st11;" d="M40.88,201.68c0-2.35-1.91-4.25-4.25-4.25"/>
<path style="&st11;" d="M36.63,205.93c2.34,0,4.25-1.91,4.25-4.25"/>
<path style="&st11;" d="M28.13,201.68c0,2.34,1.9,4.25,4.25,4.25"/>
<path style="&st11;" d="M32.38,197.43c-2.35,0-4.25,1.9-4.25,4.25"/>
<path style="&st11;" d="M40.88,167.68c0-2.34-1.91-4.25-4.25-4.25"/>
<path style="&st11;" d="M36.63,171.93c2.34,0,4.25-1.9,4.25-4.25"/>
<path style="&st11;" d="M28.13,167.68c0,2.35,1.9,4.25,4.25,4.25"/>
<path style="&st11;" d="M32.38,163.43c-2.35,0-4.25,1.91-4.25,4.25"/>
<text transform="matrix(1 0 0 1 18.626 203.6533)" style="&st10;"><tspan x="0" y="0" style="&st30; &st18;">15</tspan></text>
<text transform="matrix(1 0 0 1 30.0459 203.6533)" style="&st10;"><tspan x="0" y="0" style="&st30; &st18;">4A</tspan></text>
<text transform="matrix(1 0 0 1 17.8564 169.6533)" style="&st10;"><tspan x="0" y="0" style="&st30; &st18;">14</tspan></text>
<text transform="matrix(1 0 0 1 30.4063 169.6533)" style="&st10;"><tspan x="0" y="0" style="&st30; &st18;">4A</tspan></text>
</g>
<g ewd:code="4JB" ewd:figID="3012" ewd:figtype="jb">
<path style="&st11;" d="M36.63,508.28h-4.25"/>
<path style="&st11;" d="M36.63,499.78h-4.25"/>
<path style="&st11;" d="M36.63,474.28h-4.25"/>
<path style="&st11;" d="M36.63,465.78h-4.25"/>
<path style="&st8;" d="M34.5,479.18l2.84,2.83v-4.25l-2.84-2.83l-2.83,2.83v4.25L34.5,479.18"/>
<path style="&st8;" d="M34.5,494.88l-2.83-2.83v4.25l2.83,2.83l2.84-2.83v-4.25L34.5,494.88"/>
<path style="&st16;" d="M34.5,499.78v-25.5"/>
<path style="&st11;" d="M40.88,504.03c0-2.35-1.91-4.25-4.25-4.25"/>
<path style="&st11;" d="M36.63,508.28c2.34,0,4.25-1.91,4.25-4.25"/>
<path style="&st11;" d="M28.13,504.03c0,2.34,1.9,4.25,4.25,4.25"/>
<path style="&st11;" d="M32.38,499.78c-2.35,0-4.25,1.9-4.25,4.25"/>
<path style="&st11;" d="M40.88,470.03c0-2.34-1.91-4.25-4.25-4.25"/>
<path style="&st11;" d="M36.63,474.28c2.34,0,4.25-1.9,4.25-4.25"/>
<path style="&st11;" d="M28.13,470.03c0,2.35,1.9,4.25,4.25,4.25"/>
<path style="&st11;" d="M32.38,465.78c-2.35,0-4.25,1.91-4.25,4.25"/>
<text transform="matrix(1 0 0 1 18.626 505.9995)" style="&st10;"><tspan x="0" y="0" style="&st30; &st18;">68</tspan></text>
<text transform="matrix(1 0 0 1 30.0459 505.9995)" style="&st10;"><tspan x="0" y="0" style="&st30; &st18;">4A</tspan></text>
<text transform="matrix(1 0 0 1 17.8564 471.9995)" style="&st10;"><tspan x="0" y="0" style="&st30; &st18;">23</tspan></text>
<text transform="matrix(1 0 0 1 30.4063 471.9995)" style="&st10;"><tspan x="0" y="0" style="&st30; &st18;">4A</tspan></text>
</g>
<g ewd:code="G5" ewd:figID="2001" ewd:figtype="gp">
<path style="&st16;" d="M30.25,708.1h8.5"/>
<path style="&st16;" d="M34.5,701.02v4.25"/>
<path style="&st16;" d="M26,705.27h16.99"/>
<path style="&st16;" d="M31.66,710.94h5.67"/>
<path style="&st16;" d="M33.08,713.77h2.83"/>
<path style="&st16;" d="M30.25,708.1h8.5"/>
</g>
<g ewd:code="G106" ewd:figID="21" ewd:figtype="conn">
<path style="&st16;" d="M34.5,659.95v25.49"/>
<path style="&st11;" d="M26,659.95v16.99h16.99v-16.99H26"/>
<text transform="matrix(1 0 0 1 27.6963 656.2573)" style="&st10;"><tspan x="0" y="0" style="&st30; &st18;">3</tspan></text>
<text transform="matrix(1 0 0 1 46.1367 663.3062)" style="&st10;"><tspan x="0" y="0" style="&st30; &st18;">G106</tspan></text>
<text ewd:textID='19' transform='matrix(1 0 0 1 46.1367 670.4058)' style='&st10; &st30; &st18;'>Junction <tspan x='0' y='7' >Connector</tspan></text>
</g>
<g ewd:code="G76,G163" ewd:figID="1" ewd:figtype="conn">
<path style="&st11;" d="M11.5,247.06v48.51h185.47v-48.51H11.5"/>
<path style="&st11;" d="M39.03,242.52c0-2.5-2.03-4.53-4.53-4.53"/>
<path style="&st11;" d="M34.5,237.99c-2.5,0-4.53,2.03-4.53,4.53"/>
<path style="&st11;" d="M29.97,242.52c0,2.51,2.03,4.54,4.53,4.54"/>
<path style="&st11;" d="M34.5,247.06c2.5,0,4.53-2.03,4.53-4.54"/>
<path style="&st11;" d="M39.03,233.46c0-2.5-2.03-4.53-4.53-4.53"/>
<path style="&st11;" d="M34.5,228.93c-2.5,0-4.53,2.03-4.53,4.53"/>
<path style="&st11;" d="M29.97,233.46c0,2.5,2.03,4.53,4.53,4.53"/>
<path style="&st11;" d="M34.5,237.99c2.5,0,4.53-2.03,4.53-4.53"/>
<path style="&st11;" d="M144.26,242.52c0-2.5-2.03-4.53-4.53-4.53"/>
<path style="&st11;" d="M139.73,237.99c-2.5,0-4.53,2.03-4.53,4.53"/>
<path style="&st11;" d="M135.2,242.52c0,2.51,2.03,4.54,4.53,4.54"/>
<path style="&st11;" d="M139.73,247.06c2.5,0,4.53-2.03,4.53-4.54"/>
<path style="&st11;" d="M144.26,233.46c0-2.5-2.03-4.53-4.53-4.53"/>
<path style="&st11;" d="M139.73,228.93c-2.5,0-4.53,2.03-4.53,4.53"/>
<path style="&st11;" d="M135.2,233.46c0,2.5,2.03,4.53,4.53,4.53"/>
<path style="&st11;" d="M139.73,237.99c2.5,0,4.53-2.03,4.53-4.53"/>
<path style="&st11;" d="M178.25,242.52c0-2.5-2.03-4.53-4.53-4.53"/>
<path style="&st11;" d="M173.72,237.99c-2.5,0-4.53,2.03-4.53,4.53"/>
<path style="&st11;" d="M169.2,242.52c0,2.51,2.03,4.54,4.53,4.54"/>
<path style="&st11;" d="M173.72,247.06c2.5,0,4.53-2.03,4.53-4.54"/>
<path style="&st11;" d="M178.25,233.46c0-2.5-2.03-4.53-4.53-4.53"/>
<path style="&st11;" d="M173.72,228.93c-2.5,0-4.53,2.03-4.53,4.53"/>
<path style="&st11;" d="M169.2,233.46c0,2.5,2.03,4.53,4.53,4.53"/>
<path style="&st11;" d="M173.72,237.99c2.5,0,4.53-2.03,4.53-4.53"/>
<path style="&st11;" d="M39.03,309.16c0-2.5-2.03-4.53-4.53-4.53"/>
<path style="&st11;" d="M34.5,304.63c-2.5,0-4.53,2.03-4.53,4.53"/>
<path style="&st11;" d="M29.97,309.16c0,2.51,2.03,4.54,4.53,4.54"/>
<path style="&st11;" d="M34.5,313.7c2.5,0,4.53-2.03,4.53-4.54"/>
<path style="&st11;" d="M39.03,300.1c0-2.5-2.03-4.53-4.53-4.53"/>
<path style="&st11;" d="M34.5,295.57c-2.5,0-4.53,2.03-4.53,4.53"/>
<path style="&st11;" d="M29.97,300.1c0,2.5,2.03,4.53,4.53,4.53"/>
<path style="&st11;" d="M34.5,304.63c2.5,0,4.53-2.03,4.53-4.53"/>
<path style="&st11;" d="M101.77,309.16c0-2.5-2.03-4.53-4.53-4.53"/>
<path style="&st11;" d="M97.24,304.63c-2.5,0-4.53,2.03-4.53,4.53"/>
<path style="&st11;" d="M92.71,309.16c0,2.51,2.03,4.54,4.53,4.54"/>
<path style="&st11;" d="M97.24,313.7c2.5,0,4.53-2.03,4.53-4.54"/>
<path style="&st11;" d="M101.77,300.1c0-2.5-2.03-4.53-4.53-4.53"/>
<path style="&st11;" d="M97.24,295.57c-2.5,0-4.53,2.03-4.53,4.53"/>
<path style="&st11;" d="M92.71,300.1c0,2.5,2.03,4.53,4.53,4.53"/>
<path style="&st11;" d="M97.24,304.63c2.5,0,4.53-2.03,4.53-4.53"/>
<path style="&st11;" d="M178.25,309.16c0-2.5-2.03-4.53-4.53-4.53"/>
<path style="&st11;" d="M173.72,304.63c-2.5,0-4.53,2.03-4.53,4.53"/>
<path style="&st11;" d="M169.2,309.16c0,2.51,2.03,4.54,4.53,4.54"/>
<path style="&st11;" d="M173.72,313.7c2.5,0,4.53-2.03,4.53-4.54"/>
<path style="&st11;" d="M178.25,300.1c0-2.5-2.03-4.53-4.53-4.53"/>
<path style="&st11;" d="M173.72,295.57c-2.5,0-4.53,2.03-4.53,4.53"/>
<path style="&st11;" d="M169.2,300.1c0,2.5,2.03,4.53,4.53,4.53"/>
<path style="&st11;" d="M173.72,304.63c2.5,0,4.53-2.03,4.53-4.53"/>
<text ewd:textID='17' transform='matrix(0 -1 1 0 211.0684 298.5742)' style='&st10; &st30; &st18;'>Driving Support Switch <tspan x='0' y='7' >Control ECU</tspan></text>
<text transform="matrix(0 -1 1 0 203.9688 298.5742)" style="&st10;"><tspan x="0" y="0" style="&st30; &st18;">G76(A),G163(C)</tspan></text>
<text transform="matrix(1 0 0 1 27.5068 291.873)" style="&st10;"><tspan x="0" y="0" style="&st30; &st18;">GND</tspan></text>
<text transform="matrix(1 0 0 1 90.2529 291.873)" style="&st10;"><tspan x="0" y="0" style="&st30; &st18;">SWI1</tspan></text>
<text transform="matrix(1 0 0 1 166.7354 291.873)" style="&st10;"><tspan x="0" y="0" style="&st30; &st18;">SWI2</tspan></text>
<text transform="matrix(1 0 0 1 32.0264 244.4946)" style="&st10;"><tspan x="0" y="0" style="&st30; &st18;">A</tspan></text>
<text transform="matrix(1 0 0 1 23.6162 244.4946)" style="&st10;"><tspan x="0" y="0" style="&st30; &st18;">7</tspan></text>
<text transform="matrix(1 0 0 1 20.6162 235.4346)" style="&st10;"><tspan x="0" y="0" style="&st30; &st18;">10</tspan></text>
<text transform="matrix(1 0 0 1 32.166 235.4346)" style="&st10;"><tspan x="0" y="0" style="&st30; &st18;">C</tspan></text>
<text transform="matrix(1 0 0 1 30.7158 254.6948)" style="&st10;"><tspan x="0" y="0" style="&st30; &st18;">IG</tspan></text>
<text transform="matrix(1 0 0 1 137.2627 244.4941)" style="&st10;"><tspan x="0" y="0" style="&st30; &st18;">A</tspan></text>
<text transform="matrix(1 0 0 1 125.8525 244.4941)" style="&st10;"><tspan x="0" y="0" style="&st30; &st18;">10</tspan></text>
<text transform="matrix(1 0 0 1 128.8525 235.4341)" style="&st10;"><tspan x="0" y="0" style="&st30; &st18;">3</tspan></text>
<text transform="matrix(1 0 0 1 137.4023 235.4341)" style="&st10;"><tspan x="0" y="0" style="&st30; &st18;">C</tspan></text>
<text transform="matrix(1 0 0 1 131.9521 254.6943)" style="&st10;"><tspan x="0" y="0" style="&st30; &st18;">CANN</tspan></text>
<text transform="matrix(1 0 0 1 171.2549 244.4941)" style="&st10;"><tspan x="0" y="0" style="&st30; &st18;">A</tspan></text>
<text transform="matrix(1 0 0 1 162.8447 244.4941)" style="&st10;"><tspan x="0" y="0" style="&st30; &st18;">9</tspan></text>
<text transform="matrix(1 0 0 1 162.8447 235.4341)" style="&st10;"><tspan x="0" y="0" style="&st30; &st18;">2</tspan></text>
<text transform="matrix(1 0 0 1 171.3945 235.4341)" style="&st10;"><tspan x="0" y="0" style="&st30; &st18;">C</tspan></text>
<text transform="matrix(1 0 0 1 165.9443 254.6943)" style="&st10;"><tspan x="0" y="0" style="&st30; &st18;">CANP</tspan></text>
<text transform="matrix(1 0 0 1 32.0264 311.1343)" style="&st10;"><tspan x="0" y="0" style="&st30; &st18;">C</tspan></text>
<text transform="matrix(1 0 0 1 23.6162 311.1343)" style="&st10;"><tspan x="0" y="0" style="&st30; &st18;">7</tspan></text>
<text transform="matrix(1 0 0 1 20.6162 302.0742)" style="&st10;"><tspan x="0" y="0" style="&st30; &st18;">16</tspan></text>
<text transform="matrix(1 0 0 1 32.166 302.0742)" style="&st10;"><tspan x="0" y="0" style="&st30; &st18;">A</tspan></text>
<text transform="matrix(1 0 0 1 94.7725 311.1343)" style="&st10;"><tspan x="0" y="0" style="&st30; &st18;">C</tspan></text>
<text transform="matrix(1 0 0 1 86.3623 311.1343)" style="&st10;"><tspan x="0" y="0" style="&st30; &st18;">5</tspan></text>
<text transform="matrix(1 0 0 1 86.3623 302.0742)" style="&st10;"><tspan x="0" y="0" style="&st30; &st18;">3</tspan></text>
<text transform="matrix(1 0 0 1 94.9121 302.0742)" style="&st10;"><tspan x="0" y="0" style="&st30; &st18;">A</tspan></text>
<text transform="matrix(1 0 0 1 171.2549 311.1343)" style="&st10;"><tspan x="0" y="0" style="&st30; &st18;">C</tspan></text>
<text transform="matrix(1 0 0 1 159.8447 311.1343)" style="&st10;"><tspan x="0" y="0" style="&st30; &st18;">14</tspan></text>
<text transform="matrix(1 0 0 1 162.8447 302.0742)" style="&st10;"><tspan x="0" y="0" style="&st30; &st18;">4</tspan></text>
<text transform="matrix(1 0 0 1 171.3945 302.0742)" style="&st10;"><tspan x="0" y="0" style="&st30; &st18;">A</tspan></text>
</g>
<g ewd:code="G40,z8" ewd:figID="2" ewd:figtype="conn">
<path style="&st16;" d="M173.72,369.63v33.43"/>
<path style="&st16;" d="M97.24,369.63v33.43"/>
<path style="&st11;" d="M71.74,369.63v33.43h135.98v-33.43H71.74"/>
<path style="&st11;" d="M101.77,365.1c0-2.5-2.03-4.53-4.53-4.53"/>
<path style="&st11;" d="M97.24,360.57c-2.51,0-4.54,2.03-4.54,4.53"/>
<path style="&st11;" d="M92.7,365.1c0,2.5,2.03,4.53,4.54,4.53"/>
<path style="&st11;" d="M97.24,369.63c2.5,0,4.53-2.03,4.53-4.53"/>
<path style="&st11;" d="M178.26,365.1c0-2.5-2.03-4.53-4.54-4.53"/>
<path style="&st11;" d="M173.72,360.57c-2.5,0-4.53,2.03-4.53,4.53"/>
<path style="&st11;" d="M169.19,365.1c0,2.5,2.03,4.53,4.53,4.53"/>
<path style="&st11;" d="M173.72,369.63c2.51,0,4.54-2.03,4.54-4.53"/>
<text transform="matrix(0 -1 1 0 215.332 406.1538)" style="&st10;"><tspan x="0" y="0" style="&st30; &st18;">G40(A),z8(D)</tspan></text>
<text ewd:textID='32' transform='matrix(0 -1 1 0 222.4424 406.1538)' style='&st10; &st30; &st18;'>Spiral Cable Sub-Assembly</text>
<text transform="matrix(1 0 0 1 176.5625 377.8335)" style="&st10;"><tspan x="0" y="0" style="&st30; &st18;">GND1</tspan></text>
<text transform="matrix(1 0 0 1 100.0723 377.8335)" style="&st10;"><tspan x="0" y="0" style="&st30; &st18;">DISP</tspan></text>
<text transform="matrix(1 0 0 1 171.3926 367.0737)" style="&st10;"><tspan x="0" y="0" style="&st30; &st18;">A</tspan></text>
<text transform="matrix(1 0 0 1 159.6719 367.0737)" style="&st10;"><tspan x="0" y="0" style="&st30; &st18;">10</tspan></text>
<text transform="matrix(1 0 0 1 94.9121 367.0737)" style="&st10;"><tspan x="0" y="0" style="&st30; &st18;">A</tspan></text>
<text transform="matrix(1 0 0 1 86.3623 367.0737)" style="&st10;"><tspan x="0" y="0" style="&st30; &st18;">9</tspan></text>
</g>
<g ewd:code="z8" ewd:figID="22" ewd:figtype="conn">
<path style="&st11;" d="M101.77,407.59c0-2.5-2.03-4.53-4.53-4.53"/>
<path style="&st11;" d="M97.24,403.06c-2.51,0-4.54,2.03-4.54,4.53"/>
<path style="&st11;" d="M92.7,407.59c0,2.51,2.03,4.54,4.54,4.54"/>
<path style="&st11;" d="M97.24,412.13c2.5,0,4.53-2.03,4.53-4.54"/>
<path style="&st11;" d="M178.26,407.59c0-2.5-2.03-4.53-4.54-4.53"/>
<path style="&st11;" d="M173.72,403.06c-2.5,0-4.53,2.03-4.53,4.53"/>
<path style="&st11;" d="M169.19,407.59c0,2.51,2.03,4.54,4.53,4.54"/>
<path style="&st11;" d="M173.72,412.13c2.51,0,4.54-2.03,4.54-4.54"/>
<path style="&st29;" d="M97.24,446.12v-33.99"/>
<path style="&st35;" d="M97.24,446.12v-33.99"/>
<path style="&st29;" d="M173.72,412.13v33.99"/>
<path style="&st16;" d="M118.48,590.6h-12.74"/>
<path style="&st16;" d="M148.23,590.6h-4.25"/>
<path style="&st11;" d="M141.15,590.6l-22.67-5.67"/>
<path style="&st16;" d="M118.48,556.6h-12.74"/>
<path style="&st16;" d="M148.23,556.6h-4.25"/>
<path style="&st11;" d="M141.15,556.6l-22.67-5.66"/>
<path style="&st16;" d="M118.48,522.61h-12.74"/>
<path style="&st16;" d="M148.23,522.61h-4.25"/>
<path style="&st11;" d="M141.15,522.61l-22.67-5.67"/>
<path style="&st16;" d="M118.48,488.61h-12.74"/>
<path style="&st16;" d="M148.23,488.61h-4.25"/>
<path style="&st11;" d="M141.15,488.61l-22.67-5.66"/>
<path style="&st16;" d="M126.98,463.12h-21.24"/>
<path style="&st16;" d="M142.56,465.95l1.42-2.83"/>
<path style="&st16;" d="M126.98,463.12l1.42-2.84"/>
<path style="&st16;" d="M128.4,460.28l2.83,5.67"/>
<path style="&st16;" d="M136.9,465.95l2.83-5.67"/>
<path style="&st16;" d="M134.06,460.28l2.84,5.67"/>
<path style="&st16;" d="M131.23,465.95l2.83-5.67"/>
<path style="&st16;" d="M148.23,463.12h-4.25"/>
<path style="&st16;" d="M139.73,460.28l2.83,5.67"/>
<path style="&st16;" d="M97.24,488.61v-42.49"/>
<path style="&st16;" d="M173.72,446.12V590.6h-25.49"/>
<path style="&st11;" d="M80.24,446.12V607.6h110.48V446.12H80.24"/>
<path style="&st11;" d="M71.74,616.1h135.98V412.13H71.74V616.1"/>
<path style="&st16;" d="M97.24,522.61v-8.5l-2.84-1.42l5.67-2.83l-5.67-2.83l5.67-2.84l-5.67-2.83l5.67-2.83l-2.83-1.42v-8.5"/>
<path style="&st16;" d="M97.24,556.6v-8.5l-2.84-1.41l5.67-2.84l-5.67-2.83l5.67-2.83l-5.67-2.84l5.67-2.83l-2.83-1.41v-8.5"/>
<path style="&st16;" d="M97.24,556.6v8.5l2.83,1.42l-5.67,2.83l5.67,2.83l-5.67,2.83l5.67,2.84l-5.67,2.83l2.84,1.42v8.5h8.49"/>
<path style="&st16;" d="M97.24,556.6h8.49"/>
<path style="&st16;" d="M97.24,522.61h8.49"/>
<path style="&st16;" d="M97.24,488.61h8.49"/>
<path style="&st16;" d="M148.23,488.61h25.49"/>
<path style="&st16;" d="M148.23,463.12h25.49"/>
<path style="&st16;" d="M105.73,463.12h-8.49"/>
<path style="&st16;" d="M148.23,522.61h25.49"/>
<path style="&st16;" d="M148.23,556.6h25.49"/>
<path style="&st16;" d="M172.53,462.11l-0.27,0.47l-0.09,0.54l0.09,0.53l0.27,0.47l0.41,0.35l0.51,0.18h0.54l0.51-0.18l0.42-0.35l0.27-0.47l0.09-0.53l-0.09-0.54l-0.27-0.47l-0.42-0.34l-0.51-0.19h-0.54l-0.51,0.19L172.53,462.11l0.39,0.72v0.58l0.38,0.44l0.57,0.1l0.5-0.29l0.2-0.54l-0.2-0.55l-0.5-0.29l-0.57,0.1l0.42,0.74"/>
<path style="&st16;" d="M96.04,462.11l-0.27,0.47l-0.09,0.54l0.09,0.53l0.27,0.47l0.42,0.35l0.51,0.18h0.54l0.51-0.18l0.41-0.35l0.27-0.47l0.09-0.53l-0.09-0.54l-0.27-0.47l-0.41-0.34l-0.51-0.19h-0.54l-0.51,0.19L96.04,462.11l0.4,0.72v0.58l0.37,0.44l0.57,0.1l0.51-0.29l0.2-0.54l-0.2-0.55l-0.51-0.29l-0.57,0.1l0.43,0.74"/>
<path style="&st16;" d="M96.04,487.61l-0.27,0.47l-0.09,0.53l0.09,0.54l0.27,0.47l0.42,0.34l0.51,0.19h0.54l0.51-0.19l0.41-0.34l0.27-0.47l0.09-0.54l-0.09-0.53l-0.27-0.47l-0.41-0.35l-0.51-0.18h-0.54l-0.51,0.18L96.04,487.61l0.4,0.71v0.58l0.37,0.45l0.57,0.1l0.51-0.29l0.2-0.55l-0.2-0.54l-0.51-0.29l-0.57,0.1l0.43,0.73"/>
<path style="&st16;" d="M172.53,487.61l-0.27,0.47l-0.09,0.53l0.09,0.54l0.27,0.47l0.41,0.34l0.51,0.19h0.54l0.51-0.19l0.42-0.34l0.27-0.47l0.09-0.54l-0.09-0.53l-0.27-0.47l-0.42-0.35l-0.51-0.18h-0.54l-0.51,0.18L172.53,487.61l0.39,0.71v0.58l0.38,0.45l0.57,0.1l0.5-0.29l0.2-0.55l-0.2-0.54l-0.5-0.29l-0.57,0.1l0.42,0.73"/>
<path style="&st16;" d="M96.04,521.6l-0.27,0.47l-0.09,0.54l0.09,0.53l0.27,0.47l0.42,0.35l0.51,0.18h0.54l0.51-0.18l0.41-0.35l0.27-0.47l0.09-0.53l-0.09-0.54l-0.27-0.47l-0.41-0.34l-0.51-0.19h-0.54l-0.51,0.19L96.04,521.6l0.4,0.72v0.58l0.37,0.44l0.57,0.1l0.51-0.29l0.2-0.54l-0.2-0.55l-0.51-0.29l-0.57,0.1l0.43,0.74"/>
<path style="&st16;" d="M172.53,521.6l-0.27,0.47l-0.09,0.54l0.09,0.53l0.27,0.47l0.41,0.35l0.51,0.18h0.54l0.51-0.18l0.42-0.35l0.27-0.47l0.09-0.53l-0.09-0.54l-0.27-0.47l-0.42-0.34l-0.51-0.19h-0.54l-0.51,0.19L172.53,521.6l0.39,0.72v0.58l0.38,0.44l0.57,0.1l0.5-0.29l0.2-0.54l-0.2-0.55l-0.5-0.29l-0.57,0.1l0.42,0.74"/>
<path style="&st16;" d="M96.04,555.6l-0.27,0.47l-0.09,0.53l0.09,0.53l0.27,0.47l0.42,0.35l0.51,0.19h0.54l0.51-0.19l0.41-0.35l0.27-0.47l0.09-0.53l-0.09-0.53l-0.27-0.47l-0.41-0.35l-0.51-0.18h-0.54l-0.51,0.18L96.04,555.6l0.4,0.71v0.58l0.37,0.45l0.57,0.1l0.51-0.29l0.2-0.55l-0.2-0.55l-0.51-0.28l-0.57,0.09l0.43,0.74"/>
<path style="&st16;" d="M172.53,555.6l-0.27,0.47l-0.09,0.53l0.09,0.53l0.27,0.47l0.41,0.35l0.51,0.19h0.54l0.51-0.19l0.42-0.35l0.27-0.47l0.09-0.53l-0.09-0.53l-0.27-0.47l-0.42-0.35l-0.51-0.18h-0.54l-0.51,0.18L172.53,555.6l0.39,0.71v0.58l0.38,0.45l0.57,0.1l0.5-0.29l0.2-0.55l-0.2-0.55l-0.5-0.28l-0.57,0.09l0.42,0.74"/>
<path style="&st16;" d="M121.32,590.6c0-0.79-0.64-1.42-1.42-1.42"/>
<path style="&st16;" d="M119.9,589.19c-0.78,0-1.42,0.63-1.42,1.42"/>
<path style="&st16;" d="M118.48,590.6c0,0.78,0.64,1.41,1.42,1.41"/>
<path style="&st16;" d="M119.9,592.02c0.78,0,1.42-0.63,1.42-1.41"/>
<path style="&st16;" d="M143.98,590.6c0-0.79-0.63-1.42-1.42-1.42"/>
<path style="&st16;" d="M142.56,589.19c-0.78,0-1.41,0.63-1.41,1.42"/>
<path style="&st16;" d="M141.15,590.6c0,0.78,0.63,1.41,1.41,1.41"/>
<path style="&st16;" d="M142.56,592.02c0.79,0,1.42-0.63,1.42-1.41"/>
<path style="&st16;" d="M121.32,556.6c0-0.78-0.64-1.42-1.42-1.42"/>
<path style="&st16;" d="M119.9,555.19c-0.78,0-1.42,0.64-1.42,1.42"/>
<path style="&st16;" d="M118.48,556.6c0,0.78,0.64,1.42,1.42,1.42"/>
<path style="&st16;" d="M119.9,558.02c0.78,0,1.42-0.64,1.42-1.42"/>
<path style="&st16;" d="M143.98,556.6c0-0.78-0.63-1.42-1.42-1.42"/>
<path style="&st16;" d="M142.56,555.19c-0.78,0-1.41,0.64-1.41,1.42"/>
<path style="&st16;" d="M141.15,556.6c0,0.78,0.63,1.42,1.41,1.42"/>
<path style="&st16;" d="M142.56,558.02c0.79,0,1.42-0.64,1.42-1.42"/>
<path style="&st16;" d="M121.32,522.61c0-0.79-0.64-1.42-1.42-1.42"/>
<path style="&st16;" d="M119.9,521.19c-0.78,0-1.42,0.63-1.42,1.42"/>
<path style="&st16;" d="M118.48,522.61c0,0.78,0.64,1.41,1.42,1.41"/>
<path style="&st16;" d="M119.9,524.02c0.78,0,1.42-0.63,1.42-1.41"/>
<path style="&st16;" d="M143.98,522.61c0-0.79-0.63-1.42-1.42-1.42"/>
<path style="&st16;" d="M142.56,521.19c-0.78,0-1.41,0.63-1.41,1.42"/>
<path style="&st16;" d="M141.15,522.61c0,0.78,0.63,1.41,1.41,1.41"/>
<path style="&st16;" d="M142.56,524.02c0.79,0,1.42-0.63,1.42-1.41"/>
<path style="&st16;" d="M121.32,488.61c0-0.78-0.64-1.41-1.42-1.41"/>
<path style="&st16;" d="M119.9,487.2c-0.78,0-1.42,0.63-1.42,1.41"/>
<path style="&st16;" d="M118.48,488.61c0,0.78,0.64,1.42,1.42,1.42"/>
<path style="&st16;" d="M119.9,490.03c0.78,0,1.42-0.64,1.42-1.42"/>
<path style="&st16;" d="M143.98,488.61c0-0.78-0.63-1.41-1.42-1.41"/>
<path style="&st16;" d="M142.56,487.2c-0.78,0-1.41,0.63-1.41,1.41"/>
<path style="&st16;" d="M141.15,488.61c0,0.78,0.63,1.42,1.41,1.42"/>
<path style="&st16;" d="M142.56,490.03c0.79,0,1.42-0.64,1.42-1.42"/>
<text transform="matrix(1 0 0 1 171.252 409.564)" style="&st10;"><tspan x="0" y="0" style="&st30; &st18;">D</tspan></text>
<text transform="matrix(1 0 0 1 162.8525 409.564)" style="&st10;"><tspan x="0" y="0" style="&st30; &st18;">3</tspan></text>
<text transform="matrix(1 0 0 1 94.7627 409.564)" style="&st10;"><tspan x="0" y="0" style="&st30; &st18;">D</tspan></text>
<text transform="matrix(1 0 0 1 86.3623 409.564)" style="&st10;"><tspan x="0" y="0" style="&st30; &st18;">2</tspan></text>
<text transform="matrix(0 -1 1 0 215.332 610.1245)" style="&st10;"><tspan x="0" y="0" style="&st30; &st18;">z8(D)</tspan></text>
<text transform="matrix(1 0 0 1 126.7822 598.2339)" style="&st10;"><tspan x="0" y="0" style="&st30; &st18;">Up</tspan></text>
<text ewd:textID='16' transform='matrix(1 0 0 1 122.2627 564.2437)' style='&st10; &st30; &st18;'>Down</text>
<text transform="matrix(1 0 0 1 119.502 530.2437)" style="&st10;"><tspan x="0" y="0" style="&st30; &st18;">ENTER</tspan></text>
<text ewd:textID='21' transform='matrix(1 0 0 1 122.4023 496.2534)' style='&st10; &st30; &st18;'>Menu</text>
<text ewd:textID='35' transform='matrix(0 -1 1 0 198.3623 565.1538)' style='&st10; &st30; &st18;'>Steering Pad Switch RH</text>
<text transform="matrix(0 -1 1 0 93.543 436.8237)" style="&st10;"><tspan x="0" y="0" style="&st30; &st18;">B-W</tspan></text>
<text transform="matrix(0 -1 1 0 170.0322 431.4546)" style="&st10;"><tspan x="0" y="0" style="&st30; &st18;">B</tspan></text>
<text ewd:textID='34' transform='matrix(0 -1 1 0 222.4424 610.1245)' style='&st10; &st30; &st18;'>Steering Pad Switch Assembly</text>
</g>
<g ewd:code="G133" ewd:figID="3" ewd:figtype="conn">
<path style="&st11;" d="M257.59,247.06v26.36h110.55v-26.36H257.59"/>
<path style="&st16;" d="M291.48,247.06v17.57h67.87v-17.57"/>
<path style="&st16;" d="M266.33,247.06v9.26h57.87v-9.26"/>
<text ewd:textID='19' transform='matrix(0 -1 1 0 382.8594 275.9453)' style='&st10; &st30; &st18;'>Junction Connector</text>
<text transform="matrix(0 -1 1 0 375.749 275.9453)"><tspan x="0" y="0" style="&st30; &st18;">G133</tspan></text>
<text transform="matrix(1 0 0 1 281.1045 243.375)"><tspan x="0" y="0" style="&st30; &st18;">16</tspan></text>
<text transform="matrix(1 0 0 1 348.9756 243.375)"><tspan x="0" y="0" style="&st30; &st18;">15</tspan></text>
<text transform="matrix(1 0 0 1 317.165 243.375)"><tspan x="0" y="0" style="&st30; &st18;">4</tspan></text>
<text transform="matrix(1 0 0 1 259.2939 243.375)"><tspan x="0" y="0" style="&st30; &st18;">5</tspan></text>
</g>
<g ewd:code="A47,A48" ewd:figID="24" ewd:figtype="conn">
<path style="&st11;" d="M306.97,475.08v8.79h52.72v-8.79H306.97"/>
<path style="&st11;" d="M306.97,466.29v8.79h52.72v-8.79H306.97"/>
<path style="&st11;" d="M320.28,488.4c0-2.5-2.02-4.53-4.53-4.53"/>
<path style="&st11;" d="M315.75,483.87c-2.5,0-4.53,2.03-4.53,4.53"/>
<path style="&st11;" d="M311.22,488.4c0,2.51,2.03,4.53,4.53,4.53"/>
<path style="&st11;" d="M315.75,492.93c2.51,0,4.53-2.02,4.53-4.53"/>
<path style="&st11;" d="M355.43,488.4c0-2.5-2.02-4.53-4.53-4.53"/>
<path style="&st11;" d="M350.91,483.87c-2.5,0-4.53,2.03-4.53,4.53"/>
<path style="&st11;" d="M346.38,488.4c0,2.51,2.03,4.53,4.53,4.53"/>
<path style="&st11;" d="M350.91,492.93c2.51,0,4.53-2.02,4.53-4.53"/>
<path style="&st11;" d="M320.28,461.76c0-2.51-2.02-4.54-4.53-4.54"/>
<path style="&st11;" d="M315.75,457.22c-2.5,0-4.53,2.03-4.53,4.54"/>
<path style="&st11;" d="M311.22,461.76c0,2.5,2.03,4.53,4.53,4.53"/>
<path style="&st11;" d="M315.75,466.29c2.51,0,4.53-2.03,4.53-4.53"/>
<path style="&st11;" d="M355.43,461.76c0-2.51-2.02-4.54-4.53-4.54"/>
<path style="&st11;" d="M350.91,457.22c-2.5,0-4.53,2.03-4.53,4.54"/>
<path style="&st11;" d="M346.38,461.76c0,2.5,2.03,4.53,4.53,4.53"/>
<path style="&st11;" d="M350.91,466.29c2.51,0,4.53-2.03,4.53-4.53"/>
<text transform="matrix(1 0 0 1 313.4238 490.3667)"><tspan x="0" y="0" style="&st30; &st18;">B</tspan></text>
<text transform="matrix(1 0 0 1 305.376 490.3569)"><tspan x="0" y="0" style="&st30; &st18;">4</tspan></text>
<text transform="matrix(1 0 0 1 348.5752 490.3667)"><tspan x="0" y="0" style="&st30; &st18;">B</tspan></text>
<text transform="matrix(1 0 0 1 313.4238 463.728)"><tspan x="0" y="0" style="&st30; &st18;">A</tspan></text>
<text transform="matrix(1 0 0 1 305.376 463.7183)"><tspan x="0" y="0" style="&st30; &st18;">4</tspan></text>
<text transform="matrix(1 0 0 1 348.5752 463.728)"><tspan x="0" y="0" style="&st30; &st18;">A</tspan></text>
<text transform="matrix(1 0 0 1 340.5273 463.7183)"><tspan x="0" y="0" style="&st30; &st18;">3</tspan></text>
<text transform="matrix(1 0 0 1 340.5273 490.3569)"><tspan x="0" y="0" style="&st30; &st18;">3</tspan></text>
<text ewd:textID='30' transform='matrix(0 -1 1 0 374.4082 486.3862)' style='&st10; &st30; &st18;'>Short Connector</text>
<text transform="matrix(0 -1 1 0 367.2988 486.3862)"><tspan x="0" y="0" style="&st30; &st18;">A47(A),A48(B)</tspan></text>
</g>
<g ewd:code="A72" ewd:figID="4" ewd:figtype="conn">
<path style="&st11;" d="M306.97,369.63V396h142.78v-26.36H306.97"/>
<path style="&st16;" d="M404.62,377.42l-0.27,0.47l-0.09,0.53l0.09,0.53l0.27,0.47l0.42,0.35l0.5,0.19h0.55l0.5-0.19l0.42-0.35l0.27-0.47l0.09-0.53l-0.09-0.53l-0.27-0.47l-0.42-0.35l-0.5-0.19h-0.55l-0.5,0.19L404.62,377.42l0.4,0.71v0.58l0.37,0.45l0.57,0.1l0.51-0.29l0.19-0.55l-0.19-0.55l-0.51-0.29l-0.57,0.1l0.42,0.74"/>
<path style="&st16;" d="M439.77,386.21l-0.27,0.47l-0.09,0.53l0.09,0.53l0.27,0.47l0.42,0.35l0.5,0.19h0.55l0.5-0.19l0.42-0.35l0.27-0.47l0.09-0.53l-0.09-0.53l-0.27-0.47l-0.42-0.35l-0.5-0.19h-0.55l-0.5,0.19L439.77,386.21l0.4,0.71v0.58l0.37,0.45l0.57,0.1l0.51-0.29l0.19-0.55l-0.19-0.55l-0.51-0.29l-0.57,0.1l0.42,0.74"/>
<path style="&st36;" d="M405.81,369.63V396"/>
<path style="&st36;" d="M440.96,369.63V396"/>
<path style="&st36;" d="M405.81,378.42h-90.05V396"/>
<path style="&st36;" d="M440.96,387.21H350.9V396"/>
<text transform="matrix(1 0 0 1 430.5859 365.9448)"><tspan x="0" y="0" style="&st30; &st18;">20</tspan></text>
<text transform="matrix(1 0 0 1 398.7754 365.9448)"><tspan x="0" y="0" style="&st30; &st18;">9</tspan></text>
<text ewd:textID='19' transform='matrix(0 -1 1 0 464.4678 398.5151)' style='&st10; &st30; &st18;'>Junction Connector</text>
<text transform="matrix(0 -1 1 0 457.3584 398.5151)"><tspan x="0" y="0" style="&st30; &st18;">A72</tspan></text>
<text transform="matrix(1 0 0 1 305.8252 404.1958)"><tspan x="0" y="0" style="&st30; &st18;">1</tspan></text>
<text transform="matrix(1 0 0 1 308.7168 404.1958)"><tspan x="0" y="0" style="&st30; &st18;">1</tspan></text>
<text transform="matrix(1 0 0 1 340.5303 404.1958)"><tspan x="0" y="0" style="&st30; &st18;">22</tspan></text>
<text transform="matrix(1 0 0 1 395.4336 404.1958)"><tspan x="0" y="0" style="&st30; &st18;">10</tspan></text>
<text transform="matrix(1 0 0 1 430.5811 404.1958)"><tspan x="0" y="0" style="&st30; &st18;">21</tspan></text>
</g>
<g ewd:code="A7" ewd:figID="23" ewd:figtype="conn">
<path style="&st11;" d="M246.97,582.11v33.99h212.47v-33.99H246.97"/>
<text transform="matrix(1 0 0 1 305.7539 579.1069)" style="&st10;"><tspan x="0" y="0" style="&st30; &st18;">11</tspan></text>
<text transform="matrix(1 0 0 1 339.9043 580.1069)" style="&st10;"><tspan x="0" y="0" style="&st30; &st18;">25</tspan></text>
<text transform="matrix(1 0 0 1 257.1797 624.2964)" style="&st10;"><tspan x="0" y="0" style="&st30; &st18;">4</tspan></text>
<text transform="matrix(1 0 0 1 406.9785 624.2964)" style="&st10;"><tspan x="0" y="0" style="&st30; &st18;">19</tspan></text>
<text transform="matrix(1 0 0 1 333.6699 624.2964)" style="&st10;"><tspan x="0" y="0" style="&st30; &st18;">3</tspan></text>
<text transform="matrix(1 0 0 1 380.709 624.2964)" style="&st10;"><tspan x="0" y="0" style="&st30; &st18;">20</tspan></text>
<text transform="matrix(1 0 0 1 305 624.2964)" style="&st10;"><tspan x="0" y="0" style="&st30; &st18;">17</tspan></text>
<text transform="matrix(1 0 0 1 279.5 624.2964)" style="&st10;"><tspan x="0" y="0" style="&st30; &st18;">18</tspan></text>
<text transform="matrix(1 0 0 1 435.6484 624.2964)" style="&st10;"><tspan x="0" y="0" style="&st30; &st18;">5</tspan></text>
<text transform="matrix(1 0 0 1 359.1699 624.2964)" style="&st10;"><tspan x="0" y="0" style="&st30; &st18;">6</tspan></text>
<text transform="matrix(1 0 0 1 283.3594 612.4058)" style="&st10;"><tspan x="0" y="0" style="&st30; &st18;">FL+</tspan></text>
<text transform="matrix(1 0 0 1 257.8594 612.4058)" style="&st10;"><tspan x="0" y="0" style="&st30; &st18;">FL-</tspan></text>
<text transform="matrix(1 0 0 1 384.9883 612.4058)" style="&st10;"><tspan x="0" y="0" style="&st30; &st18;">RL+</tspan></text>
<text transform="matrix(1 0 0 1 359.4883 612.4058)" style="&st10;"><tspan x="0" y="0" style="&st30; &st18;">RL-</tspan></text>
<text transform="matrix(1 0 0 1 435.4785 612.4058)" style="&st10;"><tspan x="0" y="0" style="&st30; &st18;">RR+</tspan></text>
<text transform="matrix(1 0 0 1 409.9883 612.4058)" style="&st10;"><tspan x="0" y="0" style="&st30; &st18;">RR-</tspan></text>
<text transform="matrix(1 0 0 1 333.8496 612.4058)" style="&st10;"><tspan x="0" y="0" style="&st30; &st18;">FR+</tspan></text>
<text transform="matrix(1 0 0 1 308.3594 612.4058)" style="&st10;"><tspan x="0" y="0" style="&st30; &st18;">FR-</tspan></text>
<text ewd:textID='11' transform='matrix(0 -1 1 0 474.1563 618.6147)' style='&st10; &st30; &st18;'>Brake Actuator <tspan x='0' y='7' >Assembly</tspan></text>
<text transform="matrix(0 -1 1 0 467.0469 618.6147)" style="&st10;"><tspan x="0" y="0" style="&st30; &st18;">A7</tspan></text>
<text transform="matrix(1 0 0 1 308.5039 589.7358)" style="&st10;"><tspan x="0" y="0" style="&st30; &st18;">CANH</tspan></text>
<text transform="matrix(1 0 0 1 343.0039 589.7358)" style="&st10;"><tspan x="0" y="0" style="&st30; &st18;">CANL</tspan></text>
</g>
<text transform="matrix(0 -1 1 0 91.3242 134.98)" style="&st10;"><tspan x="0" y="0" style="&st30; &st18;">L</tspan></text>
<text transform="matrix(0 -1 1 0 61.3125 189.647)" style="&st10;"><tspan x="0" y="0" style="&st30; &st18;">L</tspan></text>
<text transform="matrix(0 -1 1 0 30.8066 342.478)" style="&st10;"><tspan x="0" y="0" style="&st30; &st18;">W-B</tspan></text>
<text transform="matrix(0 -1 1 0 93.6992 341.478)" style="&st10;"><tspan x="0" y="0" style="&st30; &st18;">SB</tspan></text>
<text transform="matrix(0 -1 1 0 170.1797 337.478)" style="&st10;"><tspan x="0" y="0" style="&st30; &st18;">P</tspan></text>
<text transform="matrix(0 -1 1 0 30.8066 565.7808)" style="&st10;"><tspan x="0" y="0" style="&st30; &st18;">W-B</tspan></text>
<text transform="matrix(0 -1 1 0 30.8066 219.9805)" style="&st10;"><tspan x="0" y="0" style="&st30; &st18;">L</tspan></text>
<text transform="matrix(1 0 0 1 181.4873 244.5049)" style="&st10;"><tspan x="0" y="0" style="&st30; &st18;">(M/T)</tspan></text>
<text transform="matrix(1 0 0 1 181.4873 234.7686)" style="&st10;"><tspan x="0" y="0" style="&st30; &st18;">(A/T)</tspan></text>
<text transform="matrix(1 0 0 1 181.4873 311.145)" style="&st10;"><tspan x="0" y="0" style="&st30; &st18;">(A/T)</tspan></text>
<text transform="matrix(1 0 0 1 181.4873 302.0752)" style="&st10;"><tspan x="0" y="0" style="&st30; &st18;">(M/T)</tspan></text>
<text transform="matrix(0 -1 1 0 437.2598 338.1431)"><tspan x="0" y="0" style="&st30; &st18;">W</tspan></text>
<text transform="matrix(0 -1 1 0 402.1123 337.478)"><tspan x="0" y="0" style="&st30; &st18;">B</tspan></text>
<text transform="matrix(0 -1 1 0 437.2598 265.8047)"><tspan x="0" y="0" style="&st30; &st18;">W</tspan></text>
<text transform="matrix(0 -1 1 0 402.1123 264.9741)"><tspan x="0" y="0" style="&st30; &st18;">B</tspan></text>
<text transform="matrix(0 -1 1 0 312.2109 540.9155)"><tspan x="0" y="0" style="&st30; &st18;">R</tspan></text>
<text transform="matrix(0 -1 1 0 312.2109 434.5425)"><tspan x="0" y="0" style="&st30; &st18;">R</tspan></text>
<text transform="matrix(0 -1 1 0 347.3613 540.9155)"><tspan x="0" y="0" style="&st30; &st18;">W</tspan></text>
<text transform="matrix(0 -1 1 0 287.7783 210.896)"><tspan x="0" y="0" style="&st30; &st18;">W</tspan></text>
<text transform="matrix(0 -1 1 0 355.6494 211.7266)"><tspan x="0" y="0" style="&st30; &st18;">W</tspan></text>
<text transform="matrix(0 -1 1 0 320.502 210.896)"><tspan x="0" y="0" style="&st30; &st18;">P</tspan></text>
<text transform="matrix(0 -1 1 0 262.0586 210.896)"><tspan x="0" y="0" style="&st30; &st18;">R</tspan></text>
<text transform="matrix(0 -1 1 0 170.1812 210.896)"><tspan x="0" y="0" style="&st30; &st18;">R</tspan></text>
<text transform="matrix(0 -1 1 0 136.1938 210.896)"><tspan x="0" y="0" style="&st30; &st18;">W</tspan></text>
<text transform="matrix(0 -1 1 0 402.1064 482.7085)"><tspan x="0" y="0" style="&st30; &st18;">LG</tspan></text>
<text transform="matrix(0 -1 1 0 437.2529 481.5366)"><tspan x="0" y="0" style="&st30; &st18;">W</tspan></text>
<text transform="matrix(0 -1 1 0 347.3613 435.3726)"><tspan x="0" y="0" style="&st30; &st18;">W</tspan></text>
<text transform="matrix(0 -1 1 0 402.1045 436.5444)"><tspan x="0" y="0" style="&st30; &st18;">LG</tspan></text>
<text transform="matrix(0 -1 1 0 437.252 435.3726)"><tspan x="0" y="0" style="&st30; &st18;">W</tspan></text>
<text transform="matrix(1 0 0 1 494.2471 221.2798)"><tspan x="0" y="0" style="&st30; &st18;">W</tspan></text>
<text transform="matrix(1 0 0 1 496.7393 191.2798)"><tspan x="0" y="0" style="&st30; &st18;">B</tspan></text>
<text transform="matrix(1 0 0 1 491.9063 527.7368)"><tspan x="0" y="0" style="&st30; &st18;">LG</tspan></text>
<text transform="matrix(1 0 0 1 495.0781 497.7368)"><tspan x="0" y="0" style="&st30; &st18;">W</tspan></text>
<text transform="matrix(1 0 0 1 494.2471 161.4175)"><tspan x="0" y="0" style="&st30; &st18;">W</tspan></text>
<text transform="matrix(1 0 0 1 496.7393 131.4175)"><tspan x="0" y="0" style="&st30; &st18;">P</tspan></text>
<text transform="matrix(0 -1 1 0 285.7695 642.0659)" style="&st10;"><tspan x="0" y="0" style="&st30; &st18;">R</tspan></text>
<text transform="matrix(0 -1 1 0 260.2793 642.3452)" style="&st10;"><tspan x="0" y="0" style="&st30; &st18;">G</tspan></text>
<text transform="matrix(0 -1 1 0 387.7598 642.0659)" style="&st10;"><tspan x="0" y="0" style="&st30; &st18;">R</tspan></text>
<text transform="matrix(0 -1 1 0 362.2598 642.3452)" style="&st10;"><tspan x="0" y="0" style="&st30; &st18;">G</tspan></text>
<text transform="matrix(0 -1 1 0 438.75 641.9253)" style="&st10;"><tspan x="0" y="0" style="&st30; &st18;">B</tspan></text>
<text transform="matrix(0 -1 1 0 413.25 642.9565)" style="&st10;"><tspan x="0" y="0" style="&st30; &st18;">W</tspan></text>
<text transform="matrix(0 -1 1 0 311.2695 641.5757)" style="&st10;"><tspan x="0" y="0" style="&st30; &st18;">L</tspan></text>
<text transform="matrix(0 -1 1 0 336.7598 641.9253)" style="&st10;"><tspan x="0" y="0" style="&st30; &st18;">P</tspan></text>
<text ewd:textID='31' transform='matrix(1 0 0 1 328.7988 691.9761)' style='&st10; &st30; &st18;'>Speed Sensors</text>
</svg>
