﻿<?xml version="1.0" encoding="UTF-8"?>
<!DOCTYPE svg PUBLIC "-//W3C//DTD SVG 1.0//EN" "http://www.w3.org/TR/2001/REC-SVG-20010904/DTD/svg10.dtd"[
<!ENTITY ns_flows "http://ns.adobe.com/Flows/1.0/">
<!ENTITY ns_svg "http://www.w3.org/2000/svg">
<!ENTITY ns_xlink "http://www.w3.org/1999/xlink">
	<!ENTITY st0 "fill:none;stroke:#F8E616;stroke-width:5.1;stroke-linejoin:round;">
	<!ENTITY st1 "fill:none;stroke:#FB0F0C;stroke-width:5.1;stroke-linejoin:round;">
	<!ENTITY st2 "fill:none;stroke:#9A9999;stroke-width:5.1;stroke-linejoin:round;">
	<!ENTITY st3 "fill:none;stroke:#99280B;stroke-width:5.1;stroke-linejoin:round;">
		<!ENTITY st4 "fill:none;stroke:#000000;stroke-width:0.85;stroke-linecap:round;stroke-linejoin:round;stroke-dasharray:3 1.5;enable-background:new    ;">
	<!ENTITY st5 "fill:none;stroke:#000000;stroke-width:5.1;stroke-linejoin:round;">
	<!ENTITY st6 "fill:none;stroke:#000000;stroke-linecap:round;stroke-linejoin:round;">
	<!ENTITY st7 "fill:none;stroke:#000000;stroke-width:4.54;stroke-linejoin:round;">
	<!ENTITY st8 "fill:#1D63A2;">
	<!ENTITY st9 "stroke:#000000;stroke-width:0.28;stroke-linecap:round;stroke-linejoin:round;enable-background:new    ;">
	<!ENTITY st10 "enable-background:new    ;">
		<!ENTITY st11 "fill:none;stroke:#000000;stroke-width:1.42;stroke-linecap:round;stroke-linejoin:round;enable-background:new    ;">
	<!ENTITY st12 "fill:none;stroke:#EE67AA;stroke-width:5.1;stroke-linejoin:round;">
	<!ENTITY st13 "fill:none;stroke:#199DBF;stroke-width:5.1;stroke-linejoin:round;">
	<!ENTITY st14 "opacity:0.5;fill:none;stroke:#34ACCE;stroke-linejoin:round;stroke-dasharray:6;">
	<!ENTITY st15 "fill:none;stroke:#FFFFFF;stroke-width:4.53;stroke-linejoin:round;">
		<!ENTITY st16 "fill:#CFE6E7;stroke:#000000;stroke-width:1.133;stroke-linecap:round;stroke-linejoin:round;enable-background:new    ;">
	<!ENTITY st17 "fill:#F6140D;">
		<!ENTITY st18 "fill:none;stroke:#000000;stroke-width:0.85;stroke-linecap:round;stroke-linejoin:round;enable-background:new    ;">
	<!ENTITY st19 "fill:none;stroke:#56107C;stroke-width:5.1;stroke-linejoin:round;">
	<!ENTITY st20 "font-size:6px;">
	<!ENTITY st21 "fill:none;stroke:#FFFFFF;stroke-width:2.27;stroke-linejoin:round;">
	<!ENTITY st22 "fill:none;stroke:#FB0F0C;stroke-width:1.13;stroke-linejoin:round;">
	<!ENTITY st23 "fill:none;stroke:#168638;stroke-width:5.1;stroke-linejoin:round;">
	<!ENTITY st24 "fill:none;stroke:#000000;stroke-width:1.13;stroke-linejoin:round;">
		<!ENTITY st25 "fill:none;stroke:#000000;stroke-width:1.13;stroke-linecap:round;stroke-linejoin:round;stroke-dasharray:3 1.5;enable-background:new    ;">
	<!ENTITY st26 "fill:#FFFFFF;stroke:#000000;stroke-width:1.41;stroke-linecap:round;stroke-linejoin:round;">
	<!ENTITY st27 "fill:none;stroke:#3E65AC;stroke-width:3;">
	<!ENTITY st28 "display:inline;">
	<!ENTITY st29 "fill:#CCCCCC;stroke:#CCCCCC;stroke-width:0.1;stroke-linecap:round;stroke-linejoin:round;">
	<!ENTITY st30 "stroke:#FFFFFF;stroke-width:2;">
	<!ENTITY st31 "fill:none;stroke:#000000;stroke-width:1.42;stroke-linejoin:round;">
	<!ENTITY st32 "font-family:'Arial';">
	<!ENTITY st33 "opacity:0.5;fill:none;stroke:#34ACCE;stroke-linejoin:round;">
	<!ENTITY st34 "fill:none;stroke:#000000;stroke-width:1.42;stroke-linecap:round;stroke-linejoin:round;">
	<!ENTITY st35 "fill:#CFE6E7;stroke:#000000;stroke-width:1.133;stroke-linecap:round;stroke-linejoin:round;">
	<!ENTITY st36 "font-size:12px;">
	<!ENTITY st37 "fill:none;stroke:#FFFFFF;stroke-width:1.7;">
	<!ENTITY st38 "fill:none;stroke:#99D5E0;stroke-width:5.1;stroke-linejoin:round;">
	<!ENTITY st39 "fill:none;stroke:#000000;stroke-width:0.85;stroke-linecap:round;stroke-linejoin:round;stroke-dasharray:3 1.5;">
	<!ENTITY st40 "display:none;">
	<!ENTITY st41 "fill:#CFE6E7;stroke:#000000;stroke-width:1.13;stroke-linejoin:round;">
	<!ENTITY st42 "fill:none;stroke:#000000;stroke-width:0.85;stroke-linecap:round;stroke-linejoin:round;">
	<!ENTITY st43 "fill:none;stroke:#7EC57E;stroke-width:5.1;stroke-linejoin:round;">
<!ATTLIST svg
xmlns:ewd CDATA #FIXED "http://shcl.co.jp/ewd"
xmlns:a CDATA #FIXED "http://ns.adobe.com/AdobeSVGViewerExtensions/3.0/"
ewd:ver CDATA #IMPLIED
>
<!ATTLIST a
ewd:lineID CDATA #IMPLIED
ewd:groupID CDATA #IMPLIED
ewd:figtype CDATA #IMPLIED
ewd:code CDATA #IMPLIED
ewd:figID CDATA #IMPLIED
ewd:pinNo CDATA #IMPLIED
ewd:comment CDATA #IMPLIED >
<!ATTLIST g
ewd:lineID CDATA #IMPLIED
ewd:groupID CDATA #IMPLIED
ewd:figtype CDATA #IMPLIED
ewd:code CDATA #IMPLIED
ewd:figID CDATA #IMPLIED
ewd:pinNo CDATA #IMPLIED
ewd:comment CDATA #IMPLIED >
<!ATTLIST text
ewd:textID CDATA #IMPLIED >
<!ATTLIST title
ewd:textID CDATA #IMPLIED >
]>
<svg 
viewBox='0 0 13481.66 729.44'
height='729.44'
width='13481.66'
xml:space="preserve"
xmlns="&ns_svg;"
xmlns:ewd="http://shcl.co.jp/ewd"
xmlns:xlink="&ns_xlink;" ewd:ver="L2.1">
<g ewd:code="JG2" ewd:figID="703" ewd:figtype="w2w" ewd:pinNo="12">
<path style="&st11;" d="M11194.57,252h-8.5"/>
<path style="&st11;" d="M11190.32,261.07l-4.25-4.25l-4.25,4.25"/>
<path style="&st11;" d="M11190.32,257.67l-4.25-4.25l-4.25,4.25"/>
<text transform="matrix(1 0 0 1 11167.8955 249.7241)" style="&st10;"><tspan x="0" y="0" style="&st32; &st20;">12</tspan></text>
</g>
<g ewd:code="JG3" ewd:figID="702" ewd:figtype="w2w" ewd:pinNo="8">
<path style="&st11;" d="M11067.09,230.76v4.25"/>
<path style="&st11;" d="M11076.15,239.26l-4.25-4.25l4.25-4.25"/>
<path style="&st11;" d="M11072.75,239.26l-4.25-4.25l4.25-4.25"/>
<text transform="matrix(1 0 0 1 11056.9209 227.7739)" style="&st10;"><tspan x="0" y="0" style="&st32; &st20;">8</tspan></text>
</g>
<g ewd:code="FUSE38" ewd:figID="410" ewd:figtype="rb">
<path style="&st6;" d="M11419.78,107.53v42.49h25.5v-42.49H11419.78"/>
<path style="&st18;" d="M11432.53,141.52v25.5"/>
<path style="&st11;" d="M11434.65,167.02h-4.24"/>
<path style="&st11;" d="M11434.65,175.52h-4.24"/>
<path style="&st9;" d="M11432.53,162.12l-2.84-2.83v4.25l2.84,2.83l2.83-2.83v-4.25L11432.53,162.12"/>
<path style="&st11;" d="M11419.78,107.53v42.49h25.49v-42.49H11419.78"/>
<path style="&st11;" d="M11432.53,118.86c-2.74,1.61-3.65,5.14-2.04,7.88"/>
<path style="&st11;" d="M11430.49,126.74c0.52,0.88,1.16,1.51,2.04,2.03"/>
<path style="&st11;" d="M11432.53,138.69c2.74-1.61,3.65-5.14,2.04-7.88"/>
<path style="&st11;" d="M11434.57,130.81c-0.52-0.88-1.16-1.52-2.04-2.04"/>
<path style="&st18;" d="M11433.95,117.44c0-0.78-0.64-1.41-1.42-1.41"/>
<path style="&st18;" d="M11432.53,116.03c-0.78,0-1.42,0.63-1.42,1.41"/>
<path style="&st18;" d="M11431.11,117.44c0,0.79,0.64,1.42,1.42,1.42"/>
<path style="&st18;" d="M11432.53,118.86c0.78,0,1.42-0.63,1.42-1.42"/>
<path style="&st18;" d="M11433.95,140.11c0-0.79-0.64-1.42-1.42-1.42"/>
<path style="&st18;" d="M11432.53,138.69c-0.78,0-1.42,0.63-1.42,1.42"/>
<path style="&st18;" d="M11431.11,140.11c0,0.78,0.64,1.41,1.42,1.41"/>
<path style="&st18;" d="M11432.53,141.52c0.78,0,1.42-0.63,1.42-1.41"/>
<path style="&st11;" d="M11430.41,167.02c-2.35,0-4.25,1.9-4.25,4.25"/>
<path style="&st11;" d="M11426.16,171.27c0,2.34,1.9,4.25,4.25,4.25"/>
<path style="&st11;" d="M11434.65,175.52c2.35,0,4.25-1.91,4.25-4.25"/>
<path style="&st11;" d="M11438.9,171.27c0-2.35-1.9-4.25-4.25-4.25"/>
<text transform="matrix(1 0 0 1 11449.8408 125.0942)" style="&st10;"><tspan x="0" y="0" style="&st32; &st20;">25A</tspan></text>
<text transform="matrix(1 0 0 1 11449.8408 131.0942)" style="&st10;"><tspan x="0" y="0" style="&st32; &st20;">D/L</tspan></text>
<text transform="matrix(1 0 0 1 11449.8408 137.0942)" style="&st10;"><tspan x="0" y="0" style="&st32; &st20;">NO.1</tspan></text>
<text transform="matrix(1 0 0 1 11430.9404 173.2437)" style="&st10;"><tspan x="0" y="0" style="&st32; &st20;">1</tspan></text>
<text transform="matrix(1 0 0 1 11425.7412 158.2144)" style="&st10;"><tspan x="0" y="0" style="&st32; &st20;">2</tspan></text>
<text transform="matrix(1 0 0 1 11423.4209 103.8335)" style="&st10;"><tspan x="0" y="0" style="&st32; &st20;">(BAT)</tspan></text>
</g>
<g ewd:code="2" ewd:figID="329" ewd:figtype="jb">
<path style="&st6;" d="M11555.76,107.53v42.49h25.5v-42.49H11555.76"/>
<path style="&st11;" d="M12208.03,243.51h-4.25"/>
<path style="&st11;" d="M12208.03,252h-4.25"/>
<path style="&st11;" d="M11543.01,202.43l5.67-22.66"/>
<path style="&st18;" d="M11543.01,205.26v4.25"/>
<path style="&st18;" d="M11551.51,192.51h-2.83"/>
<path style="&st18;" d="M11543.01,175.52v4.25"/>
<path style="&st18;" d="M11517.52,175.52v8.5"/>
<path style="&st18;" d="M11517.52,201.01v8.5"/>
<path style="&st11;" d="M11729.98,151.44l5.67-22.67"/>
<path style="&st18;" d="M11729.98,154.27v4.25"/>
<path style="&st18;" d="M11738.48,141.52h-2.83"/>
<path style="&st18;" d="M11729.98,124.53v4.24"/>
<path style="&st18;" d="M11704.48,124.53v8.49"/>
<path style="&st18;" d="M11704.48,150.02v8.5"/>
<path style="&st11;" d="M11848.96,151.44l5.67-22.67"/>
<path style="&st18;" d="M11848.96,154.27v4.25"/>
<path style="&st18;" d="M11857.46,141.52h-2.83"/>
<path style="&st18;" d="M11848.96,124.53v4.24"/>
<path style="&st18;" d="M11823.46,124.53v8.49"/>
<path style="&st18;" d="M11823.46,150.02v8.5"/>
<path style="&st11;" d="M12027.43,151.44l5.67-22.67"/>
<path style="&st18;" d="M12027.43,154.27v4.25"/>
<path style="&st18;" d="M12035.93,141.52h-2.83"/>
<path style="&st18;" d="M12027.43,124.53v4.24"/>
<path style="&st18;" d="M12001.93,124.53v8.49"/>
<path style="&st18;" d="M12001.93,150.02v8.5"/>
<path style="&st11;" d="M11995.56,243.51h-4.25"/>
<path style="&st11;" d="M11995.56,252h-4.25"/>
<path style="&st11;" d="M12029.56,243.51h-4.25"/>
<path style="&st11;" d="M12029.56,252h-4.25"/>
<path style="&st11;" d="M11851.09,243.51h-4.25"/>
<path style="&st11;" d="M11851.09,252h-4.25"/>
<path style="&st11;" d="M11732.11,243.51h-4.25"/>
<path style="&st11;" d="M11732.11,252h-4.25"/>
<path style="&st11;" d="M11698.11,243.51h-4.25"/>
<path style="&st11;" d="M11698.11,252h-4.25"/>
<path style="&st11;" d="M11477.15,243.51h-4.25"/>
<path style="&st11;" d="M11477.15,252h-4.25"/>
<path style="&st11;" d="M11766.1,243.51h-4.25"/>
<path style="&st11;" d="M11766.1,252h-4.25"/>
<path style="&st11;" d="M12063.55,243.51h-4.25"/>
<path style="&st11;" d="M12063.55,252h-4.25"/>
<path style="&st9;" d="M12205.9,238.61l-2.84-2.83v4.25l2.84,2.83l2.83-2.83v-4.25L12205.9,238.61"/>
<path style="&st18;" d="M12205.9,243.51V82.03"/>
<path style="&st18;" d="M11517.51,175.52v-8.5h-42.49v76.49"/>
<path style="&st18;" d="M11517.51,167.02h25.5v8.5"/>
<path style="&st11;" d="M11551.51,175.52h-42.5v33.99h42.5V175.52"/>
<path style="&st18;" d="M11551.51,192.51h16.99v-50.99"/>
<path style="&st11;" d="M11555.75,107.53v42.49h25.5v-42.49H11555.75"/>
<path style="&st11;" d="M11738.47,124.53h-42.49v33.99h42.49V124.53"/>
<path style="&st18;" d="M12204.7,208.51l-0.27,0.47l-0.09,0.53l0.09,0.53l0.27,0.47l0.42,0.35l0.5,0.19h0.55l0.5-0.19l0.42-0.35l0.27-0.47l0.09-0.53l-0.09-0.53l-0.27-0.47l-0.42-0.35l-0.5-0.18h-0.55l-0.5,0.18L12204.7,208.51l0.4,0.71v0.58l0.37,0.45l0.57,0.1l0.51-0.29l0.2-0.55l-0.2-0.55l-0.51-0.28l-0.57,0.09l0.43,0.74"/>
<path style="&st11;" d="M11857.45,124.53h-42.49v33.99h42.49V124.53"/>
<path style="&st11;" d="M12035.92,124.53h-42.49v33.99h42.49V124.53"/>
<path style="&st18;" d="M11823.46,124.53v-17"/>
<path style="&st18;" d="M11704.48,124.53v-17"/>
<path style="&st18;" d="M11704.48,107.53h322.95v17"/>
<path style="&st18;" d="M11848.96,124.53v-17"/>
<path style="&st18;" d="M11729.98,124.53v-17"/>
<path style="&st18;" d="M11704.48,158.52v17h67.99V82.03"/>
<path style="&st18;" d="M11823.46,158.52v17h59.49V82.03"/>
<path style="&st18;" d="M12001.93,158.52v17h59.49V82.03"/>
<path style="&st18;" d="M12205.9,209.51h-161.48v-67.99h-8.5"/>
<path style="&st18;" d="M11857.45,141.52h8.5v67.99"/>
<path style="&st18;" d="M11738.47,141.52h17v67.99"/>
<path style="&st18;" d="M11516.32,166.02l-0.27,0.47l-0.1,0.53l0.1,0.53l0.27,0.47l0.41,0.35l0.51,0.18h0.54l0.51-0.18l0.41-0.35l0.28-0.47l0.09-0.53l-0.09-0.53l-0.28-0.47l-0.41-0.35l-0.51-0.19h-0.54l-0.51,0.19L11516.32,166.02l0.39,0.71v0.58l0.38,0.44l0.57,0.1l0.5-0.29l0.2-0.54l-0.2-0.55l-0.5-0.29l-0.57,0.1l0.42,0.74"/>
<path style="&st18;" d="M11822.27,106.53L11822,107l-0.1,0.53l0.1,0.53l0.27,0.47l0.41,0.35l0.51,0.18h0.54l0.51-0.18l0.41-0.35l0.27-0.47l0.1-0.53l-0.1-0.53l-0.27-0.47l-0.41-0.35l-0.51-0.19h-0.54l-0.51,0.19L11822.27,106.53l0.39,0.71v0.58l0.37,0.44l0.58,0.1l0.5-0.29l0.2-0.54l-0.2-0.55l-0.5-0.29l-0.58,0.1l0.43,0.74"/>
<path style="&st18;" d="M11847.76,106.53l-0.27,0.47l-0.09,0.53l0.09,0.53l0.27,0.47l0.42,0.35l0.5,0.18h0.55l0.5-0.18l0.42-0.35l0.27-0.47l0.09-0.53l-0.09-0.53l-0.27-0.47l-0.42-0.35l-0.5-0.19h-0.55l-0.5,0.19L11847.76,106.53l0.4,0.71v0.58l0.37,0.44l0.57,0.1l0.51-0.29l0.2-0.54l-0.2-0.55l-0.51-0.29l-0.57,0.1l0.43,0.74"/>
<path style="&st18;" d="M11728.78,106.53l-0.27,0.47l-0.09,0.53l0.09,0.53l0.27,0.47l0.42,0.35l0.5,0.18h0.55l0.5-0.18l0.42-0.35l0.27-0.47l0.09-0.53l-0.09-0.53l-0.27-0.47l-0.42-0.35l-0.5-0.19h-0.55l-0.5,0.19L11728.78,106.53l0.4,0.71v0.58l0.37,0.44l0.57,0.1l0.51-0.29l0.2-0.54l-0.2-0.55l-0.51-0.29l-0.57,0.1l0.43,0.74"/>
<path style="&st18;" d="M12043.23,208.51l-0.27,0.47l-0.1,0.53l0.1,0.53l0.27,0.47l0.41,0.35l0.51,0.19h0.54l0.51-0.19l0.42-0.35l0.27-0.47l0.09-0.53l-0.09-0.53l-0.27-0.47l-0.42-0.35l-0.51-0.18h-0.54l-0.51,0.18L12043.23,208.51l0.39,0.71v0.58l0.38,0.45l0.57,0.1l0.5-0.29l0.2-0.55l-0.2-0.55l-0.5-0.28l-0.57,0.09l0.42,0.74"/>
<path style="&st18;" d="M11864.76,208.51l-0.27,0.47l-0.1,0.53l0.1,0.53l0.27,0.47l0.41,0.35l0.51,0.19h0.54l0.51-0.19l0.42-0.35l0.27-0.47l0.09-0.53l-0.09-0.53l-0.27-0.47l-0.42-0.35l-0.51-0.18h-0.54l-0.51,0.18L11864.76,208.51l0.39,0.71v0.58l0.38,0.45l0.57,0.1l0.5-0.29l0.2-0.55l-0.2-0.55l-0.5-0.28l-0.57,0.09l0.42,0.74"/>
<path style="&st9;" d="M11993.43,238.61l-2.83-2.83v4.25l2.83,2.83l2.83-2.83v-4.25L11993.43,238.61"/>
<path style="&st9;" d="M12027.43,238.61l-2.84-2.83v4.25l2.84,2.83l2.83-2.83v-4.25L12027.43,238.61"/>
<path style="&st9;" d="M11848.96,238.61l-2.84-2.83v4.25l2.84,2.83l2.83-2.83v-4.25L11848.96,238.61"/>
<path style="&st9;" d="M11729.98,238.61l-2.84-2.83v4.25l2.84,2.83l2.83-2.83v-4.25L11729.98,238.61"/>
<path style="&st9;" d="M11695.98,238.61l-2.83-2.83v4.25l2.83,2.83l2.83-2.83v-4.25L11695.98,238.61"/>
<path style="&st18;" d="M12027.43,158.52v84.99"/>
<path style="&st18;" d="M11993.43,243.51v-17h67.99v17"/>
<path style="&st18;" d="M11848.96,158.52v84.99"/>
<path style="&st18;" d="M11695.98,243.51v-17h67.99v17"/>
<path style="&st18;" d="M12026.23,225.51l-0.27,0.47l-0.09,0.53l0.09,0.53l0.27,0.47l0.42,0.35l0.5,0.18h0.55l0.5-0.18l0.42-0.35l0.27-0.47l0.09-0.53l-0.09-0.53l-0.27-0.47l-0.42-0.35l-0.5-0.19h-0.55l-0.5,0.19L12026.23,225.51l0.4,0.71v0.58l0.37,0.44l0.57,0.1l0.51-0.28l0.2-0.55l-0.2-0.55l-0.51-0.29l-0.57,0.1l0.43,0.74"/>
<path style="&st18;" d="M11728.78,225.51l-0.27,0.47l-0.09,0.53l0.09,0.53l0.27,0.47l0.42,0.35l0.5,0.18h0.55l0.5-0.18l0.42-0.35l0.27-0.47l0.09-0.53l-0.09-0.53l-0.27-0.47l-0.42-0.35l-0.5-0.19h-0.55l-0.5,0.19L11728.78,225.51l0.4,0.71v0.58l0.37,0.44l0.57,0.1l0.51-0.28l0.2-0.55l-0.2-0.55l-0.51-0.29l-0.57,0.1l0.43,0.74"/>
<path style="&st18;" d="M12044.42,209.51h-288.95"/>
<path style="&st18;" d="M11517.51,209.51v25.5h144.48V82.03"/>
<path style="&st18;" d="M11543.01,209.51v8.5h93.48V107.53h67.99"/>
<path style="&st18;" d="M11729.98,158.52v84.99"/>
<path style="&st18;" d="M12001.93,107.53v17"/>
<path style="&st18;" d="M11703.29,106.53l-0.27,0.47l-0.1,0.53l0.1,0.53l0.27,0.47l0.41,0.35l0.51,0.18h0.54l0.51-0.18l0.41-0.35l0.27-0.47l0.1-0.53l-0.1-0.53l-0.27-0.47l-0.41-0.35l-0.51-0.19h-0.54l-0.51,0.19L11703.29,106.53l0.39,0.71v0.58l0.37,0.44l0.58,0.1l0.5-0.29l0.2-0.54l-0.2-0.55l-0.5-0.29l-0.58,0.1l0.43,0.74"/>
<path style="&st18;" d="M12000.74,106.53l-0.27,0.47l-0.1,0.53l0.1,0.53l0.27,0.47l0.41,0.35l0.51,0.18h0.54l0.51-0.18l0.41-0.35l0.27-0.47l0.1-0.53l-0.1-0.53l-0.27-0.47l-0.41-0.35l-0.51-0.19h-0.54l-0.51,0.19L12000.74,106.53l0.39,0.71v0.58l0.37,0.44l0.58,0.1l0.5-0.29l0.2-0.54l-0.2-0.55l-0.5-0.29l-0.58,0.1l0.43,0.74"/>
<path style="&st18;" d="M11568.5,192.51h50.99V82.03"/>
<path style="&st18;" d="M11567.31,191.51l-0.27,0.47l-0.1,0.53l0.1,0.54l0.27,0.47l0.41,0.34l0.51,0.19h0.54l0.51-0.19l0.42-0.34l0.27-0.47l0.09-0.54l-0.09-0.53l-0.27-0.47l-0.42-0.34l-0.51-0.19h-0.54l-0.51,0.19L11567.31,191.51l0.39,0.71v0.59l0.38,0.44l0.57,0.1l0.5-0.29l0.2-0.55l-0.2-0.54l-0.5-0.29l-0.57,0.1l0.42,0.73"/>
<path style="&st9;" d="M11475.02,238.61l-2.83-2.83v4.25l2.83,2.83l2.83-2.83v-4.25L11475.02,238.61"/>
<path style="&st9;" d="M11763.97,238.61l-2.83-2.83v4.25l2.83,2.83l2.83-2.83v-4.25L11763.97,238.61"/>
<path style="&st9;" d="M12061.42,238.61l-2.83-2.83v4.25l2.83,2.83l2.83-2.83v-4.25L12061.42,238.61"/>
<path style="&st11;" d="M12203.78,243.51c-2.35,0-4.25,1.9-4.25,4.24"/>
<path style="&st11;" d="M12199.53,247.75c0,2.35,1.9,4.25,4.25,4.25"/>
<path style="&st11;" d="M12208.03,252c2.34,0,4.24-1.9,4.24-4.25"/>
<path style="&st11;" d="M12212.27,247.75c0-2.34-1.9-4.24-4.24-4.24"/>
<path style="&st11;" d="M11568.51,138.69c2.74-1.61,3.65-5.14,2.03-7.88"/>
<path style="&st11;" d="M11570.54,130.81c-0.52-0.88-1.15-1.52-2.03-2.04"/>
<path style="&st11;" d="M11568.51,118.86c-2.74,1.61-3.65,5.14-2.04,7.88"/>
<path style="&st11;" d="M11566.47,126.74c0.52,0.88,1.16,1.51,2.04,2.03"/>
<path style="&st18;" d="M11569.92,117.44c0-0.78-0.63-1.41-1.41-1.41"/>
<path style="&st18;" d="M11568.51,116.03c-0.78,0-1.42,0.63-1.42,1.41"/>
<path style="&st18;" d="M11567.09,117.44c0,0.79,0.64,1.42,1.42,1.42"/>
<path style="&st18;" d="M11568.51,118.86c0.78,0,1.41-0.63,1.41-1.42"/>
<path style="&st18;" d="M11569.92,140.11c0-0.79-0.63-1.42-1.41-1.42"/>
<path style="&st18;" d="M11568.51,138.69c-0.78,0-1.42,0.63-1.42,1.42"/>
<path style="&st18;" d="M11567.09,140.11c0,0.78,0.64,1.41,1.42,1.41"/>
<path style="&st18;" d="M11568.51,141.52c0.78,0,1.41-0.63,1.41-1.41"/>
<path style="&st18;" d="M11548.68,192.51c0-0.78-0.64-1.41-1.42-1.41"/>
<path style="&st18;" d="M11547.26,191.1c-0.78,0-1.42,0.63-1.42,1.41"/>
<path style="&st18;" d="M11545.84,192.51c0,0.79,0.64,1.42,1.42,1.42"/>
<path style="&st18;" d="M11547.26,193.93c0.78,0,1.42-0.63,1.42-1.42"/>
<path style="&st18;" d="M11544.43,203.85c0-0.79-0.64-1.42-1.42-1.42"/>
<path style="&st18;" d="M11543.01,202.43c-0.78,0-1.41,0.63-1.41,1.42"/>
<path style="&st18;" d="M11541.6,203.85c0,0.78,0.63,1.41,1.41,1.41"/>
<path style="&st18;" d="M11543.01,205.26c0.78,0,1.42-0.63,1.42-1.41"/>
<path style="&st18;" d="M11544.43,181.18c0-0.78-0.64-1.41-1.42-1.41"/>
<path style="&st18;" d="M11543.01,179.77c-0.78,0-1.41,0.63-1.41,1.41"/>
<path style="&st18;" d="M11541.6,181.18c0,0.78,0.63,1.42,1.41,1.42"/>
<path style="&st18;" d="M11543.01,182.6c0.78,0,1.42-0.64,1.42-1.42"/>
<path style="&st18;" d="M11514.99,190.04c1.37,1.39,3.61,1.41,5,0.05"/>
<path style="&st18;" d="M11519.99,190.09c1.4-1.37,1.42-3.62,0.06-5.01"/>
<path style="&st18;" d="M11520.05,185.08c-0.7-0.71-1.54-1.07-2.53-1.07"/>
<path style="&st18;" d="M11514.99,194.99c1.37,1.4,3.61,1.42,5,0.05"/>
<path style="&st18;" d="M11519.99,195.04c1.4-1.37,1.42-3.61,0.06-5"/>
<path style="&st18;" d="M11520.05,190.04c-1.37-1.4-3.62-1.42-5.01-0.06"/>
<path style="&st18;" d="M11515.04,189.98c-0.02,0.02-0.04,0.04-0.05,0.06"/>
<path style="&st18;" d="M11517.52,201.01c1.95,0,3.54-1.58,3.54-3.54"/>
<path style="&st18;" d="M11521.06,197.47c0-1.95-1.59-3.54-3.54-3.54"/>
<path style="&st18;" d="M11517.52,193.93c-0.99,0-1.84,0.36-2.53,1.06"/>
<path style="&st18;" d="M11735.65,141.52c0-0.78-0.64-1.41-1.42-1.41"/>
<path style="&st18;" d="M11734.23,140.11c-0.78,0-1.42,0.63-1.42,1.41"/>
<path style="&st18;" d="M11732.81,141.52c0,0.78,0.64,1.42,1.42,1.42"/>
<path style="&st18;" d="M11734.23,142.94c0.78,0,1.42-0.64,1.42-1.42"/>
<path style="&st18;" d="M11731.4,152.85c0-0.78-0.64-1.41-1.42-1.41"/>
<path style="&st18;" d="M11729.98,151.44c-0.78,0-1.42,0.63-1.42,1.41"/>
<path style="&st18;" d="M11728.56,152.85c0,0.79,0.64,1.42,1.42,1.42"/>
<path style="&st18;" d="M11729.98,154.27c0.78,0,1.42-0.63,1.42-1.42"/>
<path style="&st18;" d="M11731.4,130.19c0-0.78-0.64-1.42-1.42-1.42"/>
<path style="&st18;" d="M11729.98,128.77c-0.78,0-1.42,0.64-1.42,1.42"/>
<path style="&st18;" d="M11728.56,130.19c0,0.78,0.64,1.42,1.42,1.42"/>
<path style="&st18;" d="M11729.98,131.61c0.78,0,1.42-0.64,1.42-1.42"/>
<path style="&st18;" d="M11701.95,139.04c1.37,1.4,3.62,1.42,5.01,0.05"/>
<path style="&st18;" d="M11706.96,139.09c1.4-1.36,1.42-3.61,0.05-5"/>
<path style="&st18;" d="M11707.01,134.09c-0.69-0.71-1.53-1.07-2.53-1.07"/>
<path style="&st18;" d="M11701.95,144c1.37,1.4,3.62,1.42,5.01,0.05"/>
<path style="&st18;" d="M11706.96,144.05c1.4-1.37,1.42-3.61,0.05-5.01"/>
<path style="&st18;" d="M11707.01,139.04c-1.36-1.39-3.61-1.42-5-0.05"/>
<path style="&st18;" d="M11702.01,138.99c-0.02,0.02-0.04,0.04-0.06,0.05"/>
<path style="&st18;" d="M11704.48,150.02c1.96,0,3.55-1.58,3.55-3.54"/>
<path style="&st18;" d="M11708.03,146.48c0-1.96-1.59-3.54-3.55-3.54"/>
<path style="&st18;" d="M11704.48,142.94c-0.99,0-1.83,0.35-2.52,1.06"/>
<path style="&st18;" d="M11854.63,141.52c0-0.78-0.64-1.41-1.42-1.41"/>
<path style="&st18;" d="M11853.21,140.11c-0.78,0-1.42,0.63-1.42,1.41"/>
<path style="&st18;" d="M11851.79,141.52c0,0.78,0.64,1.42,1.42,1.42"/>
<path style="&st18;" d="M11853.21,142.94c0.78,0,1.42-0.64,1.42-1.42"/>
<path style="&st18;" d="M11850.38,152.85c0-0.78-0.64-1.41-1.42-1.41"/>
<path style="&st18;" d="M11848.96,151.44c-0.78,0-1.42,0.63-1.42,1.41"/>
<path style="&st18;" d="M11847.54,152.85c0,0.79,0.64,1.42,1.42,1.42"/>
<path style="&st18;" d="M11848.96,154.27c0.78,0,1.42-0.63,1.42-1.42"/>
<path style="&st18;" d="M11850.38,130.19c0-0.78-0.64-1.42-1.42-1.42"/>
<path style="&st18;" d="M11848.96,128.77c-0.78,0-1.42,0.64-1.42,1.42"/>
<path style="&st18;" d="M11847.54,130.19c0,0.78,0.64,1.42,1.42,1.42"/>
<path style="&st18;" d="M11848.96,131.61c0.78,0,1.42-0.64,1.42-1.42"/>
<path style="&st18;" d="M11820.94,139.04c1.36,1.4,3.61,1.42,5,0.05"/>
<path style="&st18;" d="M11825.94,139.09c1.4-1.36,1.42-3.61,0.05-5"/>
<path style="&st18;" d="M11825.99,134.09c-0.69-0.71-1.53-1.07-2.53-1.07"/>
<path style="&st18;" d="M11820.94,144c1.36,1.4,3.61,1.42,5,0.05"/>
<path style="&st18;" d="M11825.94,144.05c1.4-1.37,1.42-3.61,0.05-5.01"/>
<path style="&st18;" d="M11825.99,139.04c-1.36-1.39-3.61-1.42-5-0.05"/>
<path style="&st18;" d="M11820.99,138.99c-0.02,0.02-0.04,0.04-0.05,0.05"/>
<path style="&st18;" d="M11823.46,150.02c1.96,0,3.55-1.58,3.55-3.54"/>
<path style="&st18;" d="M11827.01,146.48c0-1.96-1.59-3.54-3.55-3.54"/>
<path style="&st18;" d="M11823.46,142.94c-0.99,0-1.83,0.35-2.52,1.06"/>
<path style="&st18;" d="M12033.1,141.52c0-0.78-0.64-1.41-1.42-1.41"/>
<path style="&st18;" d="M12031.68,140.11c-0.78,0-1.42,0.63-1.42,1.41"/>
<path style="&st18;" d="M12030.26,141.52c0,0.78,0.64,1.42,1.42,1.42"/>
<path style="&st18;" d="M12031.68,142.94c0.78,0,1.42-0.64,1.42-1.42"/>
<path style="&st18;" d="M12028.85,152.85c0-0.78-0.64-1.41-1.42-1.41"/>
<path style="&st18;" d="M12027.43,151.44c-0.78,0-1.42,0.63-1.42,1.41"/>
<path style="&st18;" d="M12026.01,152.85c0,0.79,0.64,1.42,1.42,1.42"/>
<path style="&st18;" d="M12027.43,154.27c0.78,0,1.42-0.63,1.42-1.42"/>
<path style="&st18;" d="M12028.85,130.19c0-0.78-0.64-1.42-1.42-1.42"/>
<path style="&st18;" d="M12027.43,128.77c-0.78,0-1.42,0.64-1.42,1.42"/>
<path style="&st18;" d="M12026.01,130.19c0,0.78,0.64,1.42,1.42,1.42"/>
<path style="&st18;" d="M12027.43,131.61c0.78,0,1.42-0.64,1.42-1.42"/>
<path style="&st18;" d="M11999.41,139.04c1.36,1.4,3.61,1.42,5,0.05"/>
<path style="&st18;" d="M12004.41,139.09c1.4-1.36,1.42-3.61,0.05-5"/>
<path style="&st18;" d="M12004.46,134.09c-0.69-0.71-1.53-1.07-2.53-1.07"/>
<path style="&st18;" d="M11999.41,144c1.36,1.4,3.61,1.42,5,0.05"/>
<path style="&st18;" d="M12004.41,144.05c1.4-1.37,1.42-3.61,0.05-5.01"/>
<path style="&st18;" d="M12004.46,139.04c-1.36-1.39-3.61-1.42-5-0.05"/>
<path style="&st18;" d="M11999.46,138.99c-0.02,0.02-0.04,0.04-0.05,0.05"/>
<path style="&st18;" d="M12001.93,150.02c1.96,0,3.55-1.58,3.55-3.54"/>
<path style="&st18;" d="M12005.48,146.48c0-1.96-1.59-3.54-3.55-3.54"/>
<path style="&st18;" d="M12001.93,142.94c-0.99,0-1.83,0.35-2.52,1.06"/>
<path style="&st11;" d="M11991.31,243.51c-2.35,0-4.25,1.9-4.25,4.24"/>
<path style="&st11;" d="M11987.06,247.75c0,2.35,1.9,4.25,4.25,4.25"/>
<path style="&st11;" d="M11995.56,252c2.35,0,4.25-1.9,4.25-4.25"/>
<path style="&st11;" d="M11999.81,247.75c0-2.34-1.9-4.24-4.25-4.24"/>
<path style="&st11;" d="M12025.31,243.51c-2.35,0-4.25,1.9-4.25,4.24"/>
<path style="&st11;" d="M12021.06,247.75c0,2.35,1.9,4.25,4.25,4.25"/>
<path style="&st11;" d="M12029.56,252c2.34,0,4.24-1.9,4.24-4.25"/>
<path style="&st11;" d="M12033.8,247.75c0-2.34-1.9-4.24-4.24-4.24"/>
<path style="&st11;" d="M11846.84,243.51c-2.35,0-4.25,1.9-4.25,4.24"/>
<path style="&st11;" d="M11842.59,247.75c0,2.35,1.9,4.25,4.25,4.25"/>
<path style="&st11;" d="M11851.09,252c2.34,0,4.24-1.9,4.24-4.25"/>
<path style="&st11;" d="M11855.33,247.75c0-2.34-1.9-4.24-4.24-4.24"/>
<path style="&st11;" d="M11727.86,243.51c-2.35,0-4.25,1.9-4.25,4.24"/>
<path style="&st11;" d="M11723.61,247.75c0,2.35,1.9,4.25,4.25,4.25"/>
<path style="&st11;" d="M11732.11,252c2.34,0,4.24-1.9,4.24-4.25"/>
<path style="&st11;" d="M11736.35,247.75c0-2.34-1.9-4.24-4.24-4.24"/>
<path style="&st11;" d="M11693.86,243.51c-2.35,0-4.25,1.9-4.25,4.24"/>
<path style="&st11;" d="M11689.61,247.75c0,2.35,1.9,4.25,4.25,4.25"/>
<path style="&st11;" d="M11698.11,252c2.35,0,4.25-1.9,4.25-4.25"/>
<path style="&st11;" d="M11702.36,247.75c0-2.34-1.9-4.24-4.25-4.24"/>
<path style="&st11;" d="M11472.9,243.51c-2.35,0-4.25,1.9-4.25,4.24"/>
<path style="&st11;" d="M11468.65,247.75c0,2.35,1.9,4.25,4.25,4.25"/>
<path style="&st11;" d="M11477.15,252c2.34,0,4.25-1.9,4.25-4.25"/>
<path style="&st11;" d="M11481.4,247.75c0-2.34-1.91-4.24-4.25-4.24"/>
<path style="&st11;" d="M11761.85,243.51c-2.35,0-4.25,1.9-4.25,4.24"/>
<path style="&st11;" d="M11757.6,247.75c0,2.35,1.9,4.25,4.25,4.25"/>
<path style="&st11;" d="M11766.1,252c2.35,0,4.25-1.9,4.25-4.25"/>
<path style="&st11;" d="M11770.35,247.75c0-2.34-1.9-4.24-4.25-4.24"/>
<path style="&st11;" d="M12059.3,243.51c-2.35,0-4.25,1.9-4.25,4.24"/>
<path style="&st11;" d="M12055.05,247.75c0,2.35,1.9,4.25,4.25,4.25"/>
<path style="&st11;" d="M12063.55,252c2.35,0,4.25-1.9,4.25-4.25"/>
<path style="&st11;" d="M12067.8,247.75c0-2.34-1.9-4.24-4.25-4.24"/>
<text transform="matrix(1 0 0 1 12201.4502 249.7241)" style="&st10;"><tspan x="0" y="0" style="&st32; &st20;">2D</tspan></text>
<text transform="matrix(1 0 0 1 12193.21 249.7241)" style="&st10;"><tspan x="0" y="0" style="&st32; &st20;">4</tspan></text>
<text transform="matrix(1 0 0 1 11585.8115 125.0942)" style="&st10;"><tspan x="0" y="0" style="&st32; &st20;">25A</tspan></text>
<text transform="matrix(1 0 0 1 11585.8115 131.0942)" style="&st10;"><tspan x="0" y="0" style="&st32; &st20;">D/L</tspan></text>
<text transform="matrix(1 0 0 1 11585.8115 137.0942)" style="&st10;"><tspan x="0" y="0" style="&st32; &st20;">NO.2</tspan></text>
<text transform="matrix(1 0 0 1 11559.3896 103.8335)" style="&st10;"><tspan x="0" y="0" style="&st32; &st20;">(BAT)</tspan></text>
<text ewd:textID='31' transform='matrix(1 0 0 1 11476.21 188.8335)' style='&st10; &st32; &st20;'>D/L <tspan x='0' y='7' >SOURCE </tspan><tspan x='0' y='14' style='&st32; &st20;'>Relay</tspan></text>
<text ewd:textID='36' transform='matrix(1 0 0 1 11671.9307 137.8442)' style='&st10; &st32; &st20;'>DOOR <tspan x='0' y='7' >LOCK </tspan><tspan x='0' y='14' style='&st32; &st20;'>Relay</tspan></text>
<text ewd:textID='32' transform='matrix(1 0 0 1 11782.8604 137.8442)' style='&st10; &st32; &st20;'>D-DR <tspan x='0' y='7' >UNLOCK </tspan><tspan x='0' y='14' style='&st32; &st20;'>Relay</tspan></text>
<text ewd:textID='37' transform='matrix(1 0 0 1 11961.3311 137.8442)' style='&st10; &st32; &st20;'>DR <tspan x='0' y='7' >UNLOCK </tspan><tspan x='0' y='14' style='&st32; &st20;'>Relay</tspan></text>
<text transform="matrix(1 0 0 1 11988.9912 249.7241)" style="&st10;"><tspan x="0" y="0" style="&st32; &st20;">2D</tspan></text>
<text transform="matrix(1 0 0 1 11980.749 249.7241)" style="&st10;"><tspan x="0" y="0" style="&st32; &st20;">2</tspan></text>
<text transform="matrix(1 0 0 1 12024.46 249.7241)" style="&st10;"><tspan x="0" y="0" style="&st32; &st20;">2I</tspan></text>
<text transform="matrix(1 0 0 1 12011.5615 249.7241)" style="&st10;"><tspan x="0" y="0" style="&st32; &st20;">10</tspan></text>
<text transform="matrix(1 0 0 1 11844.5107 249.7241)" style="&st10;"><tspan x="0" y="0" style="&st32; &st20;">2D</tspan></text>
<text transform="matrix(1 0 0 1 11837.0498 249.7241)" style="&st10;"><tspan x="0" y="0" style="&st32; &st20;">1</tspan></text>
<text transform="matrix(1 0 0 1 11725.5303 249.7241)" style="&st10;"><tspan x="0" y="0" style="&st32; &st20;">2D</tspan></text>
<text transform="matrix(1 0 0 1 11717.29 249.7241)" style="&st10;"><tspan x="0" y="0" style="&st32; &st20;">3</tspan></text>
<text transform="matrix(1 0 0 1 11693.0205 249.7241)" style="&st10;"><tspan x="0" y="0" style="&st32; &st20;">2I</tspan></text>
<text transform="matrix(1 0 0 1 11683.2998 249.7241)" style="&st10;"><tspan x="0" y="0" style="&st32; &st20;">8</tspan></text>
<text transform="matrix(1 0 0 1 11470.9307 249.7241)" style="&st10;"><tspan x="0" y="0" style="&st32; &st20;">2F</tspan></text>
<text transform="matrix(1 0 0 1 11459.1514 249.7241)" style="&st10;"><tspan x="0" y="0" style="&st32; &st20;">10</tspan></text>
<text transform="matrix(1 0 0 1 11759.5205 249.7241)" style="&st10;"><tspan x="0" y="0" style="&st32; &st20;">2H</tspan></text>
<text transform="matrix(1 0 0 1 11751.29 249.7241)" style="&st10;"><tspan x="0" y="0" style="&st32; &st20;">8</tspan></text>
<text transform="matrix(1 0 0 1 12056.9717 249.7241)" style="&st10;"><tspan x="0" y="0" style="&st32; &st20;">2H</tspan></text>
<text transform="matrix(1 0 0 1 12045.5615 249.7241)" style="&st10;"><tspan x="0" y="0" style="&st32; &st20;">10</tspan></text>
</g>
<g ewd:code="J1" ewd:figID="225" ewd:figtype="gp">
<path style="&st18;" d="M11252.64,713.76h2.83"/>
<path style="&st18;" d="M11251.22,710.93h5.67"/>
<path style="&st18;" d="M11249.81,708.09h8.49"/>
<path style="&st18;" d="M11245.56,705.26h16.99"/>
<path style="&st18;" d="M11254.06,701.01v4.25"/>
</g>
<g ewd:code="G126,G127" ewd:figID="42" ewd:figtype="conn">
<path style="&st18;" d="M11092.58,269v34"/>
<path style="&st11;" d="M11084.08,269h42.5v34h-42.5V269"/>
<path style="&st18;" d="M11092.58,286h25.5v-17"/>
<path style="&st18;" d="M11091.39,285l-0.27,0.47l-0.1,0.53l0.1,0.53l0.27,0.47l0.41,0.35l0.51,0.18h0.54l0.51-0.18l0.41-0.35l0.28-0.47l0.09-0.53l-0.09-0.53l-0.28-0.47l-0.41-0.35l-0.51-0.19h-0.54l-0.51,0.19L11091.39,285l0.39,0.71v0.58l0.38,0.44l0.57,0.1l0.5-0.28l0.2-0.55l-0.2-0.55l-0.5-0.29l-0.57,0.1l0.42,0.74"/>
<path style="&st25;" d="M11084.08,277.5h42.5"/>
<path style="&st25;" d="M11084.08,294.5h42.5"/>
<path style="&st11;" d="M11097.12,264.47c0-2.5-2.03-4.53-4.53-4.53"/>
<path style="&st11;" d="M11092.59,259.94c-2.51,0-4.54,2.03-4.54,4.53"/>
<path style="&st11;" d="M11088.05,264.47c0,2.5,2.03,4.53,4.54,4.53"/>
<path style="&st11;" d="M11092.59,269c2.5,0,4.53-2.03,4.53-4.53"/>
<path style="&st11;" d="M11097.12,307.53c0-2.51-2.03-4.53-4.53-4.53"/>
<path style="&st11;" d="M11092.59,303c-2.51,0-4.54,2.02-4.54,4.53"/>
<path style="&st11;" d="M11088.05,307.53c0,2.5,2.03,4.53,4.54,4.53"/>
<path style="&st11;" d="M11092.59,312.06c2.5,0,4.53-2.03,4.53-4.53"/>
<path style="&st11;" d="M11122.62,264.47c0-2.5-2.03-4.53-4.54-4.53"/>
<path style="&st11;" d="M11118.08,259.94c-2.5,0-4.53,2.03-4.53,4.53"/>
<path style="&st11;" d="M11113.55,264.47c0,2.5,2.03,4.53,4.53,4.53"/>
<path style="&st11;" d="M11118.08,269c2.51,0,4.54-2.03,4.54-4.53"/>
<text transform="matrix(1 0 0 1 11082.4912 266.4438)" style="&st10;"><tspan x="0" y="0" style="&st32; &st20;">1</tspan></text>
<text transform="matrix(1 0 0 1 11090.2607 266.4438)" style="&st10;"><tspan x="0" y="0" style="&st32; &st20;">B</tspan></text>
<text transform="matrix(1 0 0 1 11081.71 309.5044)" style="&st10;"><tspan x="0" y="0" style="&st32; &st20;">6</tspan></text>
<text transform="matrix(1 0 0 1 11090.2607 309.5044)" style="&st10;"><tspan x="0" y="0" style="&st32; &st20;">A</tspan></text>
<text transform="matrix(1 0 0 1 11107.21 266.4438)" style="&st10;"><tspan x="0" y="0" style="&st32; &st20;">2</tspan></text>
<text transform="matrix(1 0 0 1 11115.749 266.4438)" style="&st10;"><tspan x="0" y="0" style="&st32; &st20;">B</tspan></text>
<text ewd:textID='52' transform='matrix(0 -1 1 0 11074.4404 305.5239)' style='&st10; &st32; &st20;'>Junction <tspan x='0' y='7' >Connector</tspan></text>
<text transform="matrix(0 -1 1 0 11067.3408 305.5239)" style="&st10;"><tspan x="0" y="0" style="&st32; &st20;">G126(A),G127(B)</tspan></text>
</g>
<text transform="matrix(1 0 0 1 11192.04 130.4644)" style="&st10;"><tspan x="0" y="0" style="&st32; &st20;">(*15)</tspan></text>
<text transform="matrix(0 -1 1 0 11182.3818 233.5142)" style="&st10;"><tspan x="0" y="0" style="&st32; &st20;">G</tspan></text>
<text transform="matrix(0 -1 1 0 11250.3604 149.2241)" style="&st10;"><tspan x="0" y="0" style="&st32; &st20;">W-B</tspan></text>
<text transform="matrix(1 0 0 1 11192.04 121.4038)" style="&st10;"><tspan x="0" y="0" style="&st32; &st20;">(*16)</tspan></text>
<text transform="matrix(1 0 0 1 11192.04 207.5142)" style="&st10;"><tspan x="0" y="0" style="&st32; &st20;">(*16)</tspan></text>
<text transform="matrix(1 0 0 1 11192.04 216.5835)" style="&st10;"><tspan x="0" y="0" style="&st32; &st20;">(*15)</tspan></text>
<text transform="matrix(0 -1 1 0 11428.8311 199.3335)" style="&st10;"><tspan x="0" y="0" style="&st32; &st20;">B-R</tspan></text>
<text transform="matrix(1 0 0 1 11217.3115 265.3042)" style="&st10;"><tspan x="0" y="0" style="&st32; &st20;">G</tspan></text>
<text transform="matrix(1 0 0 1 11125.3311 242.644)" style="&st10;"><tspan x="0" y="0" style="&st32; &st20;">(RHD)</tspan></text>
<text transform="matrix(1 0 0 1 11133.1006 231.314)" style="&st10;"><tspan x="0" y="0" style="&st32; &st20;">L</tspan></text>
<text transform="matrix(0 -1 1 0 11100.2217 338.2437)" style="&st10;"><tspan x="0" y="0" style="&st32; &st20;">(RHD)</tspan></text>
<text transform="matrix(0 -1 1 0 11088.8896 330.4741)" style="&st10;"><tspan x="0" y="0" style="&st32; &st20;">L</tspan></text>
<text transform="matrix(0 -1 1 0 11003.9092 253.9839)" style="&st10;"><tspan x="0" y="0" style="&st32; &st20;">L</tspan></text>
<text transform="matrix(0 -1 1 0 11015.2412 261.2642)" style="&st10;"><tspan x="0" y="0" style="&st32; &st20;">(LHD)</tspan></text>
<text transform="matrix(0 -1 1 0 11088.8896 253.9839)" style="&st10;"><tspan x="0" y="0" style="&st32; &st20;">L</tspan></text>
<text transform="matrix(0 -1 1 0 11100.2217 261.7544)" style="&st10;"><tspan x="0" y="0" style="&st32; &st20;">(RHD)</tspan></text>
<text transform="matrix(0 -1 1 0 11003.9092 304.9741)" style="&st10;"><tspan x="0" y="0" style="&st32; &st20;">L</tspan></text>
<text transform="matrix(0 -1 1 0 11015.2412 312.2544)" style="&st10;"><tspan x="0" y="0" style="&st32; &st20;">(LHD)</tspan></text>
<text transform="matrix(1 0 0 1 11031.1201 231.314)" style="&st10;"><tspan x="0" y="0" style="&st32; &st20;">L</tspan></text>
<text transform="matrix(1 0 0 1 11023.3506 242.644)" style="&st10;"><tspan x="0" y="0" style="&st32; &st20;">(RHD)</tspan></text>
<text transform="matrix(1 0 0 1 11414.3945 477.7739)" style="&st10;"><tspan x="0" y="0" style="&st32; &st20;">W(LHD *11)</tspan></text>
<text transform="matrix(1 0 0 1 11415.5576 358.7935)" style="&st10;"><tspan x="0" y="0" style="&st32; &st20;">L(LHD *11)</tspan></text>
<text transform="matrix(1 0 0 1 11366.4023 477.7739)" style="&st10;"><tspan x="0" y="0" style="&st32; &st20;">W(LHD *11)</tspan></text>
<text transform="matrix(1 0 0 1 11367.5654 358.7935)" style="&st10;"><tspan x="0" y="0" style="&st32; &st20;">L(LHD *11)</tspan></text>
<text transform="matrix(1 0 0 1 11420.1748 299.3042)" style="&st10;"><tspan x="0" y="0" style="&st32; &st20;">L(RHD)</tspan></text>
<text transform="matrix(1 0 0 1 11372.1826 299.3042)" style="&st10;"><tspan x="0" y="0" style="&st32; &st20;">L(RHD)</tspan></text>
<text transform="matrix(0 -1 1 0 11292.8604 144.2837)" style="&st10;"><tspan x="0" y="0" style="&st32; &st20;">G</tspan></text>
<text transform="matrix(1 0 0 1 11371.5176 375.7935)" style="&st10;"><tspan x="0" y="0" style="&st32; &st20;">G(RHD)</tspan></text>
<text transform="matrix(1 0 0 1 11371.0195 392.7837)" style="&st10;"><tspan x="0" y="0" style="&st32; &st20;">W(RHD)</tspan></text>
<text transform="matrix(1 0 0 1 11371.5176 409.7837)" style="&st10;"><tspan x="0" y="0" style="&st32; &st20;">W(LHD)</tspan></text>
<text transform="matrix(1 0 0 1 11372.6807 443.7739)" style="&st10;"><tspan x="0" y="0" style="&st32; &st20;">L(LHD)</tspan></text>
<text transform="matrix(1 0 0 1 11372.0156 460.7739)" style="&st10;"><tspan x="0" y="0" style="&st32; &st20;">G(LHD)</tspan></text>
<text transform="matrix(1 0 0 1 11372.1826 579.7544)" style="&st10;"><tspan x="0" y="0" style="&st32; &st20;">L(RHD)</tspan></text>
<text transform="matrix(1 0 0 1 11371.0195 596.7544)" style="&st10;"><tspan x="0" y="0" style="&st32; &st20;">W(RHD)</tspan></text>
<text transform="matrix(1 0 0 1 11419.5098 375.7935)" style="&st10;"><tspan x="0" y="0" style="&st32; &st20;">G(RHD)</tspan></text>
<text transform="matrix(1 0 0 1 11419.0117 392.7837)" style="&st10;"><tspan x="0" y="0" style="&st32; &st20;">W(RHD)</tspan></text>
<text transform="matrix(1 0 0 1 11419.5098 409.7837)" style="&st10;"><tspan x="0" y="0" style="&st32; &st20;">W(LHD)</tspan></text>
<text transform="matrix(1 0 0 1 11420.6729 443.7739)" style="&st10;"><tspan x="0" y="0" style="&st32; &st20;">L(LHD)</tspan></text>
<text transform="matrix(1 0 0 1 11420.0078 460.7739)" style="&st10;"><tspan x="0" y="0" style="&st32; &st20;">G(LHD)</tspan></text>
<text transform="matrix(1 0 0 1 11420.1748 579.7544)" style="&st10;"><tspan x="0" y="0" style="&st32; &st20;">L(RHD)</tspan></text>
<text transform="matrix(1 0 0 1 11419.0117 596.7544)" style="&st10;"><tspan x="0" y="0" style="&st32; &st20;">W(RHD)</tspan></text>
</svg>
