﻿<?xml version="1.0" encoding="UTF-8"?>
<!DOCTYPE svg PUBLIC "-//W3C//DTD SVG 1.0//EN" "http://www.w3.org/TR/2001/REC-SVG-20010904/DTD/svg10.dtd"[
<!ENTITY ns_flows "http://ns.adobe.com/Flows/1.0/">
<!ENTITY ns_svg "http://www.w3.org/2000/svg">
<!ENTITY ns_xlink "http://www.w3.org/1999/xlink">
	<!ENTITY st0 "fill:none;stroke:#F8E616;stroke-width:5.1;stroke-linejoin:round;">
	<!ENTITY st1 "fill:none;stroke:#FB0F0C;stroke-width:5.1;stroke-linejoin:round;">
	<!ENTITY st2 "fill:none;stroke:#9A9999;stroke-width:5.1;stroke-linejoin:round;">
	<!ENTITY st3 "fill:none;stroke:#99280B;stroke-width:5.1;stroke-linejoin:round;">
	<!ENTITY st4 "fill:none;stroke:#000000;stroke-width:1.3;stroke-linejoin:round;">
		<!ENTITY st5 "fill:none;stroke:#000000;stroke-width:0.85;stroke-linecap:round;stroke-linejoin:round;stroke-dasharray:3 1.5;enable-background:new    ;">
	<!ENTITY st6 "font-family:'MS-PGothic','ＭＳ Ｐゴシック';adobe-font-script:japanese;">
	<!ENTITY st7 "fill:none;stroke:#000000;stroke-width:5.1;stroke-linejoin:round;">
	<!ENTITY st8 "fill:none;stroke:#199DBF;stroke-width:1.13;stroke-linejoin:round;">
	<!ENTITY st9 "fill:none;stroke:#000000;stroke-linecap:round;stroke-linejoin:round;">
	<!ENTITY st10 "fill:#1D63A2;">
	<!ENTITY st11 "fill:none;stroke:#F8E616;stroke-width:1.13;stroke-linejoin:round;">
	<!ENTITY st12 "stroke:#000000;stroke-width:0.28;stroke-linecap:round;stroke-linejoin:round;enable-background:new    ;">
	<!ENTITY st13 "enable-background:new    ;">
		<!ENTITY st14 "fill:none;stroke:#000000;stroke-width:1.42;stroke-linecap:round;stroke-linejoin:round;enable-background:new    ;">
	<!ENTITY st15 "fill:none;stroke:#EE67AA;stroke-width:5.1;stroke-linejoin:round;">
	<!ENTITY st16 "fill:none;stroke:#199DBF;stroke-width:5.1;stroke-linejoin:round;">
	<!ENTITY st17 "opacity:0.5;fill:none;stroke:#34ACCE;stroke-linejoin:round;stroke-dasharray:6;">
	<!ENTITY st18 "fill:none;stroke:#FFFFFF;stroke-width:4.53;stroke-linejoin:round;">
	<!ENTITY st19 "fill:#F6140D;">
		<!ENTITY st20 "fill:none;stroke:#000000;stroke-width:0.85;stroke-linecap:round;stroke-linejoin:round;enable-background:new    ;">
	<!ENTITY st21 "fill:none;stroke:#56107C;stroke-width:5.1;stroke-linejoin:round;">
	<!ENTITY st22 "font-size:6px;">
	<!ENTITY st23 "fill:none;stroke:#FFFFFF;stroke-width:2.27;stroke-linejoin:round;">
	<!ENTITY st24 "fill:none;stroke:#FB0F0C;stroke-width:1.13;stroke-linejoin:round;">
	<!ENTITY st25 "fill:none;stroke:#FFFFFF;stroke-width:1.13;stroke-linejoin:round;">
	<!ENTITY st26 "fill:none;stroke:#168638;stroke-width:5.1;stroke-linejoin:round;">
	<!ENTITY st27 "fill:none;stroke:#000000;stroke-width:1.13;stroke-linejoin:round;">
		<!ENTITY st28 "fill:none;stroke:#000000;stroke-width:1.13;stroke-linecap:round;stroke-linejoin:round;stroke-dasharray:3 1.5;enable-background:new    ;">
	<!ENTITY st29 "fill:#FFFFFF;stroke:#000000;stroke-width:1.41;stroke-linecap:round;stroke-linejoin:round;">
	<!ENTITY st30 "fill:none;stroke:#3E65AC;stroke-width:3;">
	<!ENTITY st31 "display:inline;">
	<!ENTITY st32 "fill:#CCCCCC;stroke:#CCCCCC;stroke-width:0.1;stroke-linecap:round;stroke-linejoin:round;">
	<!ENTITY st33 "stroke:#FFFFFF;stroke-width:2;">
	<!ENTITY st34 "font-family:'Arial';">
	<!ENTITY st35 "opacity:0.5;fill:none;stroke:#34ACCE;stroke-linejoin:round;">
	<!ENTITY st36 "fill:none;stroke:#000000;stroke-width:1.42;stroke-linecap:round;stroke-linejoin:round;">
	<!ENTITY st37 "fill:#CFE6E7;stroke:#000000;stroke-width:1.133;stroke-linecap:round;stroke-linejoin:round;">
	<!ENTITY st38 "font-size:12px;">
	<!ENTITY st39 "fill:none;stroke:#99D5E0;stroke-width:5.1;stroke-linejoin:round;">
	<!ENTITY st40 "display:none;">
	<!ENTITY st41 "fill:none;stroke:#000000;stroke-width:0.85;stroke-linecap:round;stroke-linejoin:round;">
	<!ENTITY st42 "fill:none;stroke:#7EC57E;stroke-width:5.1;stroke-linejoin:round;">
<!ATTLIST svg
xmlns:ewd CDATA #FIXED "http://shcl.co.jp/ewd"
xmlns:a CDATA #FIXED "http://ns.adobe.com/AdobeSVGViewerExtensions/3.0/"
ewd:ver CDATA #IMPLIED
>
<!ATTLIST a
ewd:lineID CDATA #IMPLIED
ewd:groupID CDATA #IMPLIED
ewd:figtype CDATA #IMPLIED
ewd:code CDATA #IMPLIED
ewd:figID CDATA #IMPLIED
ewd:pinNo CDATA #IMPLIED
ewd:comment CDATA #IMPLIED >
<!ATTLIST g
ewd:lineID CDATA #IMPLIED
ewd:groupID CDATA #IMPLIED
ewd:figtype CDATA #IMPLIED
ewd:code CDATA #IMPLIED
ewd:figID CDATA #IMPLIED
ewd:pinNo CDATA #IMPLIED
ewd:comment CDATA #IMPLIED >
<!ATTLIST text
ewd:textID CDATA #IMPLIED >
<!ATTLIST title
ewd:textID CDATA #IMPLIED >
]>
<svg onload="call_execInitLoadProc_svg('system')"
style='overflow:visible;enable-background:new 0 0 4671.56 729.44'
viewBox='0 0 4671.56 729.44'
height='729.44'
width='4671.56'
xml:space="preserve"
xmlns="&ns_svg;"
xmlns:ewd="http://shcl.co.jp/ewd"
xmlns:a="http://ns.adobe.com/AdobeSVGViewerExtensions/3.0/"
xmlns:xlink="&ns_xlink;" ewd:ver="L2.1">
<style type="text/css">
</style>
<script type="text/javascript" xlink:href="../../../../../system/js/ewd/fig/svgfig.js"/>
<defs>
<font horiz-adv-x="1229">
<font-face font-family="Svg Symbol" units-per-em="2048" panose-1="5 5 1 2 1 7 6 2 5 7" ascent="2059" descent="450" alphabetic="0"/>
<missing-glyph d="M 103,0 l 0,1280 1024,0 0,-1280 -1024,0 z m 32,32 l 960,0 0,1216 -960,0 0,-1216 z"/>
<glyph unicode="&#xF057;" horiz-adv-x="1573" d="M 1517,0 l -567,0 24,279 q 141,59 207.5,168 66.5,109 66.5,306    0,272 -132.5,417.5 -132.5,145.5 -333.5,145.5 -194,0 -328,-147.5 -134,-147.5 -134,-401.5 0,-200 68.5,-319 68.5,-119     206.5,-169 l 25,-279 -564,0 0,279 35,0 q 3,-61 32,-83 45,-35 137,-35 l 270,0 0,70 q -210,61 -324.5,209 -114.5,148     -114.5,349 0,252 186.5,425 186.5,173 504.5,173 195,0 358.5,-73.5 163.5,-73.5 252,-214.5 88.5,-141 88.5,-310 0,-207     -121.5,-360.5 -121.5,-153.5 -317.5,-197.5 l -8,-70 275,0 q 92,0 128,28 36,28 42,90 l 38,0 0,-279 z"/>
</font>
</defs>
<g id="ewd_top">
<a ewd:lineID="1" style="cursor:pointer;">
<path style="&st7;" d="M 93.3 , 116.04 L 93.3 , 243.52"/>
</a>
<a ewd:lineID="4" style="cursor:pointer;">
<path style="&st1;" d="M 203.78 , 91.11 L 203.78 , 167.03 L 118.79 , 167.03 L 118.79 , 184.03"/>
</a>
<a ewd:lineID="5" style="cursor:pointer;">
<path style="&st1;" d="M 118.79 , 243.52 L 118.79 , 207.25"/>
</a>
<a ewd:lineID="2" style="cursor:pointer;">
<path style="&st7;" d="M 93.3 , 404.99 L 93.3 , 345.5"/>
</a>
<a ewd:lineID="3" style="cursor:pointer;">
<path style="&st7;" d="M 161.28 , 566.46 L 118.79 , 566.46 L 118.79 , 345.5"/>
<path style="&st18;" d="M 161.28 , 566.46 L 118.79 , 566.46 L 118.79 , 345.5"/>
<path style="&st27;" d="M 161.28 , 566.46 L 118.79 , 566.46 L 118.79 , 345.5"/>
</a>
<a ewd:lineID="107" style="cursor:pointer;">
<path style="&st7;" d="M 93.3 , 472.98 L 93.3 , 419.72"/>
</a>
<a ewd:lineID="6" style="cursor:pointer;">
<path style="&st7;" d="M 169.78 , 557.96 L 169.78 , 379.49 L 263.27 , 379.49 L 263.27 , 345.5"/>
<path style="&st18;" d="M 169.78 , 557.96 L 169.78 , 379.49 L 263.27 , 379.49 L 263.27 , 345.5"/>
<path style="&st27;" d="M 169.78 , 557.96 L 169.78 , 379.49 L 263.27 , 379.49 L 263.27 , 345.5"/>
</a>
<a ewd:lineID="108" style="cursor:pointer;">
<path style="&st7;" d="M 169.78 , 574.96 L 169.78 , 685.44"/>
<path style="&st18;" d="M 169.78 , 574.96 L 169.78 , 685.44"/>
<path style="&st27;" d="M 169.78 , 574.96 L 169.78 , 685.44"/>
</a>
<a ewd:lineID="9" style="cursor:pointer;">
<path style="&st26;" d="M 288.76 , 345.5 L 288.76 , 379.49 L 433.24 , 379.49 L 433.24 , 250.03"/>
<path style="&st25;" d="M 288.76 , 345.5 L 288.76 , 379.49 L 433.24 , 379.49 L 433.24 , 250.03"/>
</a>
<a ewd:lineID="7" style="cursor:pointer;">
<path style="&st21;" d="M 263.27 , 243.52 L 263.27 , 192.52 L 322.76 , 192.52 L 322.76 , 173.26"/>
</a>
<a ewd:lineID="8" style="cursor:pointer;">
<path style="&st16;" d="M 288.76 , 243.52 L 288.76 , 209.52 L 373.75 , 209.52 L 373.75 , 173.26"/>
</a>
<a ewd:lineID="10" style="cursor:pointer;">
<path style="&st21;" d="M 322.76 , 150.03 L 322.76 , 91.11"/>
</a>
<a ewd:lineID="11" style="cursor:pointer;">
<path style="&st16;" d="M 373.75 , 91.11 L 373.75 , 150.03"/>
</a>
<a ewd:lineID="12" style="cursor:pointer;">
<path style="&st7;" d="M 433.23 , 132.47 L 433.23 , 91.11"/>
<path style="&st18;" d="M 433.23 , 132.47 L 433.23 , 91.11"/>
</a>
<a ewd:lineID="13" style="cursor:pointer;">
<path style="&st7;" d="M 433.24 , 184.59 L 433.24 , 235.02"/>
<path style="&st18;" d="M 433.24 , 184.59 L 433.24 , 235.02"/>
</a>
<a ewd:lineID="14" style="cursor:pointer;">
<path style="&st7;" d="M 509.73 , 228.5 L 509.73 , 115.47 L 467.23 , 115.47 L 467.23 , 132.47"/>
<path style="&st18;" d="M 509.73 , 228.5 L 509.73 , 115.47 L 467.23 , 115.47 L 467.23 , 132.47"/>
</a>
<a ewd:lineID="15" style="cursor:pointer;">
<path style="&st7;" d="M 832.67 , 413.49 L 509.73 , 413.49 L 509.73 , 243.52"/>
<path style="&st18;" d="M 832.67 , 413.49 L 509.73 , 413.49 L 509.73 , 243.52"/>
</a>
<a ewd:lineID="16" style="cursor:pointer;">
<path style="&st3;" d="M 586.21 , 557.96 L 586.21 , 158.53"/>
</a>
<a ewd:lineID="109" style="cursor:pointer;">
<path style="&st3;" d="M 671.2 , 574.96 L 671.2 , 659.95 L 603.21 , 659.95 L 586.21 , 676.94 L 586.21 , 685.44"/>
</a>
<a ewd:lineID="110" style="cursor:pointer;">
<path style="&st3;" d="M 586.21 , 574.96 L 586.21 , 685.44"/>
</a>
<a ewd:lineID="17" style="cursor:pointer;">
<path style="&st0;" d="M 628.71 , 91.11 L 628.71 , 243.52"/>
</a>
<a ewd:lineID="19" style="cursor:pointer;">
<path style="&st16;" d="M 671.2 , 91.11 L 671.2 , 243.52"/>
</a>
<a ewd:lineID="21" style="cursor:pointer;">
<path style="&st1;" d="M 730.69 , 91.11 L 730.69 , 243.52"/>
<path style="&st23;" d="M 730.69 , 91.11 L 730.69 , 243.52"/>
<path style="&st8;" d="M 730.69 , 91.11 L 730.69 , 243.52"/>
</a>
<a ewd:lineID="20" style="cursor:pointer;">
<path style="&st1;" d="M 790.18 , 91.11 L 790.18 , 303.01 L 730.69 , 303.01 L 730.69 , 277.51"/>
<path style="&st23;" d="M 790.18 , 91.11 L 790.18 , 303.01 L 730.69 , 303.01 L 730.69 , 277.51"/>
<path style="&st11;" d="M 790.18 , 91.11 L 790.18 , 303.01 L 730.69 , 303.01 L 730.69 , 277.51"/>
</a>
<a ewd:lineID="22" style="cursor:pointer;">
<path style="&st1;" d="M 841.17 , 91.11 L 841.17 , 243.52"/>
<path style="&st25;" d="M 841.17 , 91.11 L 841.17 , 243.52"/>
</a>
<a ewd:lineID="25" style="cursor:pointer;">
<path style="&st16;" d="M 909.16 , 91.11 L 909.16 , 243.52"/>
<path style="&st23;" d="M 909.16 , 91.11 L 909.16 , 243.52"/>
<path style="&st11;" d="M 909.16 , 91.11 L 909.16 , 243.52"/>
</a>
<a ewd:lineID="27" style="cursor:pointer;">
<path style="&st16;" d="M 943.15 , 91.11 L 943.15 , 243.52"/>
<path style="&st23;" d="M 943.15 , 91.11 L 943.15 , 243.52"/>
<path style="&st24;" d="M 943.15 , 91.11 L 943.15 , 243.52"/>
</a>
<a ewd:lineID="28" style="cursor:pointer;">
<path style="&st16;" d="M 977.15 , 91.11 L 977.15 , 243.52"/>
<path style="&st25;" d="M 977.15 , 91.11 L 977.15 , 243.52"/>
</a>
<a ewd:lineID="29" style="cursor:pointer;">
<path style="&st16;" d="M 1011.14 , 91.11 L 1011.14 , 243.52"/>
<path style="&st23;" d="M 1011.14 , 91.11 L 1011.14 , 243.52"/>
<path style="&st27;" d="M 1011.14 , 91.11 L 1011.14 , 243.52"/>
</a>
<a ewd:lineID="23" style="cursor:pointer;">
<path style="&st7;" d="M 841.17 , 404.99 L 841.17 , 277.51"/>
<path style="&st18;" d="M 841.17 , 404.99 L 841.17 , 277.51"/>
</a>
<a ewd:lineID="24" style="cursor:pointer;">
<path style="&st7;" d="M 909.16 , 294.51 L 909.16 , 404.99"/>
<path style="&st18;" d="M 909.16 , 294.51 L 909.16 , 404.99"/>
</a>
<a ewd:lineID="26" style="cursor:pointer;">
<path style="&st7;" d="M 943.15 , 294.51 L 943.15 , 413.49 L 917.66 , 413.49"/>
<path style="&st18;" d="M 943.15 , 294.51 L 943.15 , 413.49 L 917.66 , 413.49"/>
</a>
<a ewd:lineID="112" style="cursor:pointer;">
<path style="&st7;" d="M 900.66 , 413.49 L 849.67 , 413.49"/>
<path style="&st18;" d="M 900.66 , 413.49 L 849.67 , 413.49"/>
</a>
<a ewd:lineID="113" style="cursor:pointer;">
<path style="&st7;" d="M 1104.63 , 421.99 L 1104.63 , 685.44"/>
<path style="&st18;" d="M 1104.63 , 421.99 L 1104.63 , 685.44"/>
<path style="&st27;" d="M 1104.63 , 421.99 L 1104.63 , 685.44"/>
</a>
<a ewd:lineID="31" style="cursor:pointer;">
<path style="&st2;" d="M 1104.63 , 91.11 L 1104.63 , 243.52"/>
</a>
<a ewd:lineID="32" style="cursor:pointer;">
<path style="&st39;" d="M 1181.11 , 175.53 L 1181.11 , 91.11"/>
</a>
<a ewd:lineID="33" style="cursor:pointer;">
<path style="&st7;" d="M 1223.61 , 175.53 L 1223.61 , 91.11"/>
<path style="&st18;" d="M 1223.61 , 175.53 L 1223.61 , 91.11"/>
</a>
<a ewd:lineID="34" style="cursor:pointer;">
<path style="&st1;" d="M 1300.09 , 166.46 L 1300.09 , 91.11"/>
</a>
<a ewd:lineID="35" style="cursor:pointer;">
<path style="&st42;" d="M 1342.59 , 166.46 L 1342.59 , 91.11"/>
</a>
<a ewd:lineID="37" style="cursor:pointer;">
<path style="&st7;" d="M 1461.57 , 91.11 L 1461.57 , 668.44 L 1487.06 , 668.44 L 1495.56 , 676.94 L 1495.56 , 685.44"/>
<path style="&st18;" d="M 1461.57 , 91.11 L 1461.57 , 668.44 L 1487.06 , 668.44 L 1495.56 , 676.94 L 1495.56 , 685.44"/>
<path style="&st27;" d="M 1461.57 , 91.11 L 1461.57 , 668.44 L 1487.06 , 668.44 L 1495.56 , 676.94 L 1495.56 , 685.44"/>
</a>
<a ewd:lineID="39" style="cursor:pointer;">
<path style="&st3;" d="M 1495.56 , 685.44 L 1495.56 , 676.94 L 1504.06 , 668.44 L 1529.56 , 668.44 L 1529.56 , 91.11"/>
</a>
<a ewd:lineID="40" style="cursor:pointer;">
<path style="&st7;" d="M 1648.54 , 91.11 L 1648.54 , 380.48"/>
</a>
<a ewd:lineID="41" style="cursor:pointer;">
<path style="&st7;" d="M 1691.03 , 91.11 L 1691.03 , 431.48 L 1750.52 , 431.48 L 1750.52 , 409.25"/>
<path style="&st18;" d="M 1691.03 , 91.11 L 1691.03 , 431.48 L 1750.52 , 431.48 L 1750.52 , 409.25"/>
</a>
<a ewd:lineID="43" style="cursor:pointer;">
<path style="&st7;" d="M 1750.52 , 237.28 L 1750.52 , 273.27"/>
<path style="&st18;" d="M 1750.52 , 237.28 L 1750.52 , 273.27"/>
</a>
<a ewd:lineID="44" style="cursor:pointer;">
<path style="&st7;" d="M 1750.52 , 324.26 L 1750.52 , 358.26"/>
<path style="&st18;" d="M 1750.52 , 324.26 L 1750.52 , 358.26"/>
</a>
<a ewd:lineID="45" style="cursor:pointer;">
<path style="&st7;" d="M 1793.01 , 184.03 L 1793.01 , 294.51"/>
<path style="&st18;" d="M 1793.01 , 184.03 L 1793.01 , 294.51"/>
</a>
<a ewd:lineID="49" style="cursor:pointer;">
<path style="&st1;" d="M 1861 , 243.52 L 1861 , 294.51"/>
</a>
<a ewd:lineID="47" style="cursor:pointer;">
<path style="&st1;" d="M 1861 , 175.53 L 1861 , 218.02"/>
</a>
<a ewd:lineID="52" style="cursor:pointer;">
<path style="&st21;" d="M 2005.48 , 91.11 L 2005.48 , 141.53"/>
</a>
<a ewd:lineID="53" style="cursor:pointer;">
<path style="&st21;" d="M 2005.48 , 192.52 L 2005.48 , 235.02"/>
</a>
<a ewd:lineID="51" style="cursor:pointer;">
<path style="&st21;" d="M 2005.48 , 286.01 L 2005.48 , 328.5"/>
</a>
<a ewd:lineID="50" style="cursor:pointer;">
<path style="&st21;" d="M 2005.48 , 388.98 L 2005.48 , 351.73"/>
</a>
<a ewd:lineID="120" style="cursor:pointer;">
<path style="&st7;" d="M 2158.45 , 489.97 L 2158.45 , 574.96"/>
<path style="&st18;" d="M 2158.45 , 489.97 L 2158.45 , 574.96"/>
<path style="&st27;" d="M 2158.45 , 489.97 L 2158.45 , 574.96"/>
</a>
<a ewd:lineID="119" style="cursor:pointer;">
<path style="&st7;" d="M 2158.45 , 591.96 L 2158.45 , 685.44"/>
<path style="&st18;" d="M 2158.45 , 591.96 L 2158.45 , 685.44"/>
<path style="&st27;" d="M 2158.45 , 591.96 L 2158.45 , 685.44"/>
</a>
<a ewd:lineID="54" style="cursor:pointer;">
<path style="&st7;" d="M 2158.45 , 370.99 L 2158.45 , 320 L 2226.44 , 320"/>
<path style="&st18;" d="M 2158.45 , 370.99 L 2158.45 , 320 L 2226.44 , 320"/>
</a>
<a ewd:lineID="55" style="cursor:pointer;">
<path style="&st7;" d="M 2532.39 , 566.46 L 2532.39 , 642.95 L 2217.94 , 642.95 L 2217.94 , 354 L 2234.94 , 337 L 2234.94 , 328.5"/>
<path style="&st18;" d="M 2532.39 , 566.46 L 2532.39 , 642.95 L 2217.94 , 642.95 L 2217.94 , 354 L 2234.94 , 337 L 2234.94 , 328.5"/>
</a>
<a ewd:lineID="59" style="cursor:pointer;">
<path style="&st7;" d="M 2472.9 , 507.52 L 2472.9 , 625.94 L 2234.94 , 625.94 L 2234.94 , 328.5"/>
<path style="&st18;" d="M 2472.9 , 507.52 L 2472.9 , 625.94 L 2234.94 , 625.94 L 2234.94 , 328.5"/>
</a>
<a ewd:lineID="57" style="cursor:pointer;">
<path style="&st7;" d="M 2234.94 , 311.5 L 2234.94 , 267.03"/>
<path style="&st18;" d="M 2234.94 , 311.5 L 2234.94 , 267.03"/>
</a>
<a ewd:lineID="58" style="cursor:pointer;">
<path style="&st7;" d="M 2234.94 , 243.52 L 2234.94 , 193.09"/>
<path style="&st18;" d="M 2234.94 , 243.52 L 2234.94 , 193.09"/>
</a>
<a ewd:lineID="56" style="cursor:pointer;">
<path style="&st7;" d="M 2234.94 , 157.96 L 2234.94 , 91.11"/>
<path style="&st18;" d="M 2234.94 , 157.96 L 2234.94 , 91.11"/>
</a>
<a ewd:lineID="60" style="cursor:pointer;">
<path style="&st26;" d="M 2319.92 , 175.53 L 2319.92 , 209.52 L 2370.92 , 209.52"/>
</a>
<a ewd:lineID="61" style="cursor:pointer;">
<path style="&st39;" d="M 2430.41 , 226.52 L 2472.9 , 226.52 L 2472.9 , 243.52"/>
</a>
<a ewd:lineID="62" style="cursor:pointer;">
<path style="&st7;" d="M 2472.9 , 294.51 L 2472.9 , 345.5"/>
</a>
<a ewd:lineID="64" style="cursor:pointer;">
<path style="&st7;" d="M 2472.9 , 368.73 L 2472.9 , 370.99 L 2481.4 , 379.49 L 2532.39 , 379.49 L 2532.39 , 396.49"/>
</a>
<a ewd:lineID="63" style="cursor:pointer;">
<path style="&st7;" d="M 2472.9 , 368.73 L 2472.9 , 455.41"/>
</a>
<a ewd:lineID="121" style="cursor:pointer;">
<path style="&st7;" d="M 2532.39 , 411.22 L 2532.39 , 455.41"/>
</a>
<a ewd:lineID="122" style="cursor:pointer;">
<path style="&st7;" d="M 2532.39 , 507.52 L 2532.39 , 551.44"/>
<path style="&st18;" d="M 2532.39 , 507.52 L 2532.39 , 551.44"/>
</a>
<a ewd:lineID="65" style="cursor:pointer;">
<path style="&st3;" d="M 2648.6 , 370.99 L 2648.6 , 116.04 L 2827.07 , 116.04"/>
</a>
<a ewd:lineID="66" style="cursor:pointer;">
<path style="&st3;" d="M 2691.09 , 370.99 L 2691.09 , 150.03 L 2725.09 , 150.03"/>
</a>
<a ewd:lineID="123" style="cursor:pointer;">
<path style="&st3;" d="M 2648.6 , 387.99 L 2648.6 , 685.44"/>
</a>
<a ewd:lineID="67" style="cursor:pointer;">
<path style="&st26;" d="M 2759.08 , 91.11 L 2759.08 , 379.49 L 2793.07 , 379.49 L 2793.07 , 337"/>
</a>
<a ewd:lineID="68" style="cursor:pointer;">
<path style="&st1;" d="M 2793.07 , 303.01 L 2793.07 , 91.11"/>
</a>
<a ewd:lineID="69" style="cursor:pointer;">
<path style="&st7;" d="M 2861.06 , 91.11 L 2861.06 , 379.49 L 2895.06 , 379.49 L 2895.06 , 337"/>
<path style="&st18;" d="M 2861.06 , 91.11 L 2861.06 , 379.49 L 2895.06 , 379.49 L 2895.06 , 337"/>
</a>
<a ewd:lineID="70" style="cursor:pointer;">
<path style="&st7;" d="M 2895.06 , 303.01 L 2895.06 , 91.11"/>
</a>
<a ewd:lineID="72" style="cursor:pointer;">
<path style="&st1;" d="M 2992.95 , 91.11 L 2992.95 , 235.02"/>
<path style="&st23;" d="M 2992.95 , 91.11 L 2992.95 , 235.02"/>
<path style="&st8;" d="M 2992.95 , 91.11 L 2992.95 , 235.02"/>
</a>
<a ewd:lineID="71" style="cursor:pointer;">
<path style="&st3;" d="M 2992.95 , 277.51 L 2992.95 , 315.74 L 2958.95 , 315.74 L 2958.95 , 91.11"/>
</a>
<a ewd:lineID="73" style="cursor:pointer;">
<path style="&st3;" d="M 3086.45 , 277.51 L 3086.45 , 315.74 L 3052.45 , 315.74 L 3052.45 , 91.11"/>
</a>
<a ewd:lineID="74" style="cursor:pointer;">
<path style="&st26;" d="M 3086.45 , 91.11 L 3086.45 , 235.02"/>
<path style="&st23;" d="M 3086.45 , 91.11 L 3086.45 , 235.02"/>
<path style="&st27;" d="M 3086.45 , 91.11 L 3086.45 , 235.02"/>
</a>
<a ewd:lineID="75" style="cursor:pointer;">
<path style="&st3;" d="M 3167.01 , 91.11 L 3167.01 , 315.74 L 3201.01 , 315.74 L 3201.01 , 277.51"/>
</a>
<a ewd:lineID="77" style="cursor:pointer;">
<path style="&st7;" d="M 3286.01 , 277.51 L 3286.01 , 315.74 L 3252.01 , 315.74 L 3252.01 , 91.11"/>
</a>
<a ewd:lineID="76" style="cursor:pointer;">
<path style="&st7;" d="M 3201.01 , 91.11 L 3201.01 , 235.02"/>
</a>
<a ewd:lineID="78" style="cursor:pointer;">
<path style="&st16;" d="M 3286.01 , 91.11 L 3286.01 , 243.52"/>
<path style="&st23;" d="M 3286.01 , 91.11 L 3286.01 , 243.52"/>
<path style="&st27;" d="M 3286.01 , 91.11 L 3286.01 , 243.52"/>
</a>
<a ewd:lineID="79" style="cursor:pointer;">
<path style="&st1;" d="M 3328.5 , 91.11 L 3328.5 , 243.52"/>
</a>
<a ewd:lineID="81" style="cursor:pointer;">
<path style="&st16;" d="M 3399.25 , 91.11 L 3399.25 , 218.02"/>
</a>
<a ewd:lineID="82" style="cursor:pointer;">
<path style="&st2;" d="M 3441.74 , 91.11 L 3441.74 , 218.02"/>
</a>
<a ewd:lineID="85" style="cursor:pointer;">
<path style="&st42;" d="M 3484.24 , 91.11 L 3484.24 , 218.02"/>
</a>
<a ewd:lineID="80" style="cursor:pointer;">
<path style="&st16;" d="M 3399.25 , 241.25 L 3399.25 , 328.5"/>
</a>
<a ewd:lineID="83" style="cursor:pointer;">
<path style="&st2;" d="M 3441.74 , 241.25 L 3441.74 , 328.5"/>
</a>
<a ewd:lineID="84" style="cursor:pointer;">
<path style="&st42;" d="M 3484.24 , 241.25 L 3484.24 , 328.5"/>
</a>
<a ewd:lineID="86" style="cursor:pointer;">
<path style="&st1;" d="M 3526.73 , 241.25 L 3526.73 , 328.5"/>
</a>
<a ewd:lineID="87" style="cursor:pointer;">
<path style="&st1;" d="M 3526.73 , 218.02 L 3526.73 , 91.11"/>
</a>
<a ewd:lineID="88" style="cursor:pointer;">
<path style="&st15;" d="M 3569.22 , 91.11 L 3569.22 , 218.02"/>
</a>
<a ewd:lineID="89" style="cursor:pointer;">
<path style="&st15;" d="M 3569.22 , 241.25 L 3569.22 , 328.5"/>
</a>
<a ewd:lineID="91" style="cursor:pointer;">
<path style="&st3;" d="M 3611.72 , 241.25 L 3611.72 , 328.5"/>
</a>
<a ewd:lineID="90" style="cursor:pointer;">
<path style="&st3;" d="M 3611.72 , 91.11 L 3611.72 , 218.02"/>
</a>
<a ewd:lineID="124" style="cursor:pointer;">
<path style="&st26;" d="M 3696.69 , 438.98 L 3696.69 , 396.49"/>
</a>
<a ewd:lineID="125" style="cursor:pointer;">
<path style="&st1;" d="M 3722.19 , 442.98 L 3722.19 , 400.49"/>
</a>
<a ewd:lineID="126" style="cursor:pointer;">
<path style="&st16;" d="M 3747.69 , 438.98 L 3747.69 , 396.49"/>
</a>
<a ewd:lineID="127" style="cursor:pointer;">
<path style="&st15;" d="M 3773.18 , 438.98 L 3773.18 , 400.49"/>
</a>
<a ewd:lineID="128" style="cursor:pointer;">
<path style="&st26;" d="M 3798.68 , 438.98 L 3798.68 , 396.49"/>
</a>
<a ewd:lineID="129" style="cursor:pointer;">
<path style="&st1;" d="M 3824.17 , 438.98 L 3824.17 , 400.49"/>
</a>
<a ewd:lineID="130" style="cursor:pointer;">
<path style="&st7;" d="M 3849.67 , 438.98 L 3849.67 , 396.49"/>
<path style="&st18;" d="M 3849.67 , 438.98 L 3849.67 , 396.49"/>
</a>
<a ewd:lineID="131" style="cursor:pointer;">
<path style="&st7;" d="M 3875.16 , 438.98 L 3875.16 , 401.49"/>
</a>
<a ewd:lineID="132" style="cursor:pointer;">
<path style="&st21;" d="M 3875.16 , 481.48 L 3875.16 , 534.73"/>
</a>
<a ewd:lineID="133" style="cursor:pointer;">
<path style="&st21;" d="M 3875.16 , 557.96 L 3875.16 , 583.46 L 4427.57 , 583.46 L 4427.57 , 380.06"/>
</a>
<a ewd:lineID="97" style="cursor:pointer;">
<path style="&st1;" d="M 3926.16 , 141.53 L 3926.16 , 91.11"/>
</a>
<a ewd:lineID="96" style="cursor:pointer;">
<path style="&st1;" d="M 3926.16 , 192.52 L 3926.16 , 226.52"/>
</a>
<a ewd:lineID="98" style="cursor:pointer;">
<path style="&st1;" d="M 3926.16 , 277.51 L 3926.16 , 481.48 L 4385.08 , 481.48 L 4385.08 , 380.06"/>
</a>
<a ewd:lineID="99" style="cursor:pointer;">
<path style="&st16;" d="M 4342.59 , 380.06 L 4342.59 , 464.48 L 3968.65 , 464.48 L 3968.65 , 91.11"/>
</a>
<a ewd:lineID="100" style="cursor:pointer;">
<path style="&st1;" d="M 4011.14 , 91.11 L 4011.14 , 447.48 L 4300.09 , 447.48 L 4300.09 , 380.06"/>
</a>
<a ewd:lineID="101" style="cursor:pointer;">
<path style="&st21;" d="M 4053.63 , 91.11 L 4053.63 , 430.48 L 4266.1 , 430.48 L 4266.1 , 380.06"/>
</a>
<a ewd:lineID="103" style="cursor:pointer;">
<path style="&st16;" d="M 4325.56 , 107.54 L 4325.56 , 141.53"/>
</a>
<a ewd:lineID="102" style="cursor:pointer;">
<path style="&st16;" d="M 4368.06 , 167.74 L 4368.06 , 209.52 L 4325.56 , 209.52 L 4325.56 , 192.52"/>
</a>
<a ewd:lineID="105" style="cursor:pointer;">
<path style="&st16;" d="M 4410.57 , 217.45 L 4410.57 , 184.02"/>
</a>
<a ewd:lineID="106" style="cursor:pointer;">
<path style="&st1;" d="M 4470.06 , 217.45 L 4470.06 , 107.54"/>
</a>
<a ewd:lineID="135" style="cursor:pointer;">
<path style="&st3;" d="M 4487.06 , 380.06 L 4487.06 , 413.49"/>
</a>
<a ewd:lineID="136" style="cursor:pointer;">
<path style="&st3;" d="M 4487.06 , 464.48 L 4487.06 , 481.48"/>
</a>
<a ewd:lineID="134" style="cursor:pointer;">
<path style="&st3;" d="M 4487.06 , 532.47 L 4487.06 , 560.23"/>
</a>
<a ewd:lineID="137" style="cursor:pointer;">
<path style="&st3;" d="M 4487.06 , 574.96 L 4487.06 , 685.44"/>
</a>
<a ewd:lineID="38" style="cursor:pointer;">
<path style="&st7;" d="M 1495.56 , 685.44 L 1495.56 , 91.11"/>
<path style="&st18;" d="M 1495.56 , 685.44 L 1495.56 , 91.11"/>
<path style="&st27;" d="M 1495.56 , 685.44 L 1495.56 , 91.11"/>
</a>
<a ewd:lineID="118" style="cursor:pointer;">
<path style="&st21;" d="M 2005.48 , 405.98 L 2005.48 , 460.03 L 1925.29 , 460.03 L 1925.29 , 501.48"/>
</a>
<a ewd:lineID="48" style="cursor:pointer;">
<path style="&st1;" d="M 1861 , 311.5 L 1861 , 407.26 L 1958.98 , 407.26 L 1958.98 , 501.48"/>
</a>
<a ewd:lineID="46" style="cursor:pointer;">
<path style="&st7;" d="M 1793.01 , 311.5 L 1793.01 , 446.37 L 1881.51 , 446.37 L 1881.51 , 501.48"/>
<path style="&st18;" d="M 1793.01 , 311.5 L 1793.01 , 446.37 L 1881.51 , 446.37 L 1881.51 , 501.48"/>
</a>
<a ewd:lineID="114" style="cursor:pointer;">
<path style="&st7;" d="M 1648.54 , 395.21 L 1648.54 , 464.08 L 1847.82 , 464.08 L 1847.82 , 501.48"/>
</a>
<a ewd:lineID="115" style="cursor:pointer;">
<path style="&st7;" d="M 1725.54 , 502.86 L 1725.54 , 481.86 L 1801.03 , 481.86 L 1801.03 , 501.47"/>
<path style="&st18;" d="M 1725.54 , 502.86 L 1725.54 , 481.86 L 1801.03 , 481.86 L 1801.03 , 501.47"/>
<path style="&st4;" d="M 1725.54 , 502.86 L 1725.54 , 481.86 L 1801.03 , 481.86 L 1801.03 , 501.47"/>
</a>
<a ewd:lineID="116" style="cursor:pointer;">
<path style="&st7;" d="M 1725.54 , 560.84 L 1725.54 , 526.67"/>
<path style="&st18;" d="M 1725.54 , 560.84 L 1725.54 , 526.67"/>
<path style="&st4;" d="M 1725.54 , 560.84 L 1725.54 , 526.67"/>
</a>
<a ewd:lineID="117" style="cursor:pointer;">
<path style="&st7;" d="M 1725.54 , 661.24 L 1725.54 , 611.83"/>
<path style="&st18;" d="M 1725.54 , 661.24 L 1725.54 , 611.83"/>
<path style="&st4;" d="M 1725.54 , 661.24 L 1725.54 , 611.83"/>
</a>
<a ewd:lineID="93" style="cursor:pointer;">
<path style="&st15;" d="M 3739.19 , 176.1 L 3739.19 , 235.02"/>
</a>
<a ewd:lineID="92" style="cursor:pointer;">
<path style="&st15;" d="M 3739.19 , 140.97 L 3739.19 , 91.11"/>
</a>
<a ewd:lineID="94" style="cursor:pointer;">
<path style="&st21;" d="M 3790.18 , 91.11 L 3790.18 , 141.53"/>
</a>
<a ewd:lineID="95" style="cursor:pointer;">
<path style="&st21;" d="M 3790.18 , 235.02 L 3790.18 , 192.52"/>
</a>
<a ewd:lineID="18" style="cursor:pointer;">
<path style="&st3;" d="M 671.2 , 286.01 L 671.2 , 557.96"/>
</a>
<a ewd:lineID="111" style="cursor:pointer;">
<path style="&st3;" d="M 677.57 , 572.83 L 690.32 , 585.58 L 690.32 , 608.96 L 737.2 , 608.96 L 737.2 , 566.46 L 679.7 , 566.46"/>
</a>
<a ewd:lineID="30" style="cursor:pointer;">
<path style="&st7;" d="M 1104.63 , 277.51 L 1104.63 , 404.99"/>
<path style="&st18;" d="M 1104.63 , 277.51 L 1104.63 , 404.99"/>
<path style="&st27;" d="M 1104.63 , 277.51 L 1104.63 , 404.99"/>
</a>
<a ewd:lineID="36" style="cursor:pointer;">
<path style="&st7;" d="M 1408.44 , 91.11 L 1408.44 , 659.94"/>
<path style="&st18;" d="M 1408.44 , 91.11 L 1408.44 , 659.94"/>
<path style="&st27;" d="M 1408.44 , 91.11 L 1408.44 , 659.94"/>
</a>
<a ewd:lineID="42" style="cursor:pointer;">
<path style="&st7;" d="M 1750.52 , 184.03 L 1750.52 , 220.28"/>
<path style="&st18;" d="M 1750.52 , 184.03 L 1750.52 , 220.28"/>
</a>
<a ewd:lineID="104" style="cursor:pointer;">
<path style="&st16;" d="M 4410.57 , 131.52 L 4410.57 , 114.52 L 4368.05 , 114.52 L 4368.15 , 150.74"/>
</a>
<a ewd:code="AC2" ewd:figtype="w2w" style="cursor:pointer;" ewd:figID="6027">
<path style="&st29;" d="M101.79,404.99H84.8v8.5h16.99V404.99"/>
<text transform="matrix(1 0 0 1 87.459 411.7251)" style="&st13;"><tspan x="0" y="0" style="&st34; &st22;">AC2</tspan></text>
</a>
<a ewd:code="GA2" ewd:figtype="w2w" style="cursor:pointer;" ewd:figID="6002">
<path style="&st29;" d="M127.29,192.52h-17v8.5h17V192.52"/>
<text transform="matrix(1 0 0 1 112.7871 199.2656)" style="&st13;"><tspan x="0" y="0" style="&st34; &st22;">GA2</tspan></text>
</a>
<a ewd:code="GA6" ewd:figtype="w2w" style="cursor:pointer;" ewd:figID="6001">
<path style="&st29;" d="M127.29,184.03h-17v8.49h17V184.03"/>
<text transform="matrix(1 0 0 1 112.7871 190.7656)" style="&st13;"><tspan x="0" y="0" style="&st34; &st22;">GA6</tspan></text>
</a>
<a ewd:code="GA2" ewd:figtype="w2w" style="cursor:pointer;" ewd:figID="6003">
<path style="&st29;" d="M331.26,158.53h-17v8.5h17V158.53"/>
<text transform="matrix(1 0 0 1 316.7568 165.2656)" style="&st13;"><tspan x="0" y="0" style="&st34; &st22;">GA2</tspan></text>
</a>
<a ewd:code="GA2" ewd:figtype="w2w" style="cursor:pointer;" ewd:figID="6004">
<path style="&st29;" d="M331.26,150.03h-17v8.5h17V150.03"/>
<text transform="matrix(1 0 0 1 316.7568 156.7656)" style="&st13;"><tspan x="0" y="0" style="&st34; &st22;">GA2</tspan></text>
</a>
<a ewd:code="GA2" ewd:figtype="w2w" style="cursor:pointer;" ewd:figID="6005">
<path style="&st29;" d="M382.25,158.53h-17v8.5h17V158.53"/>
<text transform="matrix(1 0 0 1 367.7471 165.2656)" style="&st13;"><tspan x="0" y="0" style="&st34; &st22;">GA2</tspan></text>
</a>
<a ewd:code="GA2" ewd:figtype="w2w" style="cursor:pointer;" ewd:figID="6006">
<path style="&st29;" d="M382.25,150.03h-17v8.5h17V150.03"/>
<text transform="matrix(1 0 0 1 367.7471 156.7656)" style="&st13;"><tspan x="0" y="0" style="&st34; &st22;">GA2</tspan></text>
</a>
<a ewd:code="GA2" ewd:figtype="w2w" style="cursor:pointer;" ewd:figID="6007">
<path style="&st29;" d="M441.74,235.02h-17v8.5h17V235.02"/>
<text transform="matrix(1 0 0 1 427.2363 241.7559)" style="&st13;"><tspan x="0" y="0" style="&st34; &st22;">GA2</tspan></text>
</a>
<a ewd:code="CG1" ewd:figtype="w2w" style="cursor:pointer;" ewd:figID="6008">
<path style="&st29;" d="M518.23,235.02h-17v8.5h17V235.02"/>
<text transform="matrix(1 0 0 1 503.561 241.7559)" style="&st13;"><tspan x="0" y="0" style="&st34; &st22;">CG1</tspan></text>
</a>
<a ewd:code="GA1" ewd:figtype="w2w" style="cursor:pointer;" ewd:figID="6028">
<path style="&st29;" d="M1657.03,380.48h-16.99v8.5h16.99V380.48"/>
<text transform="matrix(1 0 0 1 1642.5317 387.2251)" style="&st13;"><tspan x="0" y="0" style="&st34; &st22;">GA1</tspan></text>
</a>
<a ewd:code="GA2" ewd:figtype="w2w" style="cursor:pointer;" ewd:figID="6010">
<path style="&st29;" d="M2013.97,337h-16.99v8.5h16.99V337"/>
<text transform="matrix(1 0 0 1 1999.4717 343.7358)" style="&st13;"><tspan x="0" y="0" style="&st34; &st22;">GA2</tspan></text>
</a>
<a ewd:code="GA2" ewd:figtype="w2w" style="cursor:pointer;" ewd:figID="6009">
<path style="&st29;" d="M2013.97,328.5h-16.99v8.5h16.99V328.5"/>
<text transform="matrix(1 0 0 1 1999.4717 335.2358)" style="&st13;"><tspan x="0" y="0" style="&st34; &st22;">GA2</tspan></text>
</a>
<a ewd:code="GA2" ewd:figtype="w2w" style="cursor:pointer;" ewd:figID="6011">
<path style="&st29;" d="M2243.44,252.01h-17v8.5h17V252.01"/>
<text transform="matrix(1 0 0 1 2228.9365 258.7559)" style="&st13;"><tspan x="0" y="0" style="&st34; &st22;">GA2</tspan></text>
</a>
<a ewd:code="GA2" ewd:figtype="w2w" style="cursor:pointer;" ewd:figID="6014">
<path style="&st29;" d="M2481.4,354h-17v8.5h17V354"/>
<text transform="matrix(1 0 0 1 2466.8965 360.7358)" style="&st13;"><tspan x="0" y="0" style="&st34; &st22;">GA2</tspan></text>
</a>
<a ewd:code="GA6" ewd:figtype="w2w" style="cursor:pointer;" ewd:figID="6013">
<path style="&st29;" d="M2481.4,345.5h-17v8.5h17V345.5"/>
<text transform="matrix(1 0 0 1 2466.8965 352.2358)" style="&st13;"><tspan x="0" y="0" style="&st34; &st22;">GA6</tspan></text>
</a>
<a ewd:code="Ar1" ewd:figtype="w2w" style="cursor:pointer;" ewd:figID="6031">
<path style="&st29;" d="M2540.89,396.49h-17v8.5h17V396.49"/>
<text transform="matrix(1 0 0 1 2527.7217 403.2251)" style="&st13;"><tspan x="0" y="0" style="&st34; &st22;">Ar1</tspan></text>
</a>
<a ewd:code="Ar1" ewd:figtype="w2w" style="cursor:pointer;" ewd:figID="6032">
<path style="&st29;" d="M2540.89,557.96h-17v8.5h17V557.96"/>
<text transform="matrix(1 0 0 1 2527.7217 564.7056)" style="&st13;"><tspan x="0" y="0" style="&st34; &st22;">Ar1</tspan></text>
</a>
<a ewd:code="GA6" ewd:figtype="w2w" style="cursor:pointer;" ewd:figID="6015">
<path style="&st29;" d="M3407.75,226.52h-17v8.5h17V226.52"/>
<text transform="matrix(1 0 0 1 3393.2461 233.2559)" style="&st13;"><tspan x="0" y="0" style="&st34; &st22;">GA6</tspan></text>
</a>
<a ewd:code="GA6" ewd:figtype="w2w" style="cursor:pointer;" ewd:figID="6016">
<path style="&st29;" d="M3407.75,218.02h-17v8.5h17V218.02"/>
<text transform="matrix(1 0 0 1 3393.2461 224.7559)" style="&st13;"><tspan x="0" y="0" style="&st34; &st22;">GA6</tspan></text>
</a>
<a ewd:code="GA6" ewd:figtype="w2w" style="cursor:pointer;" ewd:figID="6018">
<path style="&st29;" d="M3450.24,226.52h-17v8.5h17V226.52"/>
<text transform="matrix(1 0 0 1 3435.7363 233.2559)" style="&st13;"><tspan x="0" y="0" style="&st34; &st22;">GA6</tspan></text>
</a>
<a ewd:code="GA6" ewd:figtype="w2w" style="cursor:pointer;" ewd:figID="6017">
<path style="&st29;" d="M3450.24,218.02h-17v8.5h17V218.02"/>
<text transform="matrix(1 0 0 1 3435.7363 224.7559)" style="&st13;"><tspan x="0" y="0" style="&st34; &st22;">GA6</tspan></text>
</a>
<a ewd:code="GA6" ewd:figtype="w2w" style="cursor:pointer;" ewd:figID="6020">
<path style="&st29;" d="M3492.73,226.52h-16.99v8.5h16.99V226.52"/>
<text transform="matrix(1 0 0 1 3478.2314 233.2559)" style="&st13;"><tspan x="0" y="0" style="&st34; &st22;">GA6</tspan></text>
</a>
<a ewd:code="GA6" ewd:figtype="w2w" style="cursor:pointer;" ewd:figID="6019">
<path style="&st29;" d="M3492.73,218.02h-16.99v8.5h16.99V218.02"/>
<text transform="matrix(1 0 0 1 3478.2314 224.7559)" style="&st13;"><tspan x="0" y="0" style="&st34; &st22;">GA6</tspan></text>
</a>
<a ewd:code="GA6" ewd:figtype="w2w" style="cursor:pointer;" ewd:figID="6022">
<path style="&st29;" d="M3535.23,226.52h-17v8.5h17V226.52"/>
<text transform="matrix(1 0 0 1 3520.7266 233.2559)" style="&st13;"><tspan x="0" y="0" style="&st34; &st22;">GA6</tspan></text>
</a>
<a ewd:code="GA6" ewd:figtype="w2w" style="cursor:pointer;" ewd:figID="6021">
<path style="&st29;" d="M3535.23,218.02h-17v8.5h17V218.02"/>
<text transform="matrix(1 0 0 1 3520.7266 224.7559)" style="&st13;"><tspan x="0" y="0" style="&st34; &st22;">GA6</tspan></text>
</a>
<a ewd:code="GA6" ewd:figtype="w2w" style="cursor:pointer;" ewd:figID="6025">
<path style="&st29;" d="M3620.21,226.52h-16.99v8.5h16.99V226.52"/>
<text transform="matrix(1 0 0 1 3605.7119 233.2559)" style="&st13;"><tspan x="0" y="0" style="&st34; &st22;">GA6</tspan></text>
</a>
<a ewd:code="GA6" ewd:figtype="w2w" style="cursor:pointer;" ewd:figID="6026">
<path style="&st29;" d="M3620.21,218.02h-16.99v8.5h16.99V218.02"/>
<text transform="matrix(1 0 0 1 3605.7119 224.7559)" style="&st13;"><tspan x="0" y="0" style="&st34; &st22;">GA6</tspan></text>
</a>
<a ewd:code="GA6" ewd:figtype="w2w" style="cursor:pointer;" ewd:figID="6024">
<path style="&st29;" d="M3577.72,226.52h-17v8.5h17V226.52"/>
<text transform="matrix(1 0 0 1 3563.2168 233.2559)" style="&st13;"><tspan x="0" y="0" style="&st34; &st22;">GA6</tspan></text>
</a>
<a ewd:code="GA6" ewd:figtype="w2w" style="cursor:pointer;" ewd:figID="6023">
<path style="&st29;" d="M3577.72,218.02h-17v8.5h17V218.02"/>
<text transform="matrix(1 0 0 1 3563.2168 224.7559)" style="&st13;"><tspan x="0" y="0" style="&st34; &st22;">GA6</tspan></text>
</a>
<a ewd:code="GA6" ewd:figtype="w2w" style="cursor:pointer;" ewd:figID="6034">
<path style="&st29;" d="M3883.66,549.46h-16.99v8.5h16.99V549.46"/>
<text transform="matrix(1 0 0 1 3869.1611 556.2056)" style="&st13;"><tspan x="0" y="0" style="&st34; &st22;">GA6</tspan></text>
</a>
<a ewd:code="GA6" ewd:figtype="w2w" style="cursor:pointer;" ewd:figID="6033">
<path style="&st29;" d="M3883.66,540.97h-16.99v8.49h16.99V540.97"/>
<text transform="matrix(1 0 0 1 3869.1611 547.7056)" style="&st13;"><tspan x="0" y="0" style="&st34; &st22;">GA6</tspan></text>
</a>
<a ewd:code="CG2" ewd:figtype="w2w" style="cursor:pointer;" ewd:figID="6035">
<path style="&st29;" d="M4495.56,566.46h-17v8.5h17V566.46"/>
<text transform="matrix(1 0 0 1 4480.8916 573.1958)" style="&st13;"><tspan x="0" y="0" style="&st34; &st22;">CG2</tspan></text>
</a>
<a ewd:code="GA1" ewd:figtype="w2w" style="cursor:pointer;" ewd:figID="6029">
<path style="&st29;" d="M1734.04,509.67h-17v8.5h17V509.67"/>
<text transform="matrix(1 0 0 1 1719.5415 516.4126)" style="&st13;"><tspan x="0" y="0" style="&st34; &st22;">GA1</tspan></text>
</a>
<a ewd:code="GA6" ewd:figtype="w2w" style="cursor:pointer;" ewd:figID="6030">
<path style="&st29;" d="M1734.04,518.17h-16.99v8.5h16.99V518.17"/>
<text transform="matrix(1 0 0 1 1719.5464 524.9126)" style="&st13;"><tspan x="0" y="0" style="&st34; &st22;">GA6</tspan></text>
</a>
<a ewd:code="GA6" ewd:figtype="w2w" style="cursor:pointer;" ewd:figID="6012">
<path style="&st29;" d="M2243.44,243.52h-17v8.49h17V243.52"/>
<text transform="matrix(1 0 0 1 2228.9365 250.2559)" style="&st13;"><tspan x="0" y="0" style="&st34; &st22;">GA6</tspan></text>
</a>
<a ewd:code="326001" ewd:figtype="sp" style="cursor:pointer;" ewd:figID="5001">
<path style="&st29;" d="M581.96,141.53h8.5l4.25,4.25v8.5l-4.25,4.25h-8.5l-4.25-4.25v-8.5L581.96,141.53"/>
</a>
<a ewd:code="326007" ewd:figtype="sp" style="cursor:pointer;" ewd:figID="5007">
<path style="&st29;" d="M836.92,404.99h8.5l4.25,4.25v8.5l-4.25,4.25h-8.5l-4.25-4.25v-8.5L836.92,404.99"/>
</a>
<a ewd:code="326008" ewd:figtype="sp" style="cursor:pointer;" ewd:figID="5008">
<path style="&st29;" d="M904.91,404.99h8.5l4.25,4.25v8.5l-4.25,4.25h-8.5l-4.25-4.25v-8.5L904.91,404.99"/>
</a>
<a ewd:code="326003" ewd:figtype="sp" style="cursor:pointer;" ewd:figID="5003">
<path style="&st29;" d="M2729.33,141.53h8.5l4.25,4.25v8.5l-4.25,4.25h-8.5l-4.24-4.25v-8.5L2729.33,141.53"/>
</a>
<a ewd:code="326004" ewd:figtype="sp" style="cursor:pointer;" ewd:figID="5004">
<path style="&st29;" d="M2831.32,107.54h8.5l4.25,4.25v8.5l-4.25,4.25h-8.5l-4.25-4.25v-8.5L2831.32,107.54"/>
</a>
<a ewd:code="326005" ewd:figtype="sp" style="cursor:pointer;" ewd:figID="5005">
<path style="&st29;" d="M4363.9,150.74h8.5l4.25,4.25v8.5l-4.25,4.25h-8.5l-4.25-4.25v-8.5L4363.9,150.74"/>
</a>
<a ewd:code="326006" ewd:figtype="sp" style="cursor:pointer;" ewd:figID="5006">
<path style="&st29;" d="M666.95,557.96h8.5l4.25,4.25v8.5l-4.25,4.25h-8.5l-4.25-4.25v-8.5L666.95,557.96"/>
</a>
<a ewd:code="326009" ewd:figtype="sp" style="cursor:pointer;" ewd:figID="5009">
<path style="&st29;" d="M1100.38,404.99h8.5l4.25,4.25v8.5l-4.25,4.25h-8.5l-4.25-4.25v-8.5L1100.38,404.99"/>
</a>
<a ewd:code="326002" ewd:figtype="sp" style="cursor:pointer;" ewd:figID="5002">
<path style="&st29;" d="M1746.27,220.28h8.5l4.25,4.25v8.5l-4.25,4.25h-8.5l-4.25-4.25v-8.5L1746.27,220.28"/>
</a>
<a ewd:code="1" ewd:figtype="rb" style="cursor:pointer;" ewd:figID="4002">
<path style="&st37;" d="M127.29,277.51H84.8v33.99h42.49V277.51"/>
</a>
<a ewd:code="1" ewd:figtype="rb" style="cursor:pointer;" ewd:figID="4005">
<path style="&st37;" d="M2166.95,413.49h-42.49v33.99h42.49V413.49"/>
</a>
<a ewd:code="FUSE10" ewd:figtype="rb" style="cursor:pointer;" ewd:figID="4004">
<path style="&st37;" d="M4312.81,39.55v42.49h25.5V39.55H4312.81"/>
</a>
<a ewd:code="FUSE18" ewd:figtype="rb" style="cursor:pointer;" ewd:figID="4003">
<path style="&st37;" d="M1848.25,107.54v42.49h25.5v-42.49H1848.25"/>
</a>
<a ewd:code="FUSE61" ewd:figtype="rb" style="cursor:pointer;" ewd:figID="4001">
<path style="&st37;" d="M80.55,39.55v42.49h25.49V39.55H80.55"/>
</a>
<a ewd:code="4JB" ewd:figtype="jb" style="cursor:pointer;" ewd:figID="3004">
<path style="&st32;" d="M1733.52,358.26v50.99h25.5v-50.99H1733.52"/>
</a>
<a ewd:code="3JB" ewd:figtype="jb" style="cursor:pointer;" ewd:figID="3002">
<path style="&st32;" d="M1733.52,273.27v50.99h25.5v-50.99H1733.52"/>
</a>
<a ewd:code="4JB" ewd:figtype="jb" style="cursor:pointer;" ewd:figID="3005">
<path style="&st32;" d="M1988.48,141.53v50.99h25.49v-50.99H1988.48"/>
</a>
<a ewd:code="3JB" ewd:figtype="jb" style="cursor:pointer;" ewd:figID="3006">
<path style="&st32;" d="M1988.48,235.02v50.99h25.19v-50.99H1988.48"/>
</a>
<a ewd:code="3JB" ewd:figtype="jb" style="cursor:pointer;" ewd:figID="3008">
<path style="&st32;" d="M2455.9,243.52v50.99h25.5v-50.99H2455.9"/>
</a>
<a ewd:code="3JB" ewd:figtype="jb" style="cursor:pointer;" ewd:figID="3010">
<path style="&st32;" d="M3909.16,226.52v50.99h25.49v-50.99H3909.16"/>
</a>
<a ewd:code="4JB" ewd:figtype="jb" style="cursor:pointer;" ewd:figID="3011">
<path style="&st32;" d="M3909.16,141.53v50.99h25.49v-50.99H3909.16"/>
</a>
<a ewd:code="2" ewd:figtype="jb" style="cursor:pointer;" ewd:figID="3012">
<path style="&st32;" d="M4308.56,141.53v50.99h25.5v-50.99H4308.56"/>
</a>
<a ewd:code="3JB" ewd:figtype="jb" style="cursor:pointer;" ewd:figID="3013">
<path style="&st32;" d="M4393.58,131.52v52.5h25.46v-52.5H4393.58"/>
</a>
<a ewd:code="3JB" ewd:figtype="jb" style="cursor:pointer;" ewd:figID="3016">
<path style="&st32;" d="M4470.06,413.49v50.99h25.5v-50.99H4470.06"/>
</a>
<a ewd:code="4JB" ewd:figtype="jb" style="cursor:pointer;" ewd:figID="3017">
<path style="&st32;" d="M4470.06,481.48v50.99h25.5v-50.99H4470.06"/>
</a>
<a ewd:code="2" ewd:figtype="jb" style="cursor:pointer;" ewd:figID="3014">
<path style="&st32;" d="M4453.07,39.55v67.99h59.49V39.55H4453.07"/>
</a>
<a ewd:code="2" ewd:figtype="jb" style="cursor:pointer;" ewd:figID="3007">
<path style="&st32;" d="M2302.93,107.54v67.99h59.49v-67.99H2302.93"/>
</a>
<a ewd:code="2" ewd:figtype="jb" style="cursor:pointer;" ewd:figID="3003">
<path style="&st32;" d="M1733.52,107.54v76.49h67.99v-76.49H1733.52"/>
</a>
<a ewd:code="1" ewd:figtype="jb" style="cursor:pointer;" ewd:figID="3001">
<path style="&st32;" d="M178.28,243.52V345.5h152.98V243.52H178.28"/>
</a>
<a ewd:code="3JB" ewd:figtype="jb" style="cursor:pointer;" ewd:figID="3015">
<path style="&st32;" d="M1708.54,560.84v50.99h25.5v-50.99H1708.54"/>
</a>
<a ewd:code="3JB" ewd:figtype="jb" style="cursor:pointer;" ewd:figID="3009">
<path style="&st32;" d="M3773.19,141.53v50.99h25.49v-50.99H3773.19"/>
</a>
<a ewd:code="C6" ewd:figtype="gp" style="cursor:pointer;" ewd:figID="2009">
<path style="&st29;" d="M4476.44,685.44h21.24l-10.62,15.58L4476.44,685.44"/>
<text transform="matrix(1 0 0 1 4482.3799 693.5962)" style="&st13;"><tspan x="0" y="0" style="&st34; &st22;">C6</tspan></text>
</a>
<a ewd:code="C6" ewd:figtype="gp" style="cursor:pointer;" ewd:figID="2008">
<path style="&st29;" d="M2637.98,685.44h21.24l-10.62,15.58L2637.98,685.44"/>
<text transform="matrix(1 0 0 1 2643.9121 693.5962)" style="&st13;"><tspan x="0" y="0" style="&st34; &st22;">C6</tspan></text>
</a>
<a ewd:code="A1" ewd:figtype="gp" style="cursor:pointer;" ewd:figID="2007">
<path style="&st29;" d="M2147.83,685.44h21.24l-10.62,15.58L2147.83,685.44"/>
<text transform="matrix(1 0 0 1 2154.3193 693.5962)" style="&st13;"><tspan x="0" y="0" style="&st34; &st22;">A1</tspan></text>
</a>
<a ewd:code="C6" ewd:figtype="gp" style="cursor:pointer;" ewd:figID="2005">
<path style="&st29;" d="M1484.94,685.44h21.24l-10.62,15.58L1484.94,685.44"/>
<text transform="matrix(1 0 0 1 1490.8799 693.5962)" style="&st13;"><tspan x="0" y="0" style="&st34; &st22;">C6</tspan></text>
</a>
<a ewd:code="C6" ewd:figtype="gp" style="cursor:pointer;" ewd:figID="2003">
<path style="&st29;" d="M1094,685.44h21.25l-10.62,15.58L1094,685.44"/>
<text transform="matrix(1 0 0 1 1099.9395 693.5962)" style="&st13;"><tspan x="0" y="0" style="&st34; &st22;">C6</tspan></text>
</a>
<a ewd:code="C6" ewd:figtype="gp" style="cursor:pointer;" ewd:figID="2002">
<path style="&st29;" d="M575.59,685.44h21.25l-10.63,15.58L575.59,685.44"/>
<text transform="matrix(1 0 0 1 581.5293 693.5962)" style="&st13;"><tspan x="0" y="0" style="&st34; &st22;">C6</tspan></text>
</a>
<a ewd:code="A1" ewd:figtype="gp" style="cursor:pointer;" ewd:figID="2001">
<path style="&st29;" d="M159.16,685.44h21.25l-10.63,15.58L159.16,685.44"/>
<text transform="matrix(1 0 0 1 165.6602 693.5962)" style="&st13;"><tspan x="0" y="0" style="&st34; &st22;">A1</tspan></text>
</a>
<a ewd:code="G3" ewd:figtype="gp" style="cursor:pointer;" ewd:figID="2006">
<path style="&st29;" d="M1714.92,685.44h21.25l-10.63,15.58L1714.92,685.44"/>
<text transform="matrix(1 0 0 1 1721.4243 693.5952)" style="&st13;"><tspan x="0" y="0" style="&st34; &st22;">G3</tspan></text>
</a>
<a ewd:code="G5" ewd:figtype="gp" style="cursor:pointer;" ewd:figID="2004">
<path style="&st29;" d="M1397.82,685.44h21.24l-10.62,15.58L1397.82,685.44"/>
<text transform="matrix(1 0 0 1 1404.4404 692.4175)"><tspan x="0" y="0" style="&st34; &st22;">G5</tspan></text>
</a>
<a ewd:code="FUSE61" ewd:figtype="fuse" style="cursor:pointer;" ewd:figID="1001">
<path style="&st14;" d="M80.55,39.55v42.49h25.49V39.55H80.55"/>
</a>
<a ewd:code="FUSE39" ewd:figtype="fuse" style="cursor:pointer;" ewd:figID="1002">
<path style="&st14;" d="M208.03,286.01v-42.49h-25.5v42.49H208.03"/>
</a>
<a ewd:code="FUSE76" ewd:figtype="fuse" style="cursor:pointer;" ewd:figID="1003">
<path style="&st14;" d="M1763.27,150.03v-42.49h-25.5v42.49H1763.27"/>
</a>
<a ewd:code="FUSE18" ewd:figtype="fuse" style="cursor:pointer;" ewd:figID="1004">
<path style="&st14;" d="M1848.25,107.54v42.49h25.5v-42.49H1848.25"/>
</a>
<a ewd:code="FUSE66" ewd:figtype="fuse" style="cursor:pointer;" ewd:figID="1005">
<path style="&st14;" d="M2307.17,107.54v42.49h25.5v-42.49H2307.17"/>
</a>
<a ewd:code="FUSE10" ewd:figtype="fuse" style="cursor:pointer;" ewd:figID="1006">
<path style="&st14;" d="M4312.81,39.55v42.49h25.49V39.55H4312.81"/>
</a>
<a ewd:code="FUSE67" ewd:figtype="fuse" style="cursor:pointer;" ewd:figID="1007">
<path style="&st14;" d="M4457.31,39.55v42.49h25.5V39.55H4457.31"/>
</a>
<a ewd:code="A70" ewd:figtype="conn" style="cursor:pointer;" ewd:figID="28">
<path style="&st37;" d="M161.28,557.96h17v17h-17V557.96"/>
<title ewd:textID="24">Junction Connector</title>
</a>
<a ewd:code="C114" ewd:figtype="conn" style="cursor:pointer;" ewd:figID="27">
<path style="&st37;" d="M33.81,523.97h67.98v-50.99H33.81V523.97"/>
<title ewd:textID="19">Glow Plug Assembly</title>
</a>
<a ewd:code="G85,G86" ewd:figtype="conn" style="cursor:pointer;" ewd:figID="2">
<path style="&st37;" d="M424.74,141.53v34h50.99v-34H424.74"/>
<title ewd:textID="24">Junction Connector</title>
</a>
<a ewd:code="C107" ewd:figtype="conn" style="cursor:pointer;" ewd:figID="3">
<path style="&st37;" d="M611.71,243.52v42.49h76.49v-42.49H611.71"/>
<title ewd:textID="22">Injection Pump</title>
</a>
<a ewd:code="C106" ewd:figtype="conn" style="cursor:pointer;" ewd:figID="4">
<path style="&st37;" d="M739.19,277.51v-33.99h-17v33.99H739.19"/>
<title ewd:textID="28">Spill Control Valve</title>
</a>
<a ewd:code="C108" ewd:figtype="conn" style="cursor:pointer;" ewd:figID="5">
<path style="&st37;" d="M849.67,277.51v-33.99h-17v33.99H849.67"/>
<title ewd:textID="33">Timing Control Valve</title>
</a>
<a ewd:code="C105" ewd:figtype="conn" style="cursor:pointer;" ewd:figID="6">
<path style="&st37;" d="M892.16,243.52v50.99h135.98v-50.99H892.16"/>
<title ewd:textID="31">Throttle Control Motor</title>
</a>
<a ewd:code="C163" ewd:figtype="conn" style="cursor:pointer;" ewd:figID="7">
<path style="&st37;" d="M1113.13,277.51v-33.99h-17v33.99H1113.13"/>
<title ewd:textID="32">Throttle Open Switch</title>
</a>
<a ewd:code="G138" ewd:figtype="conn" style="cursor:pointer;" ewd:figID="8">
<path style="&st37;" d="M1164.12,175.53v33.99h76.48v-33.99H1164.12"/>
<title ewd:textID="34">Transponder Key ECU Assembly</title>
</a>
<a ewd:code="G25-B" ewd:figtype="conn" style="cursor:pointer;" ewd:figID="9">
<path style="&st37;" d="M1283.1,175.53v33.99h76.48v-33.99H1283.1"/>
<title ewd:textID="6">A/C Amplifier Assembly</title>
</a>
<a ewd:code="A65" ewd:figtype="conn" style="cursor:pointer;" ewd:figID="10">
<path style="&st37;" d="M1784.51,294.51h17v16.99h-17V294.51"/>
<title ewd:textID="24">Junction Connector</title>
</a>
<a ewd:code="A65" ewd:figtype="conn" style="cursor:pointer;" ewd:figID="11">
<path style="&st37;" d="M1852.5,294.51h17v16.99h-17V294.51"/>
<title ewd:textID="24">Junction Connector</title>
</a>
<a ewd:code="A59" ewd:figtype="conn" style="cursor:pointer;" ewd:figID="12">
<path style="&st37;" d="M1852.5,243.52h17v-25.5h-17V243.52"/>
<title ewd:textID="15">Diode (Stop Light)</title>
</a>
<a ewd:code="A70" ewd:figtype="conn" style="cursor:pointer;" ewd:figID="34">
<path style="&st37;" d="M2149.95,574.96h17v17h-17V574.96"/>
<title ewd:textID="24">Junction Connector</title>
</a>
<a ewd:code="A65" ewd:figtype="conn" style="cursor:pointer;" ewd:figID="33">
<path style="&st37;" d="M1996.98,388.98h16.99v17h-16.99V388.98"/>
<title ewd:textID="24">Junction Connector</title>
</a>
<a ewd:code="A65" ewd:figtype="conn" style="cursor:pointer;" ewd:figID="13">
<path style="&st37;" d="M2226.44,311.5v17h17v-17H2226.44"/>
<title ewd:textID="24">Junction Connector</title>
</a>
<a ewd:code="G107" ewd:figtype="conn" style="cursor:pointer;" ewd:figID="14">
<path style="&st37;" d="M2226.44,167.03h17v17h-17V167.03"/>
<title ewd:textID="24">Junction Connector</title>
</a>
<a ewd:code="G2" ewd:figtype="conn" style="cursor:pointer;" ewd:figID="15">
<path style="&st37;" d="M2370.92,235.02h59.49v-59.49h-59.49V235.02"/>
<title ewd:textID="21">Ignition or Starter Switch Assembly</title>
</a>
<a ewd:code="r2" ewd:figtype="conn" style="cursor:pointer;" ewd:figID="36">
<path style="&st37;" d="M2540.89,498.47v-33.99h-17v33.99H2540.89"/>
<title ewd:textID="11">Clutch Start Switch Assembly</title>
</a>
<a ewd:code="C48" ewd:figtype="conn" style="cursor:pointer;" ewd:figID="16">
<path style="&st37;" d="M2640.1,370.99v17h59.49v-17H2640.1"/>
<title ewd:textID="24">Junction Connector</title>
</a>
<a ewd:code="C109" ewd:figtype="conn" style="cursor:pointer;" ewd:figID="17">
<path style="&st37;" d="M2784.58,311.51v-0.01c0-4.69,3.8-8.49,8.49-8.49c4.7,0,8.5,3.8,8.5,8.49v17c0,4.7-3.81,8.5-8.5,8.5c-4.69,0-8.5-3.81-8.49-8.5"/>
<title ewd:textID="13">Crank Position Sensor</title>
</a>
<a ewd:code="C103" ewd:figtype="conn" style="cursor:pointer;" ewd:figID="18">
<path style="&st37;" d="M2886.56,311.51v-0.01c0-4.69,3.8-8.49,8.5-8.49c4.69,0,8.5,3.8,8.5,8.49v17c-0.01,4.7-3.81,8.5-8.51,8.5c-4.69,0-8.49-3.81-8.49-8.5"/>
<title ewd:textID="9">Cam Position Sensor</title>
</a>
<a ewd:code="C111" ewd:figtype="conn" style="cursor:pointer;" ewd:figID="19">
<path style="&st37;" d="M2980.2,277.51v-42.49h25.5v42.49H2980.2"/>
<title ewd:textID="14">Diesel Engine Coolant Temperature Sensor</title>
</a>
<a ewd:code="C85" ewd:figtype="conn" style="cursor:pointer;" ewd:figID="20">
<path style="&st37;" d="M3073.7,277.51v-42.49h25.5v42.49H3073.7"/>
<title ewd:textID="17">Fuel Temperature Sensor</title>
</a>
<a ewd:code="C104" ewd:figtype="conn" style="cursor:pointer;" ewd:figID="21">
<path style="&st37;" d="M3188.26,277.51v-42.49h25.5v42.49H3188.26"/>
<title ewd:textID="23">Intake Air Temperature Sensor</title>
</a>
<a ewd:code="C83" ewd:figtype="conn" style="cursor:pointer;" ewd:figID="22">
<path style="&st37;" d="M3337,277.51v-33.99h-59.49v33.99H3337"/>
<title ewd:textID="35">Vacuum Sensor (Diesel Turbo Pressure Sensor)</title>
</a>
<a ewd:code="G142" ewd:figtype="conn" style="cursor:pointer;" ewd:figID="25">
<path style="&st37;" d="M3730.7,150.03v17h16.98v-17H3730.7"/>
<title ewd:textID="24">Junction Connector</title>
</a>
<a ewd:code="G48" ewd:figtype="conn" style="cursor:pointer;" ewd:figID="24">
<path style="&st37;" d="M3722.2,235.02v42.49h84.98v-42.49H3722.2"/>
<title>DLC3</title>
</a>
<a ewd:code="A6" ewd:figtype="conn" style="cursor:pointer;" ewd:figID="37">
<path style="&st37;" d="M3679.7,481.48v-42.5h212.46v42.5H3679.7"/>
<title ewd:textID="8">Brake Actuator Assembly</title>
</a>
<a ewd:code="A19" ewd:figtype="conn" style="cursor:pointer;" ewd:figID="23">
<path style="&st37;" d="M3382.25,328.5v50.99h246.46V328.5H3382.25"/>
<title ewd:textID="7">Acceleration Sensor</title>
</a>
<a ewd:code="G6-A,G7-B" ewd:figtype="conn" style="cursor:pointer;" ewd:figID="26">
<path style="&st37;" d="M4240.6,226.52v144.47h271.96V226.52H4240.6"/>
<title ewd:textID="12">Combination Meter Assembly</title>
</a>
<a ewd:code="C48" ewd:figtype="conn" style="cursor:pointer;" ewd:figID="29">
<path style="&st37;" d="M577.71,557.96h17v17h-17V557.96"/>
<title ewd:textID="24">Junction Connector</title>
</a>
<a ewd:code="C161-d,C162-e,G182-h,G183-i" ewd:figtype="conn" style="cursor:pointer;" ewd:figID="1">
<path style="&st37;" d="M186.78,39.55v42.49h3883.85V39.55H186.78"/>
<title>ECM</title>
</a>
<a ewd:code="A41" ewd:figtype="conn" style="cursor:pointer;" ewd:figID="35">
<path style="&st37;" d="M2481.4,498.47v-33.99h-17v33.99H2481.4"/>
<title ewd:textID="11">Clutch Start Switch Assembly</title>
</a>
<a ewd:code="A85" ewd:figtype="conn" style="cursor:pointer;" ewd:figID="32">
<path style="&st37;" d="M1783.54,501.48v94.47h221.95v-94.47H1783.54"/>
<title ewd:textID="30">Stop Light Switch Assembly</title>
</a>
<a ewd:code="G104" ewd:figtype="conn" style="cursor:pointer;" ewd:figID="31">
<path style="&st37;" d="M1717.04,661.24h17v17h-17V661.24"/>
<title ewd:textID="24">Junction Connector</title>
</a>
<a ewd:code="G106" ewd:figtype="conn" style="cursor:pointer;" ewd:figID="30">
<path style="&st37;" d="M1399.94,659.94h17v17h-17V659.94"/>
<title ewd:textID="24">Junction Connector</title>
</a>
</g>
</svg>
