﻿<?xml version="1.0" encoding="UTF-8"?>
<!DOCTYPE svg PUBLIC "-//W3C//DTD SVG 1.0//EN" "http://www.w3.org/TR/2001/REC-SVG-20010904/DTD/svg10.dtd"[
<!ENTITY ns_flows "http://ns.adobe.com/Flows/1.0/">
<!ENTITY ns_svg "http://www.w3.org/2000/svg">
<!ENTITY ns_xlink "http://www.w3.org/1999/xlink">
	<!ENTITY st0 "fill:none;stroke:#FB0F0C;stroke-width:5.1;stroke-linejoin:round;">
	<!ENTITY st1 "fill:none;stroke:#9A9999;stroke-width:5.1;stroke-linejoin:round;">
		<!ENTITY st2 "fill:none;stroke:#000000;stroke-width:0.85;stroke-linecap:round;stroke-linejoin:round;stroke-dasharray:3 1.5;enable-background:new    ;">
	<!ENTITY st3 "fill:none;stroke:#9A9999;stroke-width:5.1;">
	<!ENTITY st4 "fill:none;stroke:#000000;stroke-width:5.1;stroke-linejoin:round;">
	<!ENTITY st5 "fill:none;stroke:#000000;stroke-linecap:round;stroke-linejoin:round;">
	<!ENTITY st6 "stroke:#000000;stroke-width:0.28;stroke-linecap:round;stroke-linejoin:round;enable-background:new    ;">
	<!ENTITY st7 "enable-background:new    ;">
	<!ENTITY st8 "fill:none;stroke:#000000;stroke-width:1.3;">
		<!ENTITY st9 "fill:none;stroke:#000000;stroke-width:1.42;stroke-linecap:round;stroke-linejoin:round;enable-background:new    ;">
	<!ENTITY st10 "fill:none;stroke:#EE67AA;stroke-width:5.1;stroke-linejoin:round;">
	<!ENTITY st11 "fill:none;stroke:#FFFFFF;stroke-width:4;">
	<!ENTITY st12 "fill:none;stroke:#199DBF;stroke-width:5.1;stroke-linejoin:round;">
	<!ENTITY st13 "opacity:0.5;fill:none;stroke:#34ACCE;stroke-linejoin:round;stroke-dasharray:6;">
	<!ENTITY st14 "fill:none;stroke:#FFFFFF;stroke-width:4.53;stroke-linejoin:round;">
		<!ENTITY st15 "fill:none;stroke:#000000;stroke-width:0.85;stroke-linecap:round;stroke-linejoin:round;enable-background:new    ;">
	<!ENTITY st16 "fill:none;stroke:#56107C;stroke-width:5.1;stroke-linejoin:round;">
	<!ENTITY st17 "font-size:6px;">
	<!ENTITY st18 "fill:none;stroke:#FFFFFF;stroke-width:2.27;stroke-linejoin:round;">
	<!ENTITY st19 "fill:none;stroke:#168638;stroke-width:5.1;stroke-linejoin:round;">
	<!ENTITY st20 "fill:none;stroke:#000000;stroke-width:1.13;stroke-linejoin:round;">
		<!ENTITY st21 "fill:none;stroke:#000000;stroke-width:1.13;stroke-linecap:round;stroke-linejoin:round;stroke-dasharray:3 1.5;enable-background:new    ;">
	<!ENTITY st22 "fill:#FFFFFF;stroke:#000000;stroke-width:1.41;stroke-linecap:round;stroke-linejoin:round;">
	<!ENTITY st23 "fill:none;stroke:#3E65AC;stroke-width:3;">
	<!ENTITY st24 "fill:#CCCCCC;stroke:#CCCCCC;stroke-width:0.1;stroke-linecap:round;stroke-linejoin:round;">
	<!ENTITY st25 "fill:none;stroke:#000000;stroke-width:5;">
	<!ENTITY st26 "font-family:'Arial';">
	<!ENTITY st27 "opacity:0.5;fill:none;stroke:#34ACCE;stroke-linejoin:round;">
	<!ENTITY st28 "fill:none;stroke:#000000;stroke-width:1.42;stroke-linecap:round;stroke-linejoin:round;">
	<!ENTITY st29 "fill:#CFE6E7;stroke:#000000;stroke-width:1.133;stroke-linecap:round;stroke-linejoin:round;">
	<!ENTITY st30 "fill:none;stroke:#99D5E0;stroke-width:5.1;stroke-linejoin:round;">
	<!ENTITY st31 "fill:none;stroke:#000000;stroke-width:0.85;stroke-linecap:round;stroke-linejoin:round;">
	<!ENTITY st32 "fill:none;stroke:#7EC57E;stroke-width:5.1;stroke-linejoin:round;">
<!ATTLIST svg
xmlns:ewd CDATA #FIXED "http://shcl.co.jp/ewd"
xmlns:a CDATA #FIXED "http://ns.adobe.com/AdobeSVGViewerExtensions/3.0/"
ewd:ver CDATA #IMPLIED
>
<!ATTLIST a
ewd:lineID CDATA #IMPLIED
ewd:groupID CDATA #IMPLIED
ewd:figtype CDATA #IMPLIED
ewd:code CDATA #IMPLIED
ewd:figID CDATA #IMPLIED
ewd:pinNo CDATA #IMPLIED
ewd:comment CDATA #IMPLIED >
<!ATTLIST g
ewd:lineID CDATA #IMPLIED
ewd:groupID CDATA #IMPLIED
ewd:figtype CDATA #IMPLIED
ewd:code CDATA #IMPLIED
ewd:figID CDATA #IMPLIED
ewd:pinNo CDATA #IMPLIED
ewd:comment CDATA #IMPLIED >
<!ATTLIST text
ewd:textID CDATA #IMPLIED >
<!ATTLIST title
ewd:textID CDATA #IMPLIED >
]>
<svg 
viewBox='0 0 8297.56 729.44'
height='729.44'
width='8297.56'
xml:space="preserve"
xmlns="&ns_svg;"
xmlns:ewd="http://shcl.co.jp/ewd"
xmlns:xlink="&ns_xlink;" ewd:ver="L2.1">
<g ewd:code="FUSE10" ewd:figID="401" ewd:figtype="rb">
<path style="&st5;" d="M76.67,39.55v42.49h25.49V39.55H76.67"/>
<path style="&st9;" d="M91.54,107.54h-4.25"/>
<path style="&st9;" d="M91.54,99.04h-4.25"/>
<path style="&st15;" d="M89.41,73.54v25.5"/>
<path style="&st9;" d="M76.67,39.55v42.49h25.49V39.55H76.67"/>
<path style="&st6;" d="M89.41,94.14l-2.83-2.83v4.25l2.83,2.83l2.84-2.83v-4.25L89.41,94.14"/>
<path style="&st9;" d="M95.79,103.29c0-2.35-1.9-4.25-4.25-4.25"/>
<path style="&st9;" d="M91.54,107.54c2.35,0,4.25-1.9,4.25-4.25"/>
<path style="&st9;" d="M83.04,103.29c0,2.35,1.9,4.25,4.25,4.25"/>
<path style="&st9;" d="M87.29,99.04c-2.35,0-4.25,1.9-4.25,4.25"/>
<path style="&st15;" d="M90.83,72.13c0-0.79-0.63-1.42-1.42-1.42"/>
<path style="&st15;" d="M89.41,70.71c-0.78,0-1.41,0.63-1.41,1.42"/>
<path style="&st15;" d="M88,72.13c0,0.78,0.63,1.41,1.41,1.41"/>
<path style="&st15;" d="M89.41,73.54c0.79,0,1.42-0.63,1.42-1.41"/>
<path style="&st15;" d="M90.83,49.46c0-0.78-0.63-1.41-1.42-1.41"/>
<path style="&st15;" d="M89.41,48.05c-0.78,0-1.41,0.63-1.41,1.41"/>
<path style="&st15;" d="M88,49.46c0,0.79,0.63,1.42,1.41,1.42"/>
<path style="&st15;" d="M89.41,50.88c0.79,0,1.42-0.63,1.42-1.42"/>
<path style="&st9;" d="M89.41,70.71c2.74-1.61,3.65-5.14,2.04-7.88"/>
<path style="&st9;" d="M91.45,62.83c-0.52-0.88-1.15-1.51-2.04-2.03"/>
<path style="&st9;" d="M89.41,50.88c-2.73,1.61-3.65,5.14-2.03,7.88"/>
<path style="&st9;" d="M87.38,58.76c0.52,0.88,1.15,1.52,2.03,2.04"/>
<text transform="matrix(1 0 0 1 106.7231 59.9355)" style="&st7;"><tspan x="0" y="0" style="&st26; &st17;">10A</tspan></text>
<text transform="matrix(1 0 0 1 106.7231 65.9355)" style="&st7;"><tspan x="0" y="0" style="&st26; &st17;">ECU-B</tspan></text>
<text transform="matrix(1 0 0 1 87.8232 105.2559)" style="&st7;"><tspan x="0" y="0" style="&st26; &st17;">1</tspan></text>
<text transform="matrix(1 0 0 1 82.6333 90.2354)" style="&st7;"><tspan x="0" y="0" style="&st26; &st17;">2</tspan></text>
<text transform="matrix(1 0 0 1 80.3032 35.8457)" style="&st7;"><tspan x="0" y="0" style="&st26; &st17;">(BAT)</tspan></text>
</g>
<g ewd:code="2" ewd:figID="301" ewd:figtype="jb">
<path style="&st5;" d="M255.14,39.55v42.49h25.49V39.55H255.14"/>
<path style="&st5;" d="M195.65,39.55v42.49h25.49V39.55H195.65"/>
<path style="&st5;" d="M136.16,39.55v42.49h25.49V39.55H136.16"/>
<path style="&st9;" d="M439.98,141.53h-4.25"/>
<path style="&st9;" d="M439.98,133.03h-4.25"/>
<path style="&st15;" d="M437.86,133.03V82.04"/>
<path style="&st6;" d="M437.86,128.14l-2.84-2.83v4.25l2.84,2.83l2.83-2.83v-4.25L437.86,128.14"/>
<path style="&st9;" d="M255.14,39.55v42.49h25.49V39.55H255.14"/>
<path style="&st15;" d="M267.88,73.54v25.5h67.99v-17"/>
<path style="&st9;" d="M195.65,39.55v42.49h25.49V39.55H195.65"/>
<path style="&st15;" d="M208.39,73.54v42.5h161.48v-34"/>
<path style="&st9;" d="M136.16,39.55v42.49h25.49V39.55H136.16"/>
<path style="&st15;" d="M148.9,73.54v59.49h254.96V82.04"/>
<path style="&st9;" d="M444.23,137.28c0-2.34-1.9-4.25-4.25-4.25"/>
<path style="&st9;" d="M439.98,141.53c2.35,0,4.25-1.9,4.25-4.25"/>
<path style="&st9;" d="M431.48,137.28c0,2.35,1.9,4.25,4.25,4.25"/>
<path style="&st9;" d="M435.73,133.03c-2.35,0-4.25,1.91-4.25,4.25"/>
<path style="&st15;" d="M269.3,72.13c0-0.79-0.63-1.42-1.42-1.42"/>
<path style="&st15;" d="M267.88,70.71c-0.78,0-1.41,0.63-1.41,1.42"/>
<path style="&st15;" d="M266.47,72.13c0,0.78,0.63,1.41,1.41,1.41"/>
<path style="&st15;" d="M267.88,73.54c0.79,0,1.42-0.63,1.42-1.41"/>
<path style="&st15;" d="M269.3,49.46c0-0.78-0.63-1.41-1.42-1.41"/>
<path style="&st15;" d="M267.88,48.05c-0.78,0-1.41,0.63-1.41,1.41"/>
<path style="&st15;" d="M266.47,49.46c0,0.79,0.63,1.42,1.41,1.42"/>
<path style="&st15;" d="M267.88,50.88c0.79,0,1.42-0.63,1.42-1.42"/>
<path style="&st9;" d="M267.88,70.71c2.74-1.61,3.65-5.14,2.04-7.88"/>
<path style="&st9;" d="M269.92,62.83c-0.52-0.88-1.15-1.51-2.04-2.03"/>
<path style="&st9;" d="M267.88,50.88c-2.73,1.61-3.65,5.14-2.03,7.88"/>
<path style="&st9;" d="M265.85,58.76c0.52,0.88,1.15,1.52,2.03,2.04"/>
<path style="&st15;" d="M150.32,72.13c0-0.79-0.63-1.42-1.42-1.42"/>
<path style="&st15;" d="M148.9,70.71c-0.78,0-1.41,0.63-1.41,1.42"/>
<path style="&st15;" d="M147.49,72.13c0,0.78,0.63,1.41,1.41,1.41"/>
<path style="&st15;" d="M148.9,73.54c0.79,0,1.42-0.63,1.42-1.41"/>
<path style="&st15;" d="M150.32,49.46c0-0.78-0.63-1.41-1.42-1.41"/>
<path style="&st15;" d="M148.9,48.05c-0.78,0-1.41,0.63-1.41,1.41"/>
<path style="&st15;" d="M147.49,49.46c0,0.79,0.63,1.42,1.41,1.42"/>
<path style="&st15;" d="M148.9,50.88c0.79,0,1.42-0.63,1.42-1.42"/>
<path style="&st9;" d="M148.9,70.71c2.74-1.61,3.65-5.14,2.04-7.88"/>
<path style="&st9;" d="M150.94,62.83c-0.52-0.88-1.15-1.51-2.04-2.03"/>
<path style="&st9;" d="M148.9,50.88c-2.73,1.61-3.65,5.14-2.03,7.88"/>
<path style="&st9;" d="M146.87,58.76c0.52,0.88,1.15,1.52,2.03,2.04"/>
<path style="&st15;" d="M209.81,72.13c0-0.79-0.63-1.42-1.42-1.42"/>
<path style="&st15;" d="M208.39,70.71c-0.78,0-1.41,0.63-1.41,1.42"/>
<path style="&st15;" d="M206.98,72.13c0,0.78,0.63,1.41,1.41,1.41"/>
<path style="&st15;" d="M208.39,73.54c0.79,0,1.42-0.63,1.42-1.41"/>
<path style="&st15;" d="M209.81,49.46c0-0.78-0.63-1.41-1.42-1.41"/>
<path style="&st15;" d="M208.39,48.05c-0.78,0-1.41,0.63-1.41,1.41"/>
<path style="&st15;" d="M206.98,49.46c0,0.79,0.63,1.42,1.41,1.42"/>
<path style="&st15;" d="M208.39,50.88c0.79,0,1.42-0.63,1.42-1.42"/>
<path style="&st9;" d="M208.39,70.71c2.74-1.61,3.65-5.14,2.04-7.88"/>
<path style="&st9;" d="M210.43,62.83c-0.52-0.88-1.15-1.51-2.04-2.03"/>
<path style="&st9;" d="M208.39,50.88c-2.73,1.61-3.65,5.14-2.03,7.88"/>
<path style="&st9;" d="M206.36,58.76c0.52,0.88,1.15,1.52,2.03,2.04"/>
<text transform="matrix(1 0 0 1 285.1929 57.1055)" style="&st7;"><tspan x="0" y="0" style="&st26; &st17;">10A</tspan></text>
<text transform="matrix(1 0 0 1 285.1929 63.1055)" style="&st7;"><tspan x="0" y="0" style="&st26; &st17;">ECU-IG</tspan></text>
<text transform="matrix(1 0 0 1 285.1929 69.1055)" style="&st7;"><tspan x="0" y="0" style="&st26; &st17;">NO.2</tspan></text>
<text transform="matrix(1 0 0 1 261.813 35.8457)" style="&st7;"><tspan x="0" y="0" style="&st26; &st17;">(IG)</tspan></text>
<text transform="matrix(1 0 0 1 433.7632 139.2456)" style="&st7;"><tspan x="0" y="0" style="&st26; &st17;">2F</tspan></text>
<text transform="matrix(1 0 0 1 421.2134 139.2456)" style="&st7;"><tspan x="0" y="0" style="&st26; &st17;">39</tspan></text>
<text transform="matrix(1 0 0 1 225.7031 59.9355)" style="&st7;"><tspan x="0" y="0" style="&st26; &st17;">7.5A</tspan></text>
<text transform="matrix(1 0 0 1 225.7031 65.9355)" style="&st7;"><tspan x="0" y="0" style="&st26; &st17;">ACC</tspan></text>
<text transform="matrix(1 0 0 1 198.793 35.8457)" style="&st7;"><tspan x="0" y="0" style="&st26; &st17;">(ACC)</tspan></text>
<text transform="matrix(1 0 0 1 166.2129 57.1055)" style="&st7;"><tspan x="0" y="0" style="&st26; &st17;">25A</tspan></text>
<text transform="matrix(1 0 0 1 166.2129 63.1055)" style="&st7;"><tspan x="0" y="0" style="&st26; &st17;">D/L</tspan></text>
<text transform="matrix(1 0 0 1 166.2129 69.1055)" style="&st7;"><tspan x="0" y="0" style="&st26; &st17;">NO.2</tspan></text>
<text transform="matrix(1 0 0 1 139.793 35.8457)" style="&st7;"><tspan x="0" y="0" style="&st26; &st17;">(BAT)</tspan></text>
</g>
<g ewd:code="G63-A,G64-B,G65-C" ewd:figID="1" ewd:figtype="conn">
<path style="&st9;" d="M318.88,39.55v42.49h7436.25V39.55H318.88"/>
<path style="&st9;" d="M7708.67,86.57c0-2.5-2.02-4.53-4.53-4.53"/>
<path style="&st9;" d="M7704.14,82.04c-2.5,0-4.53,2.03-4.53,4.53"/>
<path style="&st9;" d="M7699.61,86.57c0,2.51,2.03,4.54,4.53,4.54"/>
<path style="&st9;" d="M7704.14,91.11c2.51,0,4.53-2.03,4.53-4.54"/>
<path style="&st9;" d="M7742.67,86.57c0-2.5-2.03-4.53-4.53-4.53"/>
<path style="&st9;" d="M7738.14,82.04c-2.51,0-4.54,2.03-4.54,4.53"/>
<path style="&st9;" d="M7733.6,86.57c0,2.51,2.03,4.54,4.54,4.54"/>
<path style="&st9;" d="M7738.14,91.11c2.5,0,4.53-2.03,4.53-4.54"/>
<path style="&st9;" d="M6884.31,86.57c0-2.5-2.03-4.53-4.53-4.53"/>
<path style="&st9;" d="M6879.78,82.04c-2.5,0-4.53,2.03-4.53,4.53"/>
<path style="&st9;" d="M6875.25,86.57c0,2.51,2.03,4.54,4.53,4.54"/>
<path style="&st9;" d="M6879.78,91.11c2.5,0,4.53-2.03,4.53-4.54"/>
<path style="&st9;" d="M7122.27,86.57c0-2.5-2.03-4.53-4.53-4.53"/>
<path style="&st9;" d="M7117.74,82.04c-2.5,0-4.53,2.03-4.53,4.53"/>
<path style="&st9;" d="M7113.21,86.57c0,2.51,2.03,4.54,4.53,4.54"/>
<path style="&st9;" d="M7117.74,91.11c2.5,0,4.53-2.03,4.53-4.54"/>
<path style="&st9;" d="M561.37,86.57c0-2.5-2.03-4.53-4.53-4.53"/>
<path style="&st9;" d="M556.84,82.04c-2.51,0-4.54,2.03-4.54,4.53"/>
<path style="&st9;" d="M552.3,86.57c0,2.51,2.03,4.54,4.54,4.54"/>
<path style="&st9;" d="M556.84,91.11c2.5,0,4.53-2.03,4.53-4.54"/>
<path style="&st9;" d="M2516.04,86.57c0-2.5-2.03-4.53-4.53-4.53"/>
<path style="&st9;" d="M2511.51,82.04c-2.5,0-4.53,2.03-4.53,4.53"/>
<path style="&st9;" d="M2506.98,86.57c0,2.51,2.03,4.54,4.53,4.54"/>
<path style="&st9;" d="M2511.51,91.11c2.5,0,4.53-2.03,4.53-4.54"/>
<path style="&st9;" d="M4778.17,86.57c0-2.5-2.03-4.53-4.54-4.53"/>
<path style="&st9;" d="M4773.63,82.04c-2.5,0-4.53,2.03-4.53,4.53"/>
<path style="&st9;" d="M4769.1,86.57c0,2.51,2.03,4.54,4.53,4.54"/>
<path style="&st9;" d="M4773.63,91.11c2.51,0,4.54-2.03,4.54-4.54"/>
<path style="&st9;" d="M5059.13,86.57c0-2.5-2.03-4.53-4.53-4.53"/>
<path style="&st9;" d="M5054.6,82.04c-2.51,0-4.54,2.03-4.54,4.53"/>
<path style="&st9;" d="M5050.06,86.57c0,2.51,2.03,4.54,4.54,4.54"/>
<path style="&st9;" d="M5054.6,91.11c2.5,0,4.53-2.03,4.53-4.54"/>
<path style="&st9;" d="M6068.45,86.57c0-2.5-2.03-4.53-4.53-4.53"/>
<path style="&st9;" d="M6063.92,82.04c-2.51,0-4.54,2.03-4.54,4.53"/>
<path style="&st9;" d="M6059.38,86.57c0,2.51,2.03,4.54,4.54,4.54"/>
<path style="&st9;" d="M6063.92,91.11c2.5,0,4.53-2.03,4.53-4.54"/>
<path style="&st9;" d="M1334.74,86.57c0-2.5-2.03-4.53-4.53-4.53"/>
<path style="&st9;" d="M1330.21,82.04c-2.51,0-4.54,2.03-4.54,4.53"/>
<path style="&st9;" d="M1325.67,86.57c0,2.51,2.03,4.54,4.54,4.54"/>
<path style="&st9;" d="M1330.21,91.11c2.5,0,4.53-2.03,4.53-4.54"/>
<path style="&st9;" d="M1470.72,86.57c0-2.5-2.03-4.53-4.54-4.53"/>
<path style="&st9;" d="M1466.18,82.04c-2.5,0-4.53,2.03-4.53,4.53"/>
<path style="&st9;" d="M1461.65,86.57c0,2.51,2.03,4.54,4.53,4.54"/>
<path style="&st9;" d="M1466.18,91.11c2.51,0,4.54-2.03,4.54-4.54"/>
<path style="&st9;" d="M1402.73,86.57c0-2.5-2.03-4.53-4.53-4.53"/>
<path style="&st9;" d="M1398.2,82.04c-2.51,0-4.54,2.03-4.54,4.53"/>
<path style="&st9;" d="M1393.66,86.57c0,2.51,2.03,4.54,4.54,4.54"/>
<path style="&st9;" d="M1398.2,91.11c2.5,0,4.53-2.03,4.53-4.54"/>
<path style="&st9;" d="M1717.18,86.57c0-2.5-2.03-4.53-4.54-4.53"/>
<path style="&st9;" d="M1712.64,82.04c-2.5,0-4.53,2.03-4.53,4.53"/>
<path style="&st9;" d="M1708.11,86.57c0,2.51,2.03,4.54,4.53,4.54"/>
<path style="&st9;" d="M1712.64,91.11c2.51,0,4.54-2.03,4.54-4.54"/>
<path style="&st9;" d="M1623.69,86.57c0-2.5-2.03-4.53-4.53-4.53"/>
<path style="&st9;" d="M1619.16,82.04c-2.5,0-4.53,2.03-4.53,4.53"/>
<path style="&st9;" d="M1614.63,86.57c0,2.51,2.03,4.54,4.53,4.54"/>
<path style="&st9;" d="M1619.16,91.11c2.5,0,4.53-2.03,4.53-4.54"/>
<path style="&st9;" d="M1904.14,86.57c0-2.5-2.02-4.53-4.53-4.53"/>
<path style="&st9;" d="M1899.61,82.04c-2.5,0-4.53,2.03-4.53,4.53"/>
<path style="&st9;" d="M1895.08,86.57c0,2.51,2.03,4.54,4.53,4.54"/>
<path style="&st9;" d="M1899.61,91.11c2.51,0,4.53-2.03,4.53-4.54"/>
<path style="&st9;" d="M2006.13,86.57c0-2.5-2.03-4.53-4.54-4.53"/>
<path style="&st9;" d="M2001.59,82.04c-2.5,0-4.53,2.03-4.53,4.53"/>
<path style="&st9;" d="M1997.06,86.57c0,2.51,2.03,4.54,4.53,4.54"/>
<path style="&st9;" d="M2001.59,91.11c2.51,0,4.54-2.03,4.54-4.54"/>
<path style="&st9;" d="M2133.61,86.57c0-2.5-2.03-4.53-4.54-4.53"/>
<path style="&st9;" d="M2129.07,82.04c-2.5,0-4.53,2.03-4.53,4.53"/>
<path style="&st9;" d="M2124.54,86.57c0,2.51,2.03,4.54,4.53,4.54"/>
<path style="&st9;" d="M2129.07,91.11c2.51,0,4.54-2.03,4.54-4.54"/>
<text transform="matrix(1 0 0 1 4771.3027 88.5356)" style="&st7;"><tspan x="0" y="0" style="&st26; &st17;">B</tspan></text>
<text transform="matrix(1 0 0 1 4763.5625 88.5356)" style="&st7;"><tspan x="0" y="0" style="&st26; &st17;">2</tspan></text>
<text transform="matrix(1 0 0 1 4764.3828 78.3457)" style="&st7;"><tspan x="0" y="0" style="&st26; &st17;">DOMR</tspan></text>
<text transform="matrix(1 0 0 1 325.1333 90.2354)" style="&st7;"><tspan x="0" y="0" style="&st26; &st17;">32</tspan></text>
<text transform="matrix(1 0 0 1 332.1333 78.3457)" style="&st7;"><tspan x="0" y="0" style="&st26; &st17;">IG</tspan></text>
<text transform="matrix(1 0 0 1 427.1128 90.2354)" style="&st7;"><tspan x="0" y="0" style="&st26; &st17;">30</tspan></text>
<text transform="matrix(1 0 0 1 428.2534 78.3457)" style="&st7;"><tspan x="0" y="0" style="&st26; &st17;">BECU</tspan></text>
<text transform="matrix(1 0 0 1 545.9634 88.5356)" style="&st7;"><tspan x="0" y="0" style="&st26; &st17;">3</tspan></text>
<text transform="matrix(1 0 0 1 554.5132 88.5356)" style="&st7;"><tspan x="0" y="0" style="&st26; &st17;">A</tspan></text>
<text transform="matrix(1 0 0 1 547.1636 78.3457)" style="&st7;"><tspan x="0" y="0" style="&st26; &st17;">GND2</tspan></text>
<text transform="matrix(1 0 0 1 359.1235 90.2354)" style="&st7;"><tspan x="0" y="0" style="&st26; &st17;">29</tspan></text>
<text transform="matrix(1 0 0 1 362.5933 78.3457)" style="&st7;"><tspan x="0" y="0" style="&st26; &st17;">ACC</tspan></text>
<text transform="matrix(1 0 0 1 395.103 78.3457)" style="&st7;"><tspan x="0" y="0" style="&st26; &st17;">ALTB</tspan></text>
<text transform="matrix(1 0 0 1 393.8931 90.2354)" style="&st7;"><tspan x="0" y="0" style="&st26; &st17;">31</tspan></text>
<text ewd:textID='39' transform='matrix(1 0 0 1 375.8433 62.7559)' style='&st7; &st26; &st17;'>Main Body ECU</text>
<text transform="matrix(1 0 0 1 375.8433 55.6558)" style="&st7;"><tspan x="0" y="0" style="&st26; &st17;">G63(A),G64(B),G65(C)</tspan></text>
<text ewd:textID='39' transform='matrix(1 0 0 1 1251.1929 65.5957)' style='&st7; &st26; &st17;'>Main Body ECU</text>
<text transform="matrix(1 0 0 1 1251.1929 58.4854)" style="&st7;"><tspan x="0" y="0" style="&st26; &st17;">G63(A),G64(B),G65(C)</tspan></text>
<text transform="matrix(1 0 0 1 741.2827 58.4854)" style="&st7;"><tspan x="0" y="0" style="&st26; &st17;">G63(A),G64(B),G65(C)</tspan></text>
<text transform="matrix(1 0 0 1 777.0132 78.3457)" style="&st7;"><tspan x="0" y="0" style="&st26; &st17;">GND1</tspan></text>
<text ewd:textID='39' transform='matrix(1 0 0 1 741.2827 65.5957)' style='&st7; &st26; &st17;'>Main Body ECU</text>
<text transform="matrix(1 0 0 1 2509.0435 88.5356)" style="&st7;"><tspan x="0" y="0" style="&st26; &st17;">C</tspan></text>
<text transform="matrix(1 0 0 1 2500.6636 88.5356)" style="&st7;"><tspan x="0" y="0" style="&st26; &st17;">5</tspan></text>
<text transform="matrix(1 0 0 1 2502.2632 78.3457)" style="&st7;"><tspan x="0" y="0" style="&st26; &st17;">CSPT</tspan></text>
<text transform="matrix(1 0 0 1 2820.6636 78.3457)" style="&st7;"><tspan x="0" y="0" style="&st26; &st17;">ILE</tspan></text>
<text transform="matrix(1 0 0 1 5562.1035 78.3457)" style="&st7;"><tspan x="0" y="0" style="&st26; &st17;">FSPT</tspan></text>
<text transform="matrix(1 0 0 1 5208.418 106.6655)" style="&st7;"><tspan x="0" y="0" style="&st26; &st17;">(*17)</tspan></text>
<text transform="matrix(1 0 0 1 5148.9277 106.6655)" style="&st7;"><tspan x="0" y="0" style="&st26; &st17;">(*17)</tspan></text>
<text transform="matrix(1 0 0 1 5152.0391 95.3354)" style="&st7;"><tspan x="0" y="0" style="&st26; &st17;">SB</tspan></text>
<text transform="matrix(1 0 0 1 5211.5293 95.3354)" style="&st7;"><tspan x="0" y="0" style="&st26; &st17;">SB</tspan></text>
<text transform="matrix(1 0 0 1 5043.7539 88.5356)" style="&st7;"><tspan x="0" y="0" style="&st26; &st17;">6</tspan></text>
<text transform="matrix(1 0 0 1 5045.7031 78.3457)" style="&st7;"><tspan x="0" y="0" style="&st26; &st17;">TSPT</tspan></text>
<text transform="matrix(1 0 0 1 5052.123 88.5356)" style="&st7;"><tspan x="0" y="0" style="&st26; &st17;">C</tspan></text>
<text transform="matrix(1 0 0 1 6053.0742 88.5356)" style="&st7;"><tspan x="0" y="0" style="&st26; &st17;">2</tspan></text>
<text transform="matrix(1 0 0 1 6061.4434 88.5356)" style="&st7;"><tspan x="0" y="0" style="&st26; &st17;">C</tspan></text>
<text transform="matrix(1 0 0 1 6054.3828 78.3457)" style="&st7;"><tspan x="0" y="0" style="&st26; &st17;">OSPT</tspan></text>
<text transform="matrix(1 0 0 1 2296.5229 58.4854)" style="&st7;"><tspan x="0" y="0" style="&st26; &st17;">G63(A),G64(B),G65(C)</tspan></text>
<text ewd:textID='39' transform='matrix(1 0 0 1 2296.5229 65.5957)' style='&st7; &st26; &st17;'>Main Body ECU</text>
<text transform="matrix(1 0 0 1 2814.9331 58.4854)" style="&st7;"><tspan x="0" y="0" style="&st26; &st17;">G63(A),G64(B),G65(C)</tspan></text>
<text ewd:textID='39' transform='matrix(1 0 0 1 2814.9331 65.5957)' style='&st7; &st26; &st17;'>Main Body ECU</text>
<text transform="matrix(1 0 0 1 3333.353 58.4854)" style="&st7;"><tspan x="0" y="0" style="&st26; &st17;">G63(A),G64(B),G65(C)</tspan></text>
<text ewd:textID='39' transform='matrix(1 0 0 1 3333.353 65.5957)' style='&st7; &st26; &st17;'>Main Body ECU</text>
<text transform="matrix(1 0 0 1 3851.7632 58.4854)" style="&st7;"><tspan x="0" y="0" style="&st26; &st17;">G63(A),G64(B),G65(C)</tspan></text>
<text ewd:textID='39' transform='matrix(1 0 0 1 3851.7632 65.5957)' style='&st7; &st26; &st17;'>Main Body ECU</text>
<text transform="matrix(1 0 0 1 4370.1738 58.4854)" style="&st7;"><tspan x="0" y="0" style="&st26; &st17;">G63(A),G64(B),G65(C)</tspan></text>
<text ewd:textID='39' transform='matrix(1 0 0 1 4370.1738 65.5957)' style='&st7; &st26; &st17;'>Main Body ECU</text>
<text transform="matrix(1 0 0 1 4888.5938 58.4854)" style="&st7;"><tspan x="0" y="0" style="&st26; &st17;">G63(A),G64(B),G65(C)</tspan></text>
<text ewd:textID='39' transform='matrix(1 0 0 1 4888.5938 65.5957)' style='&st7; &st26; &st17;'>Main Body ECU</text>
<text transform="matrix(1 0 0 1 5407.0039 58.4854)" style="&st7;"><tspan x="0" y="0" style="&st26; &st17;">G63(A),G64(B),G65(C)</tspan></text>
<text ewd:textID='39' transform='matrix(1 0 0 1 5407.0039 65.5957)' style='&st7; &st26; &st17;'>Main Body ECU</text>
<text transform="matrix(1 0 0 1 5925.4141 58.4854)" style="&st7;"><tspan x="0" y="0" style="&st26; &st17;">G63(A),G64(B),G65(C)</tspan></text>
<text ewd:textID='39' transform='matrix(1 0 0 1 5925.4141 65.5957)' style='&st7; &st26; &st17;'>Main Body ECU</text>
<text transform="matrix(1 0 0 1 6443.834 58.4854)" style="&st7;"><tspan x="0" y="0" style="&st26; &st17;">G63(A),G64(B),G65(C)</tspan></text>
<text ewd:textID='39' transform='matrix(1 0 0 1 6443.834 65.5957)' style='&st7; &st26; &st17;'>Main Body ECU</text>
<text transform="matrix(1 0 0 1 1082.853 78.3457)" style="&st7;"><tspan x="0" y="0" style="&st26; &st17;">FRCY</tspan></text>
<text transform="matrix(1 0 0 1 1395.8628 88.5356)" style="&st7;"><tspan x="0" y="0" style="&st26; &st17;">B</tspan></text>
<text transform="matrix(1 0 0 1 1387.353 88.5356)" style="&st7;"><tspan x="0" y="0" style="&st26; &st17;">6</tspan></text>
<text transform="matrix(1 0 0 1 1388.8032 78.3457)" style="&st7;"><tspan x="0" y="0" style="&st26; &st17;">RCTY</tspan></text>
<text transform="matrix(1 0 0 1 1321.313 78.3457)" style="&st7;"><tspan x="0" y="0" style="&st26; &st17;">LCTY</tspan></text>
<text transform="matrix(1 0 0 1 1319.3628 88.5356)" style="&st7;"><tspan x="0" y="0" style="&st26; &st17;">3</tspan></text>
<text transform="matrix(1 0 0 1 1219.3228 78.3457)" style="&st7;"><tspan x="0" y="0" style="&st26; &st17;">FLCY</tspan></text>
<text transform="matrix(1 0 0 1 1327.7329 88.5356)" style="&st7;"><tspan x="0" y="0" style="&st26; &st17;">C</tspan></text>
<text transform="matrix(1 0 0 1 1456.9331 78.3457)" style="&st7;"><tspan x="0" y="0" style="&st26; &st17;">BCTY</tspan></text>
<text transform="matrix(1 0 0 1 1452.1636 88.5356)" style="&st7;"><tspan x="0" y="0" style="&st26; &st17;">19</tspan></text>
<text transform="matrix(1 0 0 1 1463.853 88.5356)" style="&st7;"><tspan x="0" y="0" style="&st26; &st17;">B</tspan></text>
<text transform="matrix(1 0 0 1 1778.1128 58.4854)" style="&st7;"><tspan x="0" y="0" style="&st26; &st17;">G63(A),G64(B),G65(C)</tspan></text>
<text ewd:textID='39' transform='matrix(1 0 0 1 1778.1128 65.5957)' style='&st7; &st26; &st17;'>Main Body ECU</text>
<text transform="matrix(1 0 0 1 6953.7441 58.4854)" style="&st7;"><tspan x="0" y="0" style="&st26; &st17;">G63(A),G64(B),G65(C)</tspan></text>
<text ewd:textID='39' transform='matrix(1 0 0 1 6953.7441 65.5957)' style='&st7; &st26; &st17;'>Main Body ECU</text>
<text transform="matrix(1 0 0 1 7690.0938 88.5356)" style="&st7;"><tspan x="0" y="0" style="&st26; &st17;">14</tspan></text>
<text transform="matrix(1 0 0 1 7701.8125 88.5356)" style="&st7;"><tspan x="0" y="0" style="&st26; &st17;">B</tspan></text>
<text transform="matrix(1 0 0 1 7724.084 88.5356)" style="&st7;"><tspan x="0" y="0" style="&st26; &st17;">13</tspan></text>
<text transform="matrix(1 0 0 1 7735.8125 88.5356)" style="&st7;"><tspan x="0" y="0" style="&st26; &st17;">B</tspan></text>
<text transform="matrix(1 0 0 1 7694.3926 78.3457)" style="&st7;"><tspan x="0" y="0" style="&st26; &st17;">CANH</tspan></text>
<text transform="matrix(1 0 0 1 7728.8828 78.3457)" style="&st7;"><tspan x="0" y="0" style="&st26; &st17;">CANL</tspan></text>
<text ewd:textID='39' transform='matrix(1 0 0 1 7472.1641 65.5957)' style='&st7; &st26; &st17;'>Main Body ECU</text>
<text transform="matrix(1 0 0 1 7472.1641 58.4854)" style="&st7;"><tspan x="0" y="0" style="&st26; &st17;">G63(A),G64(B),G65(C)</tspan></text>
<text transform="matrix(1 0 0 1 6871.7324 78.3457)" style="&st7;"><tspan x="0" y="0" style="&st26; &st17;">OILE</tspan></text>
<text transform="matrix(1 0 0 1 6868.9336 88.5356)" style="&st7;"><tspan x="0" y="0" style="&st26; &st17;">4</tspan></text>
<text transform="matrix(1 0 0 1 6877.4531 88.5356)" style="&st7;"><tspan x="0" y="0" style="&st26; &st17;">A</tspan></text>
<text transform="matrix(1 0 0 1 2121.063 78.3457)" style="&st7;"><tspan x="0" y="0" style="&st26; &st17;">KSW</tspan></text>
<text transform="matrix(1 0 0 1 2115.0532 88.5356)" style="&st7;"><tspan x="0" y="0" style="&st26; &st17;">17</tspan></text>
<text transform="matrix(1 0 0 1 2126.7437 88.5356)" style="&st7;"><tspan x="0" y="0" style="&st26; &st17;">B</tspan></text>
<text transform="matrix(1 0 0 1 7106.8926 88.5356)" style="&st7;"><tspan x="0" y="0" style="&st26; &st17;">5</tspan></text>
<text transform="matrix(1 0 0 1 7109.9727 78.3457)" style="&st7;"><tspan x="0" y="0" style="&st26; &st17;">ILUP</tspan></text>
<text transform="matrix(1 0 0 1 7115.4141 88.5356)" style="&st7;"><tspan x="0" y="0" style="&st26; &st17;">A</tspan></text>
<text transform="matrix(1 0 0 1 1796.4829 78.3457)" style="&st7;"><tspan x="0" y="0" style="&st26; &st17;">LSWL</tspan></text>
<text transform="matrix(1 0 0 1 1710.313 88.5356)" style="&st7;"><tspan x="0" y="0" style="&st26; &st17;">B</tspan></text>
<text transform="matrix(1 0 0 1 1698.5933 88.5356)" style="&st7;"><tspan x="0" y="0" style="&st26; &st17;">18</tspan></text>
<text transform="matrix(1 0 0 1 1703.7437 78.3457)" style="&st7;"><tspan x="0" y="0" style="&st26; &st17;">LSFR</tspan></text>
<text transform="matrix(1 0 0 1 1610.7534 78.3457)" style="&st7;"><tspan x="0" y="0" style="&st26; &st17;">LSFL</tspan></text>
<text transform="matrix(1 0 0 1 1608.2827 88.5356)" style="&st7;"><tspan x="0" y="0" style="&st26; &st17;">7</tspan></text>
<text transform="matrix(1 0 0 1 1616.8335 88.5356)" style="&st7;"><tspan x="0" y="0" style="&st26; &st17;">B</tspan></text>
<text transform="matrix(1 0 0 1 1888.7437 88.5356)" style="&st7;"><tspan x="0" y="0" style="&st26; &st17;">2</tspan></text>
<text transform="matrix(1 0 0 1 1897.2827 88.5356)" style="&st7;"><tspan x="0" y="0" style="&st26; &st17;">A</tspan></text>
<text transform="matrix(1 0 0 1 1889.4731 78.3457)" style="&st7;"><tspan x="0" y="0" style="&st26; &st17;">LSWR</tspan></text>
<text transform="matrix(1 0 0 1 1991.603 78.3457)" style="&st7;"><tspan x="0" y="0" style="&st26; &st17;">LSWB</tspan></text>
<text transform="matrix(1 0 0 1 1999.1226 88.5356)" style="&st7;"><tspan x="0" y="0" style="&st26; &st17;">C</tspan></text>
<text transform="matrix(1 0 0 1 1987.5435 88.5356)" style="&st7;"><tspan x="0" y="0" style="&st26; &st17;">13</tspan></text>
<text transform="matrix(1 0 0 1 7161.6934 78.3457)" style="&st7;"><tspan x="0" y="0" style="&st26; &st17;">ILDN</tspan></text>
</g>
<text transform="matrix(0 -1 1 0 85.7129 138.5562)" style="&st7;"><tspan x="0" y="0" style="&st26; &st17;">L</tspan></text>
</svg>
