﻿<?xml version="1.0" encoding="UTF-8"?>
<!DOCTYPE svg PUBLIC "-//W3C//DTD SVG 1.0//EN" "http://www.w3.org/TR/2001/REC-SVG-20010904/DTD/svg10.dtd"[
<!ENTITY ns_flows "http://ns.adobe.com/Flows/1.0/">
<!ENTITY ns_svg "http://www.w3.org/2000/svg">
<!ENTITY ns_xlink "http://www.w3.org/1999/xlink">
	<!ENTITY st0 "fill:none;stroke:#FB0F0C;stroke-width:5.1;stroke-linejoin:round;">
	<!ENTITY st1 "fill:none;stroke:#9A9999;stroke-width:5.1;stroke-linejoin:round;">
		<!ENTITY st2 "fill:none;stroke:#000000;stroke-width:0.85;stroke-linecap:round;stroke-linejoin:round;stroke-dasharray:3 1.5;enable-background:new    ;">
	<!ENTITY st3 "fill:none;stroke:#000000;stroke-width:5.1;stroke-linejoin:round;">
	<!ENTITY st4 "fill:none;stroke:#000000;stroke-linecap:round;stroke-linejoin:round;">
	<!ENTITY st5 "stroke:#000000;stroke-width:0.28;stroke-linecap:round;stroke-linejoin:round;enable-background:new    ;">
	<!ENTITY st6 "enable-background:new    ;">
		<!ENTITY st7 "fill:none;stroke:#000000;stroke-width:1.42;stroke-linecap:round;stroke-linejoin:round;enable-background:new    ;">
	<!ENTITY st8 "fill:none;stroke:#EE67AA;stroke-width:5.1;stroke-linejoin:round;">
	<!ENTITY st9 "fill:none;stroke:#199DBF;stroke-width:5.1;stroke-linejoin:round;">
	<!ENTITY st10 "opacity:0.5;fill:none;stroke:#34ACCE;stroke-linejoin:round;stroke-dasharray:6;">
	<!ENTITY st11 "fill:none;stroke:#FFFFFF;stroke-width:4.53;stroke-linejoin:round;">
		<!ENTITY st12 "fill:none;stroke:#000000;stroke-width:0.85;stroke-linecap:round;stroke-linejoin:round;enable-background:new    ;">
	<!ENTITY st13 "fill:none;stroke:#56107C;stroke-width:5.1;stroke-linejoin:round;">
	<!ENTITY st14 "font-size:6px;">
	<!ENTITY st15 "fill:none;stroke:#168638;stroke-width:5.1;stroke-linejoin:round;">
	<!ENTITY st16 "fill:none;stroke:#000000;stroke-width:1.13;stroke-linejoin:round;">
		<!ENTITY st17 "fill:none;stroke:#000000;stroke-width:1.13;stroke-linecap:round;stroke-linejoin:round;stroke-dasharray:3 1.5;enable-background:new    ;">
	<!ENTITY st18 "fill:#CCCCCC;stroke:#CECECF;stroke-width:0.1;stroke-linecap:round;stroke-linejoin:round;">
	<!ENTITY st19 "fill:#FFFFFF;stroke:#000000;stroke-width:1.41;stroke-linecap:round;stroke-linejoin:round;">
	<!ENTITY st20 "fill:none;stroke:#3E65AC;stroke-width:3;">
	<!ENTITY st21 "fill:#CCCCCC;stroke:#CCCCCC;stroke-width:0.1;stroke-linecap:round;stroke-linejoin:round;">
	<!ENTITY st22 "font-family:'Arial';">
	<!ENTITY st23 "opacity:0.5;fill:none;stroke:#34ACCE;stroke-linejoin:round;">
	<!ENTITY st24 "fill:none;stroke:#000000;stroke-width:1.42;stroke-linecap:round;stroke-linejoin:round;">
	<!ENTITY st25 "fill:#CFE6E7;stroke:#000000;stroke-width:1.133;stroke-linecap:round;stroke-linejoin:round;">
<!ATTLIST svg
xmlns:ewd CDATA #FIXED "http://shcl.co.jp/ewd"
xmlns:a CDATA #FIXED "http://ns.adobe.com/AdobeSVGViewerExtensions/3.0/"
ewd:ver CDATA #IMPLIED
>
<!ATTLIST a
ewd:lineID CDATA #IMPLIED
ewd:groupID CDATA #IMPLIED
ewd:figtype CDATA #IMPLIED
ewd:code CDATA #IMPLIED
ewd:figID CDATA #IMPLIED
ewd:pinNo CDATA #IMPLIED
ewd:comment CDATA #IMPLIED >
<!ATTLIST g
ewd:lineID CDATA #IMPLIED
ewd:groupID CDATA #IMPLIED
ewd:figtype CDATA #IMPLIED
ewd:code CDATA #IMPLIED
ewd:figID CDATA #IMPLIED
ewd:pinNo CDATA #IMPLIED
ewd:comment CDATA #IMPLIED >
<!ATTLIST text
ewd:textID CDATA #IMPLIED >
<!ATTLIST title
ewd:textID CDATA #IMPLIED >
]>
<svg onload="call_execInitLoadProc_svg('system')"
style='overflow:visible;enable-background:new 0 0 1039.82 729.44'
viewBox='0 0 1039.82 729.44'
height='729.44'
width='1039.82'
xml:space="preserve"
xmlns="&ns_svg;"
xmlns:ewd="http://shcl.co.jp/ewd"
xmlns:a="http://ns.adobe.com/AdobeSVGViewerExtensions/3.0/"
xmlns:xlink="&ns_xlink;" ewd:ver="L2.1">
<style type="text/css">
</style>
<script type="text/javascript" xlink:href="../../../../../system/js/ewd/fig/svgfig.js"/>
<defs>
<font horiz-adv-x="1229">
<font-face font-family="Svg Symbol" units-per-em="2048" panose-1="5 5 1 2 1 7 6 2 5 7" ascent="2059" descent="450" alphabetic="0"/>
<missing-glyph d="M 103,0 l 0,1280 1024,0 0,-1280 -1024,0 z m 32,32 l 960,0 0,1216 -960,0 0,-1216 z"/>
<glyph unicode="&#xF057;" horiz-adv-x="1573" d="M 1517,0 l -567,0 24,279 q 141,59 207.5,168 66.5,109 66.5,306    0,272 -132.5,417.5 -132.5,145.5 -333.5,145.5 -194,0 -328,-147.5 -134,-147.5 -134,-401.5 0,-200 68.5,-319 68.5,-119     206.5,-169 l 25,-279 -564,0 0,279 35,0 q 3,-61 32,-83 45,-35 137,-35 l 270,0 0,70 q -210,61 -324.5,209 -114.5,148     -114.5,349 0,252 186.5,425 186.5,173 504.5,173 195,0 358.5,-73.5 163.5,-73.5 252,-214.5 88.5,-141 88.5,-310 0,-207     -121.5,-360.5 -121.5,-153.5 -317.5,-197.5 l -8,-70 275,0 q 92,0 128,28 36,28 42,90 l 38,0 0,-279 z"/>
</font>
</defs>
<g id="ewd_top">
<a ewd:lineID="2" style="cursor:pointer;">
<path style="&st8;" d="M 45.44 , 124.54 L 45.44 , 191.35"/>
</a>
<a ewd:lineID="3" style="cursor:pointer;">
<path style="&st15;" d="M 113.43 , 340.64 L 113.43 , 155.71 L 172.92 , 155.71 L 172.92 , 191.58"/>
</a>
<a ewd:lineID="1" style="cursor:pointer;">
<path style="&st8;" d="M 45.44 , 244.61 L 45.44 , 340.65"/>
</a>
<a ewd:lineID="6" style="cursor:pointer;">
<path style="&st15;" d="M 236.67 , 124.54 L 236.67 , 191.39"/>
</a>
<a ewd:lineID="16" style="cursor:pointer;">
<path style="&st3;" d="M 45.44 , 366.14 L 45.44 , 482.34"/>
</a>
<a ewd:lineID="18" style="cursor:pointer;">
<path style="&st9;" d="M 113.43 , 366.14 L 113.43 , 482.34"/>
</a>
<a ewd:lineID="17" style="cursor:pointer;">
<path style="&st1;" d="M 368.65 , 390.26 L 368.65 , 387.99 L 351.65 , 370.99 L 310.64 , 370.99 L 310.64 , 642.44 L 113.43 , 642.44 L 113.43 , 552.61"/>
</a>
<a ewd:lineID="19" style="cursor:pointer;">
<path style="&st15;" d="M 236.67 , 391.64 L 236.67 , 500.47"/>
</a>
<a ewd:lineID="7" style="cursor:pointer;">
<path style="&st15;" d="M 310.64 , 124.54 L 310.64 , 209.48"/>
</a>
<a ewd:lineID="8" style="cursor:pointer;">
<path style="&st15;" d="M 319.14 , 217.98 L 576.61 , 217.98 L 576.61 , 370.99"/>
</a>
<a ewd:lineID="4" style="cursor:pointer;">
<path style="&st1;" d="M 236.58 , 550.97 L 236.67 , 591.96 L 276.08 , 591.96 L 276.08 , 340.64 L 368.65 , 340.64 L 368.65 , 390.25"/>
</a>
<a ewd:lineID="20" style="cursor:pointer;">
<path style="&st13;" d="M 368.65 , 489.4 L 368.65 , 480.9 L 360.15 , 472.41 L 343.16 , 472.41 L 343.16 , 421.99 L 360.15 , 421.99 L 368.65 , 413.49 L 368.65 , 404.99"/>
</a>
<a ewd:lineID="23" style="cursor:pointer;">
<path style="&st0;" d="M 385.65 , 541.53 L 385.65 , 608.39"/>
</a>
<a ewd:lineID="24" style="cursor:pointer;">
<path style="&st0;" d="M 436.64 , 550.6 L 436.64 , 591.95 L 394.15 , 591.95 L 385.65 , 600.45 L 385.65 , 608.38"/>
</a>
<a ewd:lineID="9" style="cursor:pointer;">
<path style="&st0;" d="M 636.1 , 141.53 L 636.1 , 106.04 L 483.13 , 106.04 L 483.13 , 682.44 L 385.65 , 682.44 L 385.65 , 652.01"/>
</a>
<a ewd:lineID="12" style="cursor:pointer;">
<path style="&st3;" d="M 661.6 , 107.54 L 661.6 , 141.53"/>
</a>
<a ewd:lineID="10" style="cursor:pointer;">
<path style="&st13;" d="M 602.11 , 370.99 L 602.11 , 354 L 636.1 , 354 L 636.1 , 337"/>
</a>
<a ewd:lineID="25" style="cursor:pointer;">
<path style="&st3;" d="M 602.11 , 489.98 L 602.11 , 498.48 L 593.61 , 506.97 L 576.61 , 506.97 L 576.61 , 489.98"/>
<path style="&st11;" d="M 602.11 , 489.98 L 602.11 , 498.48 L 593.61 , 506.97 L 576.61 , 506.97 L 576.61 , 489.98"/>
<path style="&st16;" d="M 602.11 , 489.98 L 602.11 , 498.48 L 593.61 , 506.97 L 576.61 , 506.97 L 576.61 , 489.98"/>
</a>
<a ewd:lineID="26" style="cursor:pointer;">
<path style="&st3;" d="M 602.11 , 489.98 L 602.11 , 583.46"/>
<path style="&st11;" d="M 602.11 , 489.98 L 602.11 , 583.46"/>
<path style="&st16;" d="M 602.11 , 489.98 L 602.11 , 583.46"/>
</a>
<a ewd:lineID="27" style="cursor:pointer;">
<path style="&st3;" d="M 602.11 , 600.46 L 602.11 , 685.44"/>
<path style="&st11;" d="M 602.11 , 600.46 L 602.11 , 685.44"/>
<path style="&st16;" d="M 602.11 , 600.46 L 602.11 , 685.44"/>
</a>
<a ewd:lineID="29" style="cursor:pointer;">
<path style="&st3;" d="M 687.09 , 523.97 L 687.09 , 583.46"/>
<path style="&st11;" d="M 687.09 , 523.97 L 687.09 , 583.46"/>
<path style="&st16;" d="M 687.09 , 523.97 L 687.09 , 583.46"/>
</a>
<a ewd:lineID="28" style="cursor:pointer;">
<path style="&st0;" d="M 687.09 , 404.99 L 687.09 , 472.98"/>
</a>
<a ewd:lineID="11" style="cursor:pointer;">
<path style="&st0;" d="M 789.08 , 387.99 L 789.08 , 379.49 L 780.58 , 370.99 L 661.6 , 370.99 L 661.6 , 337"/>
</a>
<a ewd:lineID="13" style="cursor:pointer;">
<path style="&st0;" d="M 687.09 , 337 L 687.09 , 354 L 755.08 , 354 L 755.08 , 218.02 L 789.08 , 218.02 L 789.08 , 254.28"/>
</a>
<a ewd:lineID="15" style="cursor:pointer;">
<path style="&st0;" d="M 789.08 , 269.01 L 789.08 , 320"/>
</a>
<a ewd:lineID="14" style="cursor:pointer;">
<path style="&st0;" d="M 789.08 , 334.73 L 789.08 , 387.99"/>
</a>
<a ewd:lineID="33" style="cursor:pointer;">
<path style="&st0;" d="M 789.08 , 404.99 L 789.08 , 413.49 L 797.58 , 421.99 L 840.07 , 421.99"/>
</a>
<a ewd:lineID="31" style="cursor:pointer;">
<path style="&st0;" d="M 789.08 , 404.99 L 789.08 , 472.98"/>
</a>
<a ewd:lineID="36" style="cursor:pointer;">
<path style="&st0;" d="M 863.3 , 421.99 L 908.06 , 421.99 L 908.06 , 472.98"/>
</a>
<a ewd:lineID="32" style="cursor:pointer;">
<path style="&st3;" d="M 840.07 , 566.46 L 797.58 , 566.46 L 789.08 , 574.96 L 789.08 , 583.46"/>
<path style="&st11;" d="M 840.07 , 566.46 L 797.58 , 566.46 L 789.08 , 574.96 L 789.08 , 583.46"/>
<path style="&st16;" d="M 840.07 , 566.46 L 797.58 , 566.46 L 789.08 , 574.96 L 789.08 , 583.46"/>
</a>
<a ewd:lineID="34" style="cursor:pointer;">
<path style="&st3;" d="M 789.08 , 600.46 L 789.08 , 659.95"/>
<path style="&st11;" d="M 789.08 , 600.46 L 789.08 , 659.95"/>
<path style="&st16;" d="M 789.08 , 600.46 L 789.08 , 659.95"/>
</a>
<a ewd:lineID="35" style="cursor:pointer;">
<path style="&st3;" d="M 908.06 , 523.97 L 908.06 , 566.46 L 863.3 , 566.46"/>
<path style="&st11;" d="M 908.06 , 523.97 L 908.06 , 566.46 L 863.3 , 566.46"/>
<path style="&st16;" d="M 908.06 , 523.97 L 908.06 , 566.46 L 863.3 , 566.46"/>
</a>
<a ewd:lineID="5" style="cursor:pointer;">
<path style="&st15;" d="M 236.67 , 261.65 L 236.67 , 340.65"/>
</a>
<a ewd:lineID="30" style="cursor:pointer;">
<path style="&st3;" d="M 789.08 , 523.97 L 789.08 , 583.46"/>
<path style="&st11;" d="M 789.08 , 523.97 L 789.08 , 583.46"/>
<path style="&st16;" d="M 789.08 , 523.97 L 789.08 , 583.46"/>
</a>
<a ewd:lineID="37" style="cursor:pointer;">
<path style="&st13;" d="M 436.64 , 480.33 L 436.64 , 471.83 L 445.14 , 463.34 L 462.13 , 463.34 L 462.13 , 421.99 L 381.4 , 421.99 L 368.65 , 413.49 L 368.65 , 404.99"/>
</a>
<a ewd:lineID="38" style="cursor:pointer;">
<path style="&st3;" d="M 727.59 , 107.54 L 727.59 , 126.66 L 670.1 , 126.66 L 661.6 , 135.16 L 661.6 , 141.54"/>
</a>
<a ewd:lineID="22" style="cursor:pointer;">
<path style="&st1;" d="M 368.65 , 404.99 L 368.65 , 413.49 L 377.15 , 430.49 L 377.15 , 438.99 L 436.64 , 438.99 L 436.64 , 480.33"/>
</a>
<a ewd:lineID="21" style="cursor:pointer;">
<path style="&st1;" d="M 368.65 , 404.99 L 368.65 , 489.4"/>
</a>
<a ewd:code="CG2" ewd:figtype="w2w" style="cursor:pointer;" ewd:figID="6003">
<path style="&st19;" d="M377.15,396.49h-17v8.5h17V396.49"/>
<text transform="matrix(1 0 0 1 362.481 403.2261)" style="&st6;"><tspan x="0" y="0" style="&st22; &st14;">CG2</tspan></text>
</a>
<a ewd:code="GQ1" ewd:figtype="w2w" style="cursor:pointer;" ewd:figID="6001">
<path style="&st19;" d="M797.58,260.51h-17v8.5h17V260.51"/>
<text transform="matrix(1 0 0 1 782.7441 267.2568)" style="&st6;"><tspan x="0" y="0" style="&st22; &st14;">GQ1</tspan></text>
</a>
<a ewd:code="GR3" ewd:figtype="w2w" style="cursor:pointer;" ewd:figID="6002">
<path style="&st19;" d="M797.58,320h-17v8.5h17V320"/>
<text transform="matrix(1 0 0 1 782.9102 326.7461)" style="&st6;"><tspan x="0" y="0" style="&st22; &st14;">GR3</tspan></text>
</a>
<a ewd:code="RQ1" ewd:figtype="w2w" style="cursor:pointer;" ewd:figID="6004">
<path style="&st19;" d="M857.07,417.74h-17v8.49h17V417.74"/>
<text transform="matrix(1 0 0 1 842.4004 424.4761)" style="&st6;"><tspan x="0" y="0" style="&st22; &st14;">RQ1</tspan></text>
</a>
<a ewd:code="RQ1" ewd:figtype="w2w" style="cursor:pointer;" ewd:figID="6005">
<path style="&st19;" d="M857.07,562.21h-17v8.5h17V562.21"/>
<text transform="matrix(1 0 0 1 842.4004 568.9565)" style="&st6;"><tspan x="0" y="0" style="&st22; &st14;">RQ1</tspan></text>
</a>
<a ewd:code="1,5" ewd:figtype="rb" style="cursor:pointer;" ewd:figID="4002">
<path style="&st25;" d="M610.61,413.49h-42.5v33.99h42.5V413.49"/>
</a>
<a ewd:code="FUSE62,FUSE63" ewd:figtype="rb" style="cursor:pointer;" ewd:figID="4001">
<path style="&st25;" d="M648.85,39.55v42.49h25.5V39.55H648.85"/>
</a>
<a ewd:code="FUSE118" ewd:figtype="rb" style="cursor:pointer;" ewd:figID="4003">
<path style="&st25;" d="M714.84,39.55v42.49h25.5V39.55H714.84"/>
</a>
<a ewd:code="3JB" ewd:figtype="jb" style="cursor:pointer;" ewd:figID="3002">
<path style="&st21;" d="M216.68,340.64v51h28.49v-51H216.68"/>
</a>
<a ewd:code="4JB" ewd:figtype="jb" style="cursor:pointer;" ewd:figID="3005">
<path style="&st21;" d="M216.68,500.48v50.99h28.49v-50.99H216.68"/>
</a>
<a ewd:code="2" ewd:figtype="jb" style="cursor:pointer;" ewd:figID="3001">
<path style="&st21;" d="M28.44,39.55v84.99h333.19V39.55H28.44"/>
</a>
<a ewd:code="1" ewd:figtype="jb" style="cursor:pointer;" ewd:figID="3004">
<path style="&st21;" d="M644.6,99.04v8.5h25.5v-8.5H644.6"/>
</a>
<a ewd:code="2" ewd:figtype="jb" style="cursor:pointer;" ewd:figID="3003">
<path style="&st21;" d="M593.61,141.53V337h127.48V141.53H593.61"/>
</a>
<a ewd:code="1" ewd:figtype="jb" style="cursor:pointer;" ewd:figID="3006">
<path style="&st18;" d="M710.59,99.04v8.5h25.5v-8.5H710.59z"/>
</a>
<a ewd:code="R2" ewd:figtype="gp" style="cursor:pointer;" ewd:figID="2002">
<path style="&st19;" d="M778.45,685.44h21.25l-10.62,15.58L778.45,685.44"/>
<text transform="matrix(1 0 0 1 784.3877 693.5972)" style="&st6;"><tspan x="0" y="0" style="&st22; &st14;">R2</tspan></text>
</a>
<a ewd:code="A1" ewd:figtype="gp" style="cursor:pointer;" ewd:figID="2001">
<path style="&st19;" d="M591.49,685.44h21.24l-10.62,15.58L591.49,685.44"/>
<text transform="matrix(1 0 0 1 597.9775 693.5972)" style="&st6;"><tspan x="0" y="0" style="&st22; &st14;">A1</tspan></text>
</a>
<a ewd:code="FUSE74" ewd:figtype="fuse" style="cursor:pointer;" ewd:figID="1002">
<path style="&st7;" d="M297.89,39.55v42.49h25.5V39.55H297.89"/>
</a>
<a ewd:code="FUSE65" ewd:figtype="fuse" style="cursor:pointer;" ewd:figID="1001">
<path style="&st7;" d="M32.69,39.55v42.49h25.5V39.55H32.69"/>
</a>
<a ewd:code="FUSE62,FUSE63" ewd:figtype="fuse" style="cursor:pointer;" ewd:figID="1003">
<path style="&st7;" d="M648.85,39.55v42.49h25.5V39.55H648.85"/>
</a>
<a ewd:code="FUSE71" ewd:figtype="fuse" style="cursor:pointer;" ewd:figID="1004">
<path style="&st7;" d="M674.35,252.02v42.49h25.49v-42.49H674.35"/>
</a>
<a ewd:code="FUSE118" ewd:figtype="fuse" style="cursor:pointer;" ewd:figID="1005">
<path style="&st4;" d="M714.84,39.55v42.49h25.5V39.55H714.84"/>
</a>
<a ewd:code="G172" ewd:figtype="conn" style="cursor:pointer;" ewd:figID="2">
<path style="&st25;" d="M36.94,366.14h17v-25.5h-17V366.14"/>
<title ewd:textID="11">Diode (Shift Position No. 2)</title>
</a>
<a ewd:code="G171" ewd:figtype="conn" style="cursor:pointer;" ewd:figID="3">
<path style="&st25;" d="M104.93,366.14h17v-25.5h-17V366.14"/>
<title ewd:textID="10">Diode (Shift Position No. 1)</title>
</a>
<a ewd:code="G164,G165,G128-C,G129-D" ewd:figtype="conn" style="cursor:pointer;" ewd:figID="6">
<path style="&st25;" d="M36.94,500.48h84.99v34H36.94V500.48"/>
<title ewd:textID="12">Junction Connector</title>
</a>
<a ewd:code="C49,G107" ewd:figtype="conn" style="cursor:pointer;" ewd:figID="8">
<path style="&st25;" d="M377.15,617.45h17v25.5h-17V617.45"/>
<title ewd:textID="12">Junction Connector</title>
</a>
<a ewd:code="A70" ewd:figtype="conn" style="cursor:pointer;" ewd:figID="10">
<path style="&st25;" d="M593.61,583.46h17v17h-17V583.46"/>
<title ewd:textID="12">Junction Connector</title>
</a>
<a ewd:code="R28" ewd:figtype="conn" style="cursor:pointer;" ewd:figID="13">
<path style="&st25;" d="M678.6,583.46h118.98v17H678.6V583.46"/>
<title ewd:textID="12">Junction Connector</title>
</a>
<a ewd:code="R22" ewd:figtype="conn" style="cursor:pointer;" ewd:figID="11">
<path style="&st25;" d="M661.6,472.98h50.99v50.99H661.6V472.98"/>
<title ewd:textID="14">Rear Combination Light Assembly LH</title>
</a>
<a ewd:code="R21" ewd:figtype="conn" style="cursor:pointer;" ewd:figID="14">
<path style="&st25;" d="M763.58,472.98h50.99v50.99h-50.99V472.98"/>
<title ewd:textID="15">Rear Combination Light Assembly RH</title>
</a>
<a ewd:code="R27" ewd:figtype="conn" style="cursor:pointer;" ewd:figID="12">
<path style="&st25;" d="M678.6,387.99h118.98v17H678.6V387.99"/>
<title ewd:textID="12">Junction Connector</title>
</a>
<a ewd:code="Q31" ewd:figtype="conn" style="cursor:pointer;" ewd:figID="16">
<path style="&st25;" d="M882.56,472.98h50.99v50.99h-50.99V472.98"/>
<title ewd:textID="15">Rear Combination Light Assembly RH</title>
</a>
<a ewd:code="R31" ewd:figtype="conn" style="cursor:pointer;" ewd:figID="15">
<path style="&st25;" d="M780.58,659.95v16.99h17v-16.99H780.58"/>
<title ewd:textID="12">Junction Connector</title>
</a>
<a ewd:code="A66" ewd:figtype="conn" style="cursor:pointer;" ewd:figID="5">
<path style="&st25;" d="M302.14,209.48h17v17h-17V209.48"/>
<title ewd:textID="12">Junction Connector</title>
</a>
<a ewd:code="G166,G167,G168,G169" ewd:figtype="conn" style="cursor:pointer;" ewd:figID="4">
<path style="&st25;" d="M164.42,209.52h80.75v34h-80.75V209.52"/>
<title ewd:textID="12">Junction Connector</title>
</a>
<a ewd:code="G166,G167" ewd:figtype="conn" style="cursor:pointer;" ewd:figID="1">
<path style="&st25;" d="M36.94,209.48h17v17h-17V209.48"/>
<title ewd:textID="12">Junction Connector</title>
</a>
<a ewd:code="C159" ewd:figtype="conn" style="cursor:pointer;" ewd:figID="7">
<path style="&st25;" d="M343.16,498.47v34h50.99v-34H343.16"/>
<title ewd:textID="13">Park/Neutral Position Switch</title>
</a>
<a ewd:code="C41,C160" ewd:figtype="conn" style="cursor:pointer;" ewd:figID="9">
<path style="&st25;" d="M445.14,532.47v-34h-17v34H445.14"/>
<title ewd:textID="7">Back-Up Light Switch Assembly</title>
</a>
</g>
</svg>
