﻿<?xml version="1.0"?>
<!-- Generator: Adobe Illustrator 10.0, SVG Export Plug-In . SVG Version: 3.0.0 Build 77)  -->
<!DOCTYPE svg PUBLIC "-//W3C//DTD SVG 1.0//EN" "http://www.w3.org/TR/2001/REC-SVG-20010904/DTD/svg10.dtd"[
<!ENTITY ns_flows "http://ns.adobe.com/Flows/1.0/">
<!ENTITY ns_svg "http://www.w3.org/2000/svg">
<!ENTITY ns_xlink "http://www.w3.org/1999/xlink">
<!ENTITY st0 "font-size:6.6349px;">
<!ENTITY st1 "fill:none;stroke:#000000;stroke-width:1.1331;stroke-linecap:round;stroke-linejoin:round;">
<!ENTITY st2 "fill:none;stroke:#000000;stroke-width:0.8499;stroke-linecap:round;stroke-linejoin:round;">
<!ENTITY st3 "font-family:'Arial';">
<!ATTLIST svg
xmlns:ewd CDATA #FIXED "http://shcl.co.jp/ewd"
xmlns:a CDATA #FIXED "http://ns.adobe.com/AdobeSVGViewerExtensions/3.0/"
ewd:ver CDATA #IMPLIED
>
<!ATTLIST g
xmlns:ewd CDATA #FIXED "http://shcl.co.jp/ewd"
ewd:pinNo CDATA #IMPLIED >
]>
<svg xmlns="&ns_svg;" xmlns:xlink="&ns_xlink;" ewd:ver="L2.1" xmlns:a="http://ns.adobe.com/AdobeSVGViewerExtensions/3.0/" width="97.592" height="142.776" viewBox="0 0 97.592 142.776" style="overflow:visible;enable-background:new 0 0 97.592 142.776" xml:space="preserve"  onload="call_execInitLoadProc_svg(&apos;connector&apos;)">
<script type="text/javascript" xlink:href="../../../../../system/js/ewd/fig/svgfig.js" />
<g id="レイヤー_1">
<g>
<path style="&st1;" d="M9.065,0.567c-4.694,0-8.499,3.805-8.499,8.499" />
<path style="&st1;" d="M97.026,9.065c0-4.694-3.805-8.499-8.499-8.499" />
<path style="&st1;" d="M91.215,138.481c3.541-1.181,5.811-4.33,5.811-8.062" />
<path style="&st1;" d="M0.567,130.419c0,3.732,2.27,6.881,5.81,8.062" />
<path style="&st1;" d="M78.649,142.209c0.962,0,1.776-0.132,2.688-0.436" />
<path style="&st1;" d="M16.255,141.773c0.912,0.304,1.727,0.437,2.688,0.437" />
<path style="&st2;" d="M12.405,4.476c-3.719,1.058-6.174,4.31-6.174,8.176" />
<path style="&st2;" d="M91.36,12.643c0-3.862-2.451-7.111-6.165-8.172" />
<path style="&st2;" d="M12.04,48.725v76.487h29.745V48.725H12.04" />
<path style="&st2;" d="M55.949,48.725v76.487h29.745V48.725H55.949" />
<path style="&st2;" d="M21.955,125.212V48.725" />
<path style="&st2;" d="M31.87,48.725v76.487" />
<path style="&st2;" d="M65.864,48.725v76.487" />
<path style="&st2;" d="M75.779,48.725v76.487" />
<path style="&st2;" d="M12.04,74.221h29.745" />
<path style="&st2;" d="M12.04,86.969h29.745" />
<path style="&st2;" d="M12.04,99.717h29.745" />
<path style="&st2;" d="M12.04,112.465h29.745" />
<path style="&st2;" d="M12.04,61.473h29.745" />
<path style="&st2;" d="M55.949,61.473h29.745" />
<path style="&st2;" d="M55.949,74.221h29.745" />
<path style="&st2;" d="M55.949,86.969h29.745" />
<path style="&st2;" d="M55.949,99.717h29.745" />
<path style="&st2;" d="M55.949,112.465h29.745" />
<path style="&st2;" d="M85.694,130.878v5.666" />
<path style="&st2;" d="M12.04,130.878v5.666" />
<path style="&st2;" d="M85.694,136.544H55.949l-2.833-2.833v-2.833" />
<path style="&st2;" d="M12.04,136.544h29.745l2.833-2.833v-2.833" />
<path style="&st2;" d="M53.116,130.878h32.578" />
<path style="&st2;" d="M12.04,130.878h32.578" />
<path style="&st2;" d="M44.617,130.878v-12.394h8.499v12.394" />
<path style="&st2;" d="M46.034,51.912v4.25h5.666v-4.25H46.034" />
<path style="&st2;" d="M46.034,60.411v8.499h5.666v-8.499H46.034" />
<path style="&st2;" d="M46.034,73.159v4.249h5.666v-4.249H46.034" />
<path style="&st2;" d="M46.034,81.657v4.249h5.666v-4.249H46.034" />
<path style="&st2;" d="M46.034,90.156v8.499h5.666v-8.499H46.034" />
<path style="&st2;" d="M46.034,102.904v4.249h5.666v-4.249H46.034" />
<path style="&st2;" d="M46.034,111.402v4.249h5.666v-4.249H46.034" />
<path style="&st2;" d="M91.36,43.06H75.779" />
<path style="&st2;" d="M21.955,43.06H6.232" />
<path style="&st2;" d="M21.955,31.728h-7.083V19.501" />
<path style="&st2;" d="M28.328,16.147h41.077" />
<path style="&st2;" d="M6.232,43.06V12.652" />
<path style="&st2;" d="M91.36,43.06V12.643" />
<path style="&st1;" d="M9.065,0.567h79.462" />
<path style="&st2;" d="M38.952,28.895h-5.666v2.833" />
<path style="&st2;" d="M75.779,31.728h7.082V18.162" />
<path style="&st2;" d="M58.782,28.895h5.666v2.833" />
<path style="&st1;" d="M0.567,9.065v121.354" />
<path style="&st2;" d="M38.952,31.728V20.396h19.83v11.332" />
<path style="&st2;" d="M24.787,34.561v5.666h48.159v-5.666H24.787" />
<path style="&st1;" d="M97.026,9.065v121.354" />
<path style="&st2;" d="M21.955,43.06V31.728h53.824V43.06" />
<path style="&st2;" d="M85.694,130.878h5.666l5.666-5.666" />
<path style="&st2;" d="M0.567,125.212l5.666,5.666h5.808" />
<path style="&st1;" d="M91.215,138.481l-9.878,3.292" />
<path style="&st1;" d="M6.377,138.481l9.878,3.292" />
<path style="&st1;" d="M18.944,142.209h59.705" />
<path style="&st2;" d="M14.872,19.501h7.083" />
<path style="&st2;" d="M75.779,18.162h7.082" />
<path style="&st2;" d="M12.405,4.476l23.714-3.909" />
<path style="&st2;" d="M61.615,0.567L85.196,4.47" />
<path style="&st2;" d="M21.955,19.501l6.374-3.354" />
<path style="&st2;" d="M64.448,28.895v-2.833h11.332" />
<path style="&st2;" d="M21.955,31.728V19.501" />
<path style="&st2;" d="M75.779,18.162v13.566" />
<path style="&st2;" d="M75.779,18.162l-6.374-2.014" />
<path style="&st2;" d="M21.955,26.062h11.331v2.833" />
<g ewd:pinNo="8">
<text transform="matrix(0.88 0 0 1 25.2463 69.8164)"><tspan x="0" y="0" style="&st3; &st0;">8</tspan></text>
</g>
<g ewd:pinNo="1">
<text transform="matrix(0.88 0 0 1 15.3313 57.0684)"><tspan x="0" y="0" style="&st3; &st0;">1</tspan></text>
</g>
<g ewd:pinNo="2">
<text transform="matrix(0.88 0 0 1 25.2463 57.0684)"><tspan x="0" y="0" style="&st3; &st0;">2</tspan></text>
</g>
<g ewd:pinNo="3">
<text transform="matrix(0.88 0 0 1 35.1614 57.0684)"><tspan x="0" y="0" style="&st3; &st0;">3</tspan></text>
</g>
<g ewd:pinNo="4">
<text transform="matrix(0.88 0 0 1 59.241 57.0684)"><tspan x="0" y="0" style="&st3; &st0;">4</tspan></text>
</g>
<g ewd:pinNo="5">
<text transform="matrix(0.88 0 0 1 69.156 57.0684)"><tspan x="0" y="0" style="&st3; &st0;">5</tspan></text>
</g>
<g ewd:pinNo="6">
<text transform="matrix(0.88 0 0 1 79.0706 57.0684)"><tspan x="0" y="0" style="&st3; &st0;">6</tspan></text>
</g>
<g ewd:pinNo="7">
<text transform="matrix(0.88 0 0 1 15.3313 69.8164)"><tspan x="0" y="0" style="&st3; &st0;">7</tspan></text>
</g>
<g ewd:pinNo="9">
<text transform="matrix(0.88 0 0 1 35.1614 69.8164)"><tspan x="0" y="0" style="&st3; &st0;">9</tspan></text>
</g>
<g ewd:pinNo="10">
<text transform="matrix(0.88 0 0 1 57.575 69.8164)"><tspan x="0" y="0" style="&st3; &st0;">1</tspan></text>
<text transform="matrix(0.88 0 0 1 60.9333 69.8164)"><tspan x="0" y="0" style="&st3; &st0;">0</tspan></text>
</g>
<g ewd:pinNo="11">
<text transform="matrix(0.88 0 0 1 67.49 69.8164)"><tspan x="0" y="0" style="&st3; &st0;">1</tspan></text>
<text transform="matrix(0.88 0 0 1 70.8484 69.8164)"><tspan x="0" y="0" style="&st3; &st0;">1</tspan></text>
</g>
<g ewd:pinNo="12">
<text transform="matrix(0.88 0 0 1 77.405 69.8164)"><tspan x="0" y="0" style="&st3; &st0;">1</tspan></text>
<text transform="matrix(0.88 0 0 1 80.7629 69.8164)"><tspan x="0" y="0" style="&st3; &st0;">2</tspan></text>
</g>
<g ewd:pinNo="13">
<text transform="matrix(0.88 0 0 1 13.6658 82.564)"><tspan x="0" y="0" style="&st3; &st0;">1</tspan></text>
<text transform="matrix(0.88 0 0 1 17.0237 82.564)"><tspan x="0" y="0" style="&st3; &st0;">3</tspan></text>
</g>
<g ewd:pinNo="14">
<text transform="matrix(0.88 0 0 1 23.5808 82.564)"><tspan x="0" y="0" style="&st3; &st0;">1</tspan></text>
<text transform="matrix(0.88 0 0 1 26.9387 82.564)"><tspan x="0" y="0" style="&st3; &st0;">4</tspan></text>
</g>
<g ewd:pinNo="15">
<text transform="matrix(0.88 0 0 1 33.4958 82.564)"><tspan x="0" y="0" style="&st3; &st0;">1</tspan></text>
<text transform="matrix(0.88 0 0 1 36.8538 82.564)"><tspan x="0" y="0" style="&st3; &st0;">5</tspan></text>
</g>
<g ewd:pinNo="16">
<text transform="matrix(0.88 0 0 1 57.575 82.564)"><tspan x="0" y="0" style="&st3; &st0;">1</tspan></text>
<text transform="matrix(0.88 0 0 1 60.9333 82.564)"><tspan x="0" y="0" style="&st3; &st0;">6</tspan></text>
</g>
<g ewd:pinNo="17">
<text transform="matrix(0.88 0 0 1 67.49 82.564)"><tspan x="0" y="0" style="&st3; &st0;">1</tspan></text>
<text transform="matrix(0.88 0 0 1 70.8484 82.564)"><tspan x="0" y="0" style="&st3; &st0;">7</tspan></text>
</g>
<g ewd:pinNo="18">
<text transform="matrix(0.88 0 0 1 77.405 82.564)"><tspan x="0" y="0" style="&st3; &st0;">1</tspan></text>
<text transform="matrix(0.88 0 0 1 80.7629 82.564)"><tspan x="0" y="0" style="&st3; &st0;">8</tspan></text>
</g>
<g ewd:pinNo="19">
<text transform="matrix(0.88 0 0 1 13.6658 95.312)"><tspan x="0" y="0" style="&st3; &st0;">1</tspan></text>
<text transform="matrix(0.88 0 0 1 17.0237 95.312)"><tspan x="0" y="0" style="&st3; &st0;">9</tspan></text>
</g>
<g ewd:pinNo="20">
<text transform="matrix(0.88 0 0 1 23.5808 95.312)"><tspan x="0" y="0" style="&st3; &st0;">2</tspan></text>
<text transform="matrix(0.88 0 0 1 26.9387 95.312)"><tspan x="0" y="0" style="&st3; &st0;">0</tspan></text>
</g>
<g ewd:pinNo="21">
<text transform="matrix(0.88 0 0 1 33.4958 95.312)"><tspan x="0" y="0" style="&st3; &st0;">2</tspan></text>
<text transform="matrix(0.88 0 0 1 36.8538 95.312)"><tspan x="0" y="0" style="&st3; &st0;">1</tspan></text>
</g>
<g ewd:pinNo="22">
<text transform="matrix(0.88 0 0 1 57.575 95.312)"><tspan x="0" y="0" style="&st3; &st0;">2</tspan></text>
<text transform="matrix(0.88 0 0 1 60.9333 95.312)"><tspan x="0" y="0" style="&st3; &st0;">2</tspan></text>
</g>
<g ewd:pinNo="23">
<text transform="matrix(0.88 0 0 1 67.49 95.312)"><tspan x="0" y="0" style="&st3; &st0;">2</tspan></text>
<text transform="matrix(0.88 0 0 1 70.8484 95.312)"><tspan x="0" y="0" style="&st3; &st0;">3</tspan></text>
</g>
<g ewd:pinNo="24">
<text transform="matrix(0.88 0 0 1 77.405 95.312)"><tspan x="0" y="0" style="&st3; &st0;">2</tspan></text>
<text transform="matrix(0.88 0 0 1 80.7629 95.312)"><tspan x="0" y="0" style="&st3; &st0;">4</tspan></text>
</g>
<g ewd:pinNo="25">
<text transform="matrix(0.88 0 0 1 13.6658 108.0601)"><tspan x="0" y="0" style="&st3; &st0;">2</tspan></text>
<text transform="matrix(0.88 0 0 1 17.0237 108.0601)"><tspan x="0" y="0" style="&st3; &st0;">5</tspan></text>
</g>
<g ewd:pinNo="26">
<text transform="matrix(0.88 0 0 1 23.5808 108.0601)"><tspan x="0" y="0" style="&st3; &st0;">2</tspan></text>
<text transform="matrix(0.88 0 0 1 26.9387 108.0601)"><tspan x="0" y="0" style="&st3; &st0;">6</tspan></text>
</g>
<g ewd:pinNo="27">
<text transform="matrix(0.88 0 0 1 33.4958 108.0601)"><tspan x="0" y="0" style="&st3; &st0;">2</tspan></text>
<text transform="matrix(0.88 0 0 1 36.8538 108.0601)"><tspan x="0" y="0" style="&st3; &st0;">7</tspan></text>
</g>
<g ewd:pinNo="28">
<text transform="matrix(0.88 0 0 1 57.575 108.0601)"><tspan x="0" y="0" style="&st3; &st0;">2</tspan></text>
<text transform="matrix(0.88 0 0 1 60.9333 108.0601)"><tspan x="0" y="0" style="&st3; &st0;">8</tspan></text>
</g>
<g ewd:pinNo="29">
<text transform="matrix(0.88 0 0 1 67.49 108.0601)"><tspan x="0" y="0" style="&st3; &st0;">2</tspan></text>
<text transform="matrix(0.88 0 0 1 70.8484 108.0601)"><tspan x="0" y="0" style="&st3; &st0;">9</tspan></text>
</g>
<g ewd:pinNo="30">
<text transform="matrix(0.88 0 0 1 77.405 108.0601)"><tspan x="0" y="0" style="&st3; &st0;">3</tspan></text>
<text transform="matrix(0.88 0 0 1 80.7629 108.0601)"><tspan x="0" y="0" style="&st3; &st0;">0</tspan></text>
</g>
<g ewd:pinNo="31">
<text transform="matrix(0.88 0 0 1 13.6658 120.8076)"><tspan x="0" y="0" style="&st3; &st0;">3</tspan></text>
<text transform="matrix(0.88 0 0 1 17.0237 120.8076)"><tspan x="0" y="0" style="&st3; &st0;">1</tspan></text>
</g>
<g ewd:pinNo="32">
<text transform="matrix(0.88 0 0 1 23.5808 120.8076)"><tspan x="0" y="0" style="&st3; &st0;">3</tspan></text>
<text transform="matrix(0.88 0 0 1 26.9387 120.8076)"><tspan x="0" y="0" style="&st3; &st0;">2</tspan></text>
</g>
<g ewd:pinNo="33">
<text transform="matrix(0.88 0 0 1 33.4958 120.8076)"><tspan x="0" y="0" style="&st3; &st0;">3</tspan></text>
<text transform="matrix(0.88 0 0 1 36.8538 120.8076)"><tspan x="0" y="0" style="&st3; &st0;">3</tspan></text>
</g>
<g ewd:pinNo="34">
<text transform="matrix(0.88 0 0 1 57.575 120.8076)"><tspan x="0" y="0" style="&st3; &st0;">3</tspan></text>
<text transform="matrix(0.88 0 0 1 60.9333 120.8076)"><tspan x="0" y="0" style="&st3; &st0;">4</tspan></text>
</g>
<g ewd:pinNo="35">
<text transform="matrix(0.88 0 0 1 67.49 120.8076)"><tspan x="0" y="0" style="&st3; &st0;">3</tspan></text>
<text transform="matrix(0.88 0 0 1 70.8484 120.8076)"><tspan x="0" y="0" style="&st3; &st0;">5</tspan></text>
</g>
<g ewd:pinNo="36">
<text transform="matrix(0.88 0 0 1 77.405 120.8076)"><tspan x="0" y="0" style="&st3; &st0;">3</tspan></text>
<text transform="matrix(0.88 0 0 1 80.7629 120.8076)"><tspan x="0" y="0" style="&st3; &st0;">6</tspan></text>
</g>
</g>
</g>
</svg>
