﻿<?xml version="1.0"?>
<!-- Generator: Adobe Illustrator 10.0, SVG Export Plug-In . SVG Version: 3.0.0 Build 77)  -->
<!DOCTYPE svg PUBLIC "-//W3C//DTD SVG 1.0//EN" "http://www.w3.org/TR/2001/REC-SVG-20010904/DTD/svg10.dtd"[
<!ENTITY ns_flows "http://ns.adobe.com/Flows/1.0/">
<!ENTITY ns_svg "http://www.w3.org/2000/svg">
<!ENTITY ns_xlink "http://www.w3.org/1999/xlink">
<!ENTITY st0 "font-size:6.6349px;">
<!ENTITY st1 "fill:none;stroke:#000000;stroke-width:1.1331;stroke-linecap:round;stroke-linejoin:round;">
<!ENTITY st2 "fill:none;stroke:#000000;stroke-width:0.8499;stroke-linecap:round;stroke-linejoin:round;">
<!ENTITY st3 "font-family:'Arial';">
<!ATTLIST svg
xmlns:ewd CDATA #FIXED "http://shcl.co.jp/ewd"
xmlns:a CDATA #FIXED "http://ns.adobe.com/AdobeSVGViewerExtensions/3.0/"
ewd:ver CDATA #IMPLIED
>
<!ATTLIST g
xmlns:ewd CDATA #FIXED "http://shcl.co.jp/ewd"
ewd:pinNo CDATA #IMPLIED >
]>
<svg xmlns="&ns_svg;" xmlns:xlink="&ns_xlink;" ewd:ver="L2.1" xmlns:a="http://ns.adobe.com/AdobeSVGViewerExtensions/3.0/" width="108.781" height="94.618" viewBox="0 0 108.781 94.618" style="overflow:visible;enable-background:new 0 0 108.781 94.618" xml:space="preserve"  onload="call_execInitLoadProc_svg(&apos;connector&apos;)">
<script type="text/javascript" xlink:href="../../../../../system/js/ewd/fig/svgfig.js" />
<g id="レイヤー_1">
<g>
<path style="&st1;" d="M94.465,0.65c-0.29-0.058-0.54-0.083-0.836-0.083" />
<path style="&st1;" d="M15.153,0.567c-0.296,0-0.546,0.025-0.835,0.083" />
<path style="&st1;" d="M83.428,0.567c-1.565,0-2.833,1.268-2.833,2.833" />
<path style="&st1;" d="M28.187,3.4c0-1.564-1.268-2.833-2.833-2.833" />
<path style="&st1;" d="M104.941,89.156c1.947-0.459,3.274-2.135,3.274-4.136" />
<path style="&st2;" d="M15.011,0.567c-0.197,0-0.363,0.016-0.555,0.055" />
<path style="&st1;" d="M0.567,85.021c0,2.001,1.327,3.677,3.275,4.136" />
<path style="&st1;" d="M9.677,1.579C4.312,2.651,0.568,7.218,0.568,12.689" />
<path style="&st1;" d="M108.215,12.689c0-5.472-3.744-10.039-9.11-11.112" />
<path style="&st2;" d="M94.051,54.392v25.496" />
<path style="&st2;" d="M4.816,54.392h99.15" />
<path style="&st2;" d="M54.391,67.139V41.644" />
<path style="&st2;" d="M44.476,79.887V31.729" />
<path style="&st2;" d="M34.561,79.887V54.392" />
<path style="&st2;" d="M14.731,79.887V54.392" />
<path style="&st2;" d="M18.272,0.567V23.23" />
<path style="&st2;" d="M7.649,23.23h1.417v-7.082" />
<path style="&st2;" d="M31.02,7.649h46.742" />
<path style="&st1;" d="M31.02,4.817l17.706-2.833h11.332l17.705,2.833" />
<path style="&st1;" d="M31.02,4.817v11.332" />
<path style="&st2;" d="M48.017,16.148v-5.666h12.748v5.666" />
<path style="&st2;" d="M13.315,17.565v5.666h14.872" />
<path style="&st1;" d="M28.187,23.23h5.666" />
<path style="&st1;" d="M80.595,23.23h-5.666" />
<path style="&st2;" d="M66.43,16.148v-3.683h8.499v3.683" />
<path style="&st2;" d="M42.351,14.307h5.666" />
<path style="&st1;" d="M93.629,0.567H83.428" />
<path style="&st1;" d="M80.595,23.23V3.4" />
<path style="&st1;" d="M99.105,1.579l-4.64-0.929" />
<path style="&st2;" d="M90.51,0.567V23.23" />
<path style="&st2;" d="M33.853,16.148h41.076" />
<path style="&st1;" d="M77.762,16.148h-2.833v7.082" />
<path style="&st2;" d="M33.853,16.148v-3.683h8.499v3.683" />
<path style="&st1;" d="M31.02,16.148h2.833v7.082" />
<path style="&st1;" d="M77.762,4.817v11.332" />
<path style="&st1;" d="M9.677,1.579l4.64-0.929" />
<path style="&st2;" d="M7.649,17.565l1.417-1.417h2.833l1.417,1.417" />
<path style="&st1;" d="M24.646,94.052h59.49" />
<path style="&st2;" d="M60.765,14.307h5.666" />
<path style="&st1;" d="M84.136,94.052l20.805-4.895" />
<path style="&st1;" d="M3.841,89.156l20.804,4.895" />
<path style="&st2;" d="M11.898,16.148v7.082h1.417" />
<path style="&st2;" d="M0.567,78.471l4.249,4.25" />
<path style="&st2;" d="M103.966,82.72l4.249-4.25" />
<path style="&st1;" d="M28.187,23.23V3.4" />
<path style="&st1;" d="M0.567,12.689v72.332" />
<path style="&st1;" d="M108.215,12.689v72.332" />
<path style="&st1;" d="M15.153,0.567h10.201" />
<path style="&st2;" d="M74.221,79.887V54.392" />
<path style="&st2;" d="M64.306,79.887V31.729" />
<path style="&st2;" d="M4.816,54.392v25.496" />
<path style="&st2;" d="M24.646,79.887V54.392" />
<path style="&st2;" d="M4.816,67.139h99.15" />
<path style="&st2;" d="M84.136,54.392v25.496" />
<path style="&st2;" d="M64.306,79.887h39.66V54.392" />
<path style="&st2;" d="M4.816,82.72h99.15" />
<path style="&st2;" d="M4.816,79.887h39.66" />
<path style="&st2;" d="M47.309,69.123V82.72" />
<path style="&st2;" d="M61.473,69.123V82.72" />
<path style="&st2;" d="M47.309,74.93h14.164" />
<path style="&st2;" d="M0.567,27.48l4.249-4.25h2.833v-5.666" />
<path style="&st2;" d="M95.468,17.565v5.666H80.595" />
<path style="&st2;" d="M101.133,23.23h-1.417v-7.082" />
<path style="&st2;" d="M101.133,17.565l-1.417-1.417h-2.833l-1.416,1.417" />
<path style="&st2;" d="M96.884,16.148v7.082h-1.416" />
<path style="&st2;" d="M108.215,27.48l-4.249-4.25h-2.833v-5.666" />
<path style="&st2;" d="M4.816,82.72v5.666h40.51l1.983-1.983V82.72" />
<path style="&st2;" d="M61.473,82.72v3.683l1.983,1.983h40.51V82.72" />
<path style="&st2;" d="M44.476,41.644h19.83" />
<path style="&st2;" d="M10.482,54.392V31.729h33.994" />
<path style="&st2;" d="M27.479,54.392V31.729" />
<path style="&st2;" d="M64.306,31.729H98.3v22.663" />
<path style="&st2;" d="M81.303,54.392V31.729" />
<path style="&st2;" d="M47.309,69.123h14.164" />
<g ewd:pinNo="18">
<text transform="matrix(0.88 0 0 1 16.3572 75.4827)"><tspan x="0" y="0" style="&st3; &st0;">1</tspan></text>
<text transform="matrix(0.88 0 0 1 19.7151 75.4827)"><tspan x="0" y="0" style="&st3; &st0;">8</tspan></text>
</g>
<g ewd:pinNo="24">
<text transform="matrix(0.88 0 0 1 95.677 75.4827)"><tspan x="0" y="0" style="&st3; &st0;">2</tspan></text>
<text transform="matrix(0.88 0 0 1 99.0349 75.4827)"><tspan x="0" y="0" style="&st3; &st0;">4</tspan></text>
</g>
<g ewd:pinNo="17">
<text transform="matrix(0.88 0 0 1 6.4419 75.4827)"><tspan x="0" y="0" style="&st3; &st0;">1</tspan></text>
<text transform="matrix(0.88 0 0 1 9.8 75.4827)"><tspan x="0" y="0" style="&st3; &st0;">7</tspan></text>
</g>
<g ewd:pinNo="8">
<text transform="matrix(0.88 0 0 1 18.0227 62.7351)"><tspan x="0" y="0" style="&st3; &st0;">8</tspan></text>
</g>
<g ewd:pinNo="7">
<text transform="matrix(0.88 0 0 1 8.1077 62.7351)"><tspan x="0" y="0" style="&st3; &st0;">7</tspan></text>
</g>
<g ewd:pinNo="9">
<text transform="matrix(0.88 0 0 1 27.9377 62.7351)"><tspan x="0" y="0" style="&st3; &st0;">9</tspan></text>
</g>
<g ewd:pinNo="10">
<text transform="matrix(0.88 0 0 1 36.1868 62.7351)"><tspan x="0" y="0" style="&st3; &st0;">1</tspan></text>
<text transform="matrix(0.88 0 0 1 39.5452 62.7351)"><tspan x="0" y="0" style="&st3; &st0;">0</tspan></text>
</g>
<g ewd:pinNo="23">
<text transform="matrix(0.88 0 0 1 85.762 75.4827)"><tspan x="0" y="0" style="&st3; &st0;">2</tspan></text>
<text transform="matrix(0.88 0 0 1 89.1199 75.4827)"><tspan x="0" y="0" style="&st3; &st0;">3</tspan></text>
</g>
<g ewd:pinNo="11">
<text transform="matrix(0.88 0 0 1 46.1018 62.7351)"><tspan x="0" y="0" style="&st3; &st0;">1</tspan></text>
<text transform="matrix(0.88 0 0 1 49.4602 62.7351)"><tspan x="0" y="0" style="&st3; &st0;">1</tspan></text>
</g>
<g ewd:pinNo="12">
<text transform="matrix(0.88 0 0 1 56.0168 62.7351)"><tspan x="0" y="0" style="&st3; &st0;">1</tspan></text>
<text transform="matrix(0.88 0 0 1 59.3752 62.7351)"><tspan x="0" y="0" style="&st3; &st0;">2</tspan></text>
</g>
<g ewd:pinNo="15">
<text transform="matrix(0.88 0 0 1 85.762 62.7351)"><tspan x="0" y="0" style="&st3; &st0;">1</tspan></text>
<text transform="matrix(0.88 0 0 1 89.1199 62.7351)"><tspan x="0" y="0" style="&st3; &st0;">5</tspan></text>
</g>
<g ewd:pinNo="16">
<text transform="matrix(0.88 0 0 1 95.677 62.7351)"><tspan x="0" y="0" style="&st3; &st0;">1</tspan></text>
<text transform="matrix(0.88 0 0 1 99.0349 62.7351)"><tspan x="0" y="0" style="&st3; &st0;">6</tspan></text>
</g>
<g ewd:pinNo="13">
<text transform="matrix(0.88 0 0 1 65.9319 62.7351)"><tspan x="0" y="0" style="&st3; &st0;">1</tspan></text>
<text transform="matrix(0.88 0 0 1 69.2903 62.7351)"><tspan x="0" y="0" style="&st3; &st0;">3</tspan></text>
</g>
<g ewd:pinNo="14">
<text transform="matrix(0.88 0 0 1 75.8469 62.7351)"><tspan x="0" y="0" style="&st3; &st0;">1</tspan></text>
<text transform="matrix(0.88 0 0 1 79.2048 62.7351)"><tspan x="0" y="0" style="&st3; &st0;">4</tspan></text>
</g>
<g ewd:pinNo="19">
<text transform="matrix(0.88 0 0 1 26.2722 75.4827)"><tspan x="0" y="0" style="&st3; &st0;">1</tspan></text>
<text transform="matrix(0.88 0 0 1 29.6301 75.4827)"><tspan x="0" y="0" style="&st3; &st0;">9</tspan></text>
</g>
<g ewd:pinNo="20">
<text transform="matrix(0.88 0 0 1 36.1868 75.4827)"><tspan x="0" y="0" style="&st3; &st0;">2</tspan></text>
<text transform="matrix(0.88 0 0 1 39.5452 75.4827)"><tspan x="0" y="0" style="&st3; &st0;">0</tspan></text>
</g>
<g ewd:pinNo="22">
<text transform="matrix(0.88 0 0 1 75.8469 75.4827)"><tspan x="0" y="0" style="&st3; &st0;">2</tspan></text>
<text transform="matrix(0.88 0 0 1 79.2048 75.4827)"><tspan x="0" y="0" style="&st3; &st0;">2</tspan></text>
</g>
<g ewd:pinNo="21">
<text transform="matrix(0.88 0 0 1 65.9319 75.4827)"><tspan x="0" y="0" style="&st3; &st0;">2</tspan></text>
<text transform="matrix(0.88 0 0 1 69.2903 75.4827)"><tspan x="0" y="0" style="&st3; &st0;">1</tspan></text>
</g>
<g ewd:pinNo="1">
<text transform="matrix(0.88 0 0 1 17.3147 45.0295)"><tspan x="0" y="0" style="&st3; &st0;">1</tspan></text>
</g>
<g ewd:pinNo="2">
<text transform="matrix(0.88 0 0 1 34.3118 45.0295)"><tspan x="0" y="0" style="&st3; &st0;">2</tspan></text>
</g>
<g ewd:pinNo="5">
<text transform="matrix(0.88 0 0 1 71.1389 45.0295)"><tspan x="0" y="0" style="&st3; &st0;">5</tspan></text>
</g>
<g ewd:pinNo="6">
<text transform="matrix(0.88 0 0 1 88.136 45.0295)"><tspan x="0" y="0" style="&st3; &st0;">6</tspan></text>
</g>
<g ewd:pinNo="3">
<text transform="matrix(0.88 0 0 1 47.7678 49.9871)"><tspan x="0" y="0" style="&st3; &st0;">3</tspan></text>
</g>
<g ewd:pinNo="4">
<text transform="matrix(0.88 0 0 1 57.6829 49.9871)"><tspan x="0" y="0" style="&st3; &st0;">4</tspan></text>
</g>
</g>
</g>
</svg>
