﻿<?xml version="1.0"?>
<!-- Generator: Adobe Illustrator 10.0, SVG Export Plug-In . SVG Version: 3.0.0 Build 77)  -->
<!DOCTYPE svg PUBLIC "-//W3C//DTD SVG 1.0//EN" "http://www.w3.org/TR/2001/REC-SVG-20010904/DTD/svg10.dtd"[
<!ENTITY ns_flows "http://ns.adobe.com/Flows/1.0/">
<!ENTITY ns_svg "http://www.w3.org/2000/svg">
<!ENTITY ns_xlink "http://www.w3.org/1999/xlink">
<!ENTITY st0 "font-size:6.6349px;">
<!ENTITY st1 "fill:none;stroke:#000000;stroke-width:1.1331;stroke-linecap:round;stroke-linejoin:round;">
<!ENTITY st2 "fill:none;stroke:#000000;stroke-width:0.8499;stroke-linecap:round;stroke-linejoin:round;">
<!ENTITY st3 "font-family:'Arial';">
<!ATTLIST svg
xmlns:ewd CDATA #FIXED "http://shcl.co.jp/ewd"
xmlns:a CDATA #FIXED "http://ns.adobe.com/AdobeSVGViewerExtensions/3.0/"
ewd:ver CDATA #IMPLIED
>
<!ATTLIST g
xmlns:ewd CDATA #FIXED "http://shcl.co.jp/ewd"
ewd:pinNo CDATA #IMPLIED >
]>
<svg xmlns="&ns_svg;" xmlns:xlink="&ns_xlink;" ewd:ver="L2.1" xmlns:a="http://ns.adobe.com/AdobeSVGViewerExtensions/3.0/" width="52.124" height="69.123" viewBox="0 0 52.124 69.123" style="overflow:visible;enable-background:new 0 0 52.124 69.123" xml:space="preserve"  onload="call_execInitLoadProc_svg(&apos;connector&apos;)">
<script type="text/javascript" xlink:href="../../../../../system/js/ewd/fig/svgfig.js" />
<g id="レイヤー_1">
<g>
<path style="&st1;" d="M1.235,62.731c0.252,1.005,0.958,1.739,1.952,2.03" />
<path style="&st1;" d="M15.757,68.442c0.272,0.08,0.512,0.114,0.796,0.114" />
<path style="&st1;" d="M48.938,64.762c0.995-0.292,1.701-1.025,1.953-2.031" />
<path style="&st1;" d="M35.573,68.555c0.283,0,0.523-0.034,0.795-0.114" />
<path style="&st2;" d="M9.065,0.567c-1.564,0-2.833,1.268-2.833,2.833" />
<path style="&st2;" d="M45.892,3.399c0-1.564-1.269-2.833-2.833-2.833" />
<path style="&st2;" d="M4.816,18.98v16.997h42.493V18.98H4.816" />
<path style="&st2;" d="M18.98,35.978V18.98" />
<path style="&st2;" d="M33.144,35.978V18.98" />
<path style="&st2;" d="M4.816,35.978v16.997H18.98V35.978" />
<path style="&st2;" d="M33.144,35.978v16.997h14.165V35.978" />
<path style="&st2;" d="M18.98,44.476h14.164" />
<path style="&st2;" d="M18.98,52.975v4.249h14.164v-4.249" />
<path style="&st2;" d="M26.062,57.224V44.476" />
<path style="&st2;" d="M0.567,60.057h50.991" />
<path style="&st1;" d="M3.187,64.762l12.57,3.68" />
<path style="&st1;" d="M0.567,60.057l0.668,2.674" />
<path style="&st1;" d="M16.552,68.555h19.02" />
<path style="&st1;" d="M48.938,64.762l-12.569,3.68" />
<path style="&st1;" d="M51.558,60.057l-0.668,2.674" />
<path style="&st2;" d="M33.144,62.89v-2.833" />
<path style="&st2;" d="M18.98,62.89v-2.833" />
<path style="&st2;" d="M47.309,62.89v-2.833" />
<path style="&st2;" d="M4.816,62.89v-2.833" />
<path style="&st2;" d="M2.691,60.057v2.833h46.742v-2.833" />
<path style="&st2;" d="M47.309,61.473H33.144" />
<path style="&st2;" d="M51.558,55.808h-1.416l-2.833,2.833v1.417" />
<path style="&st2;" d="M37.394,9.065h-5.666" />
<path style="&st2;" d="M38.81,10.482V7.649h-1.417v2.833" />
<path style="&st2;" d="M4.816,61.473H18.98" />
<path style="&st2;" d="M0.567,55.808h1.416l2.833,2.833v1.417" />
<path style="&st2;" d="M38.81,10.482H13.315" />
<path style="&st2;" d="M14.731,9.065h5.666" />
<path style="&st2;" d="M13.315,10.482V7.649h1.416v2.833" />
<path style="&st2;" d="M45.892,10.482V3.399" />
<path style="&st2;" d="M20.397,10.482V6.232h11.332v4.249" />
<path style="&st2;" d="M13.315,16.147v-5.666h-1.417V4.816h28.329v5.666H38.81v5.666" />
<path style="&st2;" d="M10.482,16.147V3.399h31.162v12.748" />
<path style="&st2;" d="M6.232,10.482V3.399" />
<path style="&st2;" d="M0.567,10.482h4.249v5.666h42.493v-5.666h4.249" />
<path style="&st2;" d="M4.816,10.482h1.416" />
<path style="&st1;" d="M4.816,0.567L0.567,4.816v55.241" />
<path style="&st1;" d="M47.309,0.567H4.816" />
<path style="&st1;" d="M51.558,60.057V4.816l-4.249-4.249" />
<path style="&st2;" d="M45.892,10.482h1.417" />
<path style="&st2;" d="M21.813,38.81v2.833h8.499V38.81H21.813" />
<g ewd:pinNo="1">
<text transform="matrix(0.88 0 0 1 10.2322 29.4482)"><tspan x="0" y="0" style="&st3; &st0;">1</tspan></text>
</g>
<g ewd:pinNo="2">
<text transform="matrix(0.88 0 0 1 24.3967 29.4482)"><tspan x="0" y="0" style="&st3; &st0;">2</tspan></text>
</g>
<g ewd:pinNo="3">
<text transform="matrix(0.88 0 0 1 38.5608 29.4482)"><tspan x="0" y="0" style="&st3; &st0;">3</tspan></text>
</g>
<g ewd:pinNo="4">
<text transform="matrix(0.88 0 0 1 10.2322 46.4453)"><tspan x="0" y="0" style="&st3; &st0;">4</tspan></text>
</g>
<g ewd:pinNo="5">
<text transform="matrix(0.88 0 0 1 20.8557 52.8193)"><tspan x="0" y="0" style="&st3; &st0;">5</tspan></text>
</g>
<g ewd:pinNo="6">
<text transform="matrix(0.88 0 0 1 27.9377 52.8193)"><tspan x="0" y="0" style="&st3; &st0;">6</tspan></text>
</g>
<g ewd:pinNo="7">
<text transform="matrix(0.88 0 0 1 38.5608 46.4453)"><tspan x="0" y="0" style="&st3; &st0;">7</tspan></text>
</g>
</g>
</g>
</svg>
