﻿<?xml version="1.0"?>
<!-- Generator: Adobe Illustrator 10.0, SVG Export Plug-In . SVG Version: 3.0.0 Build 77)  -->
<!DOCTYPE svg PUBLIC "-//W3C//DTD SVG 1.0//EN" "http://www.w3.org/TR/2001/REC-SVG-20010904/DTD/svg10.dtd"[
<!ENTITY ns_flows "http://ns.adobe.com/Flows/1.0/">
<!ENTITY ns_svg "http://www.w3.org/2000/svg">
<!ENTITY ns_xlink "http://www.w3.org/1999/xlink">
<!ENTITY st0 "font-size:6.6349px;">
<!ENTITY st1 "fill:none;">
<!ENTITY st2 "stroke:#000000;">
<!ENTITY st3 "stroke-width:1.1331;">
<!ENTITY st4 "stroke-linecap:round;">
<!ENTITY st5 "stroke-linejoin:round;">
<!ENTITY st6 "stroke-width:0.8499;">
<!ENTITY st7 "font-family:'Arial';">
<!ENTITY st8 "stroke-width:1.4;">
<!ATTLIST svg
xmlns:a CDATA #FIXED "http://ns.adobe.com/AdobeSVGViewerExtensions/3.0/"
ewd:ver CDATA #IMPLIED
>
<!ATTLIST svg
xmlns:ewd CDATA #FIXED "http://shcl.co.jp/ewd"
xmlns:a CDATA #FIXED "http://ns.adobe.com/AdobeSVGViewerExtensions/3.0/"
ewd:ver CDATA #IMPLIED
>
<!ATTLIST g
xmlns:ewd CDATA #FIXED "http://shcl.co.jp/ewd"
ewd:pinNo CDATA #IMPLIED >
]>
<svg xmlns="&ns_svg;" xmlns:xlink="&ns_xlink;" ewd:ver="L2.1" xmlns:a="http://ns.adobe.com/AdobeSVGViewerExtensions/3.0/" width="299.728" height="105.958" viewBox="0 0 299.728 105.958" style="overflow:visible;enable-background:new 0 0 134.278 88.952" xml:space="preserve"  onload="call_execInitLoadProc_svg(&apos;connector&apos;)">
<script type="text/javascript" xlink:href="../../../../../system/js/ewd/fig/svgfig.js" />
<g id="レイヤー_1" transform="translate(0,17.008)">
<g>
<path style="&st1;&st2;&st6;&st4;&st5;" d="M54.391,77.621c0,1.251,1.015,2.266,2.266,2.266" />
<path style="&st1;&st2;&st6;&st4;&st5;" d="M0.567,72.805c0,0.782,0.634,1.417,1.416,1.417" />
<path style="&st1;&st2;&st6;&st4;&st5;" d="M126.629,23.229c-0.782,0-1.417,0.634-1.417,1.417" />
<path style="&st1;&st2;&st6;&st4;&st5;" d="M96.884,14.731c-0.782,0-1.416,0.634-1.416,1.417" />
<path style="&st1;&st2;&st6;&st4;&st5;" d="M133.711,24.646c0-0.782-0.634-1.417-1.417-1.417" />
<path style="&st1;&st2;&st6;&st4;&st5;" d="M132.295,74.221c0.782,0,1.417-0.634,1.417-1.417" />
<path style="&st1;&st2;&st6;&st4;&st5;" d="M38.81,16.147c0-0.782-0.634-1.417-1.417-1.417" />
<path style="&st1;&st2;&st6;&st4;&st5;" d="M9.065,24.646c0-0.782-0.634-1.417-1.417-1.417" />
<path style="&st1;&st2;&st6;&st4;&st5;" d="M1.983,23.229c-0.782,0-1.416,0.634-1.416,1.417" />
<path style="&st1;&st2;&st6;&st4;&st5;" d="M33.144,14.731c-0.782,0-1.416,0.634-1.416,1.417" />
<path style="&st1;&st2;&st6;&st4;&st5;" d="M102.55,16.147c0-0.782-0.634-1.417-1.417-1.417" />
<path style="&st1;&st2;&st6;&st4;&st5;" d="M47.875,79.887c1.252,0,2.267-1.015,2.267-2.266" />
<path style="&st1;&st2;&st6;&st4;&st5;" d="M84.136,77.621c0,1.251,1.015,2.266,2.266,2.266" />
<path style="&st1;&st2;&st6;&st4;&st5;" d="M77.62,79.887c1.251,0,2.266-1.015,2.266-2.266" />
<path style="&st1;&st2;&st3;&st4;&st5;" d="M9.677,85.867c2.479,1.717,5.047,2.519,8.063,2.519" />
<path style="&st1;&st2;&st3;&st4;&st5;" d="M116.538,88.385c3.016,0,5.583-0.802,8.062-2.519" />
<path style="&st1;&st2;&st3;&st4;&st5;" d="M133.711,14.731c0-7.823-6.342-14.164-14.165-14.164" />
<path style="&st1;&st2;&st3;&st4;&st5;" d="M14.731,0.567c-7.823,0-14.164,6.342-14.164,14.164" />
<path style="&st1;&st2;&st6;&st4;&st5;" d="M0.567,41.643l5.666,5.666v14.165l-5.666,5.666" />
<path style="&st1;&st2;&st6;&st4;&st5;" d="M50.142,61.473h4.249" />
<path style="&st1;&st2;&st6;&st4;&st5;" d="M61.473,20.396v-4.249h11.332v4.249" />
<path style="&st1;&st2;&st6;&st4;&st5;" d="M14.731,79.887h33.145" />
<path style="&st1;&st2;&st6;&st4;&st5;" d="M48.725,33.145V20.396h12.748" />
<path style="&st1;&st2;&st6;&st4;&st5;" d="M72.804,20.396h12.748v12.748" />
<path style="&st1;&st2;&st3;&st4;&st5;" d="M133.711,14.731v55.241" />
<path style="&st1;&st2;&st3;&st4;&st5;" d="M0.567,14.731v55.241" />
<path style="&st1;&st2;&st6;&st4;&st5;" d="M48.725,24.646h-5.666V10.482h48.159v14.164h-5.666" />
<path style="&st1;&st2;&st6;&st4;&st5;" d="M48.725,23.229h36.827" />
<path style="&st1;&st2;&st6;&st4;&st5;" d="M119.547,74.221v5.666" />
<path style="&st1;&st2;&st6;&st4;&st5;" d="M14.731,74.221v5.666" />
<path style="&st1;&st2;&st6;&st4;&st5;" d="M37.394,40.227v28.329h9.915" />
<path style="&st1;&st2;&st6;&st4;&st5;" d="M37.394,55.808h59.49" />
<path style="&st1;&st2;&st6;&st4;&st5;" d="M86.969,43.06v25.496" />
<path style="&st1;&st2;&st6;&st4;&st5;" d="M77.054,43.06v25.496" />
<path style="&st1;&st2;&st6;&st4;&st5;" d="M67.139,43.06v25.496" />
<path style="&st1;&st2;&st6;&st4;&st5;" d="M57.224,43.06v25.496" />
<path style="&st1;&st2;&st6;&st4;&st5;" d="M47.309,43.06v25.496" />
<path style="&st1;&st2;&st6;&st4;&st5;" d="M38.81,33.145h9.915" />
<path style="&st1;&st2;&st6;&st4;&st5;" d="M85.552,33.145h9.915" />
<path style="&st1;&st2;&st6;&st4;&st5;" d="M102.55,33.145h22.663" />
<path style="&st1;&st2;&st6;&st4;&st5;" d="M9.065,33.145h22.663" />
<path style="&st1;&st2;&st6;&st4;&st5;" d="M38.81,16.147v16.997" />
<path style="&st1;&st2;&st6;&st4;&st5;" d="M102.55,16.147v16.997" />
<path style="&st1;&st2;&st6;&st4;&st5;" d="M33.144,14.731h4.25" />
<path style="&st1;&st2;&st6;&st4;&st5;" d="M31.728,33.145V16.147" />
<path style="&st1;&st2;&st6;&st4;&st5;" d="M96.884,14.731h4.25" />
<path style="&st1;&st2;&st6;&st4;&st5;" d="M95.468,33.145V16.147" />
<path style="&st1;&st2;&st3;&st4;&st5;" d="M0.567,24.646v50.991" />
<path style="&st1;&st2;&st6;&st4;&st5;" d="M1.983,74.221h48.159" />
<path style="&st1;&st2;&st3;&st4;&st5;" d="M133.711,24.646v50.991" />
<path style="&st1;&st2;&st6;&st4;&st5;" d="M133.711,41.643l-5.666,5.666v14.165l5.666,5.666" />
<path style="&st1;&st2;&st6;&st4;&st5;" d="M126.629,23.229h5.666" />
<path style="&st1;&st2;&st6;&st4;&st5;" d="M125.212,33.145v-8.499" />
<path style="&st1;&st2;&st6;&st4;&st5;" d="M9.065,24.646v8.499" />
<path style="&st1;&st2;&st6;&st4;&st5;" d="M1.983,23.229h5.666" />
<path style="&st1;&st2;&st3;&st4;&st5;" d="M17.74,88.385h98.799" />
<path style="&st1;&st2;&st6;&st4;&st5;" d="M129.462,74.221v6.187" />
<path style="&st1;&st2;&st3;&st4;&st5;" d="M133.711,75.637L124.6,85.867" />
<path style="&st1;&st2;&st6;&st4;&st5;" d="M86.402,79.887h33.145" />
<path style="&st1;&st2;&st6;&st4;&st5;" d="M79.886,61.473h4.25" />
<path style="&st1;&st2;&st3;&st4;&st5;" d="M0.567,75.637l9.11,10.229" />
<path style="&st1;&st2;&st6;&st4;&st5;" d="M56.657,79.887H77.62" />
<path style="&st1;&st2;&st6;&st4;&st5;" d="M79.886,77.621V58.64h4.25v18.98" />
<path style="&st1;&st2;&st6;&st4;&st5;" d="M84.136,74.221h48.159" />
<path style="&st1;&st2;&st6;&st4;&st5;" d="M54.391,74.221h25.496" />
<path style="&st1;&st2;&st6;&st4;&st5;" d="M50.142,77.621V58.64h4.249v18.98" />
<path style="&st1;&st2;&st6;&st4;&st5;" d="M109.632,40.227v28.329" />
<path style="&st1;&st2;&st6;&st4;&st5;" d="M24.646,40.227v28.329" />
<path style="&st1;&st2;&st6;&st4;&st5;" d="M11.898,54.391h25.496" />
<path style="&st1;&st2;&st6;&st4;&st5;" d="M96.884,54.391h25.496" />
<path style="&st1;&st2;&st6;&st4;&st5;" d="M96.884,40.227v2.833" />
<path style="&st1;&st2;&st6;&st4;&st5;" d="M37.394,68.555H11.898V40.227h25.496" />
<path style="&st1;&st2;&st6;&st4;&st5;" d="M96.884,40.227h25.496v28.329H96.884" />
<path style="&st1;&st2;&st6;&st4;&st5;" d="M86.969,68.555h9.915V43.06h-59.49" />
<path style="&st1;&st2;&st6;&st4;&st5;" d="M57.224,68.555h19.83" />
<path style="&st1;&st2;&st3;&st4;&st5;" d="M14.731,0.567h104.816" />
<path style="&st1;&st2;&st6;&st4;&st5;" d="M103.258,77.054h16.289" />
<path style="&st1;&st2;&st6;&st4;&st5;" d="M14.731,77.054H31.02" />
<path style="&st1;&st2;&st6;&st4;&st5;" d="M31.02,74.221v5.666" />
<path style="&st1;&st2;&st6;&st4;&st5;" d="M95.468,7.649v8.499" />
<path style="&st1;&st2;&st6;&st4;&st5;" d="M38.81,7.649v8.499" />
<path style="&st1;&st2;&st6;&st4;&st5;" d="M38.81,7.649h56.657" />
<path style="&st1;&st2;&st6;&st4;&st5;" d="M125.212,26.062h8.499" />
<path style="&st1;&st2;&st6;&st4;&st5;" d="M95.468,17.564h7.082" />
<path style="&st1;&st2;&st6;&st4;&st5;" d="M31.728,17.564h7.082" />
<path style="&st1;&st2;&st6;&st4;&st5;" d="M0.567,26.062h8.499" />
<path style="&st1;&st2;&st6;&st4;&st5;" d="M103.258,74.221v5.666" />
<path style="&st1;&st2;&st6;&st4;&st5;" d="M4.816,79.887h9.915" />
<path style="&st1;&st2;&st6;&st4;&st5;" d="M129.462,79.887h-9.915" />
<path style="&st1;&st2;&st6;&st4;&st5;" d="M4.816,74.221v6.187" />
<g ewd:pinNo="10">
<text transform="matrix(0.88 0 0 1 112.6741 49.2778)"><tspan x="0" y="0" style="&st7; &st0;">1</tspan></text>
<text transform="matrix(0.88 0 0 1 116.0325 49.2778)"><tspan x="0" y="0" style="&st7; &st0;">0</tspan></text>
</g>
<g ewd:pinNo="9">
<text transform="matrix(0.88 0 0 1 101.592 49.2778)"><tspan x="0" y="0" style="&st7; &st0;">9</tspan></text>
</g>
<g ewd:pinNo="8">
<text transform="matrix(0.88 0 0 1 90.2605 51.4028)"><tspan x="0" y="0" style="&st7; &st0;">8</tspan></text>
</g>
<g ewd:pinNo="7">
<text transform="matrix(0.88 0 0 1 80.3455 51.4028)"><tspan x="0" y="0" style="&st7; &st0;">7</tspan></text>
</g>
<g ewd:pinNo="6">
<text transform="matrix(0.88 0 0 1 70.4304 51.4028)"><tspan x="0" y="0" style="&st7; &st0;">6</tspan></text>
</g>
<g ewd:pinNo="5">
<text transform="matrix(0.88 0 0 1 60.5154 51.4028)"><tspan x="0" y="0" style="&st7; &st0;">5</tspan></text>
</g>
<g ewd:pinNo="4">
<text transform="matrix(0.88 0 0 1 50.6003 51.4028)"><tspan x="0" y="0" style="&st7; &st0;">4</tspan></text>
</g>
<g ewd:pinNo="3">
<text transform="matrix(0.88 0 0 1 40.6858 51.4028)"><tspan x="0" y="0" style="&st7; &st0;">3</tspan></text>
</g>
<g ewd:pinNo="2">
<text transform="matrix(0.88 0 0 1 29.3542 49.2778)"><tspan x="0" y="0" style="&st7; &st0;">2</tspan></text>
</g>
<g ewd:pinNo="1">
<text transform="matrix(0.88 0 0 1 16.6062 49.2778)"><tspan x="0" y="0" style="&st7; &st0;">1</tspan></text>
</g>
<g ewd:pinNo="18">
<text transform="matrix(0.88 0 0 1 112.6741 63.4424)"><tspan x="0" y="0" style="&st7; &st0;">1</tspan></text>
<text transform="matrix(0.88 0 0 1 116.0325 63.4424)"><tspan x="0" y="0" style="&st7; &st0;">8</tspan></text>
</g>
<g ewd:pinNo="17">
<text transform="matrix(0.88 0 0 1 99.9265 63.4424)"><tspan x="0" y="0" style="&st7; &st0;">1</tspan></text>
<text transform="matrix(0.88 0 0 1 103.2844 63.4424)"><tspan x="0" y="0" style="&st7; &st0;">7</tspan></text>
</g>
<g ewd:pinNo="16">
<text transform="matrix(0.88 0 0 1 88.595 64.1504)"><tspan x="0" y="0" style="&st7; &st0;">1</tspan></text>
<text transform="matrix(0.88 0 0 1 91.9529 64.1504)"><tspan x="0" y="0" style="&st7; &st0;">6</tspan></text>
</g>
<g ewd:pinNo="15">
<text transform="matrix(0.88 0 0 1 68.7649 64.1504)"><tspan x="0" y="0" style="&st7; &st0;">1</tspan></text>
<text transform="matrix(0.88 0 0 1 72.1228 64.1504)"><tspan x="0" y="0" style="&st7; &st0;">5</tspan></text>
</g>
<g ewd:pinNo="14">
<text transform="matrix(0.88 0 0 1 58.8499 64.1504)"><tspan x="0" y="0" style="&st7; &st0;">1</tspan></text>
<text transform="matrix(0.88 0 0 1 62.2078 64.1504)"><tspan x="0" y="0" style="&st7; &st0;">4</tspan></text>
</g>
<g ewd:pinNo="13">
<text transform="matrix(0.88 0 0 1 39.0198 64.1504)"><tspan x="0" y="0" style="&st7; &st0;">1</tspan></text>
<text transform="matrix(0.88 0 0 1 42.3777 64.1504)"><tspan x="0" y="0" style="&st7; &st0;">3</tspan></text>
</g>
<g ewd:pinNo="12">
<text transform="matrix(0.88 0 0 1 27.6882 63.4424)"><tspan x="0" y="0" style="&st7; &st0;">1</tspan></text>
<text transform="matrix(0.88 0 0 1 31.0466 63.4424)"><tspan x="0" y="0" style="&st7; &st0;">2</tspan></text>
</g>
<g ewd:pinNo="11">
<text transform="matrix(0.88 0 0 1 14.9407 63.4424)"><tspan x="0" y="0" style="&st7; &st0;">1</tspan></text>
<text transform="matrix(0.88 0 0 1 18.2986 63.4424)"><tspan x="0" y="0" style="&st7; &st0;">1</tspan></text>
</g>
</g>
</g>
<g id="レイヤー_1" transform="translate(154.119,17.008)">
<g>
<path style="&st1;&st2;&st6;&st4;&st5;" d="M66.43,69.972c-0.782,0-1.416,0.634-1.416,1.417" />
<path style="&st1;&st2;&st3;&st4;&st5;" d="M116.714,69.972c-0.782,0-1.416,0.634-1.416,1.417" />
<path style="&st1;&st2;&st6;&st4;&st5;" d="M14.023,47.875c0-1.095-0.888-1.983-1.983-1.983" />
<path style="&st1;&st2;&st6;&st4;&st5;" d="M80.595,71.388c0-0.782-0.634-1.417-1.417-1.417" />
<path style="&st1;&st2;&st6;&st4;&st5;" d="M11.757,45.893c-1.095,0-1.983,0.888-1.983,1.983" />
<path style="&st1;&st2;&st6;&st4;&st5;" d="M9.773,56.657c0,1.095,0.888,1.983,1.983,1.983" />
<path style="&st1;&st2;&st6;&st4;&st5;" d="M12.04,58.64c1.095,0,1.983-0.888,1.983-1.983" />
<path style="&st1;&st2;&st6;&st4;&st5;" d="M133.57,45.893c-1.095,0-1.983,0.888-1.983,1.983" />
<path style="&st1;&st2;&st6;&st4;&st5;" d="M135.836,47.875c0-1.095-0.888-1.983-1.983-1.983" />
<path style="&st1;&st2;&st6;&st4;&st5;" d="M131.586,56.657c0,1.095,0.888,1.983,1.983,1.983" />
<path style="&st1;&st2;&st6;&st4;&st5;" d="M133.853,58.64c1.095,0,1.983-0.888,1.983-1.983" />
<path style="&st1;&st2;&st3;&st4;&st5;" d="M145.043,9.065c0-2.347-1.903-4.249-4.25-4.249" />
<path style="&st1;&st2;&st6;&st4;&st5;" d="M63.598,74.929c0.782,0,1.417-0.634,1.417-1.417" />
<path style="&st1;&st2;&st3;&st4;&st5;" d="M140.793,69.972c2.347,0,4.25-1.902,4.25-4.249" />
<path style="&st1;&st2;&st6;&st4;&st5;" d="M6.232,62.89c0,0.782,0.634,1.416,1.417,1.416" />
<path style="&st1;&st2;&st3;&st4;&st5;" d="M4.816,4.816c-2.347,0-4.249,1.903-4.249,4.249" />
<path style="&st1;&st2;&st6;&st4;&st5;" d="M80.595,73.513c0,0.782,0.634,1.417,1.417,1.417" />
<path style="&st1;&st2;&st3;&st4;&st5;" d="M111.048,82.72c2.347,0,4.25-1.903,4.25-4.25" />
<path style="&st1;&st2;&st6;&st4;&st5;" d="M92.635,77.195c0-1.251-1.015-2.266-2.266-2.266" />
<path style="&st1;&st2;&st3;&st4;&st5;" d="M30.312,71.388c0-0.782-0.634-1.417-1.417-1.417" />
<path style="&st1;&st2;&st3;&st4;&st5;" d="M0.567,65.723c0,2.347,1.902,4.249,4.249,4.249" />
<path style="&st1;&st2;&st3;&st4;&st5;" d="M30.312,78.47c0,2.347,1.902,4.25,4.249,4.25" />
<path style="&st1;&st2;&st6;&st4;&st5;" d="M132.295,13.314c-0.782,0-1.417,0.634-1.417,1.417" />
<path style="&st1;&st2;&st6;&st4;&st5;" d="M55.241,74.929c-1.252,0-2.267,1.015-2.267,2.266" />
<path style="&st1;&st2;&st6;&st4;&st5;" d="M96.884,4.816c-0.782,0-1.416,0.634-1.416,1.417" />
<path style="&st1;&st2;&st6;&st4;&st5;" d="M139.377,14.731c0-0.782-0.634-1.417-1.417-1.417" />
<path style="&st1;&st2;&st6;&st4;&st5;" d="M137.96,64.306c0.782,0,1.417-0.634,1.417-1.416" />
<path style="&st1;&st2;&st6;&st4;&st5;" d="M50.142,6.232c0-0.782-0.634-1.417-1.417-1.417" />
<path style="&st1;&st2;&st6;&st4;&st5;" d="M14.731,14.731c0-0.782-0.634-1.417-1.416-1.417" />
<path style="&st1;&st2;&st6;&st4;&st5;" d="M7.649,13.314c-0.782,0-1.417,0.634-1.417,1.417" />
<path style="&st1;&st2;&st6;&st4;&st5;" d="M44.476,4.816c-0.782,0-1.417,0.634-1.417,1.417" />
<path style="&st1;&st2;&st6;&st4;&st5;" d="M102.55,6.232c0-0.782-0.634-1.417-1.417-1.417" />
<path style="&st1;&st2;&st3;&st4;&st5;" d="M145.043,9.065v56.657" />
<path style="&st1;&st2;&st6;&st4;&st5;" d="M28.895,69.972h87.818" />
<path style="&st1;&st2;&st3;&st4;&st5;" d="M0.567,9.065v56.657" />
<path style="&st1;&st2;&st6;&st4;&st5;" d="M54.391,16.147h36.827" />
<path style="&st1;&st2;&st6;&st4;&st5;" d="M54.391,13.314h36.827" />
<path style="&st1;&st2;&st6;&st4;&st5;" d="M106.091,11.898v5.666h21.247v-5.666H106.091" />
<path style="&st1;&st2;&st6;&st4;&st5;" d="M18.272,11.898v5.666h21.246v-5.666H18.272" />
<path style="&st1;&st2;&st6;&st4;&st5;" d="M43.059,30.312V58.64h9.915" />
<path style="&st1;&st2;&st6;&st4;&st5;" d="M43.059,45.893h59.49" />
<path style="&st1;&st2;&st6;&st4;&st5;" d="M92.635,33.145V58.64" />
<path style="&st1;&st2;&st6;&st4;&st5;" d="M82.719,33.145V58.64" />
<path style="&st1;&st2;&st6;&st4;&st5;" d="M72.804,33.145V58.64" />
<path style="&st1;&st2;&st6;&st4;&st5;" d="M62.889,33.145V58.64" />
<path style="&st1;&st2;&st6;&st4;&st5;" d="M52.974,33.145V58.64" />
<path style="&st1;&st2;&st6;&st4;&st5;" d="M50.142,23.229h4.249" />
<path style="&st1;&st2;&st6;&st4;&st5;" d="M91.218,23.229h4.25" />
<path style="&st1;&st2;&st6;&st4;&st5;" d="M102.55,23.229h28.329" />
<path style="&st1;&st2;&st6;&st4;&st5;" d="M14.731,23.229h28.329" />
<path style="&st1;&st2;&st6;&st4;&st5;" d="M50.142,6.232v16.997" />
<path style="&st1;&st2;&st6;&st4;&st5;" d="M102.55,6.232v16.997" />
<path style="&st1;&st2;&st6;&st4;&st5;" d="M44.476,4.816h4.25" />
<path style="&st1;&st2;&st6;&st4;&st5;" d="M43.059,23.229V6.232" />
<path style="&st1;&st2;&st6;&st4;&st5;" d="M96.884,4.816h4.25" />
<path style="&st1;&st2;&st6;&st4;&st5;" d="M95.468,23.229V6.232" />
<path style="&st1;&st2;&st6;&st4;&st5;" d="M6.232,14.731V62.89" />
<path style="&st1;&st2;&st6;&st4;&st5;" d="M7.649,64.306h48.159" />
<path style="&st1;&st2;&st6;&st4;&st5;" d="M139.377,14.731V62.89" />
<path style="&st1;&st2;&st6;&st4;&st5;" d="M9.773,47.875v8.782" />
<path style="&st1;&st2;&st6;&st4;&st5;" d="M11.757,58.64h0.283" />
<path style="&st1;&st2;&st6;&st4;&st5;" d="M14.023,56.657v-8.782" />
<path style="&st1;&st2;&st6;&st4;&st5;" d="M11.757,45.893h0.283" />
<path style="&st1;&st2;&st6;&st4;&st5;" d="M131.586,47.875v8.782" />
<path style="&st1;&st2;&st6;&st4;&st5;" d="M133.57,58.64h0.283" />
<path style="&st1;&st2;&st6;&st4;&st5;" d="M135.836,56.657v-8.782" />
<path style="&st1;&st2;&st6;&st4;&st5;" d="M133.853,45.893h-0.283" />
<path style="&st1;&st2;&st6;&st4;&st5;" d="M54.391,23.229V10.482h36.827v12.748" />
<path style="&st1;&st2;&st6;&st4;&st5;" d="M132.295,13.314h5.666" />
<path style="&st1;&st2;&st6;&st4;&st5;" d="M130.878,23.229v-8.499" />
<path style="&st1;&st2;&st6;&st4;&st5;" d="M14.731,14.731v8.499" />
<path style="&st1;&st2;&st6;&st4;&st5;" d="M7.649,13.314h5.666" />
<path style="&st1;&st2;&st6;&st4;&st5;" d="M9.773,27.479v9.915h4.25v-9.915H9.773" />
<path style="&st1;&st2;&st6;&st4;&st5;" d="M131.586,27.479v9.915h4.25v-9.915H131.586" />
<path style="&st1;&st2;&st6;&st4;&st5;" d="M66.43,69.972h12.748" />
<path style="&st1;&st2;&st3;&st4;&st5;" d="M30.312,71.388v7.082" />
<path style="&st1;&st2;&st3;&st4;&st5;" d="M34.561,82.72h18.414" />
<path style="&st1;&st2;&st3;&st4;&st5;" d="M116.714,69.972h24.08" />
<path style="&st1;&st2;&st3;&st4;&st5;" d="M115.298,71.388v7.082" />
<path style="&st1;&st2;&st3;&st4;&st5;" d="M111.048,82.72H92.635" />
<path style="&st1;&st2;&st3;&st4;&st5;" d="M30.312,0.567h84.986" />
<path style="&st1;&st2;&st3;&st4;&st5;" d="M4.816,69.972h24.079" />
<path style="&st1;&st2;&st3;&st4;&st5;" d="M120.963,4.816l-5.666-4.249" />
<path style="&st1;&st2;&st3;&st4;&st5;" d="M52.974,82.72h39.66" />
<path style="&st1;&st2;&st6;&st4;&st5;" d="M90.368,74.929h-8.357" />
<path style="&st1;&st2;&st6;&st4;&st5;" d="M92.635,82.72v-5.524" />
<path style="&st1;&st2;&st6;&st4;&st5;" d="M52.974,82.72v-5.524" />
<path style="&st1;&st2;&st3;&st4;&st5;" d="M120.963,4.816h19.83" />
<path style="&st1;&st2;&st6;&st4;&st5;" d="M80.595,73.513v-2.125" />
<path style="&st1;&st2;&st6;&st4;&st5;" d="M55.241,74.929h8.357" />
<path style="&st1;&st2;&st6;&st4;&st5;" d="M65.014,73.513v-2.125" />
<path style="&st1;&st2;&st3;&st4;&st5;" d="M24.646,4.816l5.666-4.249" />
<path style="&st1;&st2;&st6;&st4;&st5;" d="M65.014,71.388h15.581" />
<path style="&st1;&st2;&st6;&st4;&st5;" d="M52.974,76.346h39.66" />
<path style="&st1;&st2;&st6;&st4;&st5;" d="M69.971,76.346v2.833h5.666v-2.833" />
<path style="&st1;&st2;&st6;&st4;&st5;" d="M69.971,79.179v1.416h5.666v-1.416" />
<path style="&st1;&st2;&st6;&st4;&st5;" d="M85.552,64.306V48.725h4.249v15.581" />
<path style="&st1;&st2;&st6;&st4;&st5;" d="M89.802,64.306h48.159" />
<path style="&st1;&st2;&st6;&st4;&st5;" d="M60.057,64.306h25.496" />
<path style="&st1;&st2;&st6;&st4;&st5;" d="M55.807,64.306V48.725h4.25v15.581" />
<path style="&st1;&st2;&st6;&st4;&st5;" d="M115.298,30.312V58.64" />
<path style="&st1;&st2;&st6;&st4;&st5;" d="M30.312,30.312V58.64" />
<path style="&st1;&st2;&st6;&st4;&st5;" d="M17.564,44.476h25.496" />
<path style="&st1;&st2;&st6;&st4;&st5;" d="M102.55,44.476h25.496" />
<path style="&st1;&st2;&st6;&st4;&st5;" d="M102.55,30.312v2.833" />
<path style="&st1;&st2;&st6;&st4;&st5;" d="M43.059,58.64H17.564V30.312h25.496" />
<path style="&st1;&st2;&st6;&st4;&st5;" d="M102.55,30.312h25.496V58.64H102.55" />
<path style="&st1;&st2;&st6;&st4;&st5;" d="M92.635,58.64h9.915V33.145h-59.49" />
<path style="&st1;&st2;&st6;&st4;&st5;" d="M62.889,58.64h19.83" />
<path style="&st1;&st2;&st3;&st4;&st5;" d="M4.816,4.816h19.83" />
<g ewd:pinNo="1">
<text transform="matrix(0.88 0 0 1 120.0056 39.3633)"><tspan x="0" y="0" style="&st7; &st0;">1</tspan></text>
</g>
<g ewd:pinNo="2">
<text transform="matrix(0.88 0 0 1 107.2576 39.3633)"><tspan x="0" y="0" style="&st7; &st0;">2</tspan></text>
</g>
<g ewd:pinNo="3">
<text transform="matrix(0.88 0 0 1 95.9265 41.4878)"><tspan x="0" y="0" style="&st7; &st0;">3</tspan></text>
</g>
<g ewd:pinNo="4">
<text transform="matrix(0.88 0 0 1 86.0115 41.4878)"><tspan x="0" y="0" style="&st7; &st0;">4</tspan></text>
</g>
<g ewd:pinNo="5">
<text transform="matrix(0.88 0 0 1 76.0964 41.4878)"><tspan x="0" y="0" style="&st7; &st0;">5</tspan></text>
</g>
<g ewd:pinNo="6">
<text transform="matrix(0.88 0 0 1 66.1814 41.4878)"><tspan x="0" y="0" style="&st7; &st0;">6</tspan></text>
</g>
<g ewd:pinNo="7">
<text transform="matrix(0.88 0 0 1 56.2664 41.4878)"><tspan x="0" y="0" style="&st7; &st0;">7</tspan></text>
</g>
<g ewd:pinNo="8">
<text transform="matrix(0.88 0 0 1 46.3513 41.4878)"><tspan x="0" y="0" style="&st7; &st0;">8</tspan></text>
</g>
<g ewd:pinNo="9">
<text transform="matrix(0.88 0 0 1 35.0198 39.3633)"><tspan x="0" y="0" style="&st7; &st0;">9</tspan></text>
</g>
<g ewd:pinNo="10">
<text transform="matrix(0.88 0 0 1 20.6062 39.3633)"><tspan x="0" y="0" style="&st7; &st0;">1</tspan></text>
<text transform="matrix(0.88 0 0 1 23.9641 39.3633)"><tspan x="0" y="0" style="&st7; &st0;">0</tspan></text>
</g>
<g ewd:pinNo="11">
<text transform="matrix(0.88 0 0 1 118.3401 53.5273)"><tspan x="0" y="0" style="&st7; &st0;">1</tspan></text>
<text transform="matrix(0.88 0 0 1 121.698 53.5273)"><tspan x="0" y="0" style="&st7; &st0;">1</tspan></text>
</g>
<g ewd:pinNo="12">
<text transform="matrix(0.88 0 0 1 105.592 53.5273)"><tspan x="0" y="0" style="&st7; &st0;">1</tspan></text>
<text transform="matrix(0.88 0 0 1 108.95 53.5273)"><tspan x="0" y="0" style="&st7; &st0;">2</tspan></text>
</g>
<g ewd:pinNo="13">
<text transform="matrix(0.88 0 0 1 94.2605 54.2354)"><tspan x="0" y="0" style="&st7; &st0;">1</tspan></text>
<text transform="matrix(0.88 0 0 1 97.6189 54.2354)"><tspan x="0" y="0" style="&st7; &st0;">3</tspan></text>
</g>
<g ewd:pinNo="14">
<text transform="matrix(0.88 0 0 1 74.4304 54.2354)"><tspan x="0" y="0" style="&st7; &st0;">1</tspan></text>
<text transform="matrix(0.88 0 0 1 77.7888 54.2354)"><tspan x="0" y="0" style="&st7; &st0;">4</tspan></text>
</g>
<g ewd:pinNo="15">
<text transform="matrix(0.88 0 0 1 64.5154 54.2354)"><tspan x="0" y="0" style="&st7; &st0;">1</tspan></text>
<text transform="matrix(0.88 0 0 1 67.8738 54.2354)"><tspan x="0" y="0" style="&st7; &st0;">5</tspan></text>
</g>
<g ewd:pinNo="16">
<text transform="matrix(0.88 0 0 1 44.6858 54.2354)"><tspan x="0" y="0" style="&st7; &st0;">1</tspan></text>
<text transform="matrix(0.88 0 0 1 48.0437 54.2354)"><tspan x="0" y="0" style="&st7; &st0;">6</tspan></text>
</g>
<g ewd:pinNo="17">
<text transform="matrix(0.88 0 0 1 33.3542 53.5273)"><tspan x="0" y="0" style="&st7; &st0;">1</tspan></text>
<text transform="matrix(0.88 0 0 1 36.7122 53.5273)"><tspan x="0" y="0" style="&st7; &st0;">7</tspan></text>
</g>
<g ewd:pinNo="18">
<text transform="matrix(0.88 0 0 1 20.6062 53.5273)"><tspan x="0" y="0" style="&st7; &st0;">1</tspan></text>
<text transform="matrix(0.88 0 0 1 23.9641 53.5273)"><tspan x="0" y="0" style="&st7; &st0;">8</tspan></text>
</g>
</g>
</g><path d="M67.139,9.069v-8.504h159.7845v8.504" style="&st1;&st2;&st8;&st4;&st5;" /></svg>
