﻿<?xml version="1.0"?>
<!-- Generator: Adobe Illustrator 10.0, SVG Export Plug-In . SVG Version: 3.0.0 Build 77)  -->
<!DOCTYPE svg PUBLIC "-//W3C//DTD SVG 1.0//EN" "http://www.w3.org/TR/2001/REC-SVG-20010904/DTD/svg10.dtd"[
<!ENTITY ns_flows "http://ns.adobe.com/Flows/1.0/">
<!ENTITY ns_svg "http://www.w3.org/2000/svg">
<!ENTITY ns_xlink "http://www.w3.org/1999/xlink">
<!ENTITY st0 "font-size:6.6349px;">
<!ENTITY st1 "fill:none;stroke:#000000;stroke-width:1.1331;stroke-linecap:round;stroke-linejoin:round;">
<!ENTITY st2 "fill:none;stroke:#000000;stroke-width:0.8499;stroke-linecap:round;stroke-linejoin:round;">
<!ENTITY st3 "font-family:'Arial';">
<!ATTLIST svg
xmlns:ewd CDATA #FIXED "http://shcl.co.jp/ewd"
xmlns:a CDATA #FIXED "http://ns.adobe.com/AdobeSVGViewerExtensions/3.0/"
ewd:ver CDATA #IMPLIED
>
<!ATTLIST g
xmlns:ewd CDATA #FIXED "http://shcl.co.jp/ewd"
ewd:pinNo CDATA #IMPLIED >
]>
<svg xmlns="&ns_svg;" xmlns:xlink="&ns_xlink;" ewd:ver="L2.1" xmlns:a="http://ns.adobe.com/AdobeSVGViewerExtensions/3.0/" width="72.238" height="32.011" viewBox="0 0 72.238 32.011" style="overflow:visible;enable-background:new 0 0 72.238 32.011" xml:space="preserve"  onload="call_execInitLoadProc_svg(&apos;connector&apos;)">
<script type="text/javascript" xlink:href="../../../../../system/js/ewd/fig/svgfig.js" />
<g id="レイヤー_1">
<g>
<path style="&st1;" d="M71.671,5.383c0-1.095-0.888-1.983-1.983-1.983" />
<path style="&st1;" d="M53.258,1.983c0-0.782-0.634-1.416-1.416-1.416" />
<path style="&st1;" d="M50.425,0.567c-0.782,0-1.417,0.634-1.417,1.416" />
<path style="&st1;" d="M4.816,0.567c-0.782,0-1.417,0.634-1.417,1.416" />
<path style="&st1;" d="M7.649,1.983c0-0.782-0.634-1.416-1.417-1.416" />
<path style="&st2;" d="M4.816,7.649c-0.782,0-1.417,0.634-1.417,1.417" />
<path style="&st1;" d="M3.399,25.779c0,0.782,0.634,1.416,1.417,1.416" />
<path style="&st1;" d="M71.671,24.929c0-1.095-0.888-1.983-1.983-1.983" />
<path style="&st1;" d="M69.688,27.195c1.095,0,1.983-0.888,1.983-1.983" />
<path style="&st1;" d="M69.688,7.649c1.095,0,1.983-0.888,1.983-1.983" />
<path style="&st2;" d="M49.009,7.649h4.249" />
<path style="&st2;" d="M4.816,7.649h2.833" />
<path style="&st1;" d="M53.258,3.399V1.983" />
<path style="&st2;" d="M53.258,22.946v4.249" />
<path style="&st2;" d="M37.181,28.612H31.02" />
<path style="&st2;" d="M31.02,31.445v-4.25" />
<path style="&st2;" d="M37.181,31.445v-4.25" />
<path style="&st1;" d="M49.009,7.649V1.983" />
<path style="&st2;" d="M8.782,11.048v12.748h39.66V11.048H8.782" />
<path style="&st2;" d="M18.697,23.796V11.048" />
<path style="&st2;" d="M28.612,23.796V11.048" />
<path style="&st2;" d="M38.527,23.796V11.048" />
<path style="&st2;" d="M47.592,30.028H41.43" />
<path style="&st1;" d="M51.842,0.567h-1.417" />
<path style="&st2;" d="M53.258,3.399h-4.249" />
<path style="&st2;" d="M41.43,27.195v4.25" />
<path style="&st2;" d="M3.399,3.399h4.249" />
<path style="&st1;" d="M4.816,0.567h1.416" />
<path style="&st1;" d="M7.649,7.649V1.983" />
<path style="&st1;" d="M3.399,9.065V1.983" />
<path style="&st2;" d="M47.592,31.445v-4.25" />
<path style="&st2;" d="M49.575,31.445v-4.25" />
<path style="&st1;" d="M53.258,20.963v1.983" />
<path style="&st2;" d="M3.399,13.881h2.833v7.082H3.399" />
<path style="&st2;" d="M4.816,13.881V9.632h46.459v15.581H4.816v-4.249" />
<path style="&st1;" d="M7.649,7.649h41.36" />
<path style="&st1;" d="M3.399,9.065l-2.833,2.833v11.048l2.833,2.833" />
<path style="&st2;" d="M53.258,9.632v11.331" />
<path style="&st2;" d="M3.399,9.065v16.714" />
<path style="&st2;" d="M20.042,28.612h6.162" />
<path style="&st2;" d="M9.632,30.028h6.162" />
<path style="&st2;" d="M26.204,31.445v-4.25" />
<path style="&st2;" d="M20.042,31.445v-4.25" />
<path style="&st1;" d="M53.258,7.649v1.983" />
<path style="&st2;" d="M4.816,27.195h47.592" />
<path style="&st1;" d="M52.408,27.195h0.85" />
<path style="&st2;" d="M67.422,12.819h-5.666v4.958h5.666" />
<path style="&st2;" d="M15.793,27.195v4.25" />
<path style="&st2;" d="M9.632,31.445v-4.25" />
<path style="&st2;" d="M64.589,17.776v-4.958" />
<path style="&st2;" d="M67.422,9.632v11.331" />
<path style="&st2;" d="M7.649,31.445v-4.25" />
<path style="&st2;" d="M67.422,12.819h1.417v4.958h-1.417" />
<path style="&st1;" d="M53.258,9.632h16.998v11.331H53.258" />
<path style="&st1;" d="M53.258,3.399h16.431" />
<path style="&st1;" d="M53.258,7.649h16.431" />
<path style="&st1;" d="M71.671,5.383v0.283" />
<path style="&st2;" d="M67.422,3.399v4.249" />
<path style="&st2;" d="M53.258,3.399v4.249" />
<path style="&st1;" d="M53.258,27.195h16.431" />
<path style="&st1;" d="M53.258,22.946h16.431" />
<path style="&st2;" d="M71.671,25.212v-0.283" />
<path style="&st2;" d="M67.422,27.195v-4.249" />
<path style="&st1;" d="M4.816,27.195v4.25h47.592v-4.25" />
<g ewd:pinNo="1">
<text transform="matrix(0.88 0 0 1 12.0735 19.3914)"><tspan x="0" y="0" style="&st3; &st0;">1</tspan></text>
</g>
<g ewd:pinNo="2">
<text transform="matrix(0.88 0 0 1 21.9885 19.3914)"><tspan x="0" y="0" style="&st3; &st0;">2</tspan></text>
</g>
<g ewd:pinNo="3">
<text transform="matrix(0.88 0 0 1 31.9036 19.3914)"><tspan x="0" y="0" style="&st3; &st0;">3</tspan></text>
</g>
<g ewd:pinNo="4">
<text transform="matrix(0.88 0 0 1 41.8186 19.3914)"><tspan x="0" y="0" style="&st3; &st0;">4</tspan></text>
</g>
</g>
</g>
</svg>
