﻿<?xml version="1.0"?>
<!-- Generator: Adobe Illustrator 10.0, SVG Export Plug-In . SVG Version: 3.0.0 Build 77)  -->
<!DOCTYPE svg PUBLIC "-//W3C//DTD SVG 1.0//EN" "http://www.w3.org/TR/2001/REC-SVG-20010904/DTD/svg10.dtd"[
<!ENTITY ns_flows "http://ns.adobe.com/Flows/1.0/">
<!ENTITY ns_svg "http://www.w3.org/2000/svg">
<!ENTITY ns_xlink "http://www.w3.org/1999/xlink">
<!ENTITY st0 "font-size:6.6349px;">
<!ENTITY st1 "fill:none;stroke:#000000;stroke-width:1.1331;stroke-linecap:round;stroke-linejoin:round;">
<!ENTITY st2 "fill:none;stroke:#000000;stroke-width:0.8499;stroke-linecap:round;stroke-linejoin:round;">
<!ENTITY st3 "font-family:'Arial';">
<!ATTLIST svg
xmlns:ewd CDATA #FIXED "http://shcl.co.jp/ewd"
xmlns:a CDATA #FIXED "http://ns.adobe.com/AdobeSVGViewerExtensions/3.0/"
ewd:ver CDATA #IMPLIED
>
<!ATTLIST g
xmlns:ewd CDATA #FIXED "http://shcl.co.jp/ewd"
ewd:pinNo CDATA #IMPLIED >
]>
<svg xmlns="&ns_svg;" xmlns:xlink="&ns_xlink;" ewd:ver="L2.1" xmlns:a="http://ns.adobe.com/AdobeSVGViewerExtensions/3.0/" width="57.79" height="59.773" viewBox="0 0 57.79 59.773" style="overflow:visible;enable-background:new 0 0 57.79 59.773" xml:space="preserve"  onload="call_execInitLoadProc_svg(&apos;connector&apos;)">
<script type="text/javascript" xlink:href="../../../../../system/js/ewd/fig/svgfig.js" />
<g id="レイヤー_1">
<g>
<path style="&st1;" d="M43.272,5.116c0-0.679-0.461-1.247-1.125-1.386" />
<path style="&st1;" d="M15.643,3.728c-0.666,0.14-1.127,0.708-1.127,1.388" />
<path style="&st1;" d="M57.224,1.983c0-0.782-0.634-1.416-1.417-1.416" />
<path style="&st1;" d="M55.807,59.207c0.782,0,1.417-0.634,1.417-1.417" />
<path style="&st1;" d="M46.742,0.567c-0.782,0-1.416,0.634-1.416,1.416" />
<path style="&st1;" d="M1.983,0.567c-0.782,0-1.416,0.634-1.416,1.416" />
<path style="&st1;" d="M12.465,1.983c0-0.782-0.634-1.416-1.417-1.416" />
<path style="&st1;" d="M0.567,57.791c0,0.782,0.634,1.417,1.416,1.417" />
<path style="&st1;" d="M5.666,59.207c0.782,0,1.417-0.634,1.417-1.417" />
<path style="&st1;" d="M50.708,57.791c0,0.782,0.634,1.417,1.417,1.417" />
<path style="&st2;" d="M52.408,0.567c-0.782,0-1.417,0.634-1.417,1.416" />
<path style="&st2;" d="M6.799,1.983c0-0.782-0.634-1.416-1.416-1.416" />
<path style="&st1;" d="M43.272,22.38h7.719" />
<path style="&st1;" d="M14.518,9.632V5.116" />
<path style="&st1;" d="M14.518,9.632H8.853v5.666h5.666" />
<path style="&st1;" d="M43.272,9.632h5.666v5.666h-5.666" />
<path style="&st2;" d="M14.518,16.714h28.754" />
<path style="&st1;" d="M43.272,9.632V5.116" />
<path style="&st1;" d="M15.643,3.728l5.603-1.178h15.297l5.604,1.178" />
<path style="&st1;" d="M6.799,5.383V22.38" />
<path style="&st1;" d="M50.991,5.383h-5.666v-3.4" />
<path style="&st1;" d="M55.807,59.207h-3.683" />
<path style="&st1;" d="M46.742,0.567h9.065" />
<path style="&st1;" d="M11.048,0.567H1.983" />
<path style="&st1;" d="M6.799,5.383h5.666v-3.4" />
<path style="&st1;" d="M50.991,5.383V22.38" />
<path style="&st1;" d="M1.983,59.207h3.683" />
<path style="&st1;" d="M14.518,22.38H6.799" />
<path style="&st2;" d="M28.895,53.541v-9.915" />
<path style="&st2;" d="M38.81,53.541v-9.915" />
<path style="&st2;" d="M48.725,43.626v9.915H9.065v-9.915H48.725" />
<path style="&st2;" d="M18.98,53.541v-9.915" />
<path style="&st2;" d="M5.383,23.796l1.416-1.417" />
<path style="&st2;" d="M52.408,23.796l-1.417-1.417" />
<path style="&st2;" d="M7.082,57.791v-4.25" />
<path style="&st1;" d="M7.082,59.207v-1.417" />
<path style="&st2;" d="M50.708,57.791v-4.25" />
<path style="&st1;" d="M50.708,59.207v-1.417" />
<path style="&st1;" d="M7.082,59.207h43.626" />
<path style="&st2;" d="M14.518,22.38h28.754" />
<path style="&st2;" d="M48.725,30.878h2.266" />
<path style="&st2;" d="M9.065,30.878H6.799" />
<path style="&st2;" d="M5.383,29.462l1.416,1.417" />
<path style="&st2;" d="M52.408,29.462l-1.417,1.417" />
<path style="&st2;" d="M14.518,19.547h28.754" />
<path style="&st2;" d="M21.955,19.547v2.833" />
<path style="&st2;" d="M35.836,19.547v2.833" />
<path style="&st1;" d="M43.272,22.38v-7.082" />
<path style="&st1;" d="M14.518,22.38v-7.082" />
<path style="&st2;" d="M23.229,9.632v3.966h11.332V9.632H23.229" />
<path style="&st2;" d="M8.853,11.615h14.376" />
<path style="&st2;" d="M34.561,11.615h14.377" />
<path style="&st2;" d="M43.272,11.615V9.632" />
<path style="&st2;" d="M14.518,11.615V9.632" />
<path style="&st2;" d="M6.799,5.383v-3.4" />
<path style="&st2;" d="M50.991,5.383v-3.4" />
<path style="&st2;" d="M48.725,30.878v9.915H9.065v-9.915H48.725" />
<path style="&st2;" d="M38.81,40.793v-9.915" />
<path style="&st2;" d="M28.895,40.793v-9.915" />
<path style="&st2;" d="M18.98,40.793v-9.915" />
<path style="&st2;" d="M48.725,43.626v-2.833" />
<path style="&st2;" d="M9.065,43.626v-2.833" />
<path style="&st2;" d="M9.065,34.278H2.55v6.515h6.516" />
<path style="&st1;" d="M0.567,1.983v19.83l1.416,1.417v3.966l-1.416,1.417v29.179" />
<path style="&st2;" d="M9.065,53.541H2.55v-7.082" />
<path style="&st2;" d="M2.55,40.793l3.116,1.417v1.417L2.55,46.459" />
<path style="&st2;" d="M2.55,38.81l6.516-2.549" />
<path style="&st2;" d="M2.55,51.558l6.516-2.549" />
<path style="&st1;" d="M57.224,1.983v19.83l-1.417,1.417v3.966l1.417,1.417v29.179" />
<path style="&st2;" d="M48.725,53.541h6.516v-7.082" />
<path style="&st2;" d="M55.241,40.793l-3.116,1.417v1.417l3.116,2.833" />
<path style="&st2;" d="M48.725,34.278h6.516v6.515h-6.516" />
<path style="&st2;" d="M55.241,38.81l-6.516-2.549" />
<path style="&st2;" d="M55.241,51.558l-6.516-2.549" />
<path style="&st2;" d="M50.991,5.383h1.417" />
<path style="&st2;" d="M5.383,5.383h1.416" />
<g ewd:pinNo="6">
<text transform="matrix(0.88 0 0 1 22.2722 50.5527)"><tspan x="0" y="0" style="&st3; &st0;">6</tspan></text>
</g>
<g ewd:pinNo="7">
<text transform="matrix(0.88 0 0 1 32.1868 50.5527)"><tspan x="0" y="0" style="&st3; &st0;">7</tspan></text>
</g>
<g ewd:pinNo="8">
<text transform="matrix(0.88 0 0 1 42.1018 50.5527)"><tspan x="0" y="0" style="&st3; &st0;">8</tspan></text>
</g>
<g ewd:pinNo="5">
<text transform="matrix(0.88 0 0 1 12.3572 50.5527)"><tspan x="0" y="0" style="&st3; &st0;">5</tspan></text>
</g>
<g ewd:pinNo="2">
<text transform="matrix(0.88 0 0 1 22.2722 37.8047)"><tspan x="0" y="0" style="&st3; &st0;">2</tspan></text>
</g>
<g ewd:pinNo="3">
<text transform="matrix(0.88 0 0 1 32.1868 37.8047)"><tspan x="0" y="0" style="&st3; &st0;">3</tspan></text>
</g>
<g ewd:pinNo="4">
<text transform="matrix(0.88 0 0 1 42.1018 37.8047)"><tspan x="0" y="0" style="&st3; &st0;">4</tspan></text>
</g>
<g ewd:pinNo="1">
<text transform="matrix(0.88 0 0 1 12.3572 37.8047)"><tspan x="0" y="0" style="&st3; &st0;">1</tspan></text>
</g>
</g>
</g>
</svg>
