﻿<?xml version="1.0"?>
<!DOCTYPE svg PUBLIC "-//W3C//DTD SVG 1.0//EN" "http://www.w3.org/TR/2001/REC-SVG-20010904/DTD/svg10.dtd"[
	<!ENTITY ns_flows "http://ns.adobe.com/Flows/1.0/">
	<!ENTITY ns_svg "http://www.w3.org/2000/svg">
	<!ENTITY ns_xlink "http://www.w3.org/1999/xlink">
	<!ENTITY st0 "fill:none;stroke:#000000;stroke-width:1.13;stroke-linecap:round;stroke-linejoin:round;">
	<!ENTITY st1 "font-size:6.63px;">
	<!ENTITY st2 "font-family:'Arial';">
	<!ENTITY st3 "fill:none;stroke:#000000;stroke-width:0.85;stroke-linecap:round;stroke-linejoin:round;">
	<!ATTLIST svg
		xmlns:ewd CDATA #FIXED "http://shcl.co.jp/ewd"
		xmlns:a CDATA #FIXED "http://ns.adobe.com/AdobeSVGViewerExtensions/3.0/"
		ewd:ver CDATA #IMPLIED>
	<!ATTLIST g
		ewd:pinNo CDATA #IMPLIED>
]>
<svg
height="68.13"
onload="call_execInitLoadProc_svg('connector')"
style="overflow:visible;enable-background:new 0 0 159.24 68.13"
viewBox="0 0 159.24 68.13"
width="159.24"
xml:space="preserve"
ewd:ver="L2.1"
xmlns="&ns_svg;"
xmlns:ewd="http://shcl.co.jp/ewd"
xmlns:a="http://ns.adobe.com/AdobeSVGViewerExtensions/3.0/"
xmlns:xlink="&ns_xlink;">
<script type="text/javascript" xlink:href="../../../../../system/js/ewd/fig/svgfig.js"/>
<g id="レイヤー_1">
<g>
<path style='&st3;' d='M132.89,56.53h15.84'/>
<path style='&st3;' d='M132.89,46.45h15.84'/>
<path style='&st3;' d='M108.42,56.53h16.55'/>
<path style='&st3;' d='M100.5,56.53V46.45h7.92'/>
<path style='&st3;' d='M100.18,57.43v-1.8h0.64v1.8'/>
<path style='&st3;' d='M100.18,47.35v-1.8h0.64v1.8'/>
<path style='&st3;' d='M108.1,47.35v-1.8h0.64v1.8'/>
<path style='&st3;' d='M108.1,57.43v-1.8h0.64v1.8'/>
<path style='&st3;' d='M116.37,57.43v-1.8h0.64v1.8'/>
<path style='&st3;' d='M124.65,57.43v-1.8h0.64v1.8'/>
<path style='&st3;' d='M132.57,57.43v-1.8h0.64v1.8'/>
<path style='&st3;' d='M140.49,57.43v-1.8h0.64v1.8'/>
<path style='&st3;' d='M148.4,57.43v-1.8h0.64v1.8'/>
<path style='&st3;' d='M132.57,47.35v-1.8h0.64v1.8'/>
<path style='&st3;' d='M140.49,47.35v-1.8h0.64v1.8'/>
<path style='&st3;' d='M148.4,47.35v-1.8h0.64v1.8'/>
<path style='&st3;' d='M118.25,30.03v-1.71h5.52v1.71'/>
<path style='&st3;' d='M123,25.35v1.56h-3.96v-1.56'/>
<path style='&st3;' d='M112.37,61.57V41.42H96.54v20.15h56.14V41.42h-23.75v20.15'/>
<path style='&st3;' d='M116.69,30.03v13.31h-2.16v-6.48l-2.16-2.16H95.22'/>
<path style='&st3;' d='M154,34.7h-25.07l-1.44,2.16l0,6.48h-2.16V30.03'/>
<path style='&st3;' d='M100.5,57.49c0.53,0,0.95-0.43,0.95-0.96'/>
<path style='&st3;' d='M99.55,56.53c0,0.53,0.43,0.96,0.95,0.96'/>
<path style='&st3;' d='M100.5,55.58c-0.53,0-0.95,0.43-0.95,0.96'/>
<path style='&st3;' d='M101.46,56.53c0-0.53-0.43-0.96-0.95-0.96'/>
<path style='&st3;' d='M100.5,57.81c0.7,0,1.27-0.57,1.27-1.27'/>
<path style='&st3;' d='M99.23,56.53c0,0.7,0.57,1.27,1.27,1.27'/>
<path style='&st3;' d='M100.5,55.26c-0.7,0-1.27,0.57-1.27,1.28'/>
<path style='&st3;' d='M101.78,56.53c0-0.71-0.57-1.28-1.27-1.28'/>
<path style='&st3;' d='M100.5,47.41c0.53,0,0.95-0.43,0.95-0.96'/>
<path style='&st3;' d='M99.55,46.45c0,0.53,0.43,0.96,0.95,0.96'/>
<path style='&st3;' d='M100.5,45.5c-0.53,0-0.95,0.43-0.95,0.96'/>
<path style='&st3;' d='M101.46,46.45c0-0.53-0.43-0.96-0.95-0.96'/>
<path style='&st3;' d='M100.5,47.73c0.7,0,1.27-0.57,1.27-1.28'/>
<path style='&st3;' d='M99.23,46.45c0,0.71,0.57,1.28,1.27,1.28'/>
<path style='&st3;' d='M100.5,45.18c-0.7,0-1.27,0.57-1.27,1.28'/>
<path style='&st3;' d='M101.78,46.45c0-0.7-0.57-1.28-1.27-1.28'/>
<path style='&st3;' d='M108.42,47.41c0.53,0,0.96-0.43,0.96-0.96'/>
<path style='&st3;' d='M107.46,46.45c0,0.53,0.43,0.96,0.96,0.96'/>
<path style='&st3;' d='M108.42,45.5c-0.53,0-0.96,0.43-0.96,0.96'/>
<path style='&st3;' d='M109.37,46.45c0-0.53-0.43-0.96-0.96-0.96'/>
<path style='&st3;' d='M108.42,47.73c0.7,0,1.27-0.57,1.27-1.28'/>
<path style='&st3;' d='M107.14,46.45c0,0.71,0.57,1.28,1.28,1.28'/>
<path style='&st3;' d='M108.42,45.18c-0.7,0-1.28,0.57-1.28,1.28'/>
<path style='&st3;' d='M109.69,46.45c0-0.7-0.57-1.28-1.27-1.28'/>
<path style='&st3;' d='M108.42,57.49c0.53,0,0.96-0.43,0.96-0.96'/>
<path style='&st3;' d='M107.46,56.53c0,0.53,0.43,0.96,0.96,0.96'/>
<path style='&st3;' d='M108.42,55.58c-0.53,0-0.96,0.43-0.96,0.96'/>
<path style='&st3;' d='M109.37,56.53c0-0.53-0.43-0.96-0.96-0.96'/>
<path style='&st3;' d='M108.42,57.81c0.7,0,1.27-0.57,1.27-1.27'/>
<path style='&st3;' d='M107.14,56.53c0,0.7,0.57,1.27,1.28,1.27'/>
<path style='&st3;' d='M108.42,55.26c-0.7,0-1.28,0.57-1.28,1.28'/>
<path style='&st3;' d='M109.69,56.53c0-0.71-0.57-1.28-1.27-1.28'/>
<path style='&st3;' d='M116.69,57.49c0.53,0,0.96-0.43,0.96-0.96'/>
<path style='&st3;' d='M115.74,56.53c0,0.53,0.43,0.96,0.96,0.96'/>
<path style='&st3;' d='M116.69,55.58c-0.53,0-0.96,0.43-0.96,0.96'/>
<path style='&st3;' d='M117.65,56.53c0-0.53-0.43-0.96-0.96-0.96'/>
<path style='&st3;' d='M116.69,57.81c0.7,0,1.28-0.57,1.28-1.27'/>
<path style='&st3;' d='M115.42,56.53c0,0.7,0.57,1.27,1.27,1.27'/>
<path style='&st3;' d='M116.69,55.26c-0.7,0-1.27,0.57-1.27,1.28'/>
<path style='&st3;' d='M117.97,56.53c0-0.71-0.57-1.28-1.28-1.28'/>
<path style='&st3;' d='M124.97,57.49c0.53,0,0.96-0.43,0.96-0.96'/>
<path style='&st3;' d='M124.02,56.53c0,0.53,0.43,0.96,0.95,0.96'/>
<path style='&st3;' d='M124.97,55.58c-0.53,0-0.95,0.43-0.95,0.96'/>
<path style='&st3;' d='M125.93,56.53c0-0.53-0.43-0.96-0.96-0.96'/>
<path style='&st3;' d='M124.97,57.81c0.71,0,1.28-0.57,1.28-1.27'/>
<path style='&st3;' d='M123.7,56.53c0,0.7,0.57,1.27,1.27,1.27'/>
<path style='&st3;' d='M124.97,55.26c-0.7,0-1.27,0.57-1.27,1.28'/>
<path style='&st3;' d='M126.25,56.53c0-0.71-0.57-1.28-1.28-1.28'/>
<path style='&st3;' d='M132.89,57.49c0.53,0,0.96-0.43,0.96-0.96'/>
<path style='&st3;' d='M131.94,56.53c0,0.53,0.43,0.96,0.95,0.96'/>
<path style='&st3;' d='M132.89,55.58c-0.53,0-0.95,0.43-0.95,0.96'/>
<path style='&st3;' d='M133.85,56.53c0-0.53-0.43-0.96-0.96-0.96'/>
<path style='&st3;' d='M132.89,57.81c0.7,0,1.28-0.57,1.28-1.27'/>
<path style='&st3;' d='M131.62,56.53c0,0.7,0.57,1.27,1.27,1.27'/>
<path style='&st3;' d='M132.89,55.26c-0.7,0-1.27,0.57-1.27,1.28'/>
<path style='&st3;' d='M134.17,56.53c0-0.71-0.57-1.28-1.28-1.28'/>
<path style='&st3;' d='M140.81,57.49c0.53,0,0.96-0.43,0.96-0.96'/>
<path style='&st3;' d='M139.85,56.53c0,0.53,0.43,0.96,0.96,0.96'/>
<path style='&st3;' d='M140.81,55.58c-0.53,0-0.96,0.43-0.96,0.96'/>
<path style='&st3;' d='M141.76,56.53c0-0.53-0.43-0.96-0.96-0.96'/>
<path style='&st3;' d='M140.81,57.81c0.7,0,1.28-0.57,1.28-1.27'/>
<path style='&st3;' d='M139.53,56.53c0,0.7,0.57,1.27,1.27,1.27'/>
<path style='&st3;' d='M140.81,55.26c-0.7,0-1.27,0.57-1.27,1.28'/>
<path style='&st3;' d='M142.08,56.53c0-0.71-0.57-1.28-1.28-1.28'/>
<path style='&st3;' d='M148.72,57.49c0.53,0,0.96-0.43,0.96-0.96'/>
<path style='&st3;' d='M147.77,56.53c0,0.53,0.43,0.96,0.95,0.96'/>
<path style='&st3;' d='M148.72,55.58c-0.53,0-0.95,0.43-0.95,0.96'/>
<path style='&st3;' d='M149.68,56.53c0-0.53-0.43-0.96-0.96-0.96'/>
<path style='&st3;' d='M148.72,57.81c0.7,0,1.27-0.57,1.27-1.27'/>
<path style='&st3;' d='M147.45,56.53c0,0.7,0.57,1.27,1.27,1.27'/>
<path style='&st3;' d='M148.72,55.26c-0.7,0-1.27,0.57-1.27,1.28'/>
<path style='&st3;' d='M150,56.53c0-0.71-0.57-1.28-1.27-1.28'/>
<path style='&st3;' d='M132.89,47.41c0.53,0,0.96-0.43,0.96-0.96'/>
<path style='&st3;' d='M131.94,46.45c0,0.53,0.43,0.96,0.95,0.96'/>
<path style='&st3;' d='M132.89,45.5c-0.53,0-0.95,0.43-0.95,0.96'/>
<path style='&st3;' d='M133.85,46.45c0-0.53-0.43-0.96-0.96-0.96'/>
<path style='&st3;' d='M132.89,47.73c0.7,0,1.28-0.57,1.28-1.28'/>
<path style='&st3;' d='M131.62,46.45c0,0.71,0.57,1.28,1.27,1.28'/>
<path style='&st3;' d='M132.89,45.18c-0.7,0-1.27,0.57-1.27,1.28'/>
<path style='&st3;' d='M134.17,46.45c0-0.7-0.57-1.28-1.28-1.28'/>
<path style='&st3;' d='M140.81,47.41c0.53,0,0.96-0.43,0.96-0.96'/>
<path style='&st3;' d='M139.85,46.45c0,0.53,0.43,0.96,0.96,0.96'/>
<path style='&st3;' d='M140.81,45.5c-0.53,0-0.96,0.43-0.96,0.96'/>
<path style='&st3;' d='M141.76,46.45c0-0.53-0.43-0.96-0.96-0.96'/>
<path style='&st3;' d='M140.81,47.73c0.7,0,1.28-0.57,1.28-1.28'/>
<path style='&st3;' d='M139.53,46.45c0,0.71,0.57,1.28,1.27,1.28'/>
<path style='&st3;' d='M140.81,45.18c-0.7,0-1.27,0.57-1.27,1.28'/>
<path style='&st3;' d='M142.08,46.45c0-0.7-0.57-1.28-1.28-1.28'/>
<path style='&st3;' d='M148.72,47.41c0.53,0,0.96-0.43,0.96-0.96'/>
<path style='&st3;' d='M147.77,46.45c0,0.53,0.43,0.96,0.95,0.96'/>
<path style='&st3;' d='M148.72,45.5c-0.53,0-0.95,0.43-0.95,0.96'/>
<path style='&st3;' d='M149.68,46.45c0-0.53-0.43-0.96-0.96-0.96'/>
<path style='&st3;' d='M148.72,47.73c0.7,0,1.27-0.57,1.27-1.28'/>
<path style='&st3;' d='M147.45,46.45c0,0.71,0.57,1.28,1.27,1.28'/>
<path style='&st3;' d='M148.72,45.18c-0.7,0-1.27,0.57-1.27,1.28'/>
<path style='&st3;' d='M150,46.45c0-0.7-0.57-1.28-1.27-1.28'/>
<path style='&st3;' d='M154,64.45c0.86,0,1.56-0.7,1.56-1.56'/>
<path style='&st3;' d='M93.66,62.89c0,0.86,0.7,1.56,1.56,1.56'/>
<path style='&st3;' d='M155.56,36.26c0-0.86-0.7-1.56-1.56-1.56'/>
<path style='&st3;' d='M95.22,34.7c-0.86,0-1.56,0.7-1.56,1.56'/>
<path style='&st3;' d='M117.47,25.35h7.08'/>
<path style='&st3;' d='M100.5,30.03h40.31'/>
<path style='&st3;' d='M136.85,61.57V41.42'/>
<path style='&st3;' d='M116.69,32.36h8.64'/>
<path style='&st3;' d='M144.77,61.57V41.42'/>
<path style='&st3;' d='M104.46,49.33'/>
<path style='&st3;' d='M104.46,41.42v20.15'/>
<path style='&st3;' d='M116.69,34.7h8.64'/>
<path style='&st3;' d='M155.56,36.26v26.63'/>
<path style='&st3;' d='M93.66,62.89V36.26'/>
<path style='&st3;' d='M154,64.45H95.22'/>
<path style='&st3;' d='M96.54,51.49h56.14'/>
<path style='&st3;' d='M121.02,51.49v10.08'/>
<path style='&st0;' d='M152.45,30.03h-11.64V19.12'/>
<path style='&st0;' d='M96.78,30.03h3.72V19.12'/>
<path style='&st0;' d='M131.46,19.12v3.12h-2.34l-1.8,3.12h-2.77v-3.12h-7.08v3.12h-2.76l-2.34-3.12h-3.12v-3.12'/>
<path style='&st0;' d='M124.61,9.06v-8.5H35.64v8.5'/>
<path style='&st0;' d='M102.06,17.56c-0.86,0-1.56,0.7-1.56,1.56'/>
<path style='&st0;' d='M92.37,31.85c-1.22,1.22-1.83,2.69-1.83,4.41'/>
<path style='&st0;' d='M109.26,19.12c0-0.86-0.7-1.56-1.56-1.56'/>
<path style='&st0;' d='M133.02,17.56c-0.86,0-1.56,0.7-1.56,1.56'/>
<path style='&st0;' d='M140.81,19.12c0-0.86-0.7-1.56-1.56-1.56'/>
<path style='&st0;' d='M158.68,36.26c0-3.44-2.79-6.23-6.23-6.23'/>
<path style='&st0;' d='M96.78,30.03c-1.72,0-3.19,0.61-4.41,1.83'/>
<path style='&st0;' d='M152.45,67.57c3.44,0,6.23-2.79,6.23-6.23'/>
<path style='&st0;' d='M90.55,61.33c0,3.44,2.79,6.23,6.23,6.23'/>
<path style='&st0;' d='M133.02,17.56h6.23'/>
<path style='&st0;' d='M102.06,17.56h5.64'/>
<path style='&st0;' d='M158.68,36.26v25.08'/>
<path style='&st0;' d='M152.45,67.57H96.78'/>
<path style='&st0;' d='M90.55,61.33V36.26'/>
<path style='&st0;' d='M57.1,67.57H14.19'/>
<path style='&st0;' d='M28.66,34.58h1.67'/>
<path style='&st0;' d='M48.91,34.58h1.67'/>
<path style='&st0;' d='M57.1,67.57c2.61,0,4.82-0.59,7.08-1.9'/>
<path style='&st0;' d='M7.1,65.67c2.26,1.3,4.47,1.9,7.08,1.9'/>
<path style='&st0;' d='M51.98,35.76c-0.12-0.69-0.7-1.18-1.4-1.18'/>
<path style='&st0;' d='M48.91,34.58c-0.33,0-0.62,0.22-0.69,0.55'/>
<path style='&st0;' d='M31.02,35.13c-0.08-0.32-0.35-0.55-0.69-0.55'/>
<path style='&st0;' d='M28.66,34.58c-0.7,0-1.28,0.49-1.4,1.18'/>
<path style='&st0;' d='M43.97,37.41c0.39,0,0.71-0.32,0.71-0.71'/>
<path style='&st0;' d='M34.56,36.7c0,0.39,0.32,0.71,0.71,0.71'/>
<path style='&st0;' d='M48.22,35.13l-1.29,5.66v5.89h-4.8v-9.27h1.84'/>
<path style='&st0;' d='M64.18,65.67l4.56-2.63v-4.91h1.98V44.39h-1.98v-4.25l-1.32-1.31H52.49l-0.51-3.07'/>
<path style='&st0;' d='M7.1,65.67l-4.55-2.63v-4.91H0.56V44.39h1.98v-4.25l1.31-1.31h22.9l0.51-3.07'/>
<path style='&st0;' d='M34.56,36.7v-2.13h10.12v2.13'/>
<path style='&st0;' d='M31.02,35.13l1.29,5.66v5.89h4.8v-9.27h-1.84'/>
<path style='&st3;' d='M42.13,37.41h-5.02'/>
<path style='&st3;' d='M68.73,58.13V44.39'/>
<path style='&st3;' d='M2.55,63.04h66.19'/>
<path style='&st3;' d='M22.39,60.42V42.1'/>
<path style='&st3;' d='M13.78,60.42V42.1'/>
<path style='&st3;' d='M57.5,42.1v18.32'/>
<path style='&st3;' d='M2.55,44.39v13.74'/>
<path style='&st3;' d='M5.17,51.26h60.95'/>
<path style='&st3;' d='M39.62,51.26v9.16'/>
<path style='&st3;' d='M52.49,38.83h-3.6l-1.96,1.96'/>
<path style='&st3;' d='M26.75,38.83h4.26l1.31,1.96'/>
<path style='&st3;' d='M31.01,60.42V42.1H5.17v18.32h60.95V42.1H48.89v18.32'/>
    <g ewd:pinNo="10">
        <text transform="matrix(0.88 0 0 1 40.5908 58.7373)"><tspan x='0' y='0' style='&st2; &st1;'>10</tspan></text>
    </g>
    <g ewd:pinNo="9">
        <text transform="matrix(0.88 0 0 1 33.6011 58.7373)"><tspan x='0' y='0' style='&st2; &st1;'>9</tspan></text>
    </g>
    <g ewd:pinNo="12">
        <text transform="matrix(0.88 0 0 1 58.4111 58.7373)"><tspan x='0' y='0' style='&st2; &st1;'>12</tspan></text>
    </g>
    <g ewd:pinNo="11">
        <text transform="matrix(0.88 0 0 1 50.0156 58.7373)"><tspan x='0' y='0' style='&st2; &st1;'>11</tspan></text>
    </g>
    <g ewd:pinNo="8">
        <text transform="matrix(0.88 0 0 1 24.9229 58.7373)"><tspan x='0' y='0' style='&st2; &st1;'>8</tspan></text>
    </g>
    <g ewd:pinNo="7">
        <text transform="matrix(0.88 0 0 1 16.311 58.7373)"><tspan x='0' y='0' style='&st2; &st1;'>7</tspan></text>
    </g>
    <g ewd:pinNo="6">
        <text transform="matrix(0.88 0 0 1 7.6963 58.7373)"><tspan x='0' y='0' style='&st2; &st1;'>6</tspan></text>
    </g>
    <g ewd:pinNo="5">
        <text transform="matrix(0.88 0 0 1 60.0332 49.6592)"><tspan x='0' y='0' style='&st2; &st1;'>5</tspan></text>
    </g>
    <g ewd:pinNo="4">
        <text transform="matrix(0.88 0 0 1 51.4214 49.6592)"><tspan x='0' y='0' style='&st2; &st1;'>4</tspan></text>
    </g>
    <g ewd:pinNo="3">
        <text transform="matrix(0.88 0 0 1 24.9229 49.6592)"><tspan x='0' y='0' style='&st2; &st1;'>3</tspan></text>
    </g>
    <g ewd:pinNo="2">
        <text transform="matrix(0.88 0 0 1 16.311 49.6592)"><tspan x='0' y='0' style='&st2; &st1;'>2</tspan></text>
    </g>
    <g ewd:pinNo="1">
        <text transform="matrix(0.88 0 0 1 7.6963 49.6592)"><tspan x='0' y='0' style='&st2; &st1;'>1</tspan></text>
    </g>
</g>
</g>
</svg>
