﻿<?xml version="1.0" encoding="UTF-8"?>
<!-- Generator: Adobe Illustrator 10.0, SVG Export Plug-In . SVG Version: 3.0.0 Build 76)  -->
<!DOCTYPE svg PUBLIC "-//W3C//DTD SVG 1.0//EN"    "http://www.w3.org/TR/2001/REC-SVG-20010904/DTD/svg10.dtd" [
<!ENTITY ns_flows "http://ns.adobe.com/Flows/1.0/">
<!ENTITY ns_svg "http://www.w3.org/2000/svg">
<!ENTITY ns_xlink "http://www.w3.org/1999/xlink">
<!ATTLIST svg
xmlns:ewd CDATA #FIXED "http://shcl.co.jp/ewd"
xmlns:a CDATA #FIXED "http://ns.adobe.com/AdobeSVGViewerExtensions/3.0/"
ewd:ver CDATA #IMPLIED
>
<!ATTLIST g
ewd:pinNo CDATA #IMPLIED >
]>
<svg  xmlns="&ns_svg;" xmlns:xlink="&ns_xlink;" xmlns:a="http://ns.adobe.com/AdobeSVGViewerExtensions/3.0/"
width="62.037" height="54.482" viewBox="0 0 62.037 54.482" style="overflow:visible;enable-background:new 0 0 62.037 54.482"
xml:space="preserve" onload="call_execInitLoadProc_svg(&apos;connector&apos;)"><script type="text/javascript" xlink:href="../../../../../system/js/ewd/fig/svgfig.js"/>
<g id="&#x30EC;&#x30A4;&#x30E4;&#x30FC;_1">
<path style="fill:none;stroke:#000000;stroke-width:1.13;stroke-linecap:round;stroke-linejoin:round;" d="M48.276,53.917
c1.757,0,3.252-0.453,4.714-1.427"/>
<path style="fill:none;stroke:#000000;stroke-width:1.13;stroke-linecap:round;stroke-linejoin:round;" d="M9.046,52.489
c1.462,0.975,2.957,1.427,4.714,1.427"/>
<path style="fill:none;stroke:#000000;stroke-width:1.13;stroke-linecap:round;stroke-linejoin:round;" d="M57.417,2.176
c-0.482-1.01-1.436-1.611-2.555-1.611"/>
<path style="fill:none;stroke:#000000;stroke-width:0.85;stroke-linecap:round;stroke-linejoin:round;" d="M57.694,3.397
c0-0.443-0.084-0.82-0.276-1.221"/>
<path style="fill:none;stroke:#000000;stroke-width:0.85;stroke-linecap:round;stroke-linejoin:round;" d="M4.618,2.176
C4.427,2.578,4.342,2.955,4.342,3.397"/>
<path style="fill:none;stroke:#000000;stroke-width:1.13;stroke-linecap:round;stroke-linejoin:round;" d="M7.174,0.565
c-1.121,0-2.073,0.601-2.556,1.612"/>
<path style="fill:none;stroke:#000000;stroke-width:0.85;stroke-linecap:round;stroke-linejoin:round;" d="M52.972,6.23
c0-1.563-1.268-2.833-2.832-2.833"/>
<path style="fill:none;stroke:#000000;stroke-width:1.13;stroke-linecap:round;stroke-linejoin:round;" d="M0.565,45.318
c0,0.979,0.447,1.813,1.261,2.356"/>
<path style="fill:none;stroke:#000000;stroke-width:0.85;stroke-linecap:round;stroke-linejoin:round;" d="M11.896,3.397
c-1.565,0-2.833,1.27-2.833,2.833"/>
<path style="fill:none;stroke:#000000;stroke-width:1.13;stroke-linecap:round;stroke-linejoin:round;" d="M60.211,47.675
c0.813-0.543,1.261-1.378,1.261-2.357"/>
<path style="fill:none;stroke:#000000;stroke-width:1.13;stroke-linecap:round;stroke-linejoin:round;" d="M13.76,53.917h34.516"
/>
<path style="fill:none;stroke:#000000;stroke-width:0.85;stroke-linecap:round;stroke-linejoin:round;" d="M0.565,44.001h60.907"
/>
<path style="fill:none;stroke:#000000;stroke-width:0.85;stroke-linecap:round;stroke-linejoin:round;" d="M6.23,28.42v12.748
h49.576V28.42H6.23"/>
<path style="fill:none;stroke:#000000;stroke-width:0.85;stroke-linecap:round;stroke-linejoin:round;" d="M16.145,41.168V28.42"
/>
<path style="fill:none;stroke:#000000;stroke-width:0.85;stroke-linecap:round;stroke-linejoin:round;" d="M26.06,41.168V28.42"/>
<path style="fill:none;stroke:#000000;stroke-width:0.85;stroke-linecap:round;stroke-linejoin:round;" d="M35.976,41.168V28.42"
/>
<path style="fill:none;stroke:#000000;stroke-width:0.85;stroke-linecap:round;stroke-linejoin:round;" d="M45.89,41.168V28.42"/>
<path style="fill:none;stroke:#000000;stroke-width:1.13;stroke-linecap:round;stroke-linejoin:round;" d="M52.989,52.489
l7.221-4.813"/>
<path style="fill:none;stroke:#000000;stroke-width:1.13;stroke-linecap:round;stroke-linejoin:round;" d="M9.046,52.489
l-7.221-4.813"/>
<path style="fill:none;stroke:#000000;stroke-width:0.85;stroke-linecap:round;stroke-linejoin:round;" d="M6.23,22.754h12.748
v-9.915h24.08v9.915h12.748"/>
<path style="fill:none;stroke:#000000;stroke-width:0.85;stroke-linecap:round;stroke-linejoin:round;" d="M0.565,14.729
l1.889-1.89h1.887l1.889,1.89v8.025"/>
<path style="fill:none;stroke:#000000;stroke-width:0.85;stroke-linecap:round;stroke-linejoin:round;" d="M61.472,14.729
l-1.89-1.89h-1.888l-1.889,1.89v8.025"/>
<path style="fill:none;stroke:#000000;stroke-width:1.13;stroke-linecap:round;stroke-linejoin:round;" d="M0.565,45.318V6.23"/>
<path style="fill:none;stroke:#000000;stroke-width:1.13;stroke-linecap:round;stroke-linejoin:round;" d="M61.472,45.318V6.23"/>
<path style="fill:none;stroke:#000000;stroke-width:1.13;stroke-linecap:round;stroke-linejoin:round;" d="M7.174,0.565h47.688"/>
<path style="fill:none;stroke:#000000;stroke-width:0.85;stroke-linecap:round;stroke-linejoin:round;" d="M4.341,3.397v9.442"/>
<path style="fill:none;stroke:#000000;stroke-width:0.85;stroke-linecap:round;stroke-linejoin:round;" d="M57.694,12.839V3.397"
/>
<path style="fill:none;stroke:#000000;stroke-width:1.13;stroke-linecap:round;stroke-linejoin:round;" d="M57.417,2.176
l4.055,4.054"/>
<path style="fill:none;stroke:#000000;stroke-width:1.13;stroke-linecap:round;stroke-linejoin:round;" d="M4.618,2.176
L0.565,6.23"/>
<path style="fill:none;stroke:#000000;stroke-width:0.85;stroke-linecap:round;stroke-linejoin:round;" d="M9.063,22.754V6.23"/>
<path style="fill:none;stroke:#000000;stroke-width:0.85;stroke-linecap:round;stroke-linejoin:round;" d="M52.972,22.754V6.23"/>
<path style="fill:none;stroke:#000000;stroke-width:0.85;stroke-linecap:round;stroke-linejoin:round;" d="M11.896,3.397H50.14"/>
<path style="fill:none;stroke:#000000;stroke-width:0.85;stroke-linecap:round;stroke-linejoin:round;" d="M24.998,12.839V7.174
h12.04v5.666"/>
<g ewd:pinNo="1">
<text transform="matrix(0.88 0 0 1 9.5225 36.7632)" style="enable-background:new    ;"><tspan x="0" y="0" style="font-family:'Arial'; font-size:6.63px;">1</tspan></text>
</g>
<g ewd:pinNo="2">
<text transform="matrix(0.88 0 0 1 19.437 36.7632)" style="enable-background:new    ;"><tspan x="0" y="0" style="font-family:'Arial'; font-size:6.63px;">2</tspan></text>
</g>
<g ewd:pinNo="3">
<text transform="matrix(0.88 0 0 1 29.3521 36.7632)" style="enable-background:new    ;"><tspan x="0" y="0" style="font-family:'Arial'; font-size:6.63px;">3</tspan></text>
</g>
<g ewd:pinNo="4">
<text transform="matrix(0.88 0 0 1 39.2676 36.7632)" style="enable-background:new    ;"><tspan x="0" y="0" style="font-family:'Arial'; font-size:6.63px;">4</tspan></text>
</g>
<g ewd:pinNo="5">
<text transform="matrix(0.88 0 0 1 49.1816 36.7632)" style="enable-background:new    ;"><tspan x="0" y="0" style="font-family:'Arial'; font-size:6.63px;">5</tspan></text>
</g>
</g>
</svg>
