﻿<?xml version="1.0"?>
<!DOCTYPE svg PUBLIC "-//W3C//DTD SVG 1.0//EN" "http://www.w3.org/TR/2001/REC-SVG-20010904/DTD/svg10.dtd"[
	<!ENTITY ns_flows "http://ns.adobe.com/Flows/1.0/">
	<!ENTITY ns_svg "http://www.w3.org/2000/svg">
	<!ENTITY ns_xlink "http://www.w3.org/1999/xlink">
	<!ENTITY st0 "fill:none;stroke:#000000;stroke-width:1.13;enable-background:new    ;">
	<!ENTITY st1 "fill:none;stroke:#000000;stroke-width:1.13;stroke-linecap:round;stroke-linejoin:round;">
	<!ENTITY st2 "font-size:6.63px;">
	<!ENTITY st3 "font-family:'Arial';">
	<!ENTITY st4 "fill:none;stroke:#000000;stroke-width:0.85;stroke-linecap:round;stroke-linejoin:round;">
	<!ATTLIST svg
		xmlns:ewd CDATA #FIXED "http://shcl.co.jp/ewd"
		xmlns:a CDATA #FIXED "http://ns.adobe.com/AdobeSVGViewerExtensions/3.0/"
		ewd:ver CDATA #IMPLIED>
	<!ATTLIST g
		ewd:pinNo CDATA #IMPLIED>
]>
<svg
height="86.69"
onload="call_execInitLoadProc_svg('connector')"
style="overflow:visible;enable-background:new 0 0 162.62 86.69"
viewBox="0 0 162.62 86.69"
width="162.62"
xml:space="preserve"
ewd:ver="L2.1"
xmlns="&ns_svg;"
xmlns:ewd="http://shcl.co.jp/ewd"
xmlns:a="http://ns.adobe.com/AdobeSVGViewerExtensions/3.0/"
xmlns:xlink="&ns_xlink;">
<script type="text/javascript" xlink:href="../../../../../system/js/ewd/fig/svgfig.js"/>
<g id="レイヤー_1">
<g>
<path style='&st0;' d='M33.43,9.07v-8.5h91.23v8.5'/>
<path style='&st1;' d='M162.05,24.94c0-1.88-1.52-3.4-3.4-3.4'/>
<path style='&st4;' d='M117.29,79.9c0.63,0,1.13-0.51,1.13-1.13'/>
<path style='&st4;' d='M158.65,69.13c0.94,0,1.74-0.33,2.4-1'/>
<path style='&st4;' d='M91.79,63.46c0,0.63,0.51,1.13,1.13,1.13'/>
<path style='&st1;' d='M90.66,21.54c-1.88,0-3.4,1.52-3.4,3.4'/>
<path style='&st4;' d='M130.89,78.76c0,0.63,0.51,1.13,1.13,1.13'/>
<path style='&st1;' d='M149.02,86.13c1.88,0,3.4-1.52,3.4-3.4'/>
<path style='&st4;' d='M140.52,81.71c0-1-0.81-1.81-1.81-1.81'/>
<path style='&st1;' d='M87.26,65.73c0,0.94,0.33,1.74,0.99,2.4'/>
<path style='&st1;' d='M96.89,82.73c0,1.88,1.52,3.4,3.4,3.4'/>
<path style='&st4;' d='M154.12,28.34c-0.63,0-1.13,0.51-1.13,1.13'/>
<path style='&st4;' d='M110.6,79.9c-1,0-1.81,0.81-1.81,1.81'/>
<path style='&st4;' d='M139.39,21.54c-0.63,0-1.13,0.51-1.13,1.13'/>
<path style='&st4;' d='M157.52,29.47c0-0.63-0.51-1.13-1.13-1.13'/>
<path style='&st4;' d='M156.38,64.6c0.63,0,1.13-0.51,1.13-1.13'/>
<path style='&st4;' d='M111.06,22.67c0-0.63-0.51-1.13-1.13-1.13'/>
<path style='&st4;' d='M96.33,29.47c0-0.63-0.51-1.13-1.13-1.13'/>
<path style='&st4;' d='M92.93,28.34c-0.63,0-1.13,0.51-1.13,1.13'/>
<path style='&st4;' d='M105.84,44.77c0-0.56-0.46-1.02-1.02-1.02'/>
<path style='&st4;' d='M104.83,43.75c-0.56,0-1.02,0.46-1.02,1.02'/>
<path style='&st4;' d='M103.81,44.77c0,0.56,0.46,1.02,1.02,1.02'/>
<path style='&st4;' d='M104.83,45.79c0.56,0,1.02-0.46,1.02-1.02'/>
<path style='&st4;' d='M105.59,44.77c0-0.42-0.34-0.76-0.76-0.76'/>
<path style='&st4;' d='M104.83,44c-0.42,0-0.76,0.34-0.76,0.76'/>
<path style='&st4;' d='M104.06,44.77c0,0.42,0.34,0.76,0.76,0.76'/>
<path style='&st4;' d='M104.83,45.53c0.42,0,0.76-0.34,0.76-0.76'/>
<path style='&st4;' d='M113.78,44.77c0-0.56-0.46-1.02-1.02-1.02'/>
<path style='&st4;' d='M112.76,43.75c-0.56,0-1.02,0.46-1.02,1.02'/>
<path style='&st4;' d='M111.74,44.77c0,0.56,0.46,1.02,1.02,1.02'/>
<path style='&st4;' d='M112.76,45.79c0.56,0,1.02-0.46,1.02-1.02'/>
<path style='&st4;' d='M113.52,44.77c0-0.42-0.34-0.76-0.77-0.76'/>
<path style='&st4;' d='M112.76,44c-0.42,0-0.76,0.34-0.76,0.76'/>
<path style='&st4;' d='M112,44.77c0,0.42,0.34,0.76,0.76,0.76'/>
<path style='&st4;' d='M112.76,45.53c0.42,0,0.77-0.34,0.77-0.76'/>
<path style='&st4;' d='M121.71,44.77c0-0.56-0.46-1.02-1.02-1.02'/>
<path style='&st4;' d='M120.69,43.75c-0.56,0-1.02,0.46-1.02,1.02'/>
<path style='&st4;' d='M119.67,44.77c0,0.56,0.46,1.02,1.02,1.02'/>
<path style='&st4;' d='M120.69,45.79c0.56,0,1.02-0.46,1.02-1.02'/>
<path style='&st4;' d='M121.45,44.77c0-0.42-0.34-0.76-0.76-0.76'/>
<path style='&st4;' d='M120.69,44c-0.42,0-0.76,0.34-0.76,0.76'/>
<path style='&st4;' d='M119.93,44.77c0,0.42,0.34,0.76,0.76,0.76'/>
<path style='&st4;' d='M120.69,45.53c0.42,0,0.76-0.34,0.76-0.76'/>
<path style='&st4;' d='M129.64,44.77c0-0.56-0.46-1.02-1.02-1.02'/>
<path style='&st4;' d='M128.62,43.75c-0.56,0-1.02,0.46-1.02,1.02'/>
<path style='&st4;' d='M127.6,44.77c0,0.56,0.46,1.02,1.02,1.02'/>
<path style='&st4;' d='M128.62,45.79c0.56,0,1.02-0.46,1.02-1.02'/>
<path style='&st4;' d='M129.39,44.77c0-0.42-0.34-0.76-0.76-0.76'/>
<path style='&st4;' d='M128.62,44c-0.42,0-0.76,0.34-0.76,0.76'/>
<path style='&st4;' d='M127.86,44.77c0,0.42,0.34,0.76,0.76,0.76'/>
<path style='&st4;' d='M128.62,45.53c0.42,0,0.76-0.34,0.76-0.76'/>
<path style='&st4;' d='M137.57,44.77c0-0.56-0.46-1.02-1.02-1.02'/>
<path style='&st4;' d='M136.55,43.75c-0.56,0-1.02,0.46-1.02,1.02'/>
<path style='&st4;' d='M135.53,44.77c0,0.56,0.46,1.02,1.02,1.02'/>
<path style='&st4;' d='M136.55,45.79c0.56,0,1.02-0.46,1.02-1.02'/>
<path style='&st4;' d='M137.32,44.77c0-0.42-0.34-0.76-0.76-0.76'/>
<path style='&st4;' d='M136.55,44c-0.42,0-0.76,0.34-0.76,0.76'/>
<path style='&st4;' d='M135.79,44.77c0,0.42,0.34,0.76,0.76,0.76'/>
<path style='&st4;' d='M136.55,45.53c0.42,0,0.76-0.34,0.76-0.76'/>
<path style='&st4;' d='M145.5,44.77c0-0.56-0.46-1.02-1.02-1.02'/>
<path style='&st4;' d='M144.49,43.75c-0.56,0-1.02,0.46-1.02,1.02'/>
<path style='&st4;' d='M143.47,44.77c0,0.56,0.46,1.02,1.02,1.02'/>
<path style='&st4;' d='M144.49,45.79c0.56,0,1.02-0.46,1.02-1.02'/>
<path style='&st4;' d='M145.25,44.77c0-0.42-0.34-0.76-0.76-0.76'/>
<path style='&st4;' d='M144.49,44c-0.42,0-0.76,0.34-0.76,0.76'/>
<path style='&st4;' d='M143.72,44.77c0,0.42,0.34,0.76,0.76,0.76'/>
<path style='&st4;' d='M144.49,45.53c0.42,0,0.76-0.34,0.76-0.76'/>
<path style='&st4;' d='M145.5,54.97c0-0.56-0.46-1.02-1.02-1.02'/>
<path style='&st4;' d='M144.49,53.95c-0.56,0-1.02,0.46-1.02,1.02'/>
<path style='&st4;' d='M143.47,54.97c0,0.56,0.46,1.02,1.02,1.02'/>
<path style='&st4;' d='M144.49,55.98c0.56,0,1.02-0.46,1.02-1.02'/>
<path style='&st4;' d='M145.25,54.97c0-0.42-0.34-0.76-0.76-0.76'/>
<path style='&st4;' d='M144.49,54.2c-0.42,0-0.76,0.34-0.76,0.76'/>
<path style='&st4;' d='M143.72,54.97c0,0.42,0.34,0.76,0.76,0.76'/>
<path style='&st4;' d='M144.49,55.73c0.42,0,0.76-0.34,0.76-0.76'/>
<path style='&st4;' d='M137.57,54.97c0-0.56-0.46-1.02-1.02-1.02'/>
<path style='&st4;' d='M136.55,53.95c-0.56,0-1.02,0.46-1.02,1.02'/>
<path style='&st4;' d='M135.53,54.97c0,0.56,0.46,1.02,1.02,1.02'/>
<path style='&st4;' d='M136.55,55.98c0.56,0,1.02-0.46,1.02-1.02'/>
<path style='&st4;' d='M137.32,54.97c0-0.42-0.34-0.76-0.76-0.76'/>
<path style='&st4;' d='M136.55,54.2c-0.42,0-0.76,0.34-0.76,0.76'/>
<path style='&st4;' d='M135.79,54.97c0,0.42,0.34,0.76,0.76,0.76'/>
<path style='&st4;' d='M136.55,55.73c0.42,0,0.76-0.34,0.76-0.76'/>
<path style='&st4;' d='M129.64,54.97c0-0.56-0.46-1.02-1.02-1.02'/>
<path style='&st4;' d='M128.62,53.95c-0.56,0-1.02,0.46-1.02,1.02'/>
<path style='&st4;' d='M127.6,54.97c0,0.56,0.46,1.02,1.02,1.02'/>
<path style='&st4;' d='M128.62,55.98c0.56,0,1.02-0.46,1.02-1.02'/>
<path style='&st4;' d='M129.39,54.97c0-0.42-0.34-0.76-0.76-0.76'/>
<path style='&st4;' d='M128.62,54.2c-0.42,0-0.76,0.34-0.76,0.76'/>
<path style='&st4;' d='M127.86,54.97c0,0.42,0.34,0.76,0.76,0.76'/>
<path style='&st4;' d='M128.62,55.73c0.42,0,0.76-0.34,0.76-0.76'/>
<path style='&st4;' d='M121.71,54.97c0-0.56-0.46-1.02-1.02-1.02'/>
<path style='&st4;' d='M120.69,53.95c-0.56,0-1.02,0.46-1.02,1.02'/>
<path style='&st4;' d='M119.67,54.97c0,0.56,0.46,1.02,1.02,1.02'/>
<path style='&st4;' d='M120.69,55.98c0.56,0,1.02-0.46,1.02-1.02'/>
<path style='&st4;' d='M121.45,54.97c0-0.42-0.34-0.76-0.76-0.76'/>
<path style='&st4;' d='M120.69,54.2c-0.42,0-0.76,0.34-0.76,0.76'/>
<path style='&st4;' d='M119.93,54.97c0,0.42,0.34,0.76,0.76,0.76'/>
<path style='&st4;' d='M120.69,55.73c0.42,0,0.76-0.34,0.76-0.76'/>
<path style='&st4;' d='M113.78,54.97c0-0.56-0.46-1.02-1.02-1.02'/>
<path style='&st4;' d='M112.76,53.95c-0.56,0-1.02,0.46-1.02,1.02'/>
<path style='&st4;' d='M111.74,54.97c0,0.56,0.46,1.02,1.02,1.02'/>
<path style='&st4;' d='M112.76,55.98c0.56,0,1.02-0.46,1.02-1.02'/>
<path style='&st4;' d='M113.52,54.97c0-0.42-0.34-0.76-0.77-0.76'/>
<path style='&st4;' d='M112.76,54.2c-0.42,0-0.76,0.34-0.76,0.76'/>
<path style='&st4;' d='M112,54.97c0,0.42,0.34,0.76,0.76,0.76'/>
<path style='&st4;' d='M112.76,55.73c0.42,0,0.77-0.34,0.77-0.76'/>
<path style='&st4;' d='M105.84,54.97c0-0.56-0.46-1.02-1.02-1.02'/>
<path style='&st4;' d='M104.83,53.95c-0.56,0-1.02,0.46-1.02,1.02'/>
<path style='&st4;' d='M103.81,54.97c0,0.56,0.46,1.02,1.02,1.02'/>
<path style='&st4;' d='M104.83,55.98c0.56,0,1.02-0.46,1.02-1.02'/>
<path style='&st4;' d='M105.59,54.97c0-0.42-0.34-0.76-0.76-0.76'/>
<path style='&st4;' d='M104.83,54.2c-0.42,0-0.76,0.34-0.76,0.76'/>
<path style='&st4;' d='M104.06,54.97c0,0.42,0.34,0.76,0.76,0.76'/>
<path style='&st4;' d='M104.83,55.73c0.42,0,0.76-0.34,0.76-0.76'/>
<path style='&st1;' d='M154.9,75.93c1.3,0,2.4-0.67,3.01-1.82'/>
<path style='&st1;' d='M91.41,74.11c0.6,1.15,1.71,1.81,3.01,1.81'/>
<path style='&st1;' d='M161.05,68.14c0.66-0.66,1-1.46,1-2.4'/>
<path style='&st4;' d='M88.26,68.14c0.66,0.66,1.46,1,2.4,1'/>
<path style='&st4;' d='M120.12,72.53c0.63,0,1.13-0.51,1.13-1.13'/>
<path style='&st4;' d='M128.06,71.4c0,0.63,0.51,1.13,1.13,1.13'/>
<path style='&st1;' d='M162.05,24.94v40.79'/>
<path style='&st1;' d='M87.26,24.94v40.79'/>
<path style='&st4;' d='M120.12,26.07v2.27h9.06v-2.27'/>
<path style='&st4;' d='M114.46,26.07h20.39'/>
<path style='&st4;' d='M145.62,27.2v4.53h5.67V27.2H145.62'/>
<path style='&st4;' d='M98.03,27.2v4.53h5.67V27.2H98.03'/>
<path style='&st4;' d='M100.86,39.67v20.4h47.59v-20.4H100.86'/>
<path style='&st4;' d='M100.86,49.87h47.59'/>
<path style='&st4;' d='M140.52,39.67v20.4'/>
<path style='&st4;' d='M132.59,39.67v20.4'/>
<path style='&st4;' d='M124.66,39.67v20.4'/>
<path style='&st4;' d='M116.72,39.67v20.4'/>
<path style='&st4;' d='M108.79,39.67v20.4'/>
<path style='&st4;' d='M111.06,34h3.4'/>
<path style='&st4;' d='M134.85,34h3.4'/>
<path style='&st4;' d='M143.92,34h9.06'/>
<path style='&st4;' d='M96.33,34h9.06'/>
<path style='&st4;' d='M111.06,22.67V34'/>
<path style='&st4;' d='M143.92,21.54V34'/>
<path style='&st4;' d='M105.39,21.54h4.53'/>
<path style='&st4;' d='M105.39,34V21.54'/>
<path style='&st4;' d='M139.39,21.54h4.53'/>
<path style='&st4;' d='M138.25,34V22.67'/>
<path style='&st4;' d='M91.79,29.47v33.99'/>
<path style='&st4;' d='M92.93,64.6h63.46'/>
<path style='&st4;' d='M157.52,29.47v33.99'/>
<path style='&st4;' d='M114.46,34V23.8h20.39V34'/>
<path style='&st4;' d='M154.12,28.34h2.27'/>
<path style='&st4;' d='M152.98,34v-4.53'/>
<path style='&st4;' d='M96.33,29.47V34'/>
<path style='&st4;' d='M92.93,28.34h2.27'/>
<path style='&st4;' d='M119.56,69.13h10.2'/>
<path style='&st1;' d='M96.89,75.93v6.8'/>
<path style='&st1;' d='M100.29,86.13h8.5'/>
<path style='&st1;' d='M152.42,75.93v6.8'/>
<path style='&st1;' d='M149.02,86.13h-8.5'/>
<path style='&st1;' d='M100.86,18.14h47.59'/>
<path style='&st4;' d='M90.66,69.13h67.99'/>
<path style='&st1;' d='M152.98,21.54l-4.53-3.4'/>
<path style='&st1;' d='M108.79,86.13h31.73'/>
<path style='&st4;' d='M138.71,79.9h-6.69'/>
<path style='&st4;' d='M140.52,86.13v-4.42'/>
<path style='&st1;' d='M90.66,21.54h5.67'/>
<path style='&st4;' d='M108.79,86.13v-4.42'/>
<path style='&st1;' d='M152.98,21.54h5.67'/>
<path style='&st4;' d='M130.89,78.76v-2.83'/>
<path style='&st4;' d='M110.6,79.9h6.69'/>
<path style='&st4;' d='M118.42,78.76v-2.83'/>
<path style='&st1;' d='M96.33,21.54l4.53-3.4'/>
<path style='&st4;' d='M108.92,81.03h31.46'/>
<path style='&st4;' d='M122.39,81.03v3.4h4.53v-3.4'/>
<path style='&st4;' d='M91.79,39.67h3.4v13.6h-3.4'/>
<path style='&st4;' d='M157.52,39.67h-3.4v13.6h3.4'/>
<path style='&st4;' d='M120.12,81.03V78.2h9.06v2.83'/>
<path style='&st4;' d='M91.79,57.8h3.4v6.8'/>
<path style='&st4;' d='M157.52,57.8h-3.4v6.8'/>
<path style='&st4;' d='M118.99,30.6V34h11.33v-3.4H118.99'/>
<path style='&st4;' d='M104.57,45.48v-1.44h0.52v1.44'/>
<path style='&st4;' d='M112.5,45.48v-1.44h0.52v1.44'/>
<path style='&st4;' d='M120.43,45.48v-1.44h0.52v1.44'/>
<path style='&st4;' d='M128.36,45.48v-1.44h0.52v1.44'/>
<path style='&st4;' d='M136.29,45.48v-1.44h0.52v1.44'/>
<path style='&st4;' d='M144.23,45.48v-1.44h0.52v1.44'/>
<path style='&st4;' d='M144.23,55.68v-1.44h0.52v1.44'/>
<path style='&st4;' d='M136.29,55.68v-1.44h0.52v1.44'/>
<path style='&st4;' d='M128.36,55.68v-1.44h0.52v1.44'/>
<path style='&st4;' d='M120.43,55.68v-1.44h0.52v1.44'/>
<path style='&st4;' d='M112.5,55.68v-1.44h0.52v1.44'/>
<path style='&st4;' d='M104.57,55.68v-1.44h0.52v1.44'/>
<path style='&st4;' d='M104.83,44.77h7.93'/>
<path style='&st4;' d='M120.69,44.77h7.93'/>
<path style='&st4;' d='M136.55,44.77h7.93'/>
<path style='&st4;' d='M104.83,54.97h15.87'/>
<path style='&st4;' d='M128.62,54.97h15.86'/>
<path style='&st4;' d='M122.39,82.73h4.53'/>
<path style='&st4;' d='M96.89,75.93h55.52'/>
<path style='&st1;' d='M94.41,75.93h2.48'/>
<path style='&st1;' d='M152.42,75.93h2.48'/>
<path style='&st1;' d='M88.26,68.14l3.15,5.98'/>
<path style='&st1;' d='M161.05,68.14l-3.15,5.98'/>
<path style='&st4;' d='M101.43,69.13v6.8'/>
<path style='&st4;' d='M147.88,69.13v6.8'/>
<path style='&st4;' d='M129.19,72.53h18.7'/>
<path style='&st4;' d='M128.06,69.13v2.27'/>
<path style='&st4;' d='M101.43,72.53h18.7'/>
<path style='&st4;' d='M121.26,69.13v2.27'/>
<path style='&st1;' d='M66.29,23.8c0-3.13-2.54-5.67-5.67-5.67'/>
<path style='&st1;' d='M57.8,73.66c1.88,0,3.48-0.66,4.81-1.99'/>
<path style='&st1;' d='M4.24,71.67c1.33,1.33,2.93,1.99,4.81,1.99'/>
<path style='&st1;' d='M6.23,18.14c-3.13,0-5.67,2.54-5.67,5.67'/>
<path style='&st4;' d='M49.29,26.07c0-0.63-0.51-1.13-1.13-1.13'/>
<path style='&st4;' d='M47.02,24.94c-0.63,0-1.13,0.51-1.13,1.13'/>
<path style='&st4;' d='M24.36,36.27c0.63,0,1.13-0.51,1.13-1.13'/>
<path style='&st4;' d='M18.7,24.94c-0.63,0-1.13,0.51-1.13,1.13'/>
<path style='&st4;' d='M20.96,26.07c0-0.63-0.51-1.13-1.13-1.13'/>
<path style='&st4;' d='M44.76,36.27c0.63,0,1.13-0.51,1.13-1.13'/>
<path style='&st4;' d='M20.96,35.14c0,0.63,0.51,1.13,1.13,1.13'/>
<path style='&st4;' d='M41.36,35.14c0,0.63,0.51,1.13,1.13,1.13'/>
<path style='&st4;' d='M49.29,35.14c0,0.63,0.51,1.13,1.13,1.13'/>
<path style='&st4;' d='M16.43,36.27c0.63,0,1.13-0.51,1.13-1.13'/>
<path style='&st4;' d='M5.1,35.14c0,0.63,0.51,1.13,1.13,1.13'/>
<path style='&st4;' d='M60.62,36.27c0.63,0,1.13-0.51,1.13-1.13'/>
<path style='&st4;' d='M66.29,29.47c0-0.63-0.51-1.13-1.13-1.13'/>
<path style='&st4;' d='M1.7,28.34c-0.63,0-1.13,0.51-1.13,1.13'/>
<path style='&st4;' d='M5.1,29.47c0-0.63-0.51-1.13-1.13-1.13'/>
<path style='&st4;' d='M62.89,28.34c-0.63,0-1.13,0.51-1.13,1.13'/>
<path style='&st1;' d='M0.56,42.5v17'/>
<path style='&st1;' d='M66.29,42.5v17'/>
<path style='&st1;' d='M66.29,35.14v7.37'/>
<path style='&st4;' d='M17.56,51v10.2h31.73V51H17.56'/>
<path style='&st4;' d='M25.49,40.8v20.4'/>
<path style='&st4;' d='M33.43,40.8v20.4'/>
<path style='&st4;' d='M41.36,40.8v20.4'/>
<path style='&st1;' d='M0.56,26.07V23.8'/>
<path style='&st1;' d='M66.29,23.8v2.27'/>
<path style='&st1;' d='M6.23,18.14h54.39'/>
<path style='&st4;' d='M0.56,30.6H5.1'/>
<path style='&st4;' d='M0.56,65.73h65.72'/>
<path style='&st1;' d='M0.56,26.07V42.5'/>
<path style='&st4;' d='M61.75,30.6h4.53'/>
<path style='&st1;' d='M66.29,59.5v6.23'/>
<path style='&st1;' d='M0.56,59.5v6.23'/>
<path style='&st4;' d='M23.23,27.2h20.4'/>
<path style='&st4;' d='M62.89,65.73v3.4'/>
<path style='&st1;' d='M66.29,30.6v4.53'/>
<path style='&st4;' d='M3.96,65.73v3.4'/>
<path style='&st1;' d='M66.29,26.07v4.53'/>
<path style='&st4;' d='M25.49,31.74h-2.27V23.8h20.4v7.93h-2.27'/>
<path style='&st4;' d='M25.49,30.6h15.86'/>
<path style='&st4;' d='M30.03,29.47v-3.4h6.8v3.4'/>
<path style='&st4;' d='M1.7,69.13h63.46'/>
<path style='&st4;' d='M20.96,26.07v-4.53h24.93v4.53'/>
<path style='&st1;' d='M65.15,69.13l-2.54,2.54'/>
<path style='&st1;' d='M1.7,69.13l2.54,2.54'/>
<path style='&st1;' d='M9.05,73.66H57.8'/>
<path style='&st4;' d='M50.42,36.27h10.2'/>
<path style='&st1;' d='M66.29,65.73l-1.13,3.4'/>
<path style='&st4;' d='M22.09,36.27h2.27'/>
<path style='&st1;' d='M0.56,65.73l1.13,3.4'/>
<path style='&st4;' d='M1.7,28.34h2.27'/>
<path style='&st4;' d='M17.56,51V40.8h31.73V51'/>
<path style='&st4;' d='M49.29,40.8h7.93'/>
<path style='&st4;' d='M49.29,61.2h7.93'/>
<path style='&st4;' d='M57.22,40.8v20.4'/>
<path style='&st4;' d='M9.63,40.8v20.4'/>
<path style='&st4;' d='M49.29,51h7.93'/>
<path style='&st4;' d='M9.63,51h7.93'/>
<path style='&st4;' d='M17.56,40.8H9.63'/>
<path style='&st4;' d='M17.56,61.2H9.63'/>
<path style='&st4;' d='M3.96,67.43h58.92'/>
<path style='&st4;' d='M17.56,27.2h3.4'/>
<path style='&st4;' d='M45.89,27.2h3.4'/>
<path style='&st4;' d='M47.02,24.94h1.13'/>
<path style='&st4;' d='M49.29,26.07v9.06'/>
<path style='&st4;' d='M45.89,26.07v9.06'/>
<path style='&st4;' d='M20.96,26.07v9.06'/>
<path style='&st4;' d='M19.83,24.94H18.7'/>
<path style='&st4;' d='M17.56,26.07v9.06'/>
<path style='&st4;' d='M42.49,36.27h2.27'/>
<path style='&st4;' d='M25.49,35.14v-5.67h4.53'/>
<path style='&st4;' d='M36.83,29.47h4.53v5.67'/>
<path style='&st4;' d='M6.23,36.27h10.2'/>
<path style='&st4;' d='M62.89,28.34h2.27'/>
<path style='&st4;' d='M5.1,29.47v5.67'/>
<path style='&st4;' d='M61.75,35.14v-5.67'/>
<path style='&st4;' d='M66.29,43.07h-4.53v12.46h4.53'/>
<path style='&st4;' d='M0.56,43.07H5.1v12.46H0.56'/>
<path style='&st4;' d='M66.29,60.06h-4.53v3.4h4.53'/>
<path style='&st4;' d='M0.56,60.06H5.1v3.4H0.56'/>
    <g ewd:pinNo="12">
        <text transform="matrix(0.88 0 0 1 49.8198 58.522)"><tspan x='0' y='0' style='&st3; &st2;'>12</tspan></text>
    </g>
    <g ewd:pinNo="11">
        <text transform="matrix(0.88 0 0 1 42.1709 58.522)"><tspan x='0' y='0' style='&st3; &st2;'>11</tspan></text>
    </g>
    <g ewd:pinNo="10">
        <text transform="matrix(0.88 0 0 1 33.7817 58.522)"><tspan x='0' y='0' style='&st3; &st2;'>10</tspan></text>
    </g>
    <g ewd:pinNo="9">
        <text transform="matrix(0.88 0 0 1 27.7441 58.522)"><tspan x='0' y='0' style='&st3; &st2;'>9</tspan></text>
    </g>
    <g ewd:pinNo="7">
        <text transform="matrix(0.88 0 0 1 12.0142 58.522)"><tspan x='0' y='0' style='&st3; &st2;'>7</tspan></text>
    </g>
    <g ewd:pinNo="8">
        <text transform="matrix(0.88 0 0 1 20.085 58.522)"><tspan x='0' y='0' style='&st3; &st2;'>8</tspan></text>
    </g>
    <g ewd:pinNo="6">
        <text transform="matrix(0.88 0 0 1 51.647 48.6626)"><tspan x='0' y='0' style='&st3; &st2;'>6</tspan></text>
    </g>
    <g ewd:pinNo="5">
        <text transform="matrix(0.88 0 0 1 43.7817 48.6626)"><tspan x='0' y='0' style='&st3; &st2;'>5</tspan></text>
    </g>
    <g ewd:pinNo="4">
        <text transform="matrix(0.88 0 0 1 35.6089 48.6626)"><tspan x='0' y='0' style='&st3; &st2;'>4</tspan></text>
    </g>
    <g ewd:pinNo="3">
        <text transform="matrix(0.88 0 0 1 27.7441 48.6626)"><tspan x='0' y='0' style='&st3; &st2;'>3</tspan></text>
    </g>
    <g ewd:pinNo="1">
        <text transform="matrix(0.88 0 0 1 12.0142 48.6626)"><tspan x='0' y='0' style='&st3; &st2;'>1</tspan></text>
    </g>
    <g ewd:pinNo="2">
        <text transform="matrix(0.88 0 0 1 20.085 48.6626)"><tspan x='0' y='0' style='&st3; &st2;'>2</tspan></text>
    </g>
</g>
</g>
</svg>
